<?xml version="1.0" standalone="no"?>
<!DOCTYPE svg PUBLIC "-//W3C//DTD SVG 1.1//EN" "http://www.w3.org/Graphics/SVG/1.1/DTD/svg11.dtd" >
<svg xmlns="http://www.w3.org/2000/svg">
<metadata></metadata>
<defs>
<font id="proxima_nova_rgregular" horiz-adv-x="230" >
<font-face units-per-em="1000" ascent="790" descent="-210" />
<missing-glyph horiz-adv-x="258" />
<glyph horiz-adv-x="0" />
<glyph horiz-adv-x="0" />
<glyph horiz-adv-x="333" />
<glyph unicode="&#xd;" horiz-adv-x="0" />
<glyph unicode=" "  horiz-adv-x="258" />
<glyph unicode="&#x09;" horiz-adv-x="258" />
<glyph unicode="&#xa0;" horiz-adv-x="258" />
<glyph unicode="!" d="M60 45q0 23 16 39t39 16t39 -16t16 -39q0 -22 -16.5 -38.5t-38.5 -16.5t-38.5 16.5t-16.5 38.5zM68 667h94l-16 -480h-62z" />
<glyph unicode="&#x22;" horiz-adv-x="343" d="M54 631q0 19 13 32.5t32 13.5t32.5 -13.5t13.5 -32.5l-27 -219h-37q-27 205 -27 219zM199 631q0 19 13.5 32.5t32.5 13.5t32 -13.5t13 -32.5l-27 -219h-37q-27 205 -27 219z" />
<glyph unicode="#" horiz-adv-x="590" d="M22 181l17 53h107l66 199h-108l16 52h110l60 182h62l-60 -182h110l60 182h61l-61 -182h107l-15 -52h-109l-67 -199h111l-16 -53h-113l-60 -181h-61l61 181h-111l-60 -181h-62l61 181h-106zM207 234h110l66 199h-110z" />
<glyph unicode="$" horiz-adv-x="593" d="M42 94l49 63q73 -82 180 -94v244q-38 10 -61.5 18t-54.5 23.5t-49 33.5t-30.5 46t-12.5 64q0 77 58 128t150 56v92h61v-93q121 -12 197 -91l-50 -61q-59 63 -147 76v-217q47 -13 78 -25.5t65.5 -35t51.5 -57t17 -80.5q0 -76 -52 -131.5t-160 -63.5v-89h-61v89 q-144 8 -229 105zM149 497q0 -38 31 -59.5t91 -39.5v204q-54 -4 -88 -32.5t-34 -72.5zM332 63q65 7 95.5 40t30.5 74q0 45 -32.5 70t-93.5 43v-227z" />
<glyph unicode="%" horiz-adv-x="731" d="M31 511q0 71 45 118.5t115 47.5q71 0 116.5 -47.5t45.5 -118.5q0 -70 -45.5 -116.5t-116.5 -46.5t-115.5 46.5t-44.5 116.5zM91 511q0 -48 28 -80.5t72 -32.5t73 32.5t29 80.5q0 50 -28.5 82.5t-73.5 32.5q-44 0 -72 -32.5t-28 -82.5zM128 0l426 667h55l-427 -667h-54z M379 151q0 71 45 118.5t115 47.5q71 0 116 -47.5t45 -118.5q0 -70 -45 -116.5t-116 -46.5t-115.5 46.5t-44.5 116.5zM438 151q0 -48 28.5 -80.5t72.5 -32.5t73 32.5t29 80.5q0 50 -28.5 82.5t-73.5 32.5t-73 -32.5t-28 -82.5z" />
<glyph unicode="&#x26;" horiz-adv-x="641" d="M36 174q0 71 39 116t108 82q-51 87 -51 150q0 66 48.5 110.5t119.5 44.5q67 0 109 -34.5t42 -96.5q0 -36 -13 -64.5t-42 -52t-50.5 -36.5t-64.5 -35q32 -44 77 -95q36 -43 79 -89q44 65 72 152l65 -28q-49 -114 -91 -172q50 -52 130 -126h-104q-30 26 -73 70 q-82 -82 -192 -82q-91 0 -149.5 48.5t-58.5 137.5zM117 179q0 -60 39.5 -94.5t94.5 -34.5q74 0 140 66q-66 69 -92 101q-46 53 -84 106q-47 -29 -72.5 -62.5t-25.5 -81.5zM210 521q0 -47 40 -115q65 32 98.5 62t33.5 75q0 36 -22 55.5t-57 19.5q-39 0 -66 -27.5t-27 -69.5z " />
<glyph unicode="'" horiz-adv-x="199" d="M54 631q0 19 13 32.5t32 13.5t32.5 -13.5t13.5 -32.5l-27 -219h-37q-27 205 -27 219z" />
<glyph unicode="(" horiz-adv-x="248" d="M44 243q0 248 141 442l45 -34q-53 -105 -78.5 -198t-25.5 -210t25.5 -210.5t78.5 -196.5l-45 -35q-141 193 -141 442z" />
<glyph unicode=")" horiz-adv-x="248" d="M17 -164q53 103 79 196.5t26 210.5q0 118 -26 211t-79 197l45 34q142 -193 142 -442q0 -250 -142 -442z" />
<glyph unicode="*" horiz-adv-x="340" d="M34 481l102 52l-102 52l22 39l96 -62l-5 115h46l-6 -115l96 62l23 -39l-102 -52l102 -52l-23 -40l-96 63l6 -115h-46l5 115l-96 -63z" />
<glyph unicode="+" horiz-adv-x="499" d="M29 311v52h192v207h57v-207h192v-52h-192v-213h-57v213h-192z" />
<glyph unicode="," d="M57 -96q25 16 43.5 42.5t21.5 50.5q-4 -2 -14 -2q-21 0 -34.5 14.5t-13.5 36.5t15.5 38t37.5 16q26 0 44.5 -20.5t18.5 -55.5q0 -44 -23 -84.5t-59 -66.5z" />
<glyph unicode="-" horiz-adv-x="300" d="M30 209v66h240v-66h-240z" />
<glyph unicode="." d="M60 45q0 23 16 39t39 16t39 -16t16 -39t-16 -39t-39 -16t-39 16t-16 39z" />
<glyph unicode="/" horiz-adv-x="296" d="M0 -20l237 707h59l-237 -707h-59z" />
<glyph unicode="0" horiz-adv-x="612" d="M51 333q0 64 14.5 123t44 109.5t80 81t116.5 30.5q65 0 116 -30.5t80.5 -81t44 -109.5t14.5 -123t-14.5 -123t-44 -110t-80.5 -81.5t-116 -30.5q-66 0 -116.5 30.5t-80 81.5t-44 110t-14.5 123zM136 333q0 -72 15 -130t55 -99.5t100 -41.5t100 41.5t55 99.5t15 130 t-15 130t-55 99t-100 41t-100 -41t-55 -99t-15 -130z" />
<glyph unicode="1" horiz-adv-x="339" d="M21 495l167 172h73v-667h-83v557l-107 -113z" />
<glyph unicode="2" horiz-adv-x="588" d="M53 572q38 50 99.5 77.5t132.5 27.5q91 0 157.5 -51t66.5 -145q0 -93 -80 -185.5t-244 -221.5h327v-74h-458v66q104 82 161.5 130.5t111 103t75.5 97t22 84.5q0 60 -41 91t-98 31q-115 0 -181 -84z" />
<glyph unicode="3" horiz-adv-x="557" d="M29 98l49 52q30 -40 79 -64t107 -24q73 0 114.5 33.5t41.5 91.5q0 60 -44.5 89t-121.5 29q-59 0 -69 -1v76q11 -1 69 -1q68 0 111.5 27.5t43.5 82.5q0 53 -42.5 83.5t-106.5 30.5q-101 0 -176 -81l-46 52q85 103 228 103q99 0 162.5 -47.5t63.5 -130.5q0 -66 -44 -105.5 t-100 -49.5q55 -5 104.5 -48t49.5 -116q0 -85 -64 -138.5t-172 -53.5q-80 0 -142 31t-95 79z" />
<glyph unicode="4" horiz-adv-x="558" d="M32 169v69l286 429h114v-425h94v-73h-94v-169h-83v169h-317zM115 242h234v348z" />
<glyph unicode="5" horiz-adv-x="590" d="M66 95l51 55q69 -88 184 -88q68 0 111 41t43 102q0 65 -42.5 104.5t-110.5 39.5q-90 0 -154 -63l-61 21v360h408v-74h-325v-232q60 60 156 60q88 0 150 -57.5t62 -155.5q0 -100 -67 -160t-170 -60q-154 0 -235 107z" />
<glyph unicode="6" horiz-adv-x="591" d="M51 332q0 94 28 170t90.5 125.5t152.5 49.5q115 0 185 -80l-42 -62q-58 68 -143 68q-62 0 -105.5 -39t-63 -96.5t-19.5 -126.5q0 -17 1 -26q25 40 77.5 72t111.5 32q95 0 156.5 -55.5t61.5 -157.5q0 -91 -64 -154.5t-170 -63.5q-67 0 -118 28t-80.5 76.5t-44 109 t-14.5 130.5zM137 247q7 -74 48 -129.5t120 -55.5q72 0 112.5 43.5t40.5 97.5q0 70 -43 107t-111 37q-49 0 -94 -27.5t-73 -72.5z" />
<glyph unicode="7" horiz-adv-x="515" d="M31 593v74h455v-57l-273 -610h-92l269 593h-359z" />
<glyph unicode="8" horiz-adv-x="581" d="M52 169q0 63 45.5 109t113.5 66q-64 18 -106 58.5t-42 101.5q0 84 68 128.5t160 44.5t160.5 -44.5t68.5 -128.5q0 -61 -42 -101.5t-107 -58.5q68 -20 113.5 -66t45.5 -109q0 -82 -68.5 -131.5t-170.5 -49.5t-170.5 49t-68.5 132zM135 178q0 -52 45.5 -84t110.5 -32 q64 0 109.5 32t45.5 84q0 40 -31.5 70.5t-64 43t-59.5 15.5q-27 -3 -59.5 -15.5t-64.5 -43t-32 -70.5zM146 493q0 -28 16 -50.5t42 -35t46.5 -19t40.5 -10.5q20 3 40.5 10t46.5 19.5t42 35t16 50.5q0 50 -41.5 80t-103.5 30q-63 0 -104 -30t-41 -80z" />
<glyph unicode="9" horiz-adv-x="591" d="M49 460q0 90 64 154t169 64q68 0 119 -28t80.5 -77t44 -109t14.5 -131q0 -94 -28 -169.5t-90.5 -125t-152.5 -49.5q-115 0 -185 80l42 62q58 -68 143 -68q64 0 108 40t62 97t18 124q0 18 -1 27q-25 -40 -77 -72t-111 -32q-95 0 -157 55.5t-62 157.5zM133 463 q0 -70 43 -107t111 -37q49 0 94.5 27t71.5 72q-6 74 -47 130t-120 56q-71 0 -112 -44t-41 -97z" />
<glyph unicode=":" d="M60 45q0 23 16 39t39 16t39 -16t16 -39t-16 -39t-39 -16t-39 16t-16 39zM60 435q0 23 16 39t39 16t39 -16t16 -39t-16 -39t-39 -16t-39 16t-16 39z" />
<glyph unicode=";" d="M57 -95q24 16 43 43t22 51q-6 -3 -14 -3q-21 0 -34.5 14.5t-13.5 36.5q0 23 15.5 39t37.5 16q26 0 44.5 -20.5t18.5 -55.5q0 -45 -23 -85.5t-59 -65.5zM60 435q0 23 16 39t39 16t39 -16t16 -39q0 -22 -16.5 -38.5t-38.5 -16.5t-38.5 16.5t-16.5 38.5z" />
<glyph unicode="&#x3c;" horiz-adv-x="499" d="M29 308v53l441 219v-63l-377 -183l377 -182v-62z" />
<glyph unicode="=" horiz-adv-x="499" d="M29 211v52h441v-52h-441zM29 404v53h441v-53h-441z" />
<glyph unicode="&#x3e;" horiz-adv-x="499" d="M29 90v62l376 182l-376 183v63l441 -219v-53z" />
<glyph unicode="?" horiz-adv-x="462" d="M18 575q79 102 217 102q89 0 142.5 -44.5t53.5 -110.5q0 -51 -30.5 -90.5t-66.5 -60.5t-66.5 -50t-30.5 -61q0 -28 27 -49l-61 -26q-39 33 -39 81q0 30 13.5 55t33.5 41t43.5 33.5t43.5 32.5t33.5 36t13.5 46q0 40 -30.5 66.5t-87.5 26.5q-97 0 -159 -82zM169 45 q0 23 16.5 39t38.5 16t38.5 -16t16.5 -39t-16.5 -39t-38.5 -16t-38.5 16t-16.5 39z" />
<glyph unicode="@" horiz-adv-x="783" d="M35 244q0 160 119.5 277t277.5 117q139 0 227 -91.5t88 -225.5q0 -111 -52 -173.5t-121 -62.5q-40 0 -64.5 23.5t-26.5 57.5l-1 6q-27 -38 -69.5 -62.5t-88.5 -24.5q-69 0 -111 45t-42 118q0 102 72 176.5t163 74.5q46 0 79.5 -22t48.5 -56l13 62h68l-57 -271 q-2 -12 -2 -21q0 -25 13.5 -38.5t33.5 -13.5q38 0 73 45t35 137q0 124 -78.5 203.5t-204.5 79.5q-144 0 -251.5 -108.5t-107.5 -249.5q0 -121 81.5 -202t205.5 -81q97 0 186 56l18 -26q-98 -63 -208 -63q-136 0 -226.5 90.5t-90.5 223.5zM242 252q0 -49 27.5 -80t74.5 -31 q87 0 149 90l29 138q-10 29 -36.5 51.5t-66.5 22.5q-73 0 -125 -58.5t-52 -132.5z" />
<glyph unicode="A" horiz-adv-x="658" d="M9 0l268 667h103l269 -667h-95l-59 148h-332l-59 -148h-95zM187 222h283l-141 359z" />
<glyph unicode="B" horiz-adv-x="629" d="M78 0v667h297q86 0 136.5 -47t50.5 -123q0 -60 -34 -101.5t-83 -51.5q53 -8 91.5 -56t38.5 -108q0 -81 -51.5 -130.5t-141.5 -49.5h-304zM161 74h204q58 0 91 31t33 84q0 49 -32.5 82t-91.5 33h-204v-230zM161 378h200q55 0 85 30t30 77t-30.5 77.5t-84.5 30.5h-200v-215 z" />
<glyph unicode="C" horiz-adv-x="676" d="M51 333q0 152 98.5 248.5t244.5 96.5q160 0 253 -132l-70 -39q-29 43 -78 70t-105 27q-110 0 -183.5 -76.5t-73.5 -194.5t73.5 -194.5t183.5 -76.5q56 0 105 26.5t78 70.5l71 -39q-97 -132 -254 -132q-146 0 -244.5 96.5t-98.5 248.5z" />
<glyph unicode="D" horiz-adv-x="700" d="M78 0v667h228q153 0 247.5 -95t94.5 -239q0 -145 -94.5 -239t-247.5 -94h-228zM161 74h145q118 0 187 74t69 185q0 112 -68 186t-188 74h-145v-519z" />
<glyph unicode="E" horiz-adv-x="569" d="M78 0v667h437v-74h-354v-215h347v-74h-347v-230h354v-74h-437z" />
<glyph unicode="F" horiz-adv-x="550" d="M78 0v667h437v-74h-354v-215h347v-74h-347v-304h-83z" />
<glyph unicode="G" horiz-adv-x="713" d="M51 333q0 153 99 249t244 96q158 0 259 -125l-66 -41q-32 42 -83.5 67t-109.5 25q-110 0 -183.5 -76.5t-73.5 -194.5t73.5 -195t183.5 -77q55 0 102.5 21.5t76.5 50.5v136h-229v74h312v-241q-103 -115 -262 -115q-145 0 -244 96.5t-99 249.5z" />
<glyph unicode="H" horiz-adv-x="712" d="M78 0v667h83v-287h390v287h83v-667h-83v306h-390v-306h-83z" />
<glyph unicode="I" horiz-adv-x="239" d="M78 0v667h83v-667h-83z" />
<glyph unicode="J" horiz-adv-x="475" d="M11 65l43 63q55 -66 126 -66q61 0 97.5 38.5t36.5 101.5v465h83v-466q0 -104 -59 -158.5t-153 -54.5q-108 0 -174 77z" />
<glyph unicode="K" horiz-adv-x="601" d="M78 0v667h83v-345l295 345h104l-278 -317l302 -350h-103l-253 300l-67 -76v-224h-83z" />
<glyph unicode="L" horiz-adv-x="510" d="M78 0v667h83v-593h310v-74h-393z" />
<glyph unicode="M" horiz-adv-x="809" d="M78 0v667h119l207 -502l208 502h119v-667h-83v549l-227 -549h-34l-226 549v-549h-83z" />
<glyph unicode="N" horiz-adv-x="708" d="M78 0v667h85l384 -521v521h83v-667h-80l-389 532v-532h-83z" />
<glyph unicode="O" horiz-adv-x="765" d="M51 333q0 149 92 247t239 98q146 0 238.5 -98t92.5 -247t-92.5 -247t-238.5 -98q-147 0 -239 98t-92 247zM137 333q0 -118 67 -194.5t178 -76.5q110 0 177.5 76.5t67.5 194.5q0 119 -67.5 195t-177.5 76q-111 0 -178 -76t-67 -195z" />
<glyph unicode="P" horiz-adv-x="587" d="M78 0v667h268q97 0 153 -58t56 -143t-56.5 -143t-152.5 -58h-185v-265h-83zM161 339h175q59 0 96 35.5t37 91.5t-37 91.5t-96 35.5h-175v-254z" />
<glyph unicode="Q" horiz-adv-x="765" d="M51 333q0 149 92 247t239 98q146 0 238.5 -98t92.5 -247t-92 -246l64 -68l-58 -50l-65 69q-78 -50 -180 -50q-147 0 -239 98t-92 247zM137 333q0 -118 67 -194.5t178 -76.5q71 0 127 34l-95 103l58 49l94 -102q61 75 61 187q0 119 -67.5 195t-177.5 76q-111 0 -178 -76 t-67 -195z" />
<glyph unicode="R" horiz-adv-x="608" d="M78 0v667h268q93 0 151 -55t58 -146q0 -86 -50 -137t-123 -57l180 -272h-98l-170 265h-133v-265h-83zM161 338h175q59 0 96 36t37 92t-37 91.5t-96 35.5h-175v-255z" />
<glyph unicode="S" horiz-adv-x="586" d="M38 94l49 63q85 -95 210 -95q81 0 119 34.5t38 80.5q0 35 -22 59t-56.5 37.5t-77 24.5t-84.5 24.5t-76.5 32.5t-56.5 54t-22 83q0 82 65 133.5t164 51.5q149 0 237 -93l-50 -61q-73 80 -193 80q-60 0 -98.5 -29.5t-38.5 -76.5q0 -35 29.5 -58t73 -34t95 -27.5t95 -35 t73 -59.5t29.5 -99q0 -82 -60.5 -139t-185.5 -57q-162 0 -256 106z" />
<glyph unicode="T" horiz-adv-x="570" d="M32 593v74h506v-74h-212v-593h-83v593h-211z" />
<glyph unicode="U" horiz-adv-x="700" d="M78 259v408h83v-406q0 -93 49 -146t140 -53t140 53t49 146v406h83v-407q0 -127 -69.5 -199.5t-202.5 -72.5t-202.5 72.5t-69.5 198.5z" />
<glyph unicode="V" horiz-adv-x="658" d="M9 667h95l225 -576l225 576h95l-269 -667h-103z" />
<glyph unicode="W" horiz-adv-x="883" d="M14 667h92l148 -556l153 556h69l153 -556l147 556h92l-190 -667h-90l-147 538l-147 -538h-90z" />
<glyph unicode="X" horiz-adv-x="652" d="M12 0l260 342l-245 325h101l198 -267l197 267h101l-244 -324l259 -343h-100l-213 284l-213 -284h-101z" />
<glyph unicode="Y" horiz-adv-x="626" d="M9 667h97l207 -310l207 310h97l-262 -385v-282h-83v282z" />
<glyph unicode="Z" horiz-adv-x="585" d="M48 0v69l375 524h-375v74h481v-69l-375 -524h382v-74h-488z" />
<glyph unicode="[" horiz-adv-x="243" d="M40 -190v868h186v-55h-128v-758h128v-55h-186z" />
<glyph unicode="\" horiz-adv-x="296" d="M0 687h59l237 -707h-59z" />
<glyph unicode="]" horiz-adv-x="243" d="M17 -135h128v758h-128v55h186v-868h-186v55z" />
<glyph unicode="^" horiz-adv-x="432" d="M19 333l169 334h57l168 -334h-62l-135 279l-135 -279h-62z" />
<glyph unicode="_" horiz-adv-x="564" d="M-3 -40h570v-55h-570v55z" />
<glyph unicode="`" horiz-adv-x="226" d="M0 700h78l148 -144h-57z" />
<glyph unicode="a" horiz-adv-x="527" d="M48 148q0 76 50.5 117.5t118.5 41.5q103 0 160 -66v87q0 48 -34 75t-88 27q-85 0 -148 -67l-35 52q77 80 193 80q83 0 135 -40t52 -123v-332h-75v55q-61 -67 -160 -67q-67 0 -118 43t-51 117zM125 147q0 -46 33.5 -75.5t85.5 -29.5q90 0 133 60v91q-43 60 -133 60 q-52 0 -85.5 -29.5t-33.5 -76.5z" />
<glyph unicode="b" horiz-adv-x="575" d="M75 0v667h75v-257q63 85 163 85q95 0 155 -69.5t60 -184.5q0 -116 -59.5 -184.5t-155.5 -68.5q-101 0 -163 84v-72h-75zM150 131q20 -32 60.5 -54t83.5 -22q72 0 114 52t42 134t-42 134.5t-114 52.5q-43 0 -83.5 -22.5t-60.5 -55.5v-219z" />
<glyph unicode="c" horiz-adv-x="495" d="M47 242q0 109 67 181t174 72q112 0 177 -84l-50 -46q-46 63 -123 63q-76 0 -121.5 -52t-45.5 -134t45.5 -134.5t121.5 -52.5t123 63l50 -46q-65 -84 -177 -84q-107 0 -174 72.5t-67 181.5z" />
<glyph unicode="d" horiz-adv-x="575" d="M47 241q0 115 59.5 184.5t155.5 69.5q100 0 163 -85v257h75v-667h-75v72q-62 -84 -163 -84q-96 0 -155.5 68.5t-59.5 184.5zM125 241q0 -82 42 -134t113 -52q44 0 84 22t61 54v219q-21 33 -61.5 55.5t-83.5 22.5q-71 0 -113 -52.5t-42 -134.5z" />
<glyph unicode="e" horiz-adv-x="563" d="M47 242q0 106 68 179.5t170 73.5q107 0 169.5 -73.5t62.5 -185.5v-19h-391q5 -71 52 -119t122 -48q90 0 149 61l36 -49q-74 -74 -192 -74q-108 0 -177 70.5t-69 183.5zM126 272h317q-1 62 -42 111.5t-117 49.5q-72 0 -113.5 -49t-44.5 -112z" />
<glyph unicode="f" horiz-adv-x="283" d="M16 417v66h80v37q0 74 37.5 115.5t102.5 41.5q62 0 102 -37l-31 -49q-27 24 -60 24q-37 0 -56.5 -24.5t-19.5 -70.5v-37h98v-66h-98v-417h-75v417h-80z" />
<glyph unicode="g" horiz-adv-x="574" d="M47 244q0 115 59.5 183t155.5 68q99 0 162 -85v73h75v-469q0 -111 -65 -160.5t-165 -49.5q-64 0 -109 15.5t-86 56.5l38 56q55 -66 157 -66q67 0 111 35.5t44 109.5v69q-27 -38 -70 -62t-92 -24q-96 0 -155.5 67.5t-59.5 182.5zM125 244q0 -81 42 -132.5t113 -51.5 q43 0 83.5 23t60.5 56v211q-20 33 -60 55.5t-84 22.5q-72 0 -113.5 -51t-41.5 -133z" />
<glyph unicode="h" horiz-adv-x="552" d="M75 0v667h75v-254q28 33 75 57.5t98 24.5q154 0 154 -154v-341h-75v318q0 60 -28 85t-81 25q-41 0 -80.5 -22t-62.5 -53v-353h-75z" />
<glyph unicode="i" horiz-adv-x="225" d="M62 602q0 21 15 36t35 15q21 0 36 -15t15 -36t-15 -35.5t-36 -14.5q-20 0 -35 14.5t-15 35.5zM75 0v483h75v-483h-75z" />
<glyph unicode="j" horiz-adv-x="225" d="M-99 -160l27 57q31 -31 69 -31q36 0 57 21.5t21 65.5v530h75v-530q0 -71 -37 -110t-106 -39q-59 0 -106 36zM62 602q0 21 15 36t35 15q21 0 36 -15t15 -36t-15 -35.5t-36 -14.5q-20 0 -35 14.5t-15 35.5z" />
<glyph unicode="k" horiz-adv-x="514" d="M75 0v667h75v-441l254 257h95l-214 -219l215 -264h-96l-174 217l-80 -79v-138h-75z" />
<glyph unicode="l" horiz-adv-x="225" d="M75 0v667h75v-667h-75z" />
<glyph unicode="m" horiz-adv-x="808" d="M75 0v483h75v-70q18 28 63 55t93 27q53 0 86 -25t44 -65q22 36 67 63t95 27q135 0 135 -146v-349h-75v328q0 100 -89 100q-36 0 -72 -22t-56 -52v-354h-75v328q0 100 -89 100q-35 0 -70.5 -22t-56.5 -53v-353h-75z" />
<glyph unicode="n" horiz-adv-x="551" d="M75 0v483h75v-70q28 33 75 57.5t97 24.5q154 0 154 -156v-339h-75v316q0 61 -28 86.5t-80 25.5q-42 0 -81.5 -22t-61.5 -53v-353h-75z" />
<glyph unicode="o" horiz-adv-x="572" d="M47 242q0 108 65.5 180.5t173.5 72.5t173.5 -72.5t65.5 -180.5t-65.5 -181t-173.5 -73t-173.5 73t-65.5 181zM125 242q0 -78 43.5 -132.5t117.5 -54.5t117 54.5t43 132.5t-43 132t-117 54t-117.5 -54.5t-43.5 -131.5z" />
<glyph unicode="p" horiz-adv-x="572" d="M75 -184v667h75v-72q27 38 70 61t93 23q96 0 155.5 -68.5t59.5 -184.5t-59.5 -185t-155.5 -69q-102 0 -163 85v-257h-75zM150 133q20 -33 60.5 -55.5t83.5 -22.5q71 0 113 52.5t42 134.5t-42 134t-113 52q-43 0 -83.5 -22.5t-60.5 -54.5v-218z" />
<glyph unicode="q" horiz-adv-x="572" d="M44 242q0 116 59.5 184.5t155.5 68.5q50 0 93 -23t69 -61v72h75v-667h-75v257q-61 -85 -162 -85q-96 0 -155.5 69t-59.5 185zM123 242q0 -82 41.5 -134.5t112.5 -52.5q44 0 84.5 22.5t59.5 55.5v218q-19 32 -59.5 54.5t-84.5 22.5q-71 0 -112.5 -52t-41.5 -134z" />
<glyph unicode="r" horiz-adv-x="330" d="M75 0v483h75v-78q67 88 161 88v-77q-14 3 -30 3q-34 0 -74 -24t-57 -53v-342h-75z" />
<glyph unicode="s" horiz-adv-x="465" d="M33 64l39 54q25 -29 68.5 -49t90.5 -20q54 0 84 23t30 60q0 32 -31 50.5t-74.5 28t-87.5 22t-75 43t-31 80.5q0 59 48.5 99t131.5 40q109 0 179 -70l-35 -52q-51 61 -144 61q-49 0 -78 -21.5t-29 -54.5q0 -29 31 -45.5t74.5 -26t87.5 -22.5t75 -45.5t31 -84.5 q0 -64 -50 -105t-140 -41q-123 0 -195 76z" />
<glyph unicode="t" horiz-adv-x="294" d="M10 417v66h80v132h75v-132h98v-66h-98v-300q0 -28 12.5 -45t36.5 -17q33 0 51 20l22 -56q-33 -31 -90 -31q-53 0 -80 29t-27 84v316h-80z" />
<glyph unicode="u" horiz-adv-x="551" d="M75 142v341h75v-318q0 -60 27.5 -85t80.5 -25q42 0 81.5 21t61.5 52v355h75v-483h-75v68q-30 -34 -75.5 -57t-96.5 -23q-154 0 -154 154z" />
<glyph unicode="v" horiz-adv-x="490" d="M3 483h81l161 -396l160 396h82l-201 -483h-82z" />
<glyph unicode="w" horiz-adv-x="734" d="M12 483h78l118 -385l127 385h64l127 -385l118 385h78l-154 -483h-75l-126 388l-126 -388h-75z" />
<glyph unicode="x" horiz-adv-x="486" d="M12 0l185 248l-175 235h87l134 -184l134 184h87l-175 -235l186 -248h-87l-145 198l-145 -198h-86z" />
<glyph unicode="y" horiz-adv-x="490" d="M3 483h81l161 -396l160 396h82l-242 -581q-40 -96 -142 -98q-30 0 -55 7l12 68q18 -8 41 -8q26 0 43 11t29 40l32 73z" />
<glyph unicode="z" horiz-adv-x="472" d="M52 0v58l266 359h-266v66h364v-57l-268 -361h272v-65h-368z" />
<glyph unicode="{" horiz-adv-x="260" d="M5 219v50q25 0 38.5 19.5t13.5 49.5v205q0 60 37.5 97.5t87.5 37.5h61v-55h-61q-27 0 -46.5 -22.5t-19.5 -57.5v-211q0 -68 -46 -88q46 -20 46 -88v-211q0 -34 19.5 -57t46.5 -23h61v-55h-61q-50 0 -87.5 37.5t-37.5 96.5v206q0 30 -13.5 49.5t-38.5 19.5z" />
<glyph unicode="|" horiz-adv-x="211" d="M78 -20v707h55v-707h-55z" />
<glyph unicode="}" horiz-adv-x="260" d="M17 -135h61q27 0 46.5 23t19.5 57v211q0 68 46 88q-46 20 -46 88v211q0 35 -19.5 57.5t-46.5 22.5h-61v55h61q50 0 87.5 -37.5t37.5 -97.5v-205q0 -30 13.5 -49.5t38.5 -19.5v-50q-25 0 -38.5 -19.5t-13.5 -49.5v-206q0 -59 -37.5 -96.5t-87.5 -37.5h-61v55z" />
<glyph unicode="~" horiz-adv-x="503" d="M27 429q5 50 13 88.5t23 74.5t41 55t61 19t58.5 -19.5t35 -48t20.5 -56.5t23 -47.5t35 -19.5q65 0 82 192l56 -7q-5 -51 -12.5 -89t-22.5 -74t-41 -55t-62 -19q-35 0 -58 19.5t-34.5 47.5t-21 56t-23.5 47.5t-35 19.5q-63 0 -82 -191z" />
<glyph unicode="&#xa2;" horiz-adv-x="495" d="M47 242q0 98 56.5 167.5t148.5 82.5v73h59v-71q94 -8 154 -83l-50 -46q-40 54 -104 62v-371q63 6 104 62l50 -46q-58 -75 -154 -83v-89h-59v91q-92 12 -148.5 81.5t-56.5 169.5zM125 242q0 -70 34 -120t93 -63v364q-59 -13 -93 -62.5t-34 -118.5z" />
<glyph unicode="&#xa3;" horiz-adv-x="518" d="M19 268v54h106q-28 32 -38.5 45.5t-24.5 46t-14 66.5q0 82 66 139.5t158 57.5q68 0 121 -29.5t81 -82.5l-67 -40q-14 34 -48.5 58t-78.5 24q-59 0 -101 -35t-42 -93q0 -26 9 -50t17.5 -37t28.5 -37.5t26 -32.5h150v-54h-122q7 -23 7 -43q0 -78 -76 -132q25 9 52 9 q33 0 76.5 -20.5t71.5 -20.5q31 0 57 12.5t38 27.5l36 -67q-49 -47 -135 -47q-47 0 -95 23t-84 23q-42 0 -118 -40l-30 62q64 29 98.5 68.5t34.5 84.5q0 30 -15 60h-145z" />
<glyph unicode="&#xa5;" horiz-adv-x="626" d="M9 667h97l207 -310l207 310h97l-227 -333h215v-52h-250v-107h250v-53h-250v-122h-83v122h-250v53h250v107h-250v52h214z" />
<glyph unicode="&#xa9;" horiz-adv-x="778" d="M44 334q0 143 101 244t244 101t244 -101t101 -244t-101 -244t-244 -101t-244 101.5t-101 243.5zM75 334q0 -130 92 -222t222 -92t222 92t92 222t-92 222t-222 92t-222 -92t-92 -222zM183 335q0 91 60.5 152t147.5 61q90 0 146 -66l-25 -24q-19 26 -52.5 41.5t-68.5 15.5 q-70 0 -120.5 -50.5t-50.5 -129.5q0 -77 51 -129t120 -52q36 0 68.5 16t52.5 42l26 -25q-57 -66 -147 -66q-87 0 -147.5 61.5t-60.5 152.5z" />
<glyph unicode="&#xad;" horiz-adv-x="300" d="M30 209v66h240v-66h-240z" />
<glyph unicode="&#xae;" horiz-adv-x="494" d="M35 465q0 88 62 150t150 62q89 0 150.5 -61.5t61.5 -150.5q0 -88 -62 -150t-150 -62t-150 62t-62 150zM63 465q0 -76 54 -130t130 -54t129.5 54t53.5 130t-53.5 129.5t-129.5 53.5q-77 0 -130.5 -53.5t-53.5 -129.5zM166 343v243h99q32 0 54.5 -20.5t22.5 -53.5 q0 -35 -22.5 -53.5t-39.5 -18.5l65 -97h-40l-63 96h-44v-96h-32zM198 468h67q16 0 30 13t14 31q0 19 -13.5 32.5t-30.5 13.5h-67v-90z" />
<glyph unicode="&#xb4;" horiz-adv-x="226" d="M0 556l148 144h78l-169 -144h-57z" />
<glyph unicode="&#x2000;" horiz-adv-x="384" />
<glyph unicode="&#x2001;" horiz-adv-x="768" />
<glyph unicode="&#x2002;" horiz-adv-x="384" />
<glyph unicode="&#x2003;" horiz-adv-x="768" />
<glyph unicode="&#x2004;" horiz-adv-x="256" />
<glyph unicode="&#x2005;" horiz-adv-x="192" />
<glyph unicode="&#x2006;" horiz-adv-x="128" />
<glyph unicode="&#x2007;" horiz-adv-x="128" />
<glyph unicode="&#x2008;" horiz-adv-x="96" />
<glyph unicode="&#x2009;" horiz-adv-x="153" />
<glyph unicode="&#x200a;" horiz-adv-x="42" />
<glyph unicode="&#x2010;" horiz-adv-x="300" d="M30 209v66h240v-66h-240z" />
<glyph unicode="&#x2011;" horiz-adv-x="300" d="M30 209v66h240v-66h-240z" />
<glyph unicode="&#x2012;" horiz-adv-x="300" d="M30 209v66h240v-66h-240z" />
<glyph unicode="&#x2013;" horiz-adv-x="593" d="M30 209v66h533v-66h-533z" />
<glyph unicode="&#x2014;" horiz-adv-x="833" d="M30 209v66h773v-66h-773z" />
<glyph unicode="&#x2018;" d="M47 527q0 44 22.5 84t58.5 66l37 -30q-24 -16 -42.5 -42.5t-21.5 -50.5q1 0 6 0.5t7 0.5q21 0 35 -14.5t14 -36.5t-15.5 -37.5t-37.5 -15.5q-26 0 -44.5 20.5t-18.5 55.5z" />
<glyph unicode="&#x2019;" d="M57 481q24 16 43 42.5t22 50.5q-4 -2 -14 -2q-21 0 -34.5 14.5t-13.5 36.5t15.5 38t37.5 16q26 0 44.5 -20.5t18.5 -55.5q0 -44 -23 -84.5t-59 -66.5z" />
<glyph unicode="&#x201c;" horiz-adv-x="390" d="M54 527q0 44 22.5 84t58.5 66l37 -30q-24 -16 -43 -42.5t-21 -50.5h5q5 1 8 1q21 0 34.5 -14.5t13.5 -36.5t-15.5 -37.5t-37.5 -15.5q-26 0 -44 20.5t-18 55.5zM214 527q0 44 22.5 84t58.5 66l37 -30q-24 -16 -42.5 -42.5t-21.5 -50.5h5q5 1 8 1q21 0 35 -14.5t14 -36.5 t-16 -37.5t-38 -15.5q-26 0 -44 20.5t-18 55.5z" />
<glyph unicode="&#x201d;" horiz-adv-x="390" d="M57 481q24 16 43 42.5t22 50.5q-4 -2 -14 -2q-21 0 -34.5 14.5t-13.5 36.5t15.5 38t37.5 16q26 0 44.5 -20.5t18.5 -55.5q0 -44 -23 -84.5t-59 -66.5zM218 481q24 16 42.5 42.5t21.5 50.5q-4 -2 -13 -2q-21 0 -35 14.5t-14 36.5t15.5 38t37.5 16q26 0 44.5 -20.5 t18.5 -55.5q0 -44 -23 -84.5t-58 -66.5z" />
<glyph unicode="&#x2022;" horiz-adv-x="358" d="M72 242q0 44 32 76t76 32t76 -32t32 -76t-32 -75.5t-76 -31.5t-76 31.5t-32 75.5z" />
<glyph unicode="&#x2026;" horiz-adv-x="690" d="M60 45q0 23 16 39t38 16t38.5 -16t16.5 -39q0 -22 -16.5 -38.5t-38.5 -16.5t-38 16.5t-16 38.5zM290 45q0 23 16 39t38 16q23 0 39.5 -16.5t16.5 -38.5t-17 -38.5t-39 -16.5t-38 16.5t-16 38.5zM520 45q0 23 16 39t39 16t39 -16t16 -39q0 -22 -16.5 -38.5t-38.5 -16.5 t-38.5 16.5t-16.5 38.5z" />
<glyph unicode="&#x202f;" horiz-adv-x="153" />
<glyph unicode="&#x205f;" horiz-adv-x="192" />
<glyph unicode="&#x20ac;" horiz-adv-x="695" d="M31 237v52h43q-2 28 -2 44t2 46h-43v52h53q30 112 120.5 179.5t210.5 67.5q160 0 253 -132l-70 -39q-29 43 -78 70t-105 27q-85 0 -150 -47t-92 -126h303v-52h-315q-3 -23 -3 -46t3 -44h315v-52h-303q26 -80 91.5 -127.5t150.5 -47.5q56 0 105 26.5t78 70.5l71 -39 q-97 -132 -254 -132q-121 0 -211.5 67.5t-119.5 181.5h-53z" />
<glyph unicode="&#x2122;" horiz-adv-x="454" d="M17 641v26h152v-26h-62v-194h-28v194h-62zM205 447v220h43l64 -160l64 160h43v-220h-28v182l-75 -182h-8l-75 182v-182h-28z" />
<glyph unicode="&#xe000;" horiz-adv-x="485" d="M0 0v485h485v-485h-485z" />
<hkern g1="B" 	g2="quotedbl,quotesingle,registered,quoteleft,quoteright,quotedblleft,quotedblright,trademark" 	k="10" />
<hkern g1="B" 	g2="T" 	k="17" />
<hkern g1="B" 	g2="W" 	k="10" />
<hkern g1="B" 	g2="V" 	k="13" />
<hkern g1="B" 	g2="Y" 	k="30" />
<hkern g1="C" 	g2="question" 	k="3" />
<hkern g1="C" 	g2="W" 	k="3" />
<hkern g1="C" 	g2="V" 	k="2" />
<hkern g1="C" 	g2="Y" 	k="16" />
<hkern g1="C" 	g2="A" 	k="3" />
<hkern g1="D,O,Q" 	g2="question" 	k="16" />
<hkern g1="D,O,Q" 	g2="quotedbl,quotesingle,registered,quoteleft,quoteright,quotedblleft,quotedblright,trademark" 	k="10" />
<hkern g1="D,O,Q" 	g2="J" 	k="20" />
<hkern g1="D,O,Q" 	g2="T" 	k="27" />
<hkern g1="D,O,Q" 	g2="W" 	k="20" />
<hkern g1="D,O,Q" 	g2="V" 	k="20" />
<hkern g1="D,O,Q" 	g2="Y" 	k="40" />
<hkern g1="D,O,Q" 	g2="A" 	k="37" />
<hkern g1="D,O,Q" 	g2="Z" 	k="17" />
<hkern g1="D,O,Q" 	g2="comma,period,ellipsis" 	k="27" />
<hkern g1="D,O,Q" 	g2="X" 	k="30" />
<hkern g1="F" 	g2="J" 	k="59" />
<hkern g1="F" 	g2="A" 	k="36" />
<hkern g1="F" 	g2="comma,period,ellipsis" 	k="50" />
<hkern g1="F" 	g2="ampersand" 	k="6" />
<hkern g1="G" 	g2="question" 	k="6" />
<hkern g1="G" 	g2="T" 	k="3" />
<hkern g1="G" 	g2="W" 	k="3" />
<hkern g1="G" 	g2="V" 	k="6" />
<hkern g1="G" 	g2="Y" 	k="9" />
<hkern g1="G" 	g2="A" 	k="3" />
<hkern g1="G" 	g2="X" 	k="3" />
<hkern g1="K" 	g2="C,G,O,Q" 	k="54" />
<hkern g1="K" 	g2="Y" 	k="21" />
<hkern g1="K" 	g2="f" 	k="26" />
<hkern g1="K" 	g2="u" 	k="20" />
<hkern g1="K" 	g2="t" 	k="39" />
<hkern g1="K" 	g2="w" 	k="40" />
<hkern g1="K" 	g2="v" 	k="60" />
<hkern g1="K" 	g2="y" 	k="60" />
<hkern g1="K" 	g2="hyphen,endash,emdash" 	k="50" />
<hkern g1="K" 	g2="a" 	k="17" />
<hkern g1="K" 	g2="c,d,e,g,o,q,cent" 	k="34" />
<hkern g1="K" 	g2="x" 	k="26" />
<hkern g1="L" 	g2="question" 	k="114" />
<hkern g1="L" 	g2="quotedbl,quotesingle,registered,quoteleft,quoteright,quotedblleft,quotedblright,trademark" 	k="122" />
<hkern g1="L" 	g2="C,G,O,Q" 	k="34" />
<hkern g1="L" 	g2="asterisk" 	k="174" />
<hkern g1="L" 	g2="U" 	k="27" />
<hkern g1="L" 	g2="T" 	k="100" />
<hkern g1="L" 	g2="W" 	k="66" />
<hkern g1="L" 	g2="V" 	k="90" />
<hkern g1="L" 	g2="Y" 	k="123" />
<hkern g1="L" 	g2="u" 	k="14" />
<hkern g1="L" 	g2="t" 	k="33" />
<hkern g1="L" 	g2="w" 	k="37" />
<hkern g1="L" 	g2="v" 	k="57" />
<hkern g1="L" 	g2="y" 	k="57" />
<hkern g1="L" 	g2="ampersand" 	k="7" />
<hkern g1="L" 	g2="a" 	k="14" />
<hkern g1="L" 	g2="c,d,e,g,o,q,cent" 	k="21" />
<hkern g1="P" 	g2="J" 	k="109" />
<hkern g1="P" 	g2="Y" 	k="3" />
<hkern g1="P" 	g2="A" 	k="77" />
<hkern g1="P" 	g2="comma,period,ellipsis" 	k="94" />
<hkern g1="P" 	g2="X" 	k="9" />
<hkern g1="P" 	g2="ampersand" 	k="26" />
<hkern g1="P" 	g2="hyphen,endash,emdash" 	k="34" />
<hkern g1="P" 	g2="a" 	k="20" />
<hkern g1="P" 	g2="c,d,e,g,o,q,cent" 	k="13" />
<hkern g1="R" 	g2="quotedbl,quotesingle,registered,quoteleft,quoteright,quotedblleft,quotedblright,trademark" 	k="3" />
<hkern g1="R" 	g2="T" 	k="10" />
<hkern g1="R" 	g2="V" 	k="10" />
<hkern g1="R" 	g2="Y" 	k="16" />
<hkern g1="R" 	g2="ampersand" 	k="3" />
<hkern g1="R" 	g2="a" 	k="20" />
<hkern g1="R" 	g2="c,d,e,g,o,q,cent" 	k="30" />
<hkern g1="R" 	g2="s" 	k="6" />
<hkern g1="S" 	g2="T" 	k="6" />
<hkern g1="S" 	g2="Y" 	k="10" />
<hkern g1="S" 	g2="t" 	k="17" />
<hkern g1="S" 	g2="w" 	k="3" />
<hkern g1="S" 	g2="v" 	k="6" />
<hkern g1="S" 	g2="y" 	k="6" />
<hkern g1="S" 	g2="A" 	k="10" />
<hkern g1="S" 	g2="x" 	k="13" />
<hkern g1="T" 	g2="C,G,O,Q" 	k="27" />
<hkern g1="T" 	g2="J" 	k="83" />
<hkern g1="T" 	g2="S" 	k="3" />
<hkern g1="T" 	g2="f" 	k="31" />
<hkern g1="T" 	g2="u" 	k="85" />
<hkern g1="T" 	g2="w" 	k="56" />
<hkern g1="T" 	g2="v" 	k="56" />
<hkern g1="T" 	g2="y" 	k="56" />
<hkern g1="T" 	g2="A" 	k="67" />
<hkern g1="T" 	g2="comma,period,ellipsis" 	k="93" />
<hkern g1="T" 	g2="ampersand" 	k="57" />
<hkern g1="T" 	g2="hyphen,endash,emdash" 	k="60" />
<hkern g1="T" 	g2="a" 	k="95" />
<hkern g1="T" 	g2="c,d,e,g,o,q,cent" 	k="115" />
<hkern g1="T" 	g2="x" 	k="66" />
<hkern g1="T" 	g2="s" 	k="91" />
<hkern g1="T" 	g2="colon,semicolon" 	k="50" />
<hkern g1="T" 	g2="m,n,p,r,z" 	k="85" />
<hkern g1="J,U" 	g2="J" 	k="12" />
<hkern g1="J,U" 	g2="A" 	k="26" />
<hkern g1="J,U" 	g2="comma,period,ellipsis" 	k="30" />
<hkern g1="V" 	g2="C,G,O,Q" 	k="20" />
<hkern g1="V" 	g2="J" 	k="93" />
<hkern g1="V" 	g2="f" 	k="23" />
<hkern g1="V" 	g2="u" 	k="42" />
<hkern g1="V" 	g2="t" 	k="13" />
<hkern g1="V" 	g2="w" 	k="6" />
<hkern g1="V" 	g2="v" 	k="13" />
<hkern g1="V" 	g2="y" 	k="6" />
<hkern g1="V" 	g2="A" 	k="54" />
<hkern g1="V" 	g2="comma,period,ellipsis" 	k="90" />
<hkern g1="V" 	g2="ampersand" 	k="29" />
<hkern g1="V" 	g2="hyphen,endash,emdash" 	k="53" />
<hkern g1="V" 	g2="a" 	k="63" />
<hkern g1="V" 	g2="c,d,e,g,o,q,cent" 	k="60" />
<hkern g1="V" 	g2="x" 	k="23" />
<hkern g1="V" 	g2="s" 	k="39" />
<hkern g1="V" 	g2="m,n,p,r,z" 	k="42" />
<hkern g1="W" 	g2="C,G,O,Q" 	k="20" />
<hkern g1="W" 	g2="J" 	k="38" />
<hkern g1="W" 	g2="f" 	k="13" />
<hkern g1="W" 	g2="u" 	k="30" />
<hkern g1="W" 	g2="t" 	k="13" />
<hkern g1="W" 	g2="v" 	k="3" />
<hkern g1="W" 	g2="y" 	k="3" />
<hkern g1="W" 	g2="A" 	k="47" />
<hkern g1="W" 	g2="comma,period,ellipsis" 	k="67" />
<hkern g1="W" 	g2="ampersand" 	k="20" />
<hkern g1="W" 	g2="hyphen,endash,emdash" 	k="33" />
<hkern g1="W" 	g2="a" 	k="40" />
<hkern g1="W" 	g2="c,d,e,g,o,q,cent" 	k="40" />
<hkern g1="W" 	g2="x" 	k="23" />
<hkern g1="W" 	g2="s" 	k="19" />
<hkern g1="W" 	g2="m,n,p,r,z" 	k="30" />
<hkern g1="Y" 	g2="C,G,O,Q" 	k="40" />
<hkern g1="Y" 	g2="J" 	k="113" />
<hkern g1="Y" 	g2="S" 	k="20" />
<hkern g1="Y" 	g2="f" 	k="49" />
<hkern g1="Y" 	g2="u" 	k="90" />
<hkern g1="Y" 	g2="t" 	k="26" />
<hkern g1="Y" 	g2="w" 	k="60" />
<hkern g1="Y" 	g2="v" 	k="60" />
<hkern g1="Y" 	g2="y" 	k="60" />
<hkern g1="Y" 	g2="A" 	k="63" />
<hkern g1="Y" 	g2="comma,period,ellipsis" 	k="90" />
<hkern g1="Y" 	g2="ampersand" 	k="60" />
<hkern g1="Y" 	g2="hyphen,endash,emdash" 	k="116" />
<hkern g1="Y" 	g2="a" 	k="121" />
<hkern g1="Y" 	g2="c,d,e,g,o,q,cent" 	k="127" />
<hkern g1="Y" 	g2="x" 	k="73" />
<hkern g1="Y" 	g2="s" 	k="100" />
<hkern g1="Y" 	g2="colon,semicolon" 	k="59" />
<hkern g1="Y" 	g2="m,n,p,r,z" 	k="90" />
<hkern g1="Z" 	g2="C,G,O,Q" 	k="17" />
<hkern g1="a,h,m,n" 	g2="question" 	k="36" />
<hkern g1="a,h,m,n" 	g2="quotedbl,quotesingle,registered,quoteleft,quoteright,quotedblleft,quotedblright,trademark" 	k="6" />
<hkern g1="a,h,m,n" 	g2="T" 	k="108" />
<hkern g1="a,h,m,n" 	g2="W" 	k="43" />
<hkern g1="a,h,m,n" 	g2="V" 	k="66" />
<hkern g1="a,h,m,n" 	g2="Y" 	k="110" />
<hkern g1="ampersand" 	g2="T" 	k="74" />
<hkern g1="ampersand" 	g2="W" 	k="48" />
<hkern g1="ampersand" 	g2="V" 	k="50" />
<hkern g1="ampersand" 	g2="Y" 	k="91" />
<hkern g1="asterisk" 	g2="J" 	k="116" />
<hkern g1="asterisk" 	g2="A" 	k="101" />
<hkern g1="b,o,p" 	g2="question" 	k="46" />
<hkern g1="b,o,p" 	g2="quotedbl,quotesingle,registered,quoteleft,quoteright,quotedblleft,quotedblright,trademark" 	k="10" />
<hkern g1="b,o,p" 	g2="T" 	k="115" />
<hkern g1="b,o,p" 	g2="W" 	k="40" />
<hkern g1="b,o,p" 	g2="V" 	k="60" />
<hkern g1="b,o,p" 	g2="Y" 	k="124" />
<hkern g1="b,o,p" 	g2="comma,period,ellipsis" 	k="7" />
<hkern g1="b,o,p" 	g2="x" 	k="37" />
<hkern g1="c,cent" 	g2="question" 	k="23" />
<hkern g1="c,cent" 	g2="quotedbl,quotesingle,registered,quoteleft,quoteright,quotedblleft,quotedblright,trademark" 	k="3" />
<hkern g1="c,cent" 	g2="T" 	k="81" />
<hkern g1="c,cent" 	g2="W" 	k="23" />
<hkern g1="c,cent" 	g2="V" 	k="36" />
<hkern g1="c,cent" 	g2="Y" 	k="63" />
<hkern g1="colon,semicolon" 	g2="T" 	k="50" />
<hkern g1="colon,semicolon" 	g2="Y" 	k="59" />
<hkern g1="e" 	g2="question" 	k="36" />
<hkern g1="e" 	g2="quotedbl,quotesingle,registered,quoteleft,quoteright,quotedblleft,quotedblright,trademark" 	k="3" />
<hkern g1="e" 	g2="asterisk" 	k="17" />
<hkern g1="e" 	g2="T" 	k="101" />
<hkern g1="e" 	g2="W" 	k="40" />
<hkern g1="e" 	g2="V" 	k="53" />
<hkern g1="e" 	g2="Y" 	k="110" />
<hkern g1="e" 	g2="comma,period,ellipsis" 	k="7" />
<hkern g1="f" 	g2="question" 	k="-57" />
<hkern g1="f" 	g2="quotedbl,quotesingle,registered,quoteleft,quoteright,quotedblleft,quotedblright,trademark" 	k="-67" />
<hkern g1="f" 	g2="asterisk" 	k="-67" />
<hkern g1="f" 	g2="S" 	k="-23" />
<hkern g1="f" 	g2="U" 	k="-40" />
<hkern g1="f" 	g2="T" 	k="-40" />
<hkern g1="f" 	g2="W" 	k="-63" />
<hkern g1="f" 	g2="V" 	k="-63" />
<hkern g1="f" 	g2="Y" 	k="-56" />
<hkern g1="f" 	g2="Z" 	k="-40" />
<hkern g1="f" 	g2="comma,period,ellipsis" 	k="43" />
<hkern g1="f" 	g2="X" 	k="-40" />
<hkern g1="f" 	g2="ampersand" 	k="3" />
<hkern g1="f" 	g2="exclam,B,D,E,F,H,I,K,L,M,N,P,R" 	k="-40" />
<hkern g1="f" 	g2="parenright,bracketright,braceright" 	k="-74" />
<hkern g1="g,j,q" 	g2="question" 	k="23" />
<hkern g1="g,j,q" 	g2="T" 	k="85" />
<hkern g1="g,j,q" 	g2="W" 	k="30" />
<hkern g1="g,j,q" 	g2="V" 	k="42" />
<hkern g1="g,j,q" 	g2="Y" 	k="90" />
<hkern g1="g,j,q" 	g2="j" 	k="-46" />
<hkern g1="hyphen,endash,emdash" 	g2="W" 	k="33" />
<hkern g1="hyphen,endash,emdash" 	g2="V" 	k="53" />
<hkern g1="hyphen,endash,emdash" 	g2="Y" 	k="109" />
<hkern g1="hyphen,endash,emdash" 	g2="X" 	k="43" />
<hkern g1="k" 	g2="T" 	k="69" />
<hkern g1="k" 	g2="W" 	k="23" />
<hkern g1="k" 	g2="V" 	k="23" />
<hkern g1="k" 	g2="Y" 	k="66" />
<hkern g1="k" 	g2="bullet" 	k="27" />
<hkern g1="k" 	g2="hyphen,endash,emdash" 	k="27" />
<hkern g1="k" 	g2="c,d,e,g,o,q,cent" 	k="3" />
<hkern g1="comma,period,ellipsis" 	g2="quotedbl,quotesingle,registered,quoteleft,quoteright,quotedblleft,quotedblright,trademark" 	k="76" />
<hkern g1="comma,period,ellipsis" 	g2="U" 	k="30" />
<hkern g1="comma,period,ellipsis" 	g2="T" 	k="93" />
<hkern g1="comma,period,ellipsis" 	g2="W" 	k="67" />
<hkern g1="comma,period,ellipsis" 	g2="V" 	k="87" />
<hkern g1="comma,period,ellipsis" 	g2="Y" 	k="90" />
<hkern g1="comma,period,ellipsis" 	g2="f" 	k="23" />
<hkern g1="comma,period,ellipsis" 	g2="t" 	k="23" />
<hkern g1="comma,period,ellipsis" 	g2="w" 	k="44" />
<hkern g1="comma,period,ellipsis" 	g2="v" 	k="67" />
<hkern g1="comma,period,ellipsis" 	g2="y" 	k="57" />
<hkern g1="comma,period,ellipsis" 	g2="c,d,e,g,o,q,cent" 	k="7" />
<hkern g1="comma,period,ellipsis" 	g2="j" 	k="-40" />
<hkern g1="comma,period,ellipsis" 	g2="seven" 	k="66" />
<hkern g1="comma,period,ellipsis" 	g2="one" 	k="78" />
<hkern g1="comma,period,ellipsis" 	g2="zero,six" 	k="31" />
<hkern g1="quotedbl,quotesingle,quoteleft,quoteright,quotedblleft,quotedblright" 	g2="C,G,O,Q" 	k="3" />
<hkern g1="quotedbl,quotesingle,quoteleft,quoteright,quotedblleft,quotedblright" 	g2="J" 	k="92" />
<hkern g1="quotedbl,quotesingle,quoteleft,quoteright,quotedblleft,quotedblright" 	g2="A" 	k="104" />
<hkern g1="quotedbl,quotesingle,quoteleft,quoteright,quotedblleft,quotedblright" 	g2="comma,period,ellipsis" 	k="76" />
<hkern g1="quotedbl,quotesingle,quoteleft,quoteright,quotedblleft,quotedblright" 	g2="s" 	k="30" />
<hkern g1="r" 	g2="T" 	k="48" />
<hkern g1="r" 	g2="W" 	k="6" />
<hkern g1="r" 	g2="V" 	k="23" />
<hkern g1="r" 	g2="Y" 	k="50" />
<hkern g1="r" 	g2="comma,period,ellipsis" 	k="83" />
<hkern g1="r" 	g2="X" 	k="9" />
<hkern g1="s" 	g2="question" 	k="43" />
<hkern g1="s" 	g2="quotedbl,quotesingle,registered,quoteleft,quoteright,quotedblleft,quotedblright,trademark" 	k="20" />
<hkern g1="s" 	g2="T" 	k="88" />
<hkern g1="s" 	g2="W" 	k="39" />
<hkern g1="s" 	g2="V" 	k="43" />
<hkern g1="s" 	g2="Y" 	k="93" />
<hkern g1="s" 	g2="X" 	k="3" />
<hkern g1="t" 	g2="T" 	k="52" />
<hkern g1="t" 	g2="W" 	k="13" />
<hkern g1="t" 	g2="V" 	k="26" />
<hkern g1="t" 	g2="Y" 	k="33" />
<hkern g1="u,z" 	g2="question" 	k="23" />
<hkern g1="u,z" 	g2="T" 	k="85" />
<hkern g1="u,z" 	g2="W" 	k="30" />
<hkern g1="u,z" 	g2="V" 	k="42" />
<hkern g1="u,z" 	g2="Y" 	k="90" />
<hkern g1="v" 	g2="T" 	k="56" />
<hkern g1="v" 	g2="W" 	k="3" />
<hkern g1="v" 	g2="V" 	k="13" />
<hkern g1="v" 	g2="Y" 	k="60" />
<hkern g1="v" 	g2="A" 	k="20" />
<hkern g1="v" 	g2="comma,period,ellipsis" 	k="67" />
<hkern g1="v" 	g2="X" 	k="37" />
<hkern g1="w" 	g2="T" 	k="56" />
<hkern g1="w" 	g2="V" 	k="6" />
<hkern g1="w" 	g2="Y" 	k="60" />
<hkern g1="w" 	g2="A" 	k="17" />
<hkern g1="w" 	g2="comma,period,ellipsis" 	k="44" />
<hkern g1="w" 	g2="X" 	k="44" />
<hkern g1="y" 	g2="question" 	k="3" />
<hkern g1="y" 	g2="T" 	k="56" />
<hkern g1="y" 	g2="W" 	k="3" />
<hkern g1="y" 	g2="V" 	k="6" />
<hkern g1="y" 	g2="Y" 	k="60" />
<hkern g1="y" 	g2="A" 	k="20" />
<hkern g1="y" 	g2="comma,period,ellipsis" 	k="57" />
<hkern g1="y" 	g2="X" 	k="37" />
<hkern g1="X" 	g2="C,G,O,Q" 	k="30" />
<hkern g1="X" 	g2="f" 	k="30" />
<hkern g1="X" 	g2="t" 	k="30" />
<hkern g1="X" 	g2="w" 	k="44" />
<hkern g1="X" 	g2="v" 	k="37" />
<hkern g1="X" 	g2="y" 	k="37" />
<hkern g1="X" 	g2="hyphen,endash,emdash" 	k="43" />
<hkern g1="zero,nine" 	g2="comma,period,ellipsis" 	k="31" />
<hkern g1="seven" 	g2="comma,period,ellipsis" 	k="97" />
<hkern g1="x" 	g2="T" 	k="66" />
<hkern g1="x" 	g2="W" 	k="23" />
<hkern g1="x" 	g2="V" 	k="23" />
<hkern g1="x" 	g2="Y" 	k="73" />
<hkern g1="x" 	g2="c,d,e,g,o,q,cent" 	k="37" />
<hkern g1="parenleft,bracketleft,braceleft" 	g2="j" 	k="-110" />
</font>
</defs></svg> 