<?xml version="1.0" standalone="no"?> <!DOCTYPE svg PUBLIC "-//W3C//DTD SVG 1.0//EN" "http://www.w3.org/TR/2001/REC-SVG-20010904/DTD/svg10.dtd" > 
<svg xmlns="http://www.w3.org/2000/svg" width="100%" height="100%">
<metadata version="1.0"><uniqueid id="com.myfonts.marksimonson.proxima-nova.regular.wfkit1.5h6k"/><vendor name="MyFonts" url="http://www.myfonts.com/"/><credits><credit name="Mark Simonson" url="http://www.myfonts.com/person/simonson/mark/"/></credits><description><text lang="en">This is a Webfont from MyFonts. Full information about this font:
http://www.myfonts.com/fonts/marksimonson/proxima-nova/regular//
</text></description><license url="http://new.myfonts.com/license/910,1146"/><copyright><text lang="en">Copyright (c) Mark Simonson, 2005. All rights reserved.</text></copyright><trademark><text lang="en">Proxima Nova is a trademark of Mark Simonson.</text></trademark></metadata>
<defs >
<font id="ProximaNova-Regular" horiz-adv-x="437" ><font-face
    font-family="Proxima Nova Rg"
    units-per-em="1000"
    panose-1="2 0 5 6 3 0 0 2 0 4"
    ascent="775"
    descent="-225"
    alphabetic="0" />
<missing-glyph horiz-adv-x="507" d="M429 -90H78V752H429V-90ZM397 -60V722H109V-60H397Z" />
<glyph unicode=" " glyph-name="space" horiz-adv-x="258" />
<glyph unicode="!" glyph-name="exclam" horiz-adv-x="230" d="M146 187H84L68 667H162L146 187ZM137 -10T115 -10T77 6T60 45Q60 68 76 84T115 100T154 84T170 45Q170 23 154 7Z" />
<glyph unicode="&quot;" glyph-name="quotedbl" horiz-adv-x="343" d="M118 412H81Q54 617 54 631Q54 650 67 663T99 677T131 664T145 631L118 412ZM263 412H226Q199 617 199 631Q199 650 212 663T245 677T277 664T290 631L263 412Z" />
<glyph unicode="#" glyph-name="numbersign" horiz-adv-x="590" d="M300 0H239L300 181H189L129 0H67L128 181H22L39 234H146L212 433H104L120 485H230L290 667H352L292 485H402L462 667H523L462 485H569L554 433H445L378 234H489L473 181H360L300 0ZM317 234L383
433H273L207 234H317Z" />
<glyph unicode="$" glyph-name="dollar" horiz-adv-x="593" d="M271 -100V-11Q127 -3 42 94L91 157Q164 75 271 63V307Q233 317 210 325T155 348T106 382T76 428T63 492Q63 569 121 620T271 676V768H332V675Q453 663 529 584L479 523Q420 586 332 599V382Q379
369 410 357T475 322T527 265T544 184Q544 108 492 53T332 -11V-100H271ZM458 177Q458 222 426 247T332 290V63Q397 70 427 103T458 177ZM149 497Q149 459 180 438T271 398V602Q217 598 183 570T149 497Z" />
<glyph unicode="%" glyph-name="percent" horiz-adv-x="731" d="M262 348T191 348T76 394T31 511Q31 582 76 629T191 677Q262 677 307 630T353 511Q353 441 308 395ZM182 0H128L554 667H609L182 0ZM610 -12T539 -12T424 34T379 151Q379 222 424 269T539 317Q610
317 655 270T700 151Q700 81 655 35ZM147 398T191 398T264 430T293 511Q293 561 265 593T191 626Q147 626 119 594T91 511Q91 463 119 431ZM495 38T539 38T612 70T641 151Q641 201 613 233T539 266T466 234T438 151Q438 103 466 71Z" />
<glyph unicode="&amp;" glyph-name="ampersand" horiz-adv-x="641" d="M613 0H509Q479 26 436 70Q354 -12 244 -12Q153 -12 95 36T36 174Q36 245 75 290T183 372Q132 459 132 522Q132 588 180 632T300 677Q367 677 409 643T451 546Q451 510 438 482T396 430T346
393T281 358Q313 314 358 263Q394 220 437 174Q481 239 509 326L574 298Q525 184 483 126Q533 74 613 0ZM251 50Q325 50 391 116Q325 185 299 217Q253 270 215 323Q168 294 143 261T117 179Q117 119 156 85T251 50ZM210 521Q210 474 250 406Q315 438 348 468T382
543Q382 579 360 598T303 618Q264 618 237 591T210 521Z" />
<glyph unicode="&apos;" glyph-name="quotesingle" horiz-adv-x="199" d="M118 412H81Q54 617 54 631Q54 650 67 663T99 677T131 664T145 631L118 412Z" />
<glyph unicode="(" glyph-name="parenleft" horiz-adv-x="248" d="M230 -164L185 -199Q44 -6 44 243Q44 491 185 685L230 651Q177 546 152 453T126 243T151 33T230 -164Z" />
<glyph unicode=")" glyph-name="parenright" horiz-adv-x="248" d="M62 -199L17 -164Q70 -61 96 32T122 243Q122 361 96 454T17 651L62 685Q204 492 204 243Q204 -7 62 -199Z" />
<glyph unicode="*" glyph-name="asterisk" horiz-adv-x="340" d="M193 389H147L152 504L56 441L34 481L136 533L34 585L56 624L152 562L147 677H193L187 562L283 624L306 585L204 533L306 481L283 441L187 504L193 389Z" />
<glyph unicode="+" glyph-name="plus" horiz-adv-x="499" d="M470 311H278V98H221V311H29V363H221V570H278V363H470V311Z" />
<glyph unicode="," glyph-name="comma" horiz-adv-x="230" d="M176 24Q176 -20 153 -60T94 -127L57 -96Q82 -80 100 -54T122 -3Q118 -5 108 -5Q87 -5 74 9T60 46T75 84T113 100Q139 100 157 80T176 24Z" />
<glyph unicode="-" glyph-name="hyphen" horiz-adv-x="300" d="M270 209H30V275H270V209Z" />
<glyph unicode="." glyph-name="period" horiz-adv-x="230" d="M138 -10T115 -10T76 6T60 45T76 84T115 100T154 84T170 45T154 6Z" />
<glyph unicode="/" glyph-name="slash" horiz-adv-x="296" d="M59 -20H0L237 687H296L59 -20Z" />
<glyph unicode="0" glyph-name="zero" horiz-adv-x="612" d="M306 -12Q240 -12 190 18T110 100T66 210T51 333T65 456T109 565T189 646T306 677Q371 677 422 647T502 566T546 456T561 333T547 210T503 100T422 19T306 -12ZM246 62T306 62T406 103T461 203T476
333T461 463T406 562T306 603T206 562T151 463T136 333T151 203T206 104Z" />
<glyph unicode="1" glyph-name="one" horiz-adv-x="339" d="M261 0H178V557L71 444L21 495L188 667H261V0Z" />
<glyph unicode="2" glyph-name="two" horiz-adv-x="588" d="M512 0H54V66Q158 148 215 196T326 299T402 396T424 481Q424 541 383 572T285 603Q170 603 104 519L53 572Q91 622 152 649T285 677Q376 677 442 626T509 481Q509 388 429 296T185 74H512V0Z" />
<glyph unicode="3" glyph-name="three" horiz-adv-x="557" d="M266 -12Q186 -12 124 19T29 98L78 150Q108 110 157 86T264 62Q337 62 378 95T420 187Q420 247 376 276T254 305Q195 305 185 304V380Q196 379 254 379Q322 379 365 406T409 489Q409 542 367 572T260
603Q159 603 84 522L38 574Q123 677 266 677Q365 677 428 630T492 499Q492 433 448 394T348 344Q403 339 452 296T502 180Q502 95 438 42T266 -12Z" />
<glyph unicode="4" glyph-name="four" horiz-adv-x="558" d="M432 0H349V169H32V238L318 667H432V242H526V169H432V0ZM349 242V590L115 242H349Z" />
<glyph unicode="5" glyph-name="five" horiz-adv-x="590" d="M301 -12Q147 -12 66 95L117 150Q186 62 301 62Q369 62 412 103T455 205Q455 270 413 309T302 349Q212 349 148 286L87 307V667H495V593H170V361Q230 421 326 421Q414 421 476 364T538 208Q538 108
471 48T301 -12Z" />
<glyph unicode="6" glyph-name="six" horiz-adv-x="591" d="M308 -12Q241 -12 190 16T110 92T66 201T51 332Q51 426 79 502T169 627T322 677Q437 677 507 597L465 535Q407 603 322 603Q260 603 217 564T154 468T134 341Q134 324 135 315Q160 355 212 387T324 419Q419
419 480 364T542 206Q542 115 478 52T308 -12ZM305 62Q377 62 417 105T458 203Q458 273 415 310T304 347Q255 347 210 320T137 247Q144 173 185 118T305 62Z" />
<glyph unicode="7" glyph-name="seven" horiz-adv-x="515" d="M213 0H121L390 593H31V667H486V610L213 0Z" />
<glyph unicode="8" glyph-name="eight" horiz-adv-x="581" d="M393 -12T291 -12T121 37T52 169Q52 232 97 278T211 344Q147 362 105 402T63 504Q63 588 131 632T291 677T451 633T520 504Q520 443 478 403T371 344Q439 324 484 278T530 169Q530 87 462 38ZM291
378Q311 381 331 388T378 407T420 442T436 493Q436 543 395 573T291 603Q228 603 187 573T146 493Q146 465 162 443T204 408T250 389T291 378ZM291 62Q355 62 400 94T446 178Q446 218 415 248T351 291T291 307Q264 304 232 292T167 249T135 178Q135 126 180 94T291
62Z" />
<glyph unicode="9" glyph-name="nine" horiz-adv-x="591" d="M269 -11Q154 -11 84 69L126 131Q184 63 269 63Q333 63 377 103T439 200T457 324Q457 342 456 351Q431 311 379 279T268 247Q173 247 111 302T49 460Q49 550 113 614T282 678Q350 678 401 650T481 573T525
464T540 333Q540 239 512 164T422 39T269 -11ZM287 319Q336 319 381 346T453 418Q447 492 406 548T286 604Q215 604 174 560T133 463Q133 393 176 356T287 319Z" />
<glyph unicode=":" glyph-name="colon" horiz-adv-x="230" d="M138 380T115 380T76 396T60 435T76 474T115 490T154 474T170 435T154 396ZM138 -10T115 -10T76 6T60 45T76 84T115 100T154 84T170 45T154 6Z" />
<glyph unicode=";" glyph-name="semicolon" horiz-adv-x="230" d="M137 380T115 380T77 396T60 435Q60 458 76 474T115 490T154 474T170 435Q170 413 154 397ZM176 26Q176 -19 153 -59T94 -125L57 -95Q81 -79 100 -52T122 -1Q116 -4 108 -4Q87 -4 74 10T60 47Q60
70 75 86T113 102Q139 102 157 82T176 26Z" />
<glyph unicode="&lt;" glyph-name="less" horiz-adv-x="499" d="M470 90L29 308V361L470 580V517L93 334L470 152V90Z" />
<glyph unicode="=" glyph-name="equal" horiz-adv-x="499" d="M470 404H29V457H470V404ZM470 211H29V263H470V211Z" />
<glyph unicode="&gt;" glyph-name="greater" horiz-adv-x="499" d="M470 308L29 90V152L405 334L29 517V580L470 361V308Z" />
<glyph unicode="?" glyph-name="question" horiz-adv-x="462" d="M203 185Q164 218 164 266Q164 296 177 321T211 362T254 395T298 428T331 464T345 510Q345 550 315 576T227 603Q130 603 68 521L18 575Q97 677 235 677Q324 677 377 633T431 522Q431 471 401 432T334
371T268 321T237 260Q237 232 264 211L203 185ZM246 -10T224 -10T186 6T169 45T185 84T224 100T262 84T279 45T263 6Z" />
<glyph unicode="@" glyph-name="at" horiz-adv-x="783" d="M352 -70Q216 -70 126 20T35 244Q35 404 154 521T432 638Q571 638 659 547T747 321Q747 210 695 148T574 85Q534 85 510 108T483 166L482 172Q455 134 413 110T324 85Q255 85 213 130T171 248Q171 350
243 424T406 499Q452 499 485 477T534 421L547 483H615L558 212Q556 200 556 191Q556 166 569 153T603 139Q641 139 676 184T711 321Q711 445 633 524T428 604Q284 604 177 496T69 246Q69 125 150 44T356 -37Q453 -37 542 19L560 -7Q462 -70 352 -70ZM344 141Q431
141 493 231L522 369Q512 398 486 420T419 443Q346 443 294 385T242 252Q242 203 269 172T344 141Z" />
<glyph unicode="A" glyph-name="A" horiz-adv-x="658" d="M649 0H554L495 148H163L104 0H9L277 667H380L649 0ZM470 222L329 581L187 222H470Z" />
<glyph unicode="B" glyph-name="B" horiz-adv-x="629" d="M382 0H78V667H375Q461 667 511 620T562 497Q562 437 528 396T445 344Q498 336 536 288T575 180Q575 99 524 50T382 0ZM361 378Q416 378 446 408T476 485T446 562T361 593H161V378H361ZM365 74Q423 74
456 105T489 189Q489 238 457 271T365 304H161V74H365Z" />
<glyph unicode="C" glyph-name="C" horiz-adv-x="676" d="M394 -12Q248 -12 150 84T51 333T149 581T394 678Q554 678 647 546L577 507Q548 550 499 577T394 604Q284 604 211 528T137 333T210 139T394 62Q450 62 499 88T577 159L648 120Q551 -12 394 -12Z" />
<glyph unicode="D" glyph-name="D" horiz-adv-x="700" d="M306 0H78V667H306Q459 667 553 572T648 333Q648 188 554 94T306 0ZM306 74Q424 74 493 148T562 333Q562 445 494 519T306 593H161V74H306Z" />
<glyph unicode="E" glyph-name="E" horiz-adv-x="569" d="M515 0H78V667H515V593H161V378H508V304H161V74H515V0Z" />
<glyph unicode="F" glyph-name="F" horiz-adv-x="550" d="M161 0H78V667H515V593H161V378H508V304H161V0Z" />
<glyph unicode="G" glyph-name="G" horiz-adv-x="713" d="M394 -13Q249 -13 150 83T51 333T150 582T394 678Q552 678 653 553L587 512Q555 554 504 579T394 604Q284 604 211 528T137 333T210 138T394 61Q449 61 496 82T573 133V269H344V343H656V102Q553 -13 394 -13Z" />
<glyph unicode="H" glyph-name="H" horiz-adv-x="712" d="M634 0H551V306H161V0H78V667H161V380H551V667H634V0Z" />
<glyph unicode="I" glyph-name="I" horiz-adv-x="239" d="M161 0H78V667H161V0Z" />
<glyph unicode="J" glyph-name="J" horiz-adv-x="475" d="M185 -12Q77 -12 11 65L54 128Q109 62 180 62Q241 62 277 100T314 202V667H397V201Q397 97 338 43T185 -12Z" />
<glyph unicode="K" glyph-name="K" horiz-adv-x="601" d="M584 0H481L228 300L161 224V0H78V667H161V322L456 667H560L282 350L584 0Z" />
<glyph unicode="L" glyph-name="L" horiz-adv-x="510" d="M471 0H78V667H161V74H471V0Z" />
<glyph unicode="M" glyph-name="M" horiz-adv-x="809" d="M731 0H648V549L421 0H387L161 549V0H78V667H197L404 165L612 667H731V0Z" />
<glyph unicode="N" glyph-name="N" horiz-adv-x="708" d="M630 0H550L161 532V0H78V667H163L547 146V667H630V0Z" />
<glyph unicode="O" glyph-name="O" horiz-adv-x="765" d="M382 -12Q235 -12 143 86T51 333T143 580T382 678Q528 678 620 580T713 333T621 86T382 -12ZM382 62Q492 62 559 138T627 333Q627 452 560 528T382 604Q271 604 204 528T137 333Q137 215 204 139T382 62Z" />
<glyph unicode="P" glyph-name="P" horiz-adv-x="587" d="M161 0H78V667H346Q443 667 499 609T555 466T499 323T346 265H161V0ZM336 339Q395 339 432 374T469 466T432 557T336 593H161V339H336Z" />
<glyph unicode="Q" glyph-name="Q" horiz-adv-x="765" d="M382 -12Q235 -12 143 86T51 333T143 580T382 678Q528 678 620 580T713 333T621 87L685 19L627 -31L562 38Q484 -12 382 -12ZM382 62Q453 62 509 96L414 199L472 248L566 146Q627 221 627 333Q627 452
560 528T382 604Q271 604 204 528T137 333Q137 215 204 139T382 62Z" />
<glyph unicode="R" glyph-name="R" horiz-adv-x="608" d="M562 0H464L294 265H161V0H78V667H346Q439 667 497 612T555 466Q555 380 505 329T382 272L562 0ZM336 338Q395 338 432 374T469 466T432 557T336 593H161V338H336Z" />
<glyph unicode="S" glyph-name="S" horiz-adv-x="586" d="M294 -12Q132 -12 38 94L87 157Q172 62 297 62Q378 62 416 96T454 177Q454 212 432 236T376 273T299 298T214 322T138 355T81 409T59 492Q59 574 124 625T288 677Q437 677 525 584L475 523Q402 603 282
603Q222 603 184 574T145 497Q145 462 174 439T247 405T342 378T437 343T510 283T540 184Q540 102 480 45T294 -12Z" />
<glyph unicode="T" glyph-name="T" horiz-adv-x="570" d="M326 0H243V593H32V667H538V593H326V0Z" />
<glyph unicode="U" glyph-name="U" horiz-adv-x="700" d="M483 -12T350 -12T148 60T78 259V667H161V261Q161 168 210 115T350 62T490 115T539 261V667H622V260Q622 133 553 61Z" />
<glyph unicode="V" glyph-name="V" horiz-adv-x="658" d="M380 0H277L9 667H104L329 91L554 667H649L380 0Z" />
<glyph unicode="W" glyph-name="W" horiz-adv-x="883" d="M678 0H588L441 538L294 0H204L14 667H106L254 111L407 667H476L629 111L776 667H868L678 0Z" />
<glyph unicode="X" glyph-name="X" horiz-adv-x="652" d="M639 0H539L326 284L113 0H12L272 342L27 667H128L326 400L523 667H624L380 343L639 0Z" />
<glyph unicode="Y" glyph-name="Y" horiz-adv-x="626" d="M355 0H272V282L9 667H106L313 357L520 667H617L355 282V0Z" />
<glyph unicode="Z" glyph-name="Z" horiz-adv-x="585" d="M536 0H48V69L423 593H48V667H529V598L154 74H536V0Z" />
<glyph unicode="[" glyph-name="bracketleft" horiz-adv-x="243" d="M226 -190H40V678H226V623H98V-135H226V-190Z" />
<glyph unicode="\" glyph-name="backslash" horiz-adv-x="296" d="M237 -20L0 687H59L296 -20H237Z" />
<glyph unicode="]" glyph-name="bracketright" horiz-adv-x="243" d="M203 -190H17V-135H145V623H17V678H203V-190Z" />
<glyph unicode="^" glyph-name="asciicircum" horiz-adv-x="432" d="M413 333H351L216 612L81 333H19L188 667H245L413 333Z" />
<glyph unicode="_" glyph-name="underscore" horiz-adv-x="564" d="M567 -95H-3V-40H567V-95Z" />
<glyph unicode="`" glyph-name="grave" horiz-adv-x="226" d="M226 556H169L0 700H78L226 556Z" />
<glyph unicode="a" glyph-name="a" horiz-adv-x="527" d="M452 0H377V55Q316 -12 217 -12Q150 -12 99 31T48 148Q48 224 98 265T217 307Q320 307 377 241V328Q377 376 343 403T255 430Q170 430 107 363L72 415Q149 495 265 495Q348 495 400 455T452 332V0ZM244
42Q334 42 377 102V193Q334 253 244 253Q192 253 159 224T125 147Q125 101 158 72T244 42Z" />
<glyph unicode="b" glyph-name="b" horiz-adv-x="575" d="M150 131Q170 99 210 77T294 55Q366 55 408 107T450 241T408 375T294 428Q251 428 211 406T150 350V131ZM150 0H75V667H150V410Q213 495 313 495Q408 495 468 426T528 241Q528 125 469 57T313 -12Q212
-12 150 72V0Z" />
<glyph unicode="c" glyph-name="c" horiz-adv-x="495" d="M288 -12Q181 -12 114 60T47 242T114 423T288 495Q400 495 465 411L415 365Q369 428 292 428Q216 428 171 376T125 242T170 108T292 55T415 118L465 72Q400 -12 288 -12Z" />
<glyph unicode="d" glyph-name="d" horiz-adv-x="575" d="M500 0H425V72Q363 -12 262 -12Q166 -12 107 56T47 241Q47 356 106 425T262 495Q362 495 425 410V667H500V0ZM280 55Q324 55 364 77T425 131V350Q404 383 364 405T280 428Q209 428 167 376T125 241T167
107T280 55Z" />
<glyph unicode="e" glyph-name="e" horiz-adv-x="563" d="M293 -12Q185 -12 116 58T47 242Q47 348 115 421T285 495Q392 495 454 422T517 236V217H126Q131 146 178 98T300 50Q390 50 449 111L485 62Q411 -12 293 -12ZM443 272Q442 334 401 383T284 433Q212 433
171 384T126 272H443Z" />
<glyph unicode="f" glyph-name="f" horiz-adv-x="283" d="M171 0H96V417H16V483H96V520Q96 594 133 635T236 677Q298 677 338 640L307 591Q280 615 247 615Q210 615 191 591T171 520V483H269V417H171V0Z" />
<glyph unicode="g" glyph-name="g" horiz-adv-x="574" d="M269 -196Q205 -196 160 -181T74 -124L112 -68Q167 -134 269 -134Q336 -134 380 -99T424 11V80Q397 42 354 18T262 -6Q166 -6 107 61T47 244T106 427T262 495Q361 495 424 410V483H499V14Q499 -97 434
-146T269 -196ZM280 60Q323 60 363 83T424 139V350Q404 383 364 405T280 428Q208 428 167 377T125 244Q125 163 167 112T280 60Z" />
<glyph unicode="h" glyph-name="h" horiz-adv-x="552" d="M477 0H402V318Q402 378 374 403T293 428Q252 428 213 406T150 353V0H75V667H150V413Q178 446 225 470T323 495Q477 495 477 341V0Z" />
<glyph unicode="i" glyph-name="i" horiz-adv-x="225" d="M112 552Q92 552 77 566T62 602T77 638T112 653Q133 653 148 638T163 602T148 567T112 552ZM150 0H75V483H150V0Z" />
<glyph unicode="j" glyph-name="j" horiz-adv-x="225" d="M112 552Q92 552 77 566T62 602T77 638T112 653Q133 653 148 638T163 602T148 567T112 552ZM7 -196Q-52 -196 -99 -160L-72 -103Q-41 -134 -3 -134Q33 -134 54 -113T75 -47V483H150V-47Q150 -118 113 -157T7
-196Z" />
<glyph unicode="k" glyph-name="k" horiz-adv-x="514" d="M500 0H404L230 217L150 138V0H75V667H150V226L404 483H499L285 264L500 0Z" />
<glyph unicode="l" glyph-name="l" horiz-adv-x="225" d="M150 0H75V667H150V0Z" />
<glyph unicode="m" glyph-name="m" horiz-adv-x="808" d="M733 0H658V328Q658 428 569 428Q533 428 497 406T441 354V0H366V328Q366 428 277 428Q242 428 207 406T150 353V0H75V483H150V413Q168 441 213 468T306 495Q359 495 392 470T436 405Q458 441 503 468T598
495Q733 495 733 349V0Z" />
<glyph unicode="n" glyph-name="n" horiz-adv-x="551" d="M476 0H401V316Q401 377 373 402T293 428Q251 428 212 406T150 353V0H75V483H150V413Q178 446 225 470T322 495Q476 495 476 339V0Z" />
<glyph unicode="o" glyph-name="o" horiz-adv-x="572" d="M394 -12T286 -12T113 61T47 242T112 422T286 495T459 423T525 242T460 61ZM212 55T286 55T403 109T446 242T403 374T286 428T169 374T125 242Q125 164 168 110Z" />
<glyph unicode="p" glyph-name="p" horiz-adv-x="572" d="M313 -12Q211 -12 150 73V-184H75V483H150V411Q177 449 220 472T313 495Q409 495 468 427T528 242T469 57T313 -12ZM294 55Q365 55 407 107T449 242T407 376T294 428Q251 428 211 406T150 351V133Q170
100 210 78T294 55Z" />
<glyph unicode="q" glyph-name="q" horiz-adv-x="572" d="M277 55Q321 55 361 77T421 133V351Q402 383 362 405T277 428Q206 428 165 376T123 242T164 108T277 55ZM259 -12Q163 -12 104 57T44 242T103 426T259 495Q309 495 352 472T421 411V483H496V-184H421V73Q360
-12 259 -12Z" />
<glyph unicode="r" glyph-name="r" horiz-adv-x="330" d="M150 0H75V483H150V405Q217 493 311 493V416Q297 419 281 419Q247 419 207 395T150 342V0Z" />
<glyph unicode="s" glyph-name="s" horiz-adv-x="465" d="M228 -12Q105 -12 33 64L72 118Q97 89 140 69T231 49Q285 49 315 72T345 132Q345 164 314 182T240 210T152 232T77 275T46 356Q46 415 94 455T226 495Q335 495 405 425L370 373Q319 434 226 434Q177 434
148 413T119 358Q119 329 150 313T224 287T312 264T387 219T418 134Q418 70 368 29T228 -12Z" />
<glyph unicode="t" glyph-name="t" horiz-adv-x="294" d="M197 -12Q144 -12 117 17T90 101V417H10V483H90V615H165V483H263V417H165V117Q165 89 177 72T214 55Q247 55 265 75L287 19Q254 -12 197 -12Z" />
<glyph unicode="u" glyph-name="u" horiz-adv-x="551" d="M476 0H401V68Q371 34 326 11T229 -12Q75 -12 75 142V483H150V165Q150 105 177 80T258 55Q300 55 339 76T401 128V483H476V0Z" />
<glyph unicode="v" glyph-name="v" horiz-adv-x="490" d="M286 0H204L3 483H84L245 87L405 483H487L286 0Z" />
<glyph unicode="w" glyph-name="w" horiz-adv-x="734" d="M568 0H493L367 388L241 0H166L12 483H90L208 98L335 483H399L526 98L644 483H722L568 0Z" />
<glyph unicode="x" glyph-name="x" horiz-adv-x="486" d="M475 0H388L243 198L98 0H12L197 248L22 483H109L243 299L377 483H464L289 248L475 0Z" />
<glyph unicode="y" glyph-name="y" horiz-adv-x="490" d="M48 -189L60 -121Q78 -129 101 -129Q127 -129 144 -118T173 -78L205 -5L3 483H84L245 87L405 483H487L245 -98Q205 -194 103 -196Q73 -196 48 -189Z" />
<glyph unicode="z" glyph-name="z" horiz-adv-x="472" d="M420 0H52V58L318 417H52V483H416V426L148 65H420V0Z" />
<glyph unicode="{" glyph-name="braceleft" horiz-adv-x="260" d="M243 -190H182Q132 -190 95 -153T57 -56V150Q57 180 44 199T5 219V269Q30 269 43 288T57 338V543Q57 603 94 640T182 678H243V623H182Q155 623 136 601T116 543V332Q116 264 70 244Q116 224 116
156V-55Q116 -89 135 -112T182 -135H243V-190Z" />
<glyph unicode="|" glyph-name="bar" horiz-adv-x="211" d="M133 -20H78V687H133V-20Z" />
<glyph unicode="}" glyph-name="braceright" horiz-adv-x="260" d="M17 -190V-135H78Q105 -135 124 -112T144 -55V156Q144 224 190 244Q144 264 144 332V543Q144 578 125 600T78 623H17V678H78Q128 678 165 641T203 543V338Q203 308 216 289T255 269V219Q230 219
217 200T203 150V-56Q203 -115 166 -152T78 -190H17Z" />
<glyph unicode="~" glyph-name="asciitilde" horiz-adv-x="503" d="M419 667L475 660Q470 609 463 571T440 497T399 442T337 423Q302 423 279 442T245 490T224 546T200 593T165 613Q102 613 83 422L27 429Q32 479 40 517T63 592T104 647T165 666T223 647T258 599T279
542T302 495T337 475Q402 475 419 667Z" />
<glyph unicode="&#xa0;" glyph-name="nbspace" horiz-adv-x="258" />
<glyph unicode="&#xa1;" glyph-name="exclamdown" horiz-adv-x="230" d="M69 -184L84 296H146L162 -184H69ZM60 416T60 438T76 476T115 493T153 477T170 438T154 400T115 383T76 399Z" />
<glyph unicode="&#xa2;" glyph-name="cent" horiz-adv-x="495" d="M252 -100V-9Q160 3 104 72T47 242Q47 340 103 409T252 492V565H311V494Q405 486 465 411L415 365Q375 419 311 427V56Q374 62 415 118L465 72Q407 -3 311 -11V-100H252ZM125 242Q125 172 159
122T252 59V423Q193 410 159 361T125 242Z" />
<glyph unicode="&#xa3;" glyph-name="sterling" horiz-adv-x="518" d="M19 268V322H125Q97 354 87 367T62 413T48 480Q48 562 114 619T272 677Q340 677 393 648T474 565L407 525Q393 559 359 583T280 607Q221 607 179 572T137 479Q137 453 146 429T163 392T192
355T218 322H368V268H246Q253 245 253 225Q253 147 177 93Q202 102 229 102Q262 102 305 82T377 61Q408 61 434 73T472 101L508 34Q459 -13 373 -13Q326 -13 278 10T194 33Q152 33 76 -7L46 55Q110 84 144 123T179 208Q179 238 164 268H19Z" />
<glyph unicode="&#xa4;" glyph-name="currency" horiz-adv-x="598" d="M299 93Q213 93 150 140L75 64L28 109L105 186Q60 250 60 333Q60 419 106 480L27 559L74 605L152 526Q214 572 299 572Q385 572 445 526L523 604L569 558L491 480Q538 417 538 333Q538 250
492 185L569 109L523 64L446 139Q384 93 299 93ZM224 161T299 161T417 211T461 333T418 453T299 503T181 453T137 333Q137 262 180 212Z" />
<glyph unicode="&#xa5;" glyph-name="yen" horiz-adv-x="626" d="M355 0H272V122H22V175H272V282H22V334H236L9 667H106L313 357L520 667H617L390 334H605V282H355V175H605V122H355V0Z" />
<glyph unicode="&#xa6;" glyph-name="brokenbar" horiz-adv-x="211" d="M133 -20H78V296H133V-20ZM133 371H78V687H133V371Z" />
<glyph unicode="&#xa7;" glyph-name="section" horiz-adv-x="468" d="M418 315Q418 228 326 187Q418 152 418 66Q418 -3 366 -42T228 -81Q114 -81 34 -3L72 46Q132 -26 228 -26Q281 -26 313 -3T345 61Q345 95 314 114T240 144T152 167T77 210T46 290Q46 340 78
372T161 418Q46 454 46 541Q46 599 94 638T226 677Q343 677 404 606L370 561Q320 621 228 621Q180 621 150 599T119 541Q119 510 150 493T224 466T312 444T387 399T418 315ZM344 305Q344 344 314 364T231 397Q169 381 144 357T119 298Q119 251 186 228Q204 221
261 207Q344 243 344 305Z" />
<glyph unicode="&#xa8;" glyph-name="dieresis" horiz-adv-x="272" d="M286 623T286 604T272 571T239 557T206 571T192 604T206 636T239 650T272 637ZM79 623T79 604T66 571T33 557T0 570T-14 604Q-14 623 0 636T33 650T65 637Z" />
<glyph unicode="&#xa9;" glyph-name="copyright" horiz-adv-x="778" d="M734 477T734 334T633 90T389 -11T145 90T44 334Q44 477 145 578T389 679T633 578ZM703 204T703 334T611 556T389 648T167 556T75 334T167 112T389 20T611 112ZM512 212L538 187Q481 121
391 121Q304 121 244 182T183 335T243 487T391 548Q481 548 537 482L512 458Q493 484 460 499T391 515Q321 515 271 465T220 335Q220 258 271 206T391 154Q427 154 459 170T512 212Z" />
<glyph unicode="&#xaa;" glyph-name="ordfeminine" horiz-adv-x="378" d="M317 326H260V361Q220 318 153 318Q109 318 75 346T41 422Q41 471 74 498T153 525Q220 525 260 483V538Q260 568 237 585T181 603Q122 603 82 557L57 594Q109 648 188 648Q245 648 281
621T317 537V326ZM175 356Q231 356 260 394V450Q231 488 175 488Q142 488 121 470T99 422Q99 392 120 374T175 356Z" />
<glyph unicode="&#xab;" glyph-name="guillemotleft" horiz-adv-x="439" d="M265 63H190L30 243L190 420H265L105 243L265 63ZM409 63H334L174 243L334 420H409L249 243L409 63Z" />
<glyph unicode="&#xac;" glyph-name="logicalnot" horiz-adv-x="504" d="M470 457V211H415V404H29V457H470Z" />
<glyph unicode="&#xad;" glyph-name="uni00AD" horiz-adv-x="300" d="M270 209H30V275H270V209Z" />
<glyph unicode="&#xae;" glyph-name="registered" horiz-adv-x="494" d="M459 465Q459 377 397 315T247 253T97 315T35 465T97 615T247 677Q336 677 397 616T459 465ZM430 389T430 465T377 594T247 648Q170 648 117 595T63 465T117 335T247 281T376 335ZM345 343H305L242
439H198V343H166V586H265Q297 586 319 566T342 512Q342 477 320 459T280 440L345 343ZM309 512Q309 531 296 544T265 558H198V468H265Q281 468 295 481T309 512Z" />
<glyph unicode="&#xaf;" glyph-name="overscore" horiz-adv-x="363" d="M363 572H0V620H363V572Z" />
<glyph unicode="&#xb0;" glyph-name="degree" horiz-adv-x="290" d="M267 555Q267 504 231 469T144 433Q94 433 59 468T23 555Q23 605 58 641T144 677Q195 677 231 641T267 555ZM219 555Q219 585 197 607T144 629Q114 629 93 607T72 555Q72 524 93 503T144 481Q175
481 197 502T219 555Z" />
<glyph unicode="&#xb1;" glyph-name="plusminus" horiz-adv-x="499" d="M470 324H278V110H221V324H29V376H221V583H278V376H470V324ZM470 0H29V52H470V0Z" />
<glyph unicode="&#xb2;" glyph-name="twosuperior" horiz-adv-x="388" d="M341 421H50V466Q174 554 226 606T279 705Q279 741 254 759T194 778Q121 778 82 726L49 764Q99 827 196 827Q256 827 297 797T339 709Q339 653 289 598T138 470H341V421Z" />
<glyph unicode="&#xb3;" glyph-name="threesuperior" horiz-adv-x="388" d="M343 530Q343 478 302 446T192 414Q89 414 42 479L74 517Q118 463 190 463Q233 463 258 482T283 533Q283 602 179 602Q145 602 139 601V651Q146 650 178 650Q276 650 276 714Q276 744
251 761T187 778Q123 778 78 729L47 765Q102 827 192 827Q256 827 296 798T336 720Q336 680 309 657T247 627Q281 624 312 599T343 530Z" />
<glyph unicode="&#xb4;" glyph-name="acute" horiz-adv-x="226" d="M226 700L57 556H0L148 700H226Z" />
<glyph unicode="&#xb5;" glyph-name="mu" horiz-adv-x="565" d="M150 36V-184H75V483H150V165Q150 53 260 53Q301 53 340 75T401 128V483H476V113Q476 55 523 55Q534 55 542 57L548 -8Q526 -12 508 -12Q420 -12 404 74Q377 37 336 13T251 -12Q176 -12 150 36Z" />
<glyph unicode="&#xb6;" glyph-name="paragraph" horiz-adv-x="449" d="M378 -100H333V622H244V-100H199V323Q128 323 78 373T27 495T77 616T199 667H378V-100Z" />
<glyph unicode="&#xb7;" glyph-name="middot" horiz-adv-x="230" d="M170 266T170 244T154 206T115 190T77 206T60 244T76 282T115 299T154 283Z" />
<glyph unicode="&#xb8;" glyph-name="cedilla" horiz-adv-x="205" d="M101 -191Q38 -191 0 -161L19 -123Q54 -152 99 -152Q124 -152 142 -141T160 -110Q160 -75 123 -75Q100 -75 85 -92L52 -73L83 11H128L102 -55Q118 -44 139 -44Q168 -44 186 -62T205 -111Q205
-147 175 -169T101 -191Z" />
<glyph unicode="&#xb9;" glyph-name="onesuperior" horiz-adv-x="235" d="M175 421H115V743L49 674L14 711L122 821H175V421Z" />
<glyph unicode="&#xba;" glyph-name="ordmasculine" horiz-adv-x="405" d="M202 318Q129 318 85 365T40 483T84 600T202 648Q276 648 320 601T365 483T321 366T202 318ZM202 366Q250 366 278 399T306 483Q306 533 278 565T202 598Q155 598 128 566T100 483Q100
432 127 399T202 366Z" />
<glyph unicode="&#xbb;" glyph-name="guillemotright" horiz-adv-x="439" d="M409 243L249 63H174L334 243L174 420H249L409 243ZM265 243L105 63H30L190 243L30 420H105L265 243Z" />
<glyph unicode="&#xbc;" glyph-name="onequarter" horiz-adv-x="770" d="M175 267H115V589L49 520L14 557L122 667H175V267ZM733 100H675V0H616V100H420V144L592 400H675V149H733V100ZM616 149V347L480 149H616ZM590 667L163 0H108L534 667H590Z" />
<glyph unicode="&#xbd;" glyph-name="onehalf" horiz-adv-x="807" d="M175 267H115V589L49 520L14 557L122 667H175V267ZM759 0H468V45Q592 133 644 185T697 284Q697 320 672 338T612 357Q539 357 500 305L467 343Q516 406 614 406Q674 406 715 376T757 288Q757
232 707 177T556 49H759V0ZM590 667L163 0H108L534 667H590Z" />
<glyph unicode="&#xbe;" glyph-name="threequarters" horiz-adv-x="878" d="M842 100H784V0H725V100H529V144L701 400H784V149H842V100ZM725 149V347L589 149H725ZM698 667L271 0H216L642 667H698ZM343 376Q343 324 302 292T192 260Q89 260 42 325L74 363Q118
309 190 309Q233 309 258 328T283 379Q283 448 179 448Q145 448 139 447V497Q146 496 178 496Q276 496 276 560Q276 590 251 607T187 624Q123 624 78 575L47 611Q102 673 192 673Q256 673 296 644T336 566Q336 526 309 503T247 473Q281 470 312 445T343 376Z" />
<glyph unicode="&#xbf;" glyph-name="questiondown" horiz-adv-x="394" d="M258 296Q297 261 297 214Q297 179 279 151T234 104T181 66T136 24T117 -30Q117 -69 147 -95T234 -122Q333 -122 394 -41L443 -94Q365 -196 227 -196Q138 -196 85 -152T31 -41Q31 1 51
34T99 89T155 129T204 171T224 221Q224 249 198 269L258 296ZM216 493T238 493T276 477T293 437Q293 415 277 399T238 383T200 399T183 437Q183 460 199 476Z" />
<glyph unicode="&#xc0;" glyph-name="Agrave" horiz-adv-x="658" d="M386 723H329L160 867H238L386 723ZM649 0H554L495 148H163L104 0H9L277 667H380L649 0ZM470 222L329 581L187 222H470Z" />
<glyph unicode="&#xc1;" glyph-name="Aacute" horiz-adv-x="658" d="M498 867L329 723H272L420 867H498ZM649 0H554L495 148H163L104 0H9L277 667H380L649 0ZM470 222L329 581L187 222H470Z" />
<glyph unicode="&#xc2;" glyph-name="Acircumflex" horiz-adv-x="658" d="M463 723H412L329 829L249 723H198L293 867H365L463 723ZM649 0H554L495 148H163L104 0H9L277 667H380L649 0ZM470 222L329 581L187 222H470Z" />
<glyph unicode="&#xc3;" glyph-name="Atilde" horiz-adv-x="658" d="M389 721Q364 721 346 735T318 767T296 798T266 813Q245 813 232 792T218 727H173Q173 787 198 824T270 861Q294 861 312 847T340 815T363 784T393 769Q414 769 427 790T441 855H486Q486 795
461 758T389 721ZM649 0H554L495 148H163L104 0H9L277 667H380L649 0ZM470 222L329 581L187 222H470Z" />
<glyph unicode="&#xc4;" glyph-name="Adieresis" horiz-adv-x="658" d="M480 790T480 771T466 738T433 724T400 738T386 771T400 803T433 817T466 804ZM273 790T273 771T260 738T227 724T194 738T180 771T194 803T227 817T259 804ZM649 0H554L495 148H163L104
0H9L277 667H380L649 0ZM470 222L329 581L187 222H470Z" />
<glyph unicode="&#xc5;" glyph-name="Aring" horiz-adv-x="658" d="M649 0H554L495 148H163L104 0H9L277 667H380L649 0ZM470 222L329 581L187 222H470ZM370 690T329 690T260 719T231 788Q231 829 260 858T329 887T398 858T427 788Q427 748 399 719ZM305 729T329
729T370 746T387 788Q387 813 371 830T329 847Q305 847 288 830T271 788Q271 764 288 747Z" />
<glyph unicode="&#xc6;" glyph-name="AE" horiz-adv-x="947" d="M893 0H456V148H193L102 0H7L423 667H893V593H539V378H886V304H539V74H893V0ZM456 222V581L234 222H456Z" />
<glyph unicode="&#xc7;" glyph-name="Ccedilla" horiz-adv-x="676" d="M388 -187Q324 -187 287 -157L306 -119Q341 -148 386 -148Q411 -148 429 -137T447 -106Q447 -71 410 -71Q387 -71 372 -88L339 -69L360 -10Q226 1 139 95T51 333Q51 485 149 581T394 678Q554
678 647 546L577 507Q548 550 499 577T394 604Q284 604 211 528T137 333T210 139T394 62Q450 62 499 88T577 159L648 120Q553 -8 404 -12L389 -51Q405 -40 426 -40Q455 -40 473 -58T492 -107Q492 -143 462 -165T388 -187Z" />
<glyph unicode="&#xc8;" glyph-name="Egrave" horiz-adv-x="569" d="M515 0H78V667H515V593H161V378H508V304H161V74H515V0ZM353 723H296L127 867H205L353 723Z" />
<glyph unicode="&#xc9;" glyph-name="Eacute" horiz-adv-x="569" d="M465 867L296 723H239L387 867H465ZM515 0H78V667H515V593H161V378H508V304H161V74H515V0Z" />
<glyph unicode="&#xca;" glyph-name="Ecircumflex" horiz-adv-x="569" d="M428 723H377L294 829L214 723H163L258 867H330L428 723ZM515 0H78V667H515V593H161V378H508V304H161V74H515V0Z" />
<glyph unicode="&#xcb;" glyph-name="Edieresis" horiz-adv-x="569" d="M446 790T446 771T432 738T399 724T366 738T352 771T366 803T399 817T432 804ZM239 790T239 771T226 738T193 724T160 738T146 771T160 803T193 817T225 804ZM515 0H78V667H515V593H161V378H508V304H161V74H515V0Z"
/>
<glyph unicode="&#xcc;" glyph-name="Igrave" horiz-adv-x="239" d="M161 0H78V667H161V0ZM176 723H119L-50 867H28L176 723Z" />
<glyph unicode="&#xcd;" glyph-name="Iacute" horiz-adv-x="239" d="M161 0H78V667H161V0ZM289 867L120 723H63L211 867H289Z" />
<glyph unicode="&#xce;" glyph-name="Icircumflex" horiz-adv-x="239" d="M253 723H202L119 829L39 723H-12L83 867H155L253 723ZM161 0H78V667H161V0Z" />
<glyph unicode="&#xcf;" glyph-name="Idieresis" horiz-adv-x="239" d="M270 790T270 771T256 738T223 724T190 738T176 771T190 803T223 817T256 804ZM63 790T63 771T50 738T17 724T-16 738T-30 771T-16 803T17 817T49 804ZM161 0H78V667H161V0Z" />
<glyph unicode="&#xd0;" glyph-name="Eth" horiz-adv-x="728" d="M334 0H106V299H10V360H106V667H334Q487 667 581 572T676 333Q676 188 582 94T334 0ZM334 74Q452 74 521 148T590 333Q590 445 522 519T334 593H189V360H358V299H189V74H334Z" />
<glyph unicode="&#xd1;" glyph-name="Ntilde" horiz-adv-x="708" d="M412 721Q387 721 369 735T341 767T319 798T289 813Q268 813 255 792T241 727H196Q196 787 221 824T293 861Q317 861 335 847T363 815T386 784T416 769Q437 769 450 790T464 855H509Q509 795
484 758T412 721ZM630 0H550L161 532V0H78V667H163L547 146V667H630V0Z" />
<glyph unicode="&#xd2;" glyph-name="Ograve" horiz-adv-x="765" d="M440 723H383L214 867H292L440 723ZM382 -12Q235 -12 143 86T51 333T143 580T382 678Q528 678 620 580T713 333T621 86T382 -12ZM382 62Q492 62 559 138T627 333Q627 452 560 528T382 604Q271
604 204 528T137 333Q137 215 204 139T382 62Z" />
<glyph unicode="&#xd3;" glyph-name="Oacute" horiz-adv-x="765" d="M552 867L383 723H326L474 867H552ZM382 -12Q235 -12 143 86T51 333T143 580T382 678Q528 678 620 580T713 333T621 86T382 -12ZM382 62Q492 62 559 138T627 333Q627 452 560 528T382 604Q271
604 204 528T137 333Q137 215 204 139T382 62Z" />
<glyph unicode="&#xd4;" glyph-name="Ocircumflex" horiz-adv-x="765" d="M517 723H466L383 829L303 723H252L347 867H419L517 723ZM382 -12Q235 -12 143 86T51 333T143 580T382 678Q528 678 620 580T713 333T621 86T382 -12ZM382 62Q492 62 559 138T627 333Q627
452 560 528T382 604Q271 604 204 528T137 333Q137 215 204 139T382 62Z" />
<glyph unicode="&#xd5;" glyph-name="Otilde" horiz-adv-x="765" d="M442 721Q417 721 399 735T371 767T349 798T319 813Q298 813 285 792T271 727H226Q226 787 251 824T323 861Q347 861 365 847T393 815T416 784T446 769Q467 769 480 790T494 855H539Q539 795
514 758T442 721ZM382 -12Q235 -12 143 86T51 333T143 580T382 678Q528 678 620 580T713 333T621 86T382 -12ZM382 62Q492 62 559 138T627 333Q627 452 560 528T382 604Q271 604 204 528T137 333Q137 215 204 139T382 62Z" />
<glyph unicode="&#xd6;" glyph-name="Odieresis" horiz-adv-x="765" d="M532 790T532 771T518 738T485 724T452 738T438 771T452 803T485 817T518 804ZM325 790T325 771T312 738T279 724T246 738T232 771T246 803T279 817T311 804ZM382 -12Q235 -12 143 86T51
333T143 580T382 678Q528 678 620 580T713 333T621 86T382 -12ZM382 62Q492 62 559 138T627 333Q627 452 560 528T382 604Q271 604 204 528T137 333Q137 215 204 139T382 62Z" />
<glyph unicode="&#xd7;" glyph-name="multiply" horiz-adv-x="499" d="M398 148L249 297L101 148L64 185L212 334L64 482L101 520L249 371L398 520L435 482L287 334L435 185L398 148Z" />
<glyph unicode="&#xd8;" glyph-name="Oslash" horiz-adv-x="765" d="M382 -12Q285 -12 209 33L187 0H121L165 65Q51 163 51 333Q51 482 143 580T382 678Q474 678 549 636L570 667H636L594 605Q651 558 682 488T713 333Q713 184 621 86T382 -12ZM382 62Q492 62
559 138T627 333Q627 463 549 538L252 97Q307 62 382 62ZM137 333Q137 207 210 132L506 572Q450 604 382 604Q271 604 204 528T137 333Z" />
<glyph unicode="&#xd9;" glyph-name="Ugrave" horiz-adv-x="700" d="M483 -12T350 -12T148 60T78 259V667H161V261Q161 168 210 115T350 62T490 115T539 261V667H622V260Q622 133 553 61ZM407 723H350L181 867H259L407 723Z" />
<glyph unicode="&#xda;" glyph-name="Uacute" horiz-adv-x="700" d="M519 867L350 723H293L441 867H519ZM483 -12T350 -12T148 60T78 259V667H161V261Q161 168 210 115T350 62T490 115T539 261V667H622V260Q622 133 553 61Z" />
<glyph unicode="&#xdb;" glyph-name="Ucircumflex" horiz-adv-x="700" d="M485 723H434L351 829L271 723H220L315 867H387L485 723ZM483 -12T350 -12T148 60T78 259V667H161V261Q161 168 210 115T350 62T490 115T539 261V667H622V260Q622 133 553 61Z" />
<glyph unicode="&#xdc;" glyph-name="Udieresis" horiz-adv-x="700" d="M501 790T501 771T487 738T454 724T421 738T407 771T421 803T454 817T487 804ZM294 790T294 771T281 738T248 724Q228 724 215 738T201 771T215 803T248 817T280 804ZM483 -12T350 -12T148
60T78 259V667H161V261Q161 168 210 115T350 62T490 115T539 261V667H622V260Q622 133 553 61Z" />
<glyph unicode="&#xdd;" glyph-name="Yacute" horiz-adv-x="626" d="M355 0H272V282L9 667H106L313 357L520 667H617L355 282V0ZM482 867L313 723H256L404 867H482Z" />
<glyph unicode="&#xde;" glyph-name="Thorn" horiz-adv-x="587" d="M161 0H78V667H161V548H346Q443 548 499 490T555 346Q555 261 499 204T346 146H161V0ZM336 220Q395 220 432 255T469 346T432 438T336 474H161V220H336Z" />
<glyph unicode="&#xdf;" glyph-name="germandbls" horiz-adv-x="597" d="M578 135Q578 73 530 31T392 -12Q326 -12 285 8T206 66L244 118Q267 88 305 69T392 49Q446 49 475 73T505 133Q505 165 476 183T404 212T320 234T248 277T218 356Q218 393 241 422T291 466T341
501T364 542Q364 574 334 592T265 610Q216 610 183 580T150 499V0H75V499Q75 574 127 625T266 677Q338 677 389 643T441 551Q441 514 418 486T366 444T315 407T291 357Q291 329 320 313T392 287T476 265T548 220T578 135Z" />
<glyph unicode="&#xe0;" glyph-name="agrave" horiz-adv-x="527" d="M322 556H265L96 700H174L322 556ZM452 0H377V55Q316 -12 217 -12Q150 -12 99 31T48 148Q48 224 98 265T217 307Q320 307 377 241V328Q377 376 343 403T255 430Q170 430 107 363L72 415Q149
495 265 495Q348 495 400 455T452 332V0ZM244 42Q334 42 377 102V193Q334 253 244 253Q192 253 159 224T125 147Q125 101 158 72T244 42Z" />
<glyph unicode="&#xe1;" glyph-name="aacute" horiz-adv-x="527" d="M434 700L265 556H208L356 700H434ZM452 0H377V55Q316 -12 217 -12Q150 -12 99 31T48 148Q48 224 98 265T217 307Q320 307 377 241V328Q377 376 343 403T255 430Q170 430 107 363L72 415Q149
495 265 495Q348 495 400 455T452 332V0ZM244 42Q334 42 377 102V193Q334 253 244 253Q192 253 159 224T125 147Q125 101 158 72T244 42Z" />
<glyph unicode="&#xe2;" glyph-name="acircumflex" horiz-adv-x="527" d="M398 556H347L264 662L184 556H133L228 700H300L398 556ZM452 0H377V55Q316 -12 217 -12Q150 -12 99 31T48 148Q48 224 98 265T217 307Q320 307 377 241V328Q377 376 343 403T255 430Q170
430 107 363L72 415Q149 495 265 495Q348 495 400 455T452 332V0ZM244 42Q334 42 377 102V193Q334 253 244 253Q192 253 159 224T125 147Q125 101 158 72T244 42Z" />
<glyph unicode="&#xe3;" glyph-name="atilde" horiz-adv-x="527" d="M325 554Q300 554 282 568T254 600T232 631T202 646Q181 646 168 625T154 560H109Q109 620 134 657T206 694Q230 694 248 680T276 648T299 617T329 602Q350 602 363 623T377 688H422Q422 628
397 591T325 554ZM452 0H377V55Q316 -12 217 -12Q150 -12 99 31T48 148Q48 224 98 265T217 307Q320 307 377 241V328Q377 376 343 403T255 430Q170 430 107 363L72 415Q149 495 265 495Q348 495 400 455T452 332V0ZM244 42Q334 42 377 102V193Q334 253 244 253Q192
253 159 224T125 147Q125 101 158 72T244 42Z" />
<glyph unicode="&#xe4;" glyph-name="adieresis" horiz-adv-x="527" d="M452 0H377V55Q316 -12 217 -12Q150 -12 99 31T48 148Q48 224 98 265T217 307Q320 307 377 241V328Q377 376 343 403T255 430Q170 430 107 363L72 415Q149 495 265 495Q348 495 400 455T452
332V0ZM244 42Q334 42 377 102V193Q334 253 244 253Q192 253 159 224T125 147Q125 101 158 72T244 42ZM415 623T415 604T401 571T368 557T335 571T321 604T335 636T368 650T401 637ZM208 623T208 604T195 571T162 557Q142 557 129 570T115 604Q115 623 129 636T162
650T194 637Z" />
<glyph unicode="&#xe5;" glyph-name="aring" horiz-adv-x="527" d="M452 0H377V55Q316 -12 217 -12Q150 -12 99 31T48 148Q48 224 98 265T217 307Q320 307 377 241V328Q377 376 343 403T255 430Q170 430 107 363L72 415Q149 495 265 495Q348 495 400 455T452 332V0ZM244
42Q334 42 377 102V193Q334 253 244 253Q192 253 159 224T125 147Q125 101 158 72T244 42ZM306 543T265 543T196 571T167 641T196 711T265 740T334 711T363 641T335 572ZM241 582T265 582T306 599T323 641Q323 666 307 683T265 700Q241 700 224 683T207 641Q207
617 224 600Z" />
<glyph unicode="&#xe6;" glyph-name="ae" horiz-adv-x="889" d="M843 217H476Q481 146 524 99T637 52Q721 52 776 113L812 62Q740 -12 634 -12Q498 -12 441 104Q415 52 362 20T242 -12Q160 -12 104 30T48 148T99 265T226 307Q338 307 401 243V329Q401 376 365
403T268 430Q174 430 107 363L72 415Q151 495 277 495Q341 495 388 469T448 390Q508 495 627 495Q728 495 785 422T843 236V217ZM476 272H769Q768 335 731 384T622 433Q556 433 518 384T476 272ZM401 180V192Q349 253 256 253Q197 253 161 226T125 152Q125 107
161 80T256 52Q318 52 359 91T401 180Z" />
<glyph unicode="&#xe7;" glyph-name="ccedilla" horiz-adv-x="495" d="M289 -189Q226 -189 188 -159L207 -121Q242 -150 287 -150Q312 -150 330 -139T348 -108Q348 -73 311 -73Q288 -73 273 -90L240 -71L262 -10Q166 -1 107 69T47 242Q47 351 114 423T288 495Q400
495 465 411L415 365Q369 428 292 428Q216 428 171 376T125 242T170 108T292 55T415 118L465 72Q405 -5 306 -11L290 -53Q306 -42 327 -42Q356 -42 374 -60T393 -109Q393 -145 363 -167T289 -189Z" />
<glyph unicode="&#xe8;" glyph-name="egrave" horiz-adv-x="563" d="M342 556H285L116 700H194L342 556ZM293 -12Q185 -12 116 58T47 242Q47 348 115 421T285 495Q392 495 454 422T517 236V217H126Q131 146 178 98T300 50Q390 50 449 111L485 62Q411 -12 293 -12ZM443
272Q442 334 401 383T284 433Q212 433 171 384T126 272H443Z" />
<glyph unicode="&#xe9;" glyph-name="eacute" horiz-adv-x="563" d="M454 700L285 556H228L376 700H454ZM293 -12Q185 -12 116 58T47 242Q47 348 115 421T285 495Q392 495 454 422T517 236V217H126Q131 146 178 98T300 50Q390 50 449 111L485 62Q411 -12 293 -12ZM443
272Q442 334 401 383T284 433Q212 433 171 384T126 272H443Z" />
<glyph unicode="&#xea;" glyph-name="ecircumflex" horiz-adv-x="563" d="M419 556H368L285 662L205 556H154L249 700H321L419 556ZM293 -12Q185 -12 116 58T47 242Q47 348 115 421T285 495Q392 495 454 422T517 236V217H126Q131 146 178 98T300 50Q390 50 449
111L485 62Q411 -12 293 -12ZM443 272Q442 334 401 383T284 433Q212 433 171 384T126 272H443Z" />
<glyph unicode="&#xeb;" glyph-name="edieresis" horiz-adv-x="563" d="M436 623T436 604T422 571T389 557T356 571T342 604T356 636T389 650T422 637ZM229 623T229 604T216 571T183 557T150 570T136 604Q136 623 150 636T183 650T215 637ZM293 -12Q185 -12 116
58T47 242Q47 348 115 421T285 495Q392 495 454 422T517 236V217H126Q131 146 178 98T300 50Q390 50 449 111L485 62Q411 -12 293 -12ZM443 272Q442 334 401 383T284 433Q212 433 171 384T126 272H443Z" />
<glyph unicode="&#xec;" glyph-name="igrave" horiz-adv-x="225" d="M150 0H75V483H150V0ZM169 556H112L-57 700H21L169 556Z" />
<glyph unicode="&#xed;" glyph-name="iacute" horiz-adv-x="225" d="M282 700L113 556H56L204 700H282ZM150 0H75V483H150V0Z" />
<glyph unicode="&#xee;" glyph-name="icircumflex" horiz-adv-x="225" d="M245 556H194L111 662L31 556H-20L75 700H147L245 556ZM150 0H75V483H150V0Z" />
<glyph unicode="&#xef;" glyph-name="idieresis" horiz-adv-x="225" d="M263 623T263 604T249 571T216 557T183 571T169 604T183 636T216 650T249 637ZM56 623T56 604T43 571T10 557Q-10 557 -23 570T-37 604Q-37 623 -23 636T10 650T42 637ZM150 0H75V483H150V0Z" />
<glyph unicode="&#xf0;" glyph-name="eth" horiz-adv-x="572" d="M122 497L104 539L222 591L147 639L188 701Q255 660 300 625L408 673L425 632L339 594Q525 436 525 247Q525 133 460 61T286 -12Q179 -12 113 58T47 234T109 409T267 479T425 390Q376 478 265 560L122
497ZM212 55T286 55T403 107T446 234Q446 308 403 360T286 412T169 360T125 234Q125 159 168 107Z" />
<glyph unicode="&#xf1;" glyph-name="ntilde" horiz-adv-x="551" d="M476 0H401V316Q401 377 373 402T293 428Q251 428 212 406T150 353V0H75V483H150V413Q178 446 225 470T322 495Q476 495 476 339V0ZM336 554Q311 554 293 568T265 600T243 631T213 646Q192 646
179 625T165 560H120Q120 620 145 657T217 694Q241 694 259 680T287 648T310 617T340 602Q361 602 374 623T388 688H433Q433 628 408 591T336 554Z" />
<glyph unicode="&#xf2;" glyph-name="ograve" horiz-adv-x="572" d="M343 556H286L117 700H195L343 556ZM394 -12T286 -12T113 61T47 242T112 422T286 495T459 423T525 242T460 61ZM212 55T286 55T403 109T446 242T403 374T286 428T169 374T125 242Q125 164 168 110Z" />
<glyph unicode="&#xf3;" glyph-name="oacute" horiz-adv-x="572" d="M455 700L286 556H229L377 700H455ZM394 -12T286 -12T113 61T47 242T112 422T286 495T459 423T525 242T460 61ZM212 55T286 55T403 109T446 242T403 374T286 428T169 374T125 242Q125 164 168 110Z" />
<glyph unicode="&#xf4;" glyph-name="ocircumflex" horiz-adv-x="572" d="M419 556H368L285 662L205 556H154L249 700H321L419 556ZM394 -12T286 -12T113 61T47 242T112 422T286 495T459 423T525 242T460 61ZM212 55T286 55T403 109T446 242T403 374T286 428T169
374T125 242Q125 164 168 110Z" />
<glyph unicode="&#xf5;" glyph-name="otilde" horiz-adv-x="572" d="M346 554Q321 554 303 568T275 600T253 631T223 646Q202 646 189 625T175 560H130Q130 620 155 657T227 694Q251 694 269 680T297 648T320 617T350 602Q371 602 384 623T398 688H443Q443 628
418 591T346 554ZM394 -12T286 -12T113 61T47 242T112 422T286 495T459 423T525 242T460 61ZM212 55T286 55T403 109T446 242T403 374T286 428T169 374T125 242Q125 164 168 110Z" />
<glyph unicode="&#xf6;" glyph-name="odieresis" horiz-adv-x="572" d="M436 623T436 604T422 571T389 557T356 571T342 604T356 636T389 650T422 637ZM229 623T229 604T216 571T183 557T150 570T136 604Q136 623 150 636T183 650T215 637ZM394 -12T286 -12T113
61T47 242T112 422T286 495T459 423T525 242T460 61ZM212 55T286 55T403 109T446 242T403 374T286 428T169 374T125 242Q125 164 168 110Z" />
<glyph unicode="&#xf7;" glyph-name="divide" horiz-adv-x="511" d="M302 545T302 526T288 494T255 480T223 493T210 526T223 558T255 572Q275 572 288 559ZM482 311H29V363H482V311ZM302 163T302 144T288 112T255 98T223 111T210 144T223 176T255 190T288 177Z" />
<glyph unicode="&#xf8;" glyph-name="oslash" horiz-adv-x="572" d="M118 0H64L112 61Q47 132 47 242Q47 350 112 422T286 495Q365 495 423 454L446 483H500L455 426Q525 354 525 242Q525 134 460 61T286 -12Q203 -12 144 33L118 0ZM286 55Q360 55 403 109T446
242Q446 315 408 367L188 89Q230 55 286 55ZM125 242Q125 172 159 121L378 398Q340 428 286 428Q212 428 169 374T125 242Z" />
<glyph unicode="&#xf9;" glyph-name="ugrave" horiz-adv-x="551" d="M476 0H401V68Q371 34 326 11T229 -12Q75 -12 75 142V483H150V165Q150 105 177 80T258 55Q300 55 339 76T401 128V483H476V0ZM332 556H275L106 700H184L332 556Z" />
<glyph unicode="&#xfa;" glyph-name="uacute" horiz-adv-x="551" d="M444 700L275 556H218L366 700H444ZM476 0H401V68Q371 34 326 11T229 -12Q75 -12 75 142V483H150V165Q150 105 177 80T258 55Q300 55 339 76T401 128V483H476V0Z" />
<glyph unicode="&#xfb;" glyph-name="ucircumflex" horiz-adv-x="551" d="M408 556H357L274 662L194 556H143L238 700H310L408 556ZM476 0H401V68Q371 34 326 11T229 -12Q75 -12 75 142V483H150V165Q150 105 177 80T258 55Q300 55 339 76T401 128V483H476V0Z" />
<glyph unicode="&#xfc;" glyph-name="udieresis" horiz-adv-x="551" d="M427 623T427 604T413 571T380 557T347 571T333 604T347 636T380 650T413 637ZM220 623T220 604T207 571T174 557Q154 557 141 570T127 604Q127 623 141 636T174 650T206 637ZM476 0H401V68Q371
34 326 11T229 -12Q75 -12 75 142V483H150V165Q150 105 177 80T258 55Q300 55 339 76T401 128V483H476V0Z" />
<glyph unicode="&#xfd;" glyph-name="yacute" horiz-adv-x="490" d="M48 -189L60 -121Q78 -129 101 -129Q127 -129 144 -118T173 -78L205 -5L3 483H84L245 87L405 483H487L245 -98Q205 -194 103 -196Q73 -196 48 -189ZM414 700L245 556H188L336 700H414Z" />
<glyph unicode="&#xfe;" glyph-name="thorn" horiz-adv-x="572" d="M313 -12Q211 -12 150 73V-184H75V667H150V411Q177 449 220 472T313 495Q409 495 468 427T528 242T469 57T313 -12ZM294 55Q365 55 407 107T449 242T407 376T294 428Q251 428 211 406T150 351V133Q170
100 210 78T294 55Z" />
<glyph unicode="&#xff;" glyph-name="ydieresis" horiz-adv-x="490" d="M48 -189L60 -121Q78 -129 101 -129Q127 -129 144 -118T173 -78L205 -5L3 483H84L245 87L405 483H487L245 -98Q205 -194 103 -196Q73 -196 48 -189ZM395 623T395 604T381 571T348 557T315
571T301 604T315 636T348 650T381 637ZM188 623T188 604T175 571T142 557Q122 557 109 570T95 604Q95 623 109 636T142 650T174 637Z" />
<glyph unicode="&#x152;" glyph-name="OE" horiz-adv-x="1105" d="M1051 0H613V120Q577 57 513 23T375 -12Q231 -12 141 86T51 333T141 579T375 677Q448 677 512 643T613 546V667H1051V593H696V378H1044V304H696V74H1051V0ZM613 223V443Q584 521 524 562T384 603Q272
603 205 528T137 333T204 138T384 62Q463 62 523 103T613 223Z" />
<glyph unicode="&#x153;" glyph-name="oe" horiz-adv-x="962" d="M916 217H526Q531 146 577 98T699 50Q788 50 849 111L885 62Q809 -12 693 -12Q610 -12 560 29T485 126Q423 -12 286 -12Q178 -12 113 61T47 242T112 422T286 495Q328 495 364 481T423 445T461 401T486
357Q508 409 557 452T684 495Q791 495 853 422T916 236V217ZM525 272H843Q841 334 800 383T683 433Q611 433 570 384T525 272ZM446 242Q446 321 403 374T286 428T169 375T125 242T169 109T286 54T402 108T446 242Z" />
<glyph unicode="&#x160;" glyph-name="Scaron" horiz-adv-x="586" d="M323 723H251L153 867H204L287 761L367 867H418L323 723ZM294 -12Q132 -12 38 94L87 157Q172 62 297 62Q378 62 416 96T454 177Q454 212 432 236T376 273T299 298T214 322T138 355T81 409T59
492Q59 574 124 625T288 677Q437 677 525 584L475 523Q402 603 282 603Q222 603 184 574T145 497Q145 462 174 439T247 405T342 378T437 343T510 283T540 184Q540 102 480 45T294 -12Z" />
<glyph unicode="&#x161;" glyph-name="scaron" horiz-adv-x="465" d="M266 556H194L96 700H147L230 594L310 700H361L266 556ZM228 -12Q105 -12 33 64L72 118Q97 89 140 69T231 49Q285 49 315 72T345 132Q345 164 314 182T240 210T152 232T77 275T46 356Q46 415
94 455T226 495Q335 495 405 425L370 373Q319 434 226 434Q177 434 148 413T119 358Q119 329 150 313T224 287T312 264T387 219T418 134Q418 70 368 29T228 -12Z" />
<glyph unicode="&#x178;" glyph-name="Ydieresis" horiz-adv-x="626" d="M465 790T465 771T451 738T418 724T385 738T371 771T385 803T418 817T451 804ZM258 790T258 771T245 738T212 724Q192 724 179 738T165 771T179 803T212 817T244 804ZM355 0H272V282L9 667H106L313
357L520 667H617L355 282V0Z" />
<glyph unicode="&#x17d;" glyph-name="Zcaron" horiz-adv-x="585" d="M327 723H255L157 867H208L291 761L371 867H422L327 723ZM536 0H48V69L423 593H48V667H529V598L154 74H536V0Z" />
<glyph unicode="&#x17e;" glyph-name="zcaron" horiz-adv-x="472" d="M268 556H196L98 700H149L232 594L312 700H363L268 556ZM420 0H52V58L318 417H52V483H416V426L148 65H420V0Z" />
<glyph unicode="&#x192;" glyph-name="florin" horiz-adv-x="431" d="M109 -161H25L117 254H49V322H131L177 526Q192 596 239 636T351 677Q410 677 445 641L408 580Q390 603 358 603Q322 603 295 579T258 511L216 322H355V254H201L109 -161Z" />
<glyph unicode="&#x2c6;" glyph-name="circumflex" horiz-adv-x="265" d="M265 556H214L131 662L51 556H0L95 700H167L265 556Z" />
<glyph unicode="&#x2dc;" glyph-name="tilde" horiz-adv-x="313" d="M216 554Q191 554 173 568T145 600T123 631T93 646Q72 646 59 625T45 560H0Q0 620 25 657T97 694Q121 694 139 680T167 648T190 617T220 602Q241 602 254 623T268 688H313Q313 628 288 591T216 554Z" />
<glyph unicode="&#x2013;" glyph-name="endash" horiz-adv-x="593" d="M563 209H30V275H563V209Z" />
<glyph unicode="&#x2014;" glyph-name="emdash" horiz-adv-x="833" d="M803 209H30V275H803V209Z" />
<glyph unicode="&#x2018;" glyph-name="quoteleft" horiz-adv-x="230" d="M47 527Q47 571 69 611T128 677L165 647Q141 631 123 605T101 554Q102 554 107 554T114 555Q135 555 149 541T163 504T148 467T110 451Q84 451 66 471T47 527Z" />
<glyph unicode="&#x2019;" glyph-name="quoteright" horiz-adv-x="230" d="M176 601Q176 557 153 517T94 450L57 481Q81 497 100 523T122 574Q118 572 108 572Q87 572 74 586T60 623T75 661T113 677Q139 677 157 657T176 601Z" />
<glyph unicode="&#x201a;" glyph-name="quotesinglbase" horiz-adv-x="230" d="M176 24Q176 -20 153 -60T94 -127L57 -96Q82 -80 100 -54T122 -3Q118 -5 108 -5Q87 -5 74 9T60 46T75 84T113 100Q139 100 157 80T176 24Z" />
<glyph unicode="&#x201c;" glyph-name="quotedblleft" horiz-adv-x="390" d="M54 527Q54 571 76 611T135 677L172 647Q148 631 129 605T108 554H113Q118 555 121 555Q142 555 155 541T169 504T154 467T116 451Q90 451 72 471T54 527ZM214 527Q214 571 236 611T295
677L332 647Q308 631 290 605T268 554H273Q278 555 281 555Q302 555 316 541T330 504T314 467T276 451Q250 451 232 471T214 527Z" />
<glyph unicode="&#x201d;" glyph-name="quotedblright" horiz-adv-x="390" d="M336 601Q336 557 313 517T255 450L218 481Q242 497 260 523T282 574Q278 572 269 572Q248 572 234 586T220 623T235 661T273 677Q299 677 317 657T336 601ZM176 601Q176 557 153 517T94
450L57 481Q81 497 100 523T122 574Q118 572 108 572Q87 572 74 586T60 623T75 661T113 677Q139 677 157 657T176 601Z" />
<glyph unicode="&#x201e;" glyph-name="quotedblbase" horiz-adv-x="390" d="M176 24Q176 -20 153 -60T94 -127L57 -96Q82 -80 100 -54T122 -3Q118 -5 108 -5Q87 -5 74 9T60 46T75 84T113 100Q139 100 157 80T176 24ZM336 24Q336 -20 313 -60T255 -127L218 -96Q242
-80 260 -54T282 -3Q278 -5 269 -5Q248 -5 234 9T220 46T235 84T273 100Q299 100 317 80T336 24Z" />
<glyph unicode="&#x2020;" glyph-name="dagger" horiz-adv-x="263" d="M240 531L151 535L155 327H107L112 535L23 531V574L112 571L107 677H155L151 571L240 574V531Z" />
<glyph unicode="&#x2021;" glyph-name="daggerdbl" horiz-adv-x="263" d="M240 574V531L151 535V322L240 326V283L151 286L155 180H107L111 286L23 283V326L111 322V535L23 531V574L111 571L107 677H155L151 571L240 574Z" />
<glyph unicode="&#x2022;" glyph-name="bullet" horiz-adv-x="358" d="M288 286T288 242T256 167T180 135T104 166T72 242T104 318T180 350T256 318Z" />
<glyph unicode="&#x2026;" glyph-name="ellipsis" horiz-adv-x="690" d="M169 45Q169 23 153 7T114 -10T76 6T60 45Q60 68 76 84T114 100T152 84T169 45ZM400 67T400 45T383 7T344 -10T306 6T290 45Q290 68 306 84T344 100Q367 100 383 84ZM630 45Q630 23 614
7T575 -10T537 6T520 45Q520 68 536 84T575 100T614 84T630 45Z" />
<glyph unicode="&#x2030;" glyph-name="perthousand" horiz-adv-x="1083" d="M353 511Q353 441 308 395T191 348T76 394T31 511Q31 582 76 629T191 677Q262 677 307 630T353 511ZM609 667L182 0H128L554 667H609ZM700 151Q700 81 655 35T539 -12T424 34T379 151Q379
222 424 269T539 317Q610 317 655 270T700 151ZM293 511Q293 562 265 596T191 630Q147 630 119 596T91 511Q91 461 119 428T191 395Q236 395 264 428T293 511ZM641 151Q641 202 613 236T539 270T466 236T438 151Q438 101 466 68T539 35T612 68T641 151ZM1052 151Q1052
81 1007 35T891 -12T776 34T731 151Q731 222 776 269T891 317Q962 317 1007 270T1052 151ZM993 151Q993 202 965 236T891 270T819 237T791 151Q791 101 819 68T891 35Q936 35 964 68T993 151Z" />
<glyph unicode="&#x2039;" glyph-name="guilsinglleft" horiz-adv-x="295" d="M265 63H190L30 243L190 420H265L105 243L265 63Z" />
<glyph unicode="&#x203a;" glyph-name="guilsinglright" horiz-adv-x="295" d="M265 243L105 63H30L190 243L30 420H105L265 243Z" />
<glyph unicode="&#x20ac;" glyph-name="Euro" horiz-adv-x="695" d="M415 -12Q294 -12 204 55T84 237H31V289H74Q72 317 72 333T74 379H31V431H84Q114 543 204 610T415 678Q575 678 668 546L598 507Q569 550 520 577T415 604Q330 604 265 557T173 431H476V379H161Q158
356 158 333T161 289H476V237H173Q199 157 264 110T415 62Q471 62 520 88T598 159L669 120Q572 -12 415 -12Z" />
<glyph unicode="&#x2122;" glyph-name="trademark" horiz-adv-x="454" d="M419 447H391V629L316 447H308L233 629V447H205V667H248L312 507L376 667H419V447ZM169 641H107V447H79V641H17V667H169V641Z" />
</font>
</defs>
</svg>
