<?xml version="1.0" standalone="no"?>
<!DOCTYPE svg PUBLIC "-//W3C//DTD SVG 1.1//EN" "http://www.w3.org/Graphics/SVG/1.1/DTD/svg11.dtd" >
<svg xmlns="http://www.w3.org/2000/svg">
<metadata>
This is a custom SVG font generated by IcoMoon.
0
</metadata>
<defs>
<font id="secondary_nav_icons" horiz-adv-x="512" >
<font-face units-per-em="512" ascent="451" descent="-61" />
<missing-glyph horiz-adv-x="512" />
<glyph unicode="&#x21;" d="M 375.168,64.648l-72.16,72.176l-22.352-22.368l 71.952-71.936l 6.16-24.848l 54.096-28.048l 15.968,15.968l-28.416,53.488L 375.168,64.648z
				 M 234.256,259.24L 117.28,376.392c-17.648,17.664-46.256,17.60-63.888-0.048s-17.648-46.352,0.00-64.00l 116.976-117.168L 234.256,259.24z M 83.36,347.144
				c 5.28,5.28, 13.84,5.28, 19.12,0.00l 90.864-90.864l-19.12-19.12L 83.36,328.008C 78.08,333.304, 78.08,341.864, 83.36,347.144z M 466.208,332.232
				l-72.816-56.848L 347.072,321.72l 54.544,73.712c-9.84,3.20-20.352,4.96-31.28,4.96c-56.064,0.00-101.344-45.616-101.344-101.664
				c0.00-10.752, 1.856-21.28, 4.944-30.992L 73.744,67.544c-8.816-8.832-13.376-20.24-13.376-31.792c0.00-11.552, 4.48-23.184, 13.312-32.016
				c 17.648-17.648, 46.336-17.712, 63.968-0.08l 199.36,199.36c 10.464-3.648, 21.664-5.648, 33.36-5.648c 56.064,0.00, 101.504,45.456, 101.504,101.52
				C 471.84,310.584, 469.84,321.784, 466.208,332.232z M 105.984,20.968c-7.712,0.00-13.984,6.272-13.984,13.984s 6.272,13.968, 13.984,13.968
				c 7.712,0.00, 13.984-6.256, 13.984-13.968S 113.696,20.968, 105.984,20.968z" />
<glyph unicode="&#x22;" d="M 264.16,410.648c-112.592,0.00-203.856-91.28-203.856-203.856c0.00-33.296, 7.984-64.704, 22.128-92.464c-18.176-50.768-35.488-99.088-36.96-103.216
		c-6.752-19.12, 10.752-36.608, 30.688-30.528c 9.248,2.832, 58.784,20.272, 109.232,38.144c 24.24-10.176, 50.832-15.776, 78.768-15.776
		c 112.576,0.00, 203.84,91.264, 203.84,203.856S 376.736,410.648, 264.16,410.648z M 346.496,150.312L 182.592,150.312 c-9.056,0.00-16.40,9.60-16.40,18.656
		c0.00,9.04, 7.344,18.672, 16.40,18.672l 163.904,0.00 c 9.056,0.00, 16.40-9.616, 16.40-18.672C 362.912,159.912, 355.568,150.312, 346.496,150.312z
		 M 346.496,228.888L 182.592,228.888 c-9.056,0.00-16.40,10.592-16.40,19.648s 7.344,19.648, 16.40,19.648l 163.904,0.00 c 9.056,0.00, 16.40-10.592, 16.40-19.648
		S 355.568,228.888, 346.496,228.888z" />
<glyph unicode="&#x23;" d="M 315.488,105.896c-3.408,5.632-9.376,8.992-15.952,8.992c-3.392,0.00-6.72-0.944-9.648-2.704
				c-4.256-2.576-7.248-6.656-8.432-11.488s-0.416-9.84, 2.16-14.096l 16.528-27.296c 3.392-5.632, 9.36-8.992, 15.952-8.992
				c 3.376,0.00, 6.72,0.944, 9.632,2.704c 4.272,2.576, 7.264,6.656, 8.448,11.488c 1.184,4.848, 0.416,9.84-2.16,14.112L 315.488,105.896z
				 M 353.664,144.472c-3.424,5.568-9.376,8.896-15.92,8.896c-3.424,0.00-6.784-0.944-9.696-2.736c-8.768-5.376-11.536-16.88-6.16-25.632
				l 24.64-40.256c 3.408-5.584, 9.36-8.912, 15.904-8.912c 3.44,0.00, 6.80,0.96, 9.712,2.752c 8.768,5.36, 11.52,16.864, 6.16,25.632
				L 353.664,144.472z M 393.552,181.00c-3.424,5.584-9.36,8.896-15.904,8.896c-3.44,0.00-6.784-0.96-9.712-2.736
				c-4.256-2.608-7.216-6.688-8.384-11.536c-1.152-4.832-0.368-9.84, 2.24-14.08l 30.736-50.192c 3.424-5.584, 9.36-8.912, 15.904-8.912
				c 3.44,0.00, 6.80,0.944, 9.696,2.736c 8.784,5.376, 11.536,16.88, 6.176,25.632L 393.552,181.00z M 276.24,72.616
				c-3.392,5.632-9.36,8.992-15.952,8.992c-3.392,0.00-6.704-0.944-9.632-2.704c-4.272-2.56-7.264-6.656-8.448-11.488
				s-0.40-9.84, 2.16-14.096l 12.352-20.40c 3.408-5.632, 9.376-8.992, 15.952-8.992c 3.376,0.00, 6.72,0.944, 9.648,2.704
				c 8.784,5.312, 11.60,16.80, 6.288,25.584L 276.24,72.616z M 283.712,323.224c 3.44-3.424, 40.368-41.104, 40.368-41.104
				c 3.12-3.20, 7.488-4.72, 13.36-4.72c 4.288,0.00, 7.344,1.456, 11.344,5.36c 3.632,3.536, 5.696,8.048, 5.872,12.704
				c 0.16,4.672-1.648,9.168-5.04,12.672l-53.44,54.576c-2.544,2.608-5.856,3.392-12.832,3.392l-0.048,0.00 c0.00,0.00-79.728,0.00-87.104,0.00
				c-10.432,0.00-9.936,0.256-16.848-6.656c-7.888-8.384-27.536-28.736-27.536-28.736S 147.36,326.344, 138.352,326.344c-10.40,0.00-68.40,0.00-68.40,0.00
				c-18.528,0.00-37.68-18.432-37.68-36.976l0.00-102.592 c0.00-18.544, 19.152-33.984, 37.68-33.984l 8.96,0.00 c 6.432,0.00, 11.328,2.08, 21.584,11.04
				c 27.856,23.008, 168.864,158.976, 170.096,159.872C 275.472,327.112, 280.272,326.888, 283.712,323.224z M 445.488,331.912l-64.72-0.176l-1.312,0.96
				c0.00,0.00-24.304,22.496-31.072,28.752c-3.376,3.376-8.544,3.68-12.576-0.352l-10.624-9.504l 33.584-34.00
				c 5.872-6.00, 9.024-13.888, 8.928-22.224c-0.096-8.352-3.424-16.16-9.376-21.968c-5.952-5.808-13.68-9.008-21.76-9.008
				c-8.64,0.00-16.56,3.248-22.304,9.12c-0.336,0.32-32.176,32.752-36.288,36.672c-0.976,0.928-1.616,0.928-1.824,0.928
				c-0.704,0.00-1.408-0.448-1.616-0.624L 112.704,157.56c-3.872-3.12-6.288-7.60-6.816-12.528c-0.512-4.96, 0.912-9.808, 4.048-13.664
				c 6.24-7.68, 18.496-8.992, 26.208-2.752c0.00,0.00, 71.056,57.568, 76.608,62.016c 2.48,2.16, 4.864,2.64, 6.384,2.64
				c 2.976,0.00, 5.536-1.76, 6.528-4.48c 1.12-3.088, 0.032-6.528-2.88-8.976L 139.888,109.72c-3.792-3.216-6.128-7.712-6.528-12.688
				c-0.40-4.96, 1.12-9.776, 4.336-13.584c 6.368-7.552, 18.688-8.592, 26.256-2.192c 0.816,0.672, 80.40,68.304, 86.032,73.168
				c 1.936,1.76, 4.288,2.736, 6.688,2.736c 3.472,0.00, 6.576-2.112, 7.728-5.248c 1.20-3.28, 0.064-6.80-3.008-9.424l-78.528-66.384
				c-3.776-3.216-6.112-7.712-6.528-12.672c-0.40-4.976, 1.12-9.776, 4.336-13.584c 6.368-7.552, 18.688-8.592, 26.272-2.208l 22.448,18.992
				c 1.136,9.52, 6.592,18.032, 14.784,22.992c 5.744,3.488, 12.592,4.976, 19.152,4.32c 1.776-0.16, 3.488-0.336, 5.152-0.624
				c-0.128,1.552-0.128,3.184,0.00,5.008c 0.688,10.144, 6.272,19.344, 14.928,24.576c 7.28,4.40, 16.272,5.632, 24.336,3.408
				c-3.664,13.072, 1.60,27.552, 13.728,35.008c 7.664,4.72, 17.36,5.808, 25.744,3.12c-1.024,4.608-1.024,9.424, 0.112,14.128
				c 1.936,8.096, 6.928,14.944, 14.016,19.296c 4.928,3.008, 10.544,4.592, 16.288,4.592c 10.944,0.00, 20.88-5.568, 26.592-14.896l 16.048-25.488
				l 25.20,0.112c 18.544,0.00, 34.256,15.024, 34.256,33.568L 479.728,298.328 C 479.728,316.872, 464.032,331.912, 445.488,331.912z" />
<glyph unicode="&#x24;" d="M 253.152,90.12c-12.752,0.00-23.68-4.368-32.528-12.992c-8.896-8.704-13.408-19.536-13.408-32.208c0.00-14.176, 4.784-25.504, 14.192-33.664
				c 9.008-7.824, 19.68-11.776, 31.744-11.776c 11.76,0.00, 22.288,4.032, 31.216,11.968c 9.28,8.256, 13.984,19.52, 13.984,33.488
				c0.00,12.624-4.384,23.424-13.088,32.128C 276.576,85.736, 265.776,90.12, 253.152,90.12z M 368.608,338.84c-10.528,16.00-25.568,28.80-44.688,38.016
				c-18.848,9.072-40.736,13.664-65.072,13.664c-26.256,0.00-49.664-5.52-69.568-16.40c-19.936-10.912-35.376-24.976-45.888-41.76
				c-10.608-16.96-15.984-34.096-15.984-50.944c0.00-9.904, 4.016-19.04, 11.936-27.168c 7.968-8.192, 17.904-12.336, 29.472-12.336
				c 13.616,0.00, 31.584,5.84, 40.00,33.68c 5.216,15.616, 11.536,27.408, 18.72,35.088c 6.272,6.688, 16.816,10.08, 31.312,10.08
				c 12.432,0.00, 22.192-3.424, 29.792-10.448c 7.392-6.832, 10.992-14.976, 10.992-24.864c0.00-4.832-1.104-9.168-3.392-13.264
				c-2.624-4.736-5.92-9.072-9.76-12.928c-4.336-4.336-11.568-10.944-21.504-19.648c-11.776-10.32-21.28-19.392-28.304-26.96
				c-7.552-8.176-13.68-17.76-18.224-28.496c-4.608-10.912-6.96-23.824-6.96-38.384c0.00-13.344, 3.84-23.808, 11.456-31.072
				c 7.488-7.168, 16.768-10.816, 27.584-10.816c 20.528,0.00, 33.984,11.568, 37.888,32.56c 1.68,7.472, 2.96,12.704, 3.744,15.584
				c 0.688,2.432, 1.68,4.944, 2.976,7.456c 1.216,2.336, 3.20,5.12, 5.904,8.24c 3.008,3.424, 7.072,7.504, 12.096,12.08
				c 19.472,17.408, 33.20,30.016, 40.832,37.472c 8.208,8.032, 15.344,17.664, 21.248,28.608c 6.224,11.536, 9.376,25.008, 9.376,40.064
				C 384.592,304.904, 379.216,322.696, 368.608,338.84z" />
<glyph unicode="&#x25;" d="M 406.272,296.344l-85.76,0.00 c-0.224,22.72-3.136,58.00-43.088,58.544c-0.40,0.00-20.32,0.00-20.512,0.00s-20.208,0.00-20.448,0.00
		c-39.952-0.496-42.944-35.76-43.152-58.544L 105.728,296.344 c-23.856,0.00-43.216-19.344-43.216-43.216l0.00-174.816 c0.00-23.872, 19.36-43.216, 43.216-43.216l 300.528,0.00 
		c 23.872,0.00, 43.216,19.344, 43.216,43.216L 449.472,253.128 C 449.488,277.00, 430.144,296.344, 406.272,296.344z M 236.688,323.464c 0.72,0.00, 20.00,0.00, 20.208,0.00
		c 0.224,0.00, 19.424,0.00, 20.096,0.00c 7.616-0.096, 11.648-0.176, 12.064-27.12l-64.32,0.00 C 225.152,323.32, 228.976,323.368, 236.688,323.464z M 146.992,84.232
		c0.00-8.496-7.232-15.392-15.712-15.392c-8.496,0.00-15.712,6.896-15.712,15.392L 115.568,248.28 c0.00,8.512, 7.216,15.392, 15.712,15.392
		c 8.48,0.00, 15.712-6.896, 15.712-15.392L 146.992,84.232 z M 398.40,84.232c0.00-8.496-7.216-15.392-15.696-15.392c-8.496,0.00-15.712,6.896-15.712,15.392L 366.992,248.28 
		c0.00,8.512, 7.216,15.392, 15.712,15.392c 8.48,0.00, 15.696-6.896, 15.696-15.392L 398.40,84.232 z" />
<glyph unicode="&#x26;" d="M 408.224,357.192l0.00-289.728 c0.00-35.008-29.472-53.168-54.256-53.168L 122.272,14.296 c 6.40-17.20, 22.976-29.472, 42.368-29.472l 188.256,0.00 
				c 37.312,0.00, 84.784,23.728, 84.784,81.84L 437.68,314.824 C 437.68,334.248, 425.44,350.808, 408.224,357.192z M 392.496,75.176L 392.496,359.992 
				c0.00,24.96-20.224,45.184-45.152,45.184L 119.472,405.176 c-24.96,0.00-45.168-20.24-45.168-45.184l0.00-284.832 c0.00-24.96, 20.224-45.168, 45.168-45.168l 227.872,0.00 
				C 372.288,30.008, 392.496,50.216, 392.496,75.176z M 150.144,320.712L 195.20,320.712 c 8.304,0.00, 15.008-6.432, 15.008-14.736c0.00-8.288-6.72-14.736-15.008-14.736
				L 150.144,291.24 c-8.288,0.00-15.008,6.448-15.008,14.736C 135.136,314.28, 141.872,320.712, 150.144,320.712z M 300.32,118.392L 150.144,118.392 
				c-8.288,0.00-15.008,8.40-15.008,16.704c0.00,8.288, 6.736,16.688, 15.008,16.688l 150.16,0.00 c 8.288,0.00, 15.008-8.40, 15.008-16.688
				C 315.312,126.792, 308.592,118.392, 300.32,118.392z M 300.32,193.048L 150.144,193.048 c-8.288,0.00-15.008,8.384-15.008,16.688s 6.736,16.704, 15.008,16.704
				l 150.16,0.00 c 8.288,0.00, 15.008-8.40, 15.008-16.704S 308.592,193.048, 300.32,193.048z" />
<glyph unicode="&#x27;" d="M 295.888,44.056l-76.416,0.00 c-8.128,0.00-14.688-5.632-14.688-13.744c0.00-8.112, 6.56-13.744, 14.688-13.744l 76.416,0.00 
				c 8.112,0.00, 14.688,5.648, 14.688,13.744C 310.576,38.44, 304.00,44.056, 295.888,44.056z M 279.712,2.808l-44.08,0.00 
				c-6.496,0.00-11.76-6.272-11.76-12.768c0.00-6.48, 5.264-12.768, 11.76-12.768l 44.08,0.00 c 6.496,0.00, 11.76,6.288, 11.76,12.768
				C 291.488-3.448, 286.224,2.808, 279.712,2.808z M 255.536,356.872c 8.128,0.00, 14.736,6.576, 14.736,14.688L 270.272,398.024 
				c0.00,8.112-6.608,14.688-14.736,14.688c-8.112,0.00-14.72-6.592-14.72-14.688l0.00-26.448 C 240.816,363.448, 247.424,356.872, 255.536,356.872z M 257.024,327.624
				c-66.336,0.00-120.288-53.968-120.288-120.256c-0.016-32.064, 13.088-63.248, 36.032-85.776c 1.936-2.512, 4.688-7.776, 5.696-30.336
				c 0.688-15.504, 12.864-27.184, 28.336-27.184c 0.288,0.00, 0.56,0.00, 0.848,0.016l 98.928-0.016c 0.288,0.00, 0.56-0.016, 0.848-0.016
				c 15.44,0.00, 27.616,11.68, 28.336,27.20c 0.992,22.544, 3.76,27.824, 5.696,30.336c 22.928,22.528, 36.048,53.696, 36.032,85.776
				c0.00,32.144-12.512,62.336-35.248,85.04C 319.504,315.112, 289.248,327.624, 257.024,327.624z M 252.256,263.56c-29.12,0.00-52.816-23.696-52.816-52.816
				c0.00-8.112-6.592-14.688-14.688-14.688c-8.128,0.00-14.72,6.576-14.72,14.688c0.00,45.328, 36.896,82.208, 82.224,82.208
				c 8.128,0.00, 14.688-6.592, 14.688-14.688C 266.944,270.136, 260.368,263.56, 252.256,263.56z M 409.824,350.104
				c-5.728,5.744-14.704,5.408-20.432-0.336l-18.704-18.704c-5.744-5.728-6.08-14.704-0.336-20.448c 5.728-5.728, 14.72-5.408, 20.448,0.336
				l 18.704,18.704C 415.248,335.40, 415.568,344.376, 409.824,350.104z M 141.312,328.84L 122.624,347.544c-5.744,5.744-14.72,6.064-20.448,0.336
				C 96.432,342.136, 96.752,333.176, 102.496,327.432l 18.704-18.704c 5.728-5.744, 14.704-6.08, 20.448-0.336C 147.392,314.136, 147.056,323.112, 141.312,328.84z" />
<glyph unicode="&#x28;" d="M 339.472,228.264c 4.112-5.20, 6.784,2.448, 8.864,6.992l 38.128,160.576c 3.12,5.84-0.464,10.496-7.20,8.976L 214.32,405.016
				c-8.144-1.20-13.296-1.44-8.88-7.024l 44.688-56.608L 72.032,200.744c-15.28-12.064-18.00-34.08-5.936-49.36
				c 6.032-7.632, 14.592-12.096, 23.552-13.136c 8.96-1.056, 18.432,1.152, 26.08,7.184l 178.096,140.656L 339.472,228.264z M 445.76,238.136
				c-6.032,7.648-14.40,11.888-23.376,12.944c-8.96,1.056-18.272-1.36-25.904-7.392l-177.504-140.176l-46.304,58.64
				c-4.128,5.20-7.088-2.688-9.168-7.232L 125.248-5.784c-3.12-5.84, 0.384-10.56, 7.12-9.008l 165.184-0.016
				c 8.16,1.20, 13.568,1.648, 9.152,7.232l-44.048,55.76l 177.504,140.176C 455.456,200.424, 457.84,222.872, 445.76,238.136z" />
<glyph unicode="&#x29;" d="M 408.672,271.224c-4.80,17.568-39.84,143.824-126.096,129.312c-86.256-14.512-80.144-103.84-80.048-107.728c 0.096-3.904-1.776-7.232-0.304-9.60
		c 0.336-0.512, 0.624-0.992, 0.944-1.504c-4.368-19.184-11.008-46.304-28.016-62.624c-33.136-31.888-62.656-48.832-79.168-59.344
		c-7.376-4.704-10.336-7.84-10.336-16.576c0.00-2.128, 0.88-3.44, 2.336-3.44c 3.056,0.00, 8.192,4.40, 17.136,4.40
		c 24.64,0.00, 49.872-28.224, 79.328-28.224c 21.344,0.00, 48.816,14.864, 70.688,29.216c0.00,0.00,0.00-0.016, 0.016-0.016l 0.352,0.272
		c 15.344,10.112, 27.888,19.92, 33.456,24.112l 2.704-3.232c-20.752-22.88-99.536-86.096-128.816-86.096c-17.024,0.00-26.624,4.592-26.624,10.416
		c0.00,8.144, 12.832,17.648, 19.44,22.848c-0.992,0.528-4.88,2.336-6.064,2.88c-5.216-3.728-24.992-17.52-24.992-30.16
		c0.00-14.832, 19.984-19.856, 37.824-19.856c 15.984,0.00, 31.872,8.752, 39.904,13.36c 17.504,10.064, 55.664,37.648, 78.256,55.408
		c 6.128-1.392, 12.416-2.144, 18.896-2.144c 53.008,0.00, 96.352,48.544, 99.568,109.856c 0.144-2.40, 0.224-4.832, 0.224-7.28
		c0.00-64.688-44.672-117.136-99.776-117.136c-11.184,0.00-21.936,2.192-31.984,6.192c 12.464-54.56-7.744-83.552-14.032-102.496
		c-9.776-35.024, 26.512-33.712, 26.512-33.712s 48.304-0.064, 70.256,0.288c 40.192-0.096, 61.744,4.048, 65.984,27.008
		c 1.936,10.56, 1.296,23.68, 6.32,67.008C 434.912,200.12, 413.488,253.656, 408.672,271.224z M 341.568,286.184c-9.648,0.00-12.96,6.864-12.96,15.136
		c0.00,11.84, 4.464,22.688, 12.592,22.688c 6.976,0.00, 11.76-9.488, 12.00-23.088C 353.36,291.784, 348.464,286.184, 341.568,286.184z" />
<glyph unicode="&#x2a;" d="M 301.184,83.032l0.00-10.528 c0.00-3.024-2.00-5.184-5.024-5.184l-65.888,0.00 c-3.04,0.00-5.696,2.192-5.696,5.184l0.00,10.528 L 32.064,83.032 l0.00-23.872 
				c0.00,0.00-0.432-17.376, 16.048-17.376l 414.656,0.00 c 16.464,0.00, 17.168,17.376, 17.168,17.376l0.00,23.872 L 301.184,83.032 z M 94.368,104.632l 322.128,0.00 
				c 9.104,0.00, 16.304,7.056, 16.304,16.16L 432.80,331.768 c0.00,9.104-7.184,16.448-16.304,16.448L 94.368,348.216 c-9.12,0.00-17.12-7.344-17.12-16.448l0.00-210.992 
				C 77.248,111.656, 85.248,104.632, 94.368,104.632z M 296.736,291.256l 64.688,0.00 c 8.288,0.00, 15.008-6.448, 15.008-14.736c0.00-8.304-6.72-14.736-15.008-14.736
				l-64.688,0.00 c-8.304,0.00-15.008,6.432-15.008,14.736C 281.712,284.792, 288.432,291.256, 296.736,291.256z M 296.736,238.20l 64.688,0.00 
				c 8.288,0.00, 15.008-6.432, 15.008-14.72c0.00-8.304-6.72-14.736-15.008-14.736l-64.688,0.00 c-8.304,0.00-15.008,6.432-15.008,14.736
				C 281.712,231.768, 288.432,238.20, 296.736,238.20z M 134.224,273.768c0.00,10.736, 8.704,19.456, 19.44,19.456l 73.072,0.00 c 10.736,0.00, 19.456-8.72, 19.456-19.456
				l0.00-67.168 c0.00-10.752-8.72-19.456-19.456-19.456L 153.664,187.144 c-10.736,0.00-19.44,8.704-19.44,19.456L 134.224,273.768 z" />
<glyph unicode="&#x2b;" d="M 346.16,215.528c 34.784,0.00, 63.008,28.224, 63.008,62.992c0.00,34.784-28.224,62.992-63.008,62.992c-34.752,0.00-62.976-28.208-62.976-62.992
				C 283.184,243.752, 311.408,215.528, 346.16,215.528z M 436.496,189.992l-76.40,0.00 l0.00-119.216 c0.00-6.992-6.752-12.656-13.744-12.656
				s-13.744,5.664-13.744,12.656l0.00,119.216 l-79.04,0.00 c-19.808,0.00-34.88-14.528-34.88-34.336l0.00-111.216 c0.00-19.808, 15.056-35.136, 34.88-35.136l 182.944,0.00 
				c 19.84,0.00, 37.536,15.328, 37.536,35.136L 474.048,155.64 C 474.032,175.448, 456.336,189.992, 436.496,189.992z M 167.744,254.744
				c 34.768,0.00, 62.976,28.224, 62.976,62.992c0.00,34.784-28.208,62.992-62.976,62.992c-34.784,0.00-63.008-28.208-63.008-62.992
				C 104.736,282.968, 132.96,254.744, 167.744,254.744z M 290.40,209.64c-5.872,11.776-18.192,19.648-32.32,19.648L 75.12,229.288 
				c-19.808,0.00-37.152-14.624-37.152-34.432l0.00-111.20 c0.00-19.808, 17.344-35.072, 37.152-35.072l 123.904,0.00 l0.00,109.024 c0.00,15.232, 6.096,28.688, 18.032,38.672
				c 10.624,8.912, 23.968,13.376, 38.448,13.376L 290.40,209.656 z" />
<glyph unicode="&#x2c;" d="M 385.712,233.304l-11.872,0.00 l0.00,44.48 c0.00,65.744-53.44,119.232-119.12,119.232c-65.664,0.00-119.088-53.60-119.088-119.456
		c0.00-10.32, 8.368-18.672, 18.672-18.672s 18.672,8.352, 18.672,18.672c0.00,45.28, 36.672,82.128, 81.744,82.128c 45.088,0.00, 81.776-36.752, 81.776-81.904l0.00-44.48 
		L 126.288,233.304 c-25.648,0.00-46.432-20.784-46.432-46.416l0.00-147.456 c0.00-25.648, 20.80-46.432, 46.432-46.432l 259.424,0.00 c 25.664,0.00, 46.432,20.80, 46.432,46.432l0.00,147.456 
		C 432.16,212.52, 411.376,233.304, 385.712,233.304z M 273.504,55.144c0.00-10.096-8.56-18.288-18.656-18.288c-10.096,0.00-18.672,8.192-18.672,18.288
		l0.00,50.192 c0.00,10.096, 8.576,18.304, 18.672,18.304c 10.08,0.00, 18.656-8.208, 18.656-18.304L 273.504,55.144 z" /></font></defs></svg>