<?xml version="1.0" standalone="no"?>
<!DOCTYPE svg PUBLIC "-//W3C//DTD SVG 1.1//EN" "http://www.w3.org/Graphics/SVG/1.1/DTD/svg11.dtd" >
<svg xmlns="http://www.w3.org/2000/svg">
<metadata></metadata>
<defs>
<font id="universregular" horiz-adv-x="1138" >
<font-face units-per-em="2048" ascent="1638" descent="-410" />
<missing-glyph horiz-adv-x="569" />
<glyph horiz-adv-x="2048" />
<glyph horiz-adv-x="2048" />
<glyph unicode="&#xd;" horiz-adv-x="2048" />
<glyph unicode=" "  horiz-adv-x="569" />
<glyph unicode="&#x09;" horiz-adv-x="569" />
<glyph unicode="&#xa0;" horiz-adv-x="569" />
<glyph unicode="!" horiz-adv-x="796" d="M305 0v205h217v-205h-217zM307 1477h230l-45 -1139h-146z" />
<glyph unicode="&#x22;" horiz-adv-x="819" d="M156 1417h170l-29 -504h-111zM494 1417h170l-31 -504h-111z" />
<glyph unicode="#" d="M10 403l2 142h230l57 305h-205v141h232l77 426h166l-80 -426h250l78 426h166l-80 -426h205v-141h-231l-56 -305h203v-142h-229l-76 -403h-164l74 403h-248l-76 -403h-164l74 403h-205zM408 545h247l58 305h-250z" />
<glyph unicode="$" d="M57 389h209q-2 -37 9.5 -73t37.5 -71t77.5 -57.5t121.5 -23.5v479q-130 39 -209.5 75t-130 84t-69.5 105.5t-19 141.5q0 198 174 307q94 57 260 63v168h105v-166q30 -1 54 -2.5t71.5 -9t85 -20t82.5 -38t75 -59.5t51 -87.5t23 -119.5h-215q-5 163 -229 170v-428 q56 -15 92.5 -26t90 -32t88.5 -41.5t75 -53t63.5 -69.5t39 -88t15.5 -111q0 -57 -14.5 -109t-34.5 -87t-48 -66t-47 -46.5t-40 -29.5q-96 -62 -285 -78v-203h-104v203q-39 1 -59 2t-62.5 7t-73 17t-70.5 33.5t-75 54.5q-71 65 -93 133t-22 152zM287 1063q0 -33 9 -60.5 t28.5 -47.5t38.5 -34.5t50 -27t50.5 -19t52.5 -16.5v397q-62 -7 -108 -26t-68.5 -40.5t-35.5 -49.5t-15 -43.5t-2 -32.5zM621 164q84 1 143 35t83.5 81.5t24.5 100.5q0 37 -10.5 68t-32.5 54.5t-42.5 40t-55 31.5t-55 22.5t-55.5 18.5v-452z" />
<glyph unicode="%" horiz-adv-x="1820" d="M106 1081q0 167 90.5 271t258.5 104q85 0 148.5 -30t99 -82t52.5 -114.5t17 -135.5q0 -182 -94 -276.5t-242 -94.5q-69 0 -127 21t-104.5 63t-72.5 112t-26 162zM264 1083q0 -25 1 -44.5t10.5 -59.5t26.5 -67t52.5 -48.5t85.5 -21.5q35 0 63 12t45.5 28.5t30 42.5 t18.5 46.5t9 47.5t3.5 39t0.5 27q0 44 -6.5 82t-23.5 78.5t-53 64t-87 23.5q-36 0 -65 -12t-47 -28.5t-31 -43t-19 -47t-9.5 -49t-4 -41t-0.5 -29.5zM379 -80l903 1577h135l-903 -1577h-135zM1047 340q0 178 95 273.5t240 95.5q156 0 246 -99q23 -26 39 -51.5t30.5 -81.5 t14.5 -127q0 -173 -84.5 -274t-245.5 -101q-94 0 -162 32.5t-104.5 87.5t-52.5 115.5t-16 129.5zM1208 319q0 -35 5.5 -66.5t21.5 -70.5t53 -62.5t92 -23.5q47 0 81 19.5t52 46.5t28 65t12.5 64t2.5 55q0 25 -2.5 50.5t-12.5 63.5t-27 65.5t-51 48t-79 20.5 q-176 0 -176 -275z" />
<glyph unicode="&#x26;" horiz-adv-x="1593" d="M100 391q0 67 19 127.5t45 104t73 91.5t82 76.5t93 71.5q-32 30 -54 54.5t-52.5 68.5t-47 99.5t-16.5 117.5q0 148 104.5 237t292.5 89q126 0 194 -25t113 -67q88 -82 88 -203q0 -62 -23 -121t-51.5 -98.5t-75.5 -82t-72 -60.5t-64 -44l362 -358q60 100 84.5 203 t24.5 286h198q-2 -217 -40 -348.5t-140 -267.5l352 -342h-286l-193 182q-220 -217 -512 -217q-231 0 -364.5 121.5t-133.5 304.5zM315 397q0 -73 31 -126.5t81 -81t100.5 -40t101.5 -12.5q65 0 123 17t103.5 48.5t68.5 51.5t53 51l-434 428q-124 -91 -176 -170.5t-52 -165.5 zM461 1212q0 -58 39.5 -117t115.5 -134q25 17 41 29t49.5 41.5t54 55.5t37.5 63.5t17 74.5q0 52 -43 95.5t-127 43.5q-80 0 -132 -45.5t-52 -106.5z" />
<glyph unicode="'" horiz-adv-x="569" d="M201 1417h170l-31 -504h-111z" />
<glyph unicode="(" horiz-adv-x="681" d="M150 659q0 203 83 478q50 162 146 403h135q-76 -231 -121 -434q-57 -249 -57 -442q0 -106 11 -205t41 -223t56.5 -215.5t81.5 -272.5h-133q-52 128 -86.5 220.5t-75 219.5t-61 246t-20.5 225z" />
<glyph unicode=")" horiz-adv-x="681" d="M156 1540h133q53 -129 87 -220t74.5 -218.5t61 -246t20.5 -224.5q0 -202 -83 -477q-55 -176 -146 -406h-135q78 241 121 436q57 247 57 443q0 105 -11 203t-41 222.5t-56 215t-82 272.5z" />
<glyph unicode="*" d="M160 1010v149l346 -45l-209 287l135 74l137 -318l142 320l137 -76l-215 -287l350 39v-154l-352 39l209 -282l-133 -82l-138 323l-147 -319l-139 76l217 284z" />
<glyph unicode="+" horiz-adv-x="1196" d="M76 436v158h436v436h172v-436h436v-158h-436v-436h-172v436h-436z" />
<glyph unicode="," horiz-adv-x="569" d="M100 -258l131 504h238l-229 -504h-140z" />
<glyph unicode="-" horiz-adv-x="681" d="M86 461v155h514v-155h-514z" />
<glyph unicode="." horiz-adv-x="569" d="M166 0v246h227v-246h-227z" />
<glyph unicode="/" horiz-adv-x="569" d="M-18 -33l479 1493h133l-477 -1493h-135z" />
<glyph unicode="0" d="M90 692q0 58 2.5 109.5t13 131.5t29 145t54.5 136.5t84.5 120t123.5 80t168 31.5q88 0 159.5 -26.5t120 -69.5t85 -105t57 -124t33 -137t16.5 -134.5t4 -124.5q0 -246 -48.5 -399t-147.5 -246q-116 -109 -283 -109q-133 0 -231 67t-148 169q-92 184 -92 485zM287 702 q0 -99 8 -180t27.5 -153.5t50.5 -121.5t79 -77.5t111 -28.5q279 0 279 566q0 134 -13 234.5t-43.5 179.5t-85 120t-133.5 41q-60 0 -106.5 -24.5t-76.5 -70t-50 -99t-30 -124t-13.5 -130.5t-3.5 -132z" />
<glyph unicode="1" d="M225 989v205q214 113 344 223h183v-1417h-197v1194q-63 -53 -156.5 -110t-173.5 -95z" />
<glyph unicode="2" d="M109 0v186l370 365q141 137 219 244q60 83 82.5 138t22.5 114q0 26 -4 51.5t-18 59.5t-37.5 59t-67 43t-101.5 18q-64 0 -110.5 -21.5t-69 -49.5t-35 -68t-14.5 -62t-2 -47h-215q1 38 4.5 66t15 74t40 90t71.5 81q120 103 307 103q85 0 160.5 -23t139.5 -70t101.5 -129.5 t37.5 -191.5q0 -41 -3.5 -67.5t-18.5 -68.5t-48.5 -94.5t-89.5 -123.5q-27 -34 -122.5 -134.5t-139.5 -144.5l-248 -235h674v-162h-901z" />
<glyph unicode="3" d="M78 365h217q-2 -105 65.5 -168.5t194.5 -63.5q72 0 128 21.5t89 58t49.5 80t16.5 92.5q0 105 -59 168t-146 82q-71 13 -197 10v166q44 -1 93.5 -1t100.5 16.5t92 41.5t67 74t26 115q0 114 -68.5 168.5t-181.5 54.5q-43 0 -83 -10.5t-78.5 -34.5t-64.5 -69.5t-32 -108.5 h-207q2 72 23.5 132t52.5 99t74 69t83.5 46t86.5 25.5t77.5 12.5t61.5 3q112 0 202 -32t146 -86t85.5 -122t29.5 -143q0 -48 -14 -95.5t-44.5 -96t-88.5 -87t-136 -55.5q62 -9 112 -31.5t81 -50t53.5 -63.5t33 -64.5t16.5 -61.5t6.5 -46.5t0.5 -26.5q0 -77 -31 -150 t-90 -133.5t-155 -97.5t-215 -37t-221.5 36.5t-167.5 111.5q-28 32 -46 67t-25.5 73t-9.5 58t-3 54z" />
<glyph unicode="4" d="M57 307v244l615 885h221v-963h207v-166h-207v-307h-197v307h-639zM213 473h489v748z" />
<glyph unicode="5" d="M115 336h213q3 -99 73.5 -150t161.5 -51q59 0 106.5 17.5t77 47t50 63.5t30 73t13.5 68.5t4 56.5q0 143 -72.5 224t-196.5 81q-116 0 -190 -74q-43 -43 -66 -119h-186l37 844h797v-166h-621l-27 -458q24 24 43.5 40t58 40.5t89 37.5t108.5 13q103 0 185.5 -38.5t134 -104 t78 -148.5t26.5 -176q0 -213 -138.5 -351.5t-366.5 -138.5q-116 0 -208.5 41t-150.5 125.5t-63 202.5z" />
<glyph unicode="6" d="M104 645q0 73 5.5 142.5t20.5 151t39 152t65 137.5t94.5 114t130.5 75.5t170 28.5q215 0 340 -135q25 -30 41.5 -61.5t23 -66.5t8 -52t2.5 -50h-210q-1 59 -21.5 102.5t-54 66t-68.5 32.5t-72 10q-152 0 -225.5 -133.5t-87.5 -419.5q19 29 32 45.5t43.5 46t62 46t82.5 30 t110 13.5q88 0 164.5 -29.5t136 -85t93.5 -143t34 -197.5q0 -120 -40 -216t-108 -156t-153 -92t-178 -32q-105 0 -200 41t-151 113q-129 172 -129 522zM319 444q0 -138 77.5 -228.5t195.5 -90.5q50 0 97 18.5t87.5 55t65 100.5t24.5 147q0 37 -4.5 72t-21 81.5t-43.5 80.5 t-77.5 58t-117.5 24q-91 0 -157 -46.5t-96 -117t-30 -154.5z" />
<glyph unicode="7" d="M72 1247v170h936v-172l-521 -1245h-231l545 1247h-729z" />
<glyph unicode="8" d="M76 379q0 73 27.5 141.5t80.5 118.5q31 31 72.5 54.5t63 31.5t69.5 23q-136 30 -210.5 117t-74.5 198q0 43 11.5 89.5t43.5 101t81 97t133 71t190 28.5q219 0 345 -106t126 -273q0 -113 -74 -204t-215 -117q27 -7 44.5 -12.5t53 -20.5t60.5 -31.5t56 -45.5t50 -62 t32.5 -82t13.5 -105q0 -77 -27.5 -148t-83.5 -132.5t-153.5 -98.5t-223.5 -37q-237 0 -366 119q-58 53 -91.5 128.5t-33.5 156.5zM283 397q0 -45 15.5 -88t47 -83t89 -64.5t132.5 -24.5q65 0 116 17.5t82 45t50.5 64t27 70.5t7.5 69q0 117 -78 189t-201 72q-128 0 -208 -76 t-80 -191zM303 1067q0 -101 75 -165t187 -64q119 0 196 63t77 166q0 100 -71.5 165.5t-195.5 65.5q-116 0 -192 -63.5t-76 -167.5z" />
<glyph unicode="9" d="M90 987q0 95 26 172.5t70 129.5t103 87.5t123 51.5t133 16q50 0 98 -8.5t104 -32t102 -60.5t87 -100.5t65 -146.5q41 -141 41 -381q0 -50 -0.5 -82t-5.5 -96t-13.5 -109.5t-27 -109.5t-43.5 -109t-65.5 -93.5t-91 -79t-121 -50t-154.5 -19.5q-62 0 -118 10t-112.5 36 t-98 66.5t-68.5 107t-29 151.5h215q0 -97 56.5 -153t171.5 -56q64 0 115 21.5t83 55.5t54.5 85.5t33.5 100.5t15.5 112.5t4.5 109.5t-3 103q-51 -96 -136.5 -137t-181.5 -41q-86 0 -163 29t-137.5 83t-96 141t-35.5 195zM291 985q0 -135 74.5 -213t193.5 -78t188.5 80 t69.5 209q0 146 -80 226.5t-192 80.5q-120 0 -187 -86.5t-67 -218.5z" />
<glyph unicode=":" horiz-adv-x="569" d="M170 0v242h227v-242h-227zM170 797v241h227v-241h-227z" />
<glyph unicode=";" horiz-adv-x="569" d="M100 -258l131 504h238l-229 -504h-140zM195 793v245h237v-245h-237z" />
<glyph unicode="&#x3c;" horiz-adv-x="1196" d="M76 430v168l1044 410v-177l-831 -317l831 -315v-179z" />
<glyph unicode="=" horiz-adv-x="1196" d="M76 227v160h1044v-160h-1044zM76 643v158h1044v-158h-1044z" />
<glyph unicode="&#x3e;" horiz-adv-x="1196" d="M76 20v179l831 315l-831 317v177l1044 -410v-168z" />
<glyph unicode="?" horiz-adv-x="1024" d="M152 1280v184q132 43 290 43q265 0 383 -127q43 -46 68 -109t25 -128q0 -35 -6 -66t-12.5 -55t-27 -55.5t-32.5 -49.5t-47.5 -57t-54 -57.5t-68.5 -69.5q-115 -115 -115 -117q-16 -23 -16 -63v-217h-172v217q0 65 14.5 95t91.5 112q73 76 105.5 112.5t67.5 84.5t47 85.5 t12 81.5q0 43 -13 77.5t-32 56t-47.5 37.5t-52.5 24t-54 12.5t-45.5 5t-32.5 0.5q-137 0 -276 -57zM350 0v209h213v-209h-213z" />
<glyph unicode="@" horiz-adv-x="2078" d="M289 721q0 188 70 342.5t186.5 252t261.5 150t301 52.5q107 0 206 -24t186 -74t152 -121.5t102.5 -174t37.5 -223.5q0 -120 -38 -224t-98 -172t-134 -106.5t-148 -38.5q-68 0 -116 38t-48 106q0 26 9 57q-12 -24 -21.5 -40.5t-36.5 -50t-55 -54.5t-74.5 -38.5 t-99.5 -17.5q-122 0 -198.5 83.5t-76.5 226.5q0 66 18.5 135t54.5 131.5t84.5 111.5t113 78t135.5 29q119 0 184 -68q35 -33 53 -94l37 131h142l-125 -422q-33 -120 -33 -155q0 -27 9.5 -45t25.5 -26t29 -10.5t26 -2.5q104 0 194.5 129.5t90.5 318.5q0 127 -48.5 227.5 t-131 162.5t-186.5 94t-222 32q-145 0 -275.5 -48t-231 -136.5t-159.5 -225t-59 -302.5q0 -199 90.5 -350t248.5 -230.5t359 -79.5q167 0 299.5 51t264.5 144l51 -68q-147 -107 -293 -162t-328 -55q-228 0 -406.5 93.5t-279 266t-100.5 396.5zM823 659q0 -86 38.5 -141 t111.5 -55q55 0 102.5 36.5t77 90t51 115t30.5 110.5t9 78q0 45 -14.5 78.5t-38 50.5t-47 25t-47.5 8q-77 0 -142 -67.5t-98 -157.5t-33 -171z" />
<glyph unicode="A" horiz-adv-x="1478" d="M18 0l623 1479h219l598 -1479h-223l-160 385h-686l-160 -385h-211zM455 551h559l-273 725z" />
<glyph unicode="B" horiz-adv-x="1366" d="M195 0v1479h528q143 0 225 -22t148 -87q104 -101 104 -264q0 -50 -11 -94t-25.5 -74t-40 -57.5t-44 -42.5t-49 -31t-43 -21t-37.5 -14q27 -8 44 -13.5t51.5 -21t57.5 -32t52 -46t47 -64t30.5 -84.5t12.5 -108q0 -70 -19.5 -130.5t-52 -101.5t-56.5 -63.5t-50 -39.5 q-36 -24 -76 -39t-88.5 -20.5t-80 -7t-89.5 -1.5h-538zM393 166h350q127 0 209 66.5t82 189.5q0 113 -75 184.5t-207 71.5h-359v-512zM393 854h287q307 0 307 233q0 46 -11.5 82.5t-27.5 59.5t-44 39.5t-50.5 24.5t-58 12.5t-55 5t-52.5 0.5h-295v-457z" />
<glyph unicode="C" horiz-adv-x="1366" d="M113 723q0 71 8 141t28.5 148.5t52 147t83 132t117 108.5t157.5 72t201 27q68 0 133.5 -11t135.5 -40.5t123.5 -75t91.5 -121t46 -172.5h-219q-3 20 -5 31t-12 41.5t-22 50.5t-37 47.5t-56.5 44.5t-79.5 29t-107 12q-74 0 -135 -21t-104 -56.5t-75.5 -85.5t-52 -103 t-32 -115.5t-17 -117t-4.5 -111.5q0 -90 10.5 -168t39.5 -156t74.5 -133t120.5 -89t173 -34q155 0 239 88q55 60 72 156h225q-11 -105 -63 -186.5t-130.5 -129.5t-169.5 -72t-190 -24q-108 0 -198 26.5t-152.5 70.5t-111.5 106.5t-78 128t-47.5 141.5t-25.5 141t-7 132z" />
<glyph unicode="D" horiz-adv-x="1478" d="M180 0v1479h428q58 0 88.5 -0.5t87 -4t92 -10.5t86.5 -21t88 -34t78.5 -51.5t75.5 -71.5q182 -214 182 -559q0 -114 -22 -215t-59 -175t-77.5 -127t-86.5 -89q-42 -35 -94 -59t-96 -36t-114 -18t-113 -7t-128 -1h-416zM385 168h201q131 0 226 16t161 66q194 145 194 469 q0 36 -3.5 76.5t-15.5 113.5t-44 145.5t-80 125.5q-67 74 -158 101.5t-235 27.5h-246v-1141z" />
<glyph unicode="E" horiz-adv-x="1251" d="M156 0v1479h927v-174h-723v-461h689v-172h-689v-492h740v-180h-944z" />
<glyph unicode="F" d="M195 0v1479h880v-174h-672v-461h633v-172h-633v-672h-208z" />
<glyph unicode="G" horiz-adv-x="1593" d="M141 715q0 53 5.5 110t26 139.5t53 155.5t93 149.5t140.5 129.5q154 104 411 104q282 0 437 -157q31 -32 51.5 -65.5t29.5 -67.5t12 -53.5t5 -49.5h-223q-18 107 -103 169t-231 62q-224 0 -334 -124q-158 -175 -158 -476q0 -119 31.5 -248.5t104.5 -216.5 q125 -145 393 -145q163 0 321 47v438h-338v170h543v-729q-267 -90 -526 -90q-355 0 -537 185q-105 106 -156 252.5t-51 310.5z" />
<glyph unicode="H" horiz-adv-x="1478" d="M180 0v1479h205v-635h702v635h205v-1479h-205v668h-702v-668h-205z" />
<glyph unicode="I" horiz-adv-x="569" d="M180 0v1479h205v-1479h-205z" />
<glyph unicode="J" d="M43 401h217q0 -2 0.5 -15.5t0.5 -16.5t1 -16t1.5 -17.5t2 -16t3 -17.5l4 -16t5.5 -16.5t6.5 -14.5t8.5 -15q23 -36 71 -63t119 -27q65 0 119.5 26.5t85.5 77.5q35 59 35 199v1026h205v-1082q0 -99 -37.5 -180t-101 -132.5t-146 -79.5t-174.5 -28q-36 0 -75 5.5t-90.5 20 t-101 48t-85.5 80.5q-74 99 -74 270z" />
<glyph unicode="K" horiz-adv-x="1366" d="M190 0v1479h203v-648l617 648h280l-661 -662l733 -817h-287l-682 784v-784h-203z" />
<glyph unicode="L" d="M190 0v1479h203v-1297h688v-182h-891z" />
<glyph unicode="M" horiz-adv-x="1933" d="M184 0v1479h363l418 -1219l428 1219h338v-1479h-201v1331l-486 -1331h-194l-467 1323v-1323h-199z" />
<glyph unicode="N" horiz-adv-x="1593" d="M195 0v1479h284l727 -1223v1223h189v-1479h-262l-752 1255v-1255h-186z" />
<glyph unicode="O" horiz-adv-x="1593" d="M121 729q0 386 190 590q185 199 494 199q313 0 490.5 -196.5t177.5 -567.5q0 -124 -20 -233.5t-70 -213.5t-126 -178t-196 -119t-273 -45q-147 0 -262.5 41t-190.5 110.5t-124 168.5t-69.5 208t-20.5 236zM336 741q0 -304 131 -467q109 -135 328 -135q213 0 327 135 q133 162 133 482q0 590 -448 590q-109 0 -192.5 -34.5t-135.5 -90.5t-85 -136.5t-45.5 -163.5t-12.5 -180z" />
<glyph unicode="P" horiz-adv-x="1251" d="M180 0v1479h496q156 0 245 -22t158 -97q109 -112 109 -287q0 -172 -117 -289q-64 -64 -161.5 -95.5t-284.5 -31.5h-240v-657h-205zM385 829h244q36 0 62 1t64 6.5t65.5 15.5t58 28.5t49 44.5t31 66t12.5 90q0 48 -11.5 85.5t-28.5 61.5t-45 41t-51 25.5t-58 13t-54 5 t-51 0.5h-287v-484z" />
<glyph unicode="Q" horiz-adv-x="1593" d="M119 729q0 381 184 584q91 99 221 149.5t275 50.5q142 0 255 -44t184 -116t117.5 -170.5t65.5 -200.5t19 -214q0 -423 -269 -635q142 29 265 29h108v-162h-246q-152 0 -274 -10q-210 -21 -268 -21q-135 0 -248.5 46t-201.5 136.5t-137.5 238.5t-49.5 339zM336 725 q0 -65 8.5 -129t27 -133.5t52.5 -127.5t81 -105t116.5 -74t154.5 -27q87 0 158 26t117 66.5t81 97.5t53 111t29 116.5t14 104t3 82.5q0 287 -118.5 448.5t-332.5 161.5q-84 0 -153 -26.5t-114.5 -67.5t-79.5 -99t-52 -113t-28.5 -119t-13.5 -107t-3 -86z" />
<glyph unicode="R" horiz-adv-x="1366" d="M176 0v1479h529q230 0 339 -70q81 -51 122.5 -130t41.5 -171q0 -158 -104 -262q-68 -68 -174 -96q109 -29 159.5 -90t65.5 -195q13 -109 21 -166t26 -139t45 -160h-219q-6 18 -12 41.5t-10.5 43.5t-10 53t-8 50.5l-8 56t-7 50t-6.5 52.5t-5 44q-10 86 -26 135t-52.5 83.5 t-93.5 46.5t-152 12h-258v-668h-203zM375 842h323q142 0 195 32q20 11 39.5 29.5t40 63t20.5 100.5q0 49 -12.5 88.5t-31 64t-47.5 42.5t-52.5 26.5t-57.5 13t-51 5t-43 0.5h-323v-465z" />
<glyph unicode="S" horiz-adv-x="1366" d="M115 432h213q1 -30 3 -49t10 -53t21.5 -57t40 -50.5t62.5 -44t92.5 -28t126.5 -11.5q87 0 153.5 21t101.5 50.5t57 68.5t28 68t6 56q0 49 -17.5 85.5t-40.5 59t-75.5 43.5t-89.5 31.5t-117 30.5q-192 47 -270 71.5t-131 59.5q-154 104 -154 291q0 87 32 160t86 122.5 t126.5 84t152.5 50t166 15.5q282 0 416 -145q38 -41 59 -95t24.5 -81.5t6.5 -75.5h-213q-12 225 -311 225q-153 0 -240.5 -64t-87.5 -175q0 -93 60.5 -138.5t205.5 -80.5q279 -71 347.5 -93t130.5 -63q147 -97 147 -295q0 -203 -154 -332t-430 -129q-53 0 -105 5.5 t-120 21.5t-130 52t-103 89q-39 50 -59.5 112.5t-23.5 99t-3 87.5z" />
<glyph unicode="T" horiz-adv-x="1251" d="M43 1305v174h1194v-174h-496v-1305h-202v1305h-496z" />
<glyph unicode="U" horiz-adv-x="1593" d="M190 578v901h205v-916q0 -174 66 -266q108 -145 338 -145q399 0 399 419v908h199v-912q0 -44 -2.5 -77.5t-12.5 -91t-37 -115t-69 -109.5q-51 -64 -118.5 -108t-136.5 -63.5t-121 -26.5t-101 -7q-60 0 -123 10t-137.5 33.5t-144.5 73t-118 119.5q-41 60 -63.5 141.5 t-22.5 231.5z" />
<glyph unicode="V" horiz-adv-x="1366" d="M29 1479h227l420 -1264l442 1264h207l-545 -1479h-225z" />
<glyph unicode="W" horiz-adv-x="2048" d="M16 1479h220l319 -1217l352 1217h254l334 -1227l336 1227h201l-439 -1479h-227l-342 1264l-367 -1264h-221z" />
<glyph unicode="X" horiz-adv-x="1478" d="M39 0l573 774l-512 705h262l400 -570l399 570h248l-526 -709l553 -770h-258l-441 635l-450 -635h-248z" />
<glyph unicode="Y" horiz-adv-x="1366" d="M14 1479h254l437 -725l442 725h229l-577 -908v-571h-207v582z" />
<glyph unicode="Z" horiz-adv-x="1251" d="M72 0v205l854 1093h-832v181h1075v-203l-862 -1096h877v-180h-1112z" />
<glyph unicode="[" horiz-adv-x="681" d="M209 -256v1792h354v-109h-192v-1574h192v-109h-354z" />
<glyph unicode="\" horiz-adv-x="569" d="M-18 1460h135l477 -1493h-133z" />
<glyph unicode="]" horiz-adv-x="681" d="M123 -147h194v1574h-194v109h356v-1792h-356v109z" />
<glyph unicode="^" horiz-adv-x="1196" d="M168 555l352 862h156l352 -862h-176l-258 651l-250 -651h-176z" />
<glyph unicode="_" horiz-adv-x="1024" d="M0 -154h1024v-102h-1024v102z" />
<glyph unicode="`" horiz-adv-x="569" d="M4 1516h232l172 -295h-127z" />
<glyph unicode="a" d="M109 270q0 35 7.5 70t25 77t55.5 82.5t92 71.5q124 68 356 68q51 0 139 -6q0 79 -1 109t-9 63t-26 55q-27 35 -78.5 51.5t-100.5 16.5q-199 0 -207 -174h-192q4 39 8 60.5t20.5 61.5t43.5 72q54 59 144.5 85t186.5 26q121 0 223.5 -39t141.5 -113q35 -65 35 -157l-8 -492 q0 -139 16 -258h-174q-19 69 -19 154q-101 -187 -317 -187q-171 0 -266.5 85t-95.5 218zM303 297q0 -28 9.5 -56t31.5 -57t66.5 -47t105.5 -18q147 0 219 110q30 49 38 99.5t11 171.5q-52 6 -110 6q-27 0 -46 -0.5t-61 -4.5t-72.5 -11.5t-69 -23t-63.5 -36.5t-42 -55.5 t-17 -77.5z" />
<glyph unicode="b" horiz-adv-x="1251" d="M176 0l4 184v1295h193v-600q101 176 336 176q209 0 325 -131q121 -140 121 -387q0 -244 -98 -375q-60 -86 -156 -131t-205 -45q-132 0 -229 65q-58 40 -100 105l-5 -156h-186zM369 514q0 -25 0.5 -43.5t6 -62.5t15.5 -76.5t31 -74t50.5 -68t76.5 -45.5t106 -19 q68 0 122 26t86 66t53 94.5t28.5 106t7.5 106.5q0 27 -1.5 54.5t-8.5 69t-18.5 77t-33.5 73.5t-51.5 65t-74.5 44t-100 17q-60 0 -109 -20t-79 -49t-52 -72.5t-32 -78.5t-16 -80.5t-6.5 -65t-0.5 -44.5z" />
<glyph unicode="c" horiz-adv-x="1024" d="M92 500q0 123 29 221.5t76 159.5t109.5 101.5t125 56.5t127.5 16q46 0 92.5 -7t113 -37.5t109.5 -82.5q35 -41 55 -88t24.5 -74.5t7.5 -67.5h-195q-18 215 -205 215q-55 0 -98.5 -18t-70.5 -44t-47 -66.5t-29 -72.5t-14.5 -75.5t-6 -63.5t-0.5 -47q0 -407 256 -407 q59 0 103 20.5t69 54t37 71t14 77.5h195q-9 -158 -120.5 -263.5t-295.5 -105.5q-33 0 -68.5 4.5t-84.5 17t-98 41t-87 70.5q-123 145 -123 394z" />
<glyph unicode="d" horiz-adv-x="1251" d="M109 502q0 142 38 252t103.5 176t147.5 99.5t175 33.5q63 0 116 -15t84.5 -33t60 -47t38 -43.5t21.5 -35.5v588h192v-1313q0 -45 9 -164h-193l-4 164q-40 -73 -92 -109q-111 -75 -254 -75q-33 0 -68 5t-79.5 20t-84.5 38.5t-79 64t-67.5 93.5t-46 130.5t-17.5 170.5z M313 508q0 -393 283 -393q62 0 112 19.5t81 47.5t53.5 71t33 78t16.5 81t6.5 67t0.5 49q0 187 -78 287q-35 45 -92 75t-133 30q-58 0 -104.5 -20t-75.5 -48.5t-50 -72t-31 -79t-15.5 -81t-6 -65.5t-0.5 -46z" />
<glyph unicode="e" d="M106 496q0 167 44.5 285t158.5 198q106 76 281 76q75 0 137 -14t105.5 -39t79 -59t55.5 -73t36 -81.5t21.5 -85.5t9.5 -83q3 -28 3 -54v-23q-1 -24 -1 -44v-20h-739v-13q0 -160 70 -256q73 -100 225 -101q99 0 164.5 53.5t77.5 159.5h192q-5 -40 -9 -63.5t-24.5 -69.5 t-54.5 -83q-121 -137 -354 -137q-238 0 -358 138.5t-120 388.5zM305 614h535v16q0 28 -2 54q-4 33 -18.5 78.5t-40.5 77.5t-75.5 55t-117.5 23q-50 0 -96.5 -16t-88.5 -50t-68.5 -95.5t-27.5 -142.5z" />
<glyph unicode="f" horiz-adv-x="681" d="M33 889v139h203v117q0 107 8.5 157t34.5 89q73 112 258 112q61 0 157 -14v-154q-66 4 -112 4q-45 0 -76 -9.5t-46.5 -21.5t-23.5 -35.5t-9 -38.5t-1 -44v-162h240v-139h-240v-889h-190v889h-203z" />
<glyph unicode="g" horiz-adv-x="1251" d="M106 524q0 127 35.5 227t98.5 163t145 95.5t178 32.5q59 0 109.5 -12t81.5 -26.5t61.5 -40t41.5 -39t30 -37.5l2 141h186l-4 -186l-2 -643q0 -193 -9.5 -281t-39.5 -145q-97 -185 -428 -185q-67 0 -123 7.5t-97 18t-73.5 30t-53.5 36.5t-37 44.5t-24 47t-13.5 51t-7 49 t-3.5 48.5h205q3 -46 15.5 -80.5t38.5 -63t72.5 -43t112.5 -14.5q56 0 99 13t72 31t49 55.5t30 69.5t15.5 90.5t6.5 99.5t1 115q-84 -175 -338 -175q-213 0 -316 127q-117 138 -117 379zM305 528q0 -52 6.5 -99t25.5 -97.5t49 -86.5t82 -59.5t120 -23.5q146 0 225 102 q36 46 53 106.5t17 188.5q0 173 -80 256q-39 42 -97.5 66t-123.5 24q-70 0 -122.5 -27.5t-81 -67t-46 -94t-22.5 -98.5t-5 -90z" />
<glyph unicode="h" horiz-adv-x="1251" d="M180 0v1477h195v-600q47 81 136 125.5t198 44.5q44 0 89 -8.5t90.5 -26.5t84 -51t59.5 -78q35 -72 35 -240v-643h-197v608q0 28 -0.5 45.5t-4.5 51.5t-12 56.5t-24.5 51t-39 45.5t-58.5 29t-82 12q-94 0 -153 -42.5t-88 -94.5q-33 -57 -33 -217v-545h-195z" />
<glyph unicode="i" horiz-adv-x="569" d="M162 1264v211h231v-211h-231zM182 0v1028h193v-1028h-193z" />
<glyph unicode="j" horiz-adv-x="569" d="M-2 -258q15 -1 28 -1q93 0 124 30q36 34 36 155v1102h193v-1124q0 -29 -1 -48.5t-6 -54.5t-14.5 -59.5t-29 -54t-46.5 -47.5t-69.5 -30.5t-95.5 -12.5q-48 0 -119 8v137zM168 1262v213h233v-213h-233z" />
<glyph unicode="k" horiz-adv-x="1024" d="M166 0v1489h190v-881l385 420h252l-434 -436l461 -592h-252l-412 555v-555h-190z" />
<glyph unicode="l" horiz-adv-x="569" d="M184 0v1477h193v-1477h-193z" />
<glyph unicode="m" horiz-adv-x="1933" d="M174 1028h195v-149q35 57 78 95t89.5 54t81.5 21.5t76 5.5q65 0 118.5 -13.5t87 -32t61.5 -47.5t41.5 -50.5t27.5 -49.5q16 26 28 43t43.5 48.5t65 51t89.5 35t120 15.5q49 0 96 -8.5t99.5 -33t91.5 -63.5t64.5 -106t25.5 -154v-690h-194v659q0 103 -35 156 q-27 39 -77.5 64.5t-119.5 25.5q-140 0 -219 -108q-45 -63 -45 -222v-575h-195v680q0 100 -57.5 162.5t-167.5 62.5q-60 0 -111.5 -23.5t-74 -44.5t-39.5 -44q-45 -62 -45 -209v-584h-195v891z" />
<glyph unicode="n" horiz-adv-x="1251" d="M184 1028h193l2 -166q12 22 21 37t38 46.5t61 51t88 36t122 16.5q24 0 50 -2.5t63.5 -12t71.5 -24.5t69 -42t60.5 -62.5t41.5 -89t16 -118.5v-698h-196v653q0 120 -56 176q-73 70 -182 70q-112 0 -190 -80t-78 -227v-592h-193v909z" />
<glyph unicode="o" horiz-adv-x="1251" d="M104 502q0 81 15 155.5t53.5 148.5t96 128t150 87.5t208.5 33.5q118 0 210 -36t145.5 -91t88.5 -130t47 -143t12 -139q0 -115 -32.5 -213.5t-95.5 -174.5t-163.5 -119.5t-228.5 -43.5q-124 0 -222 41.5t-159 114.5t-93 170t-32 211zM305 514q0 -82 18 -153t54 -128.5 t97 -90.5t140 -33q58 0 110.5 22t99 68t74.5 129t28 194q0 188 -80.5 289.5t-218.5 101.5q-41 0 -81.5 -10t-85 -38t-78 -71t-55.5 -115.5t-22 -164.5z" />
<glyph unicode="p" horiz-adv-x="1251" d="M168 1028h194l5 -170q34 57 82 97t99 57.5t91 24.5t78 7q86 0 161.5 -30.5t137 -92t97.5 -166.5t36 -243q0 -139 -38.5 -247t-104.5 -173t-148.5 -98t-177.5 -33q-109 0 -190.5 42t-124.5 112v-510h-191v1255q0 21 -6 168zM358 483q0 -381 289 -381q143 0 217 101 q84 114 84 321q0 59 -7.5 110t-27 101.5t-50 86t-81 57.5t-116.5 22q-63 0 -113.5 -19t-82 -47t-54.5 -70.5t-33.5 -77.5t-16.5 -82t-7 -69t-1 -53z" />
<glyph unicode="q" horiz-adv-x="1251" d="M100 518q0 110 24 200t65 149.5t97 100t117.5 58.5t128.5 18q235 0 351 -186l6 170h194q-4 -82 -4 -168v-1255h-194v510q-36 -56 -84 -88q-96 -66 -232 -66q-96 0 -179 34t-148.5 100.5t-103.5 175.5t-38 247zM301 530q0 -209 84 -327q69 -101 221 -101q69 0 120.5 21.5 t82.5 56.5t50 88t25.5 106t6.5 120q0 29 -0.5 50t-6.5 66.5t-17 79.5t-34 76.5t-54.5 69.5t-82.5 46t-114 19q-57 0 -102.5 -17t-74 -42t-49.5 -62.5t-31.5 -69.5t-16 -72.5t-6.5 -61.5t-1 -46z" />
<glyph unicode="r" horiz-adv-x="796" d="M180 1028h195l4 -199q13 51 41 90t64.5 61.5t70.5 34.5t70 17q40 5 86 5q23 0 47 -1v-188q-11 4 -37 8q-14 2 -55 2q-82 0 -139 -23t-87 -67t-42.5 -97t-12.5 -124v-547h-195v819q0 96 -10 209z" />
<glyph unicode="s" horiz-adv-x="1024" d="M88 305h203q-1 -33 8.5 -62.5t32.5 -59t70.5 -47t113.5 -17.5q128 0 180 65q33 45 33 97q0 25 -5 43.5t-20 33t-29 24t-45 19.5t-55 16t-71 17q-83 19 -126 30.5t-104 36.5t-90.5 53.5t-52 76.5t-22.5 110q0 140 111 226t290 86q52 0 104.5 -8t105.5 -25.5t96 -50 t65 -76.5q26 -55 26 -150h-196v11q0 37 -12 66q-14 33 -34.5 50t-51 26.5t-53 12t-48.5 2.5q-14 0 -26.5 -1t-40 -4.5t-49.5 -13t-44.5 -24.5t-35.5 -42t-13 -62q0 -27 11 -48.5t24 -34t37.5 -23.5t37 -15t36.5 -10q225 -54 294 -77t113 -64q78 -73 78 -191 q0 -83 -39.5 -153t-99.5 -107q-115 -70 -306 -70q-65 0 -122.5 10.5t-109.5 35.5t-89 63t-59 96q-21 55 -21 123v6z" />
<glyph unicode="t" horiz-adv-x="681" d="M23 891v141h182v215l190 62v-277h230v-141h-230v-617q0 -22 1 -34.5t8 -35t20.5 -35t41 -22.5t66.5 -10q53 0 93 10v-149q-70 -12 -160 -12q-137 0 -198.5 48.5t-61.5 170.5v686h-182z" />
<glyph unicode="u" horiz-adv-x="1251" d="M160 338v690h196v-661q0 -45 7 -79t28 -71t67.5 -57.5t116.5 -20.5q165 0 242 115q43 61 43 192v582h199v-835q0 -22 6 -193h-201l-4 176q-14 -27 -27 -47.5t-40.5 -48.5t-60 -46t-85 -31t-115.5 -13q-184 0 -278 94.5t-94 253.5z" />
<glyph unicode="v" d="M25 1028h215l327 -815l320 815h213l-451 -1028h-194z" />
<glyph unicode="w" horiz-adv-x="1705" d="M25 1028h211l247 -819l260 819h252l234 -811l258 811h199l-363 -1028h-221l-242 846l-268 -846h-227z" />
<glyph unicode="x" d="M25 0l407 539l-385 489h252l274 -387l287 387h227l-401 -502l401 -526h-253l-293 412l-291 -412h-225z" />
<glyph unicode="y" d="M25 1028h217l321 -811l328 811h209l-457 -1034l-147 -383h-199l156 393z" />
<glyph unicode="z" horiz-adv-x="909" d="M61 0v199l549 684h-520v145h739v-164l-567 -714h567v-150h-768z" />
<glyph unicode="{" horiz-adv-x="684" d="M-2 588v104q110 8 188 66q24 17 40 39t24.5 41t12.5 50t4.5 50.5t0.5 58.5v56q0 63 1 96t9 90.5t23 89.5t45 74.5t74 66t111.5 42.5t154.5 24v-104q-41 -3 -75 -12.5t-58.5 -21.5t-43.5 -32t-31.5 -37t-21 -44.5t-13 -46t-6.5 -50.5t-2.5 -49t-0.5 -49v-54 q0 -34 -0.5 -52.5t-2.5 -54t-7 -56.5t-14 -52.5t-22.5 -51t-34 -43.5t-47 -39t-63.5 -27.5t-81 -18.5q44 -6 80.5 -18t63 -27t47 -38t34 -43t23 -51t14 -52.5t7 -56.5t3 -55.5t0.5 -55.5v-64q0 -30 0.5 -47.5t2.5 -47t6.5 -48.5t13.5 -45t21 -43t31.5 -36t44 -31t58 -21.5 t74.5 -12.5v-104q-65 4 -119 15t-94 26.5t-71.5 39t-53 46.5t-37 57t-23.5 63t-13 70t-6 73.5t-1 78.5v70q0 38 -0.5 57.5t-5.5 54t-15 54.5t-29.5 46.5t-48 42t-72 30t-99.5 20.5z" />
<glyph unicode="|" horiz-adv-x="532" d="M182 -512v2048h170v-2048h-170z" />
<glyph unicode="}" horiz-adv-x="684" d="M-2 -152q41 3 75 12.5t58.5 21.5t43.5 32t31.5 37t21 44.5t13 46t6.5 50.5t2.5 49t0.5 49v54q0 34 0.5 52.5t2.5 54t7 56.5t14 52.5t22.5 51.5t34 44t47 39t63.5 28t81 19q-44 5 -80.5 17t-63 27t-47 38t-34 42.5t-23 50.5t-14 52.5t-7 56.5t-3 55.5t-0.5 55.5v64 q0 30 -0.5 47.5t-2.5 47t-6.5 48.5t-13.5 45t-21 43t-31.5 36t-44 31t-58 21.5t-74.5 12.5v104q65 -4 119 -15t94 -26.5t71.5 -39t53 -46.5t37 -57t23.5 -63t13 -70t6 -73.5t1 -78.5v-70q0 -38 0.5 -57.5t5.5 -54t15 -54.5t29.5 -46.5t48 -42t72 -30t99.5 -20.5v-104 q-110 -8 -188 -66q-24 -17 -40 -39t-24.5 -41t-12.5 -50t-4.5 -50.5t-0.5 -58.5v-56q0 -63 -1 -96t-9 -90.5t-23 -89.5t-45 -74.5t-74 -66t-111.5 -42.5t-154.5 -24v104z" />
<glyph unicode="~" horiz-adv-x="1196" d="M55 356q10 73 27 122.5t55 96.5q76 91 189 91q51 0 94.5 -11t202.5 -63q143 -48 183 -59t75 -11q52 0 92.5 34.5t56.5 115.5h111q-8 -76 -32 -134t-52.5 -90t-65.5 -51.5t-65.5 -25.5t-57.5 -6q-90 0 -329 84q-124 42 -158 51.5t-64 9.5q-48 0 -92.5 -38t-56.5 -116h-113 z" />
<glyph unicode="&#xa1;" horiz-adv-x="796" d="M260 -451l43 1141h150l34 -1141h-227zM274 823v205h218v-205h-218z" />
<glyph unicode="&#xa2;" d="M147 500q0 269 140 418q60 63 145.5 100t185.5 37q31 0 105 -11l70 246h98l-78 -276q34 -14 65 -37t63 -59.5t53 -93.5t24 -126h-195q-12 97 -57 148l-205 -723q27 -6 45 -6q98 0 160 59t65 166h195q-5 -76 -34.5 -142.5t-81.5 -117.5t-130 -80t-174 -29q-43 0 -84 7 l-80 -279h-100l86 303q-69 25 -121 71t-81.5 96.5t-48 112.5t-24.5 112.5t-6 103.5zM352 532q0 -284 119 -372l211 741q-36 12 -72 12q-113 0 -184 -90q-74 -93 -74 -291z" />
<glyph unicode="&#xa3;" d="M66 711v137h155q-9 212 17 317q6 25 16.5 53t43 76t77 84.5t124 64t177.5 27.5q240 0 364 -135q66 -70 66 -196h-201q-2 88 -62.5 144t-162.5 56q-133 0 -201 -86q-43 -53 -52 -108.5t-9 -210.5v-86h289v-137h-289v-574h653v-137h-991v139h137v572h-151z" />
<glyph unicode="&#xa4;" d="M82 322l133 133q-82 121 -82 254q0 138 82 256l-133 133l100 100l133 -133q116 80 256 80q56 0 111 -16t81 -30t62 -36l131 133l101 -100l-133 -133q82 -110 82 -254q0 -134 -82 -252l133 -135l-101 -101l-133 133q-122 -82 -252 -82q-140 0 -254 82l-135 -133zM285 709 q0 -117 83 -201t201 -84q119 0 202 83t83 202t-83.5 201.5t-201.5 82.5t-201 -82.5t-83 -201.5z" />
<glyph unicode="&#xa5;" d="M0 1479h254l324 -725l329 725h232l-402 -779h310v-127h-375v-112h375v-125h-375v-336h-207v336h-375v125h375v112h-375v127h316z" />
<glyph unicode="&#xa6;" horiz-adv-x="532" d="M182 358h170v-716h-170v716zM182 666v716h170v-716h-170z" />
<glyph unicode="&#xa7;" d="M195 698q0 183 223 267q-86 26 -139.5 84.5t-53.5 150.5q0 136 100 210.5t269 74.5q126 0 244 -35v-160q-53 21 -76.5 29.5t-68 18.5t-83.5 10q-29 0 -56 -4.5t-59 -17.5t-51.5 -42t-19.5 -72q0 -32 9 -54.5t30.5 -37.5t38 -22.5t49.5 -18.5l129 -43q31 -10 50 -17.5 t53 -28t54 -44t36 -63.5t16 -90q0 -201 -209 -263q32 -10 52.5 -18t57.5 -29.5t59 -47t40 -69.5t18 -98q0 -137 -112 -224t-312 -87q-128 0 -256 43v176q134 -65 273 -65q54 0 94 14t60.5 32.5t33 42.5t15 39t2.5 27q0 33 -13.5 58.5t-39.5 43t-50 28.5t-59 22l-140 43 q-25 8 -33.5 11.5t-36.5 15.5t-41.5 22t-35.5 29.5t-32.5 40.5t-19.5 51.5t-9 66.5zM373 737q0 -32 13 -58t29.5 -41.5t44 -29t44 -18.5t41.5 -12q22 8 38.5 14.5t44 23t45.5 34t32 46.5t14 62q0 29 -11.5 53t-25.5 38.5t-43 29t-46 21t-54 18.5q-29 -13 -42.5 -19 t-42 -23.5t-42.5 -34t-26.5 -44.5t-12.5 -60z" />
<glyph unicode="&#xa8;" horiz-adv-x="569" d="M-6 1264v209h188v-209h-188zM381 1264v209h190v-209h-190z" />
<glyph unicode="&#xa9;" horiz-adv-x="1638" d="M68 741q0 156 61 299.5t164.5 248.5t248 167t304.5 62q158 0 301.5 -61.5t247.5 -166t165.5 -248t61.5 -301.5t-61.5 -301.5t-165.5 -247.5t-247.5 -165.5t-301.5 -61.5q-160 0 -304.5 62t-248 166.5t-164.5 248t-61 299.5zM160 741q0 -138 54 -264.5t145 -218.5 t218.5 -146.5t268.5 -54.5q139 0 266 54.5t218.5 146.5t145.5 218.5t54 264.5t-54.5 264.5t-146 218.5t-218 146.5t-265.5 54.5q-141 0 -268.5 -54.5t-218.5 -146.5t-145 -218.5t-54 -264.5zM496 735q0 59 8.5 117t32.5 123t61.5 113t102.5 80t149 32q37 0 73 -6.5t74 -24.5 t67.5 -45.5t50 -72.5t24.5 -103h-121q-1 14 -3.5 28.5t-13.5 39t-28 42t-50.5 31t-78.5 13.5q-56 0 -99 -25t-66.5 -62.5t-38.5 -89.5t-19.5 -96.5t-4.5 -93.5q0 -52 5.5 -97.5t21 -93t40 -80.5t66 -54t95.5 -21q50 0 86 17.5t52.5 46t22.5 46.5t9 36h123q-8 -81 -54 -138.5 t-110 -82.5t-139 -25q-81 0 -143.5 31t-98 77t-58.5 109t-30.5 117.5t-7.5 111.5z" />
<glyph unicode="&#xaa;" horiz-adv-x="684" d="M47 1047q0 62 30.5 107t82 68t107.5 33.5t120 10.5q66 0 98 -4q0 33 -1 50.5t-4.5 41.5t-12.5 36.5t-23.5 25t-38.5 17.5t-57 5q-46 0 -76 -11.5t-41.5 -32t-15 -31.5t-4.5 -28h-125q7 104 88 146q67 37 174 37q85 0 151.5 -25t90.5 -74q19 -45 16 -88l-4 -293 q0 -73 10 -155h-112q-13 45 -13 92q-9 -15 -16 -25.5t-25 -28.5t-38.5 -29.5t-54.5 -20.5t-74 -9q-98 0 -165 48.5t-67 136.5zM172 1061q0 -39 32 -73t107 -34q38 0 68.5 10.5t48 27.5t25.5 27t12 19q17 38 20 144q-25 3 -54.5 4t-78.5 -2.5t-86.5 -15t-65.5 -39t-28 -68.5z " />
<glyph unicode="&#xab;" d="M170 510l227 397h162l-199 -397l201 -401h-164zM571 510l228 397h162l-199 -397l201 -401h-164z" />
<glyph unicode="&#xac;" horiz-adv-x="1196" d="M76 643v158h1044v-574h-164v416h-880z" />
<glyph unicode="&#xad;" horiz-adv-x="681" d="M86 461v155h514v-155h-514z" />
<glyph unicode="&#xae;" horiz-adv-x="1638" d="M68 743q0 159 63 303.5t168.5 247.5t247.5 163.5t295 60.5q157 0 300 -61t247 -164.5t165.5 -247.5t61.5 -302q0 -160 -62 -304.5t-166.5 -248t-247 -164.5t-298.5 -61q-206 0 -384 103t-284 282.5t-106 392.5zM160 743q0 -142 54.5 -269.5t146.5 -219t217.5 -145.5 t263.5 -54q139 0 265 54.5t217.5 146.5t145.5 219.5t54 267.5q0 136 -53 261t-143 217.5t-217.5 148t-268.5 55.5q-137 0 -263.5 -54.5t-218 -145.5t-146 -217.5t-54.5 -264.5zM559 334v831h295q283 0 283 -209q0 -14 -1 -26.5t-9.5 -41t-23 -50.5t-46.5 -45.5t-76 -36.5 q64 -15 91 -49t36 -111q9 -72 12.5 -99.5t13 -76t23.5 -86.5h-119q-24 81 -41 217q-9 96 -44.5 128t-135.5 32h-143v-377h-115zM674 809h180q25 0 40 1t41.5 7.5t42 19t28 38t12.5 61.5q0 37 -12 63.5t-27 39.5t-41.5 19.5t-42 7.5t-41.5 1h-180v-258z" />
<glyph unicode="&#xaf;" horiz-adv-x="569" d="M0 1315v108h563v-108h-563z" />
<glyph unicode="&#xb0;" horiz-adv-x="819" d="M90 1126q0 133 94 226.5t226 93.5t225.5 -93.5t93.5 -226.5q0 -131 -93 -225t-226 -94q-132 0 -226 93.5t-94 225.5zM231 1126q0 -73 52.5 -125.5t126.5 -52.5t126 52.5t52 125.5q0 74 -52.5 126.5t-125.5 52.5t-126 -52.5t-53 -126.5z" />
<glyph unicode="&#xb1;" horiz-adv-x="1196" d="M76 -27v158h1044v-158h-1044zM76 553v158h436v344h172v-344h436v-158h-436v-340h-172v340h-436z" />
<glyph unicode="&#xb2;" horiz-adv-x="681" d="M49 582v110l240 219q127 114 169 177t42 122q0 65 -41.5 101.5t-108.5 36.5q-33 0 -59 -8t-41 -22.5t-25.5 -29t-15 -33.5t-6 -29t-2.5 -22v-4h-140q3 62 25.5 108.5t53 72t71.5 41t72 20t63 4.5q127 0 207 -63t80 -183q0 -46 -19.5 -91.5t-83.5 -119.5 q-20 -23 -84.5 -85.5t-89.5 -84.5l-159 -141h438v-96h-586z" />
<glyph unicode="&#xb3;" horiz-adv-x="681" d="M25 799h139q0 -67 46.5 -103.5t127.5 -36.5q88 0 134 45.5t46 108.5q0 47 -21 80t-52.5 47t-68 22.5t-67.5 6t-51 -1.5v100q13 1 40.5 -1.5t63 6t67 21.5t53.5 44.5t22 76.5q0 39 -15 67.5t-41 42.5t-51.5 20t-54.5 6q-71 0 -118 -37.5t-50 -98.5h-135q2 66 32 114 t77 72.5t94 35t96 10.5q144 0 222.5 -67t78.5 -162q0 -63 -44 -121t-140 -78q55 -8 95.5 -32t59 -48t29 -56t11.5 -45t1 -26q0 -106 -88.5 -179t-236.5 -73q-165 0 -248 90q-23 25 -35.5 57.5t-14 47t-3.5 45.5z" />
<glyph unicode="&#xb4;" horiz-adv-x="569" d="M164 1221l168 295h213l-248 -295h-133z" />
<glyph unicode="&#xb6;" horiz-adv-x="1099" d="M-10 995q0 65 14 127.5t52 128.5t95.5 115.5t152.5 81t216 31.5h557v-131h-110v-1692h-160v1692h-240v-1692h-161v885q-92 7 -165.5 38t-119.5 75.5t-76 103t-42.5 117t-12.5 120.5z" />
<glyph unicode="&#xb7;" horiz-adv-x="569" d="M166 473v248h227v-248h-227z" />
<glyph unicode="&#xb8;" horiz-adv-x="569" d="M45 -397l41 75q54 -28 137 -28q53 0 81 21t28 61q0 33 -21 52.5t-41 23.5t-43 4q-27 0 -73 -17l-31 35l129 180h86l-92 -129q58 10 82 10q81 0 120 -45t39 -100q0 -12 -1.5 -26t-15 -45t-37 -53.5t-74.5 -41t-121 -18.5q-46 0 -85 7t-57.5 13.5t-50.5 20.5z" />
<glyph unicode="&#xb9;" horiz-adv-x="681" d="M119 1174v124q133 62 223 134h119v-850h-127v716q-96 -73 -215 -124z" />
<glyph unicode="&#xba;" horiz-adv-x="751" d="M90 1184q0 66 19.5 124t58 105.5t105 75t153.5 27.5q80 0 141.5 -22.5t96.5 -56.5t57 -79.5t29.5 -85.5t7.5 -82q0 -145 -89.5 -237.5t-244.5 -92.5q-87 0 -153 27t-104.5 73.5t-57.5 102.5t-19 121zM221 1192q0 -43 10 -83t31.5 -77.5t62.5 -60.5t97 -23 q82 0 142.5 60.5t60.5 185.5q0 43 -8.5 80.5t-28.5 74.5t-61 59t-99 22q-70 0 -118.5 -36.5t-68.5 -88.5t-20 -113z" />
<glyph unicode="&#xbb;" d="M166 907h164l227 -399l-227 -399h-162l199 399zM567 907h162l229 -399l-229 -399h-160l199 399z" />
<glyph unicode="&#xbc;" horiz-adv-x="1708" d="M49 1174v124q127 58 225 134h117v-850h-127v716q-104 -78 -215 -124zM299 -57l881 1521h131l-879 -1521h-133zM965 184v146l399 532h143v-577h135v-101h-135v-184h-127v184h-415zM1065 285h317v446z" />
<glyph unicode="&#xbd;" horiz-adv-x="1708" d="M49 1174v124q127 58 225 134h117v-850h-127v716q-104 -78 -215 -124zM299 -57l881 1521h131l-879 -1521h-133zM1075 0v113l240 217q127 115 169 178t42 121q0 65 -41 101t-109 36q-30 0 -54 -7.5t-39 -16.5t-26 -26t-16 -27t-9 -30t-4 -23t-1 -18h-140q2 52 18 94t41 68 t53.5 44t62 26.5t59 12t51.5 3.5q127 0 207 -63t80 -182q0 -47 -19.5 -92t-83.5 -121q-20 -23 -83.5 -84t-90.5 -84l-159 -144h438v-96h-586z" />
<glyph unicode="&#xbe;" horiz-adv-x="1708" d="M25 799h141q-1 -67 45 -103.5t127 -36.5q88 0 134 45.5t46 108.5q0 170 -260 154v100q13 1 40.5 -1.5t63 6t67 21.5t53.5 44.5t22 76.5q0 40 -15 68t-40.5 42t-51.5 20t-55 6q-71 0 -118 -37.5t-50 -98.5h-135q2 66 32 114t77.5 72.5t94.5 35t95 10.5q144 0 222.5 -67 t78.5 -162q0 -63 -44 -121t-140 -78q55 -8 95.5 -32t59 -48t29 -56t11.5 -45t1 -26q0 -106 -88.5 -179t-236.5 -73q-163 0 -248 90q-22 25 -34.5 57t-14.5 48.5t-4 44.5zM360 -57l879 1521h133l-878 -1521h-134zM987 184v146l399 532h144v-577h135v-101h-135v-184h-127v184 h-416zM1090 285h315v446z" />
<glyph unicode="&#xbf;" horiz-adv-x="1024" d="M131 -113q0 48 10.5 89t25.5 73t51.5 76.5t67 76t93.5 93.5q3 3 32.5 33.5t55.5 57t27 26.5q16 23 16 63v217h170v-215q0 -64 -15 -94.5t-92 -112.5q-52 -56 -72.5 -78.5t-55.5 -63t-47.5 -61t-29 -51.5t-21.5 -56.5t-5 -55.5q0 -43 13 -77.5t32.5 -56t47.5 -37.5 t52.5 -24t54 -12.5t44.5 -5t32 -0.5q138 0 279 57v-184q-157 -43 -291 -43q-262 0 -383 127q-92 98 -92 239zM483 819v209h213v-209h-213z" />
<glyph unicode="&#xc0;" horiz-adv-x="1478" d="M18 0l623 1479h219l598 -1479h-223l-160 385h-686l-160 -385h-211zM455 551h559l-273 725zM459 1905h231l172 -295h-127z" />
<glyph unicode="&#xc1;" horiz-adv-x="1478" d="M18 0l623 1479h219l598 -1479h-223l-160 385h-686l-160 -385h-211zM455 551h559l-273 725zM618 1610l168 295h213l-247 -295h-134z" />
<glyph unicode="&#xc2;" horiz-adv-x="1478" d="M18 0l623 1479h219l598 -1479h-223l-160 385h-686l-160 -385h-211zM428 1610l217 297h184l213 -297h-176l-135 196l-145 -196h-158zM455 551h559l-273 725z" />
<glyph unicode="&#xc3;" horiz-adv-x="1478" d="M18 0l623 1479h219l598 -1479h-223l-160 385h-686l-160 -385h-211zM451 1642q3 89 49 144q48 57 125 57q22 0 44.5 -5t112.5 -30q54 -14 76 -14q36 0 56 21t20 55h84q1 -56 -14.5 -98.5t-42.5 -65t-56 -33t-59 -10.5q-40 0 -129 27q-15 4 -40.5 11t-41.5 11t-21 4 q-54 0 -77 -74h-86zM455 551h559l-273 725z" />
<glyph unicode="&#xc4;" horiz-adv-x="1478" d="M18 0l623 1479h219l598 -1479h-223l-160 385h-686l-160 -385h-211zM449 1632v209h188v-209h-188zM455 551h559l-273 725zM836 1632v209h190v-209h-190z" />
<glyph unicode="&#xc5;" horiz-adv-x="1478" d="M18 0l623 1479h219l598 -1479h-223l-160 385h-686l-160 -385h-211zM455 551h559l-273 725zM539 1739q0 83 58.5 141.5t141.5 58.5t142 -58.5t59 -141.5t-59 -142t-142 -59t-141.5 59t-58.5 142zM621 1739q0 -50 34.5 -84.5t83.5 -34.5t84 35t35 84t-35 84t-84 35 t-83.5 -34.5t-34.5 -84.5z" />
<glyph unicode="&#xc6;" horiz-adv-x="2048" d="M4 0l862 1479h1065v-174h-760l78 -457h654v-174h-623l86 -498h588v-176h-764l-70 412h-655l-236 -412h-225zM559 578h531l-117 749z" />
<glyph unicode="&#xc7;" horiz-adv-x="1366" d="M113 723q0 71 8 140.5t28.5 148t52 147t82.5 132t116.5 109t157.5 72.5t202 27q68 0 133.5 -11t135.5 -40.5t123.5 -75t91.5 -121t46 -172.5h-219q-3 20 -5 31t-12 41.5t-22 50.5t-37 47.5t-56.5 44.5t-79.5 29t-107 12q-74 0 -135 -21t-104 -56.5t-75.5 -85.5t-52 -103 t-32 -115.5t-17 -117t-4.5 -111.5q0 -90 10.5 -168t39.5 -156t74.5 -133t120.5 -89t173 -34q155 0 239 88q55 60 72 156h225q-10 -101 -57.5 -179.5t-119.5 -126.5t-155 -74.5t-174 -31.5l-69 -96q50 10 80 10q81 0 121 -45t40 -100q0 -12 -2 -26t-16 -45t-38 -53.5t-75 -41 t-121 -18.5q-46 0 -85 7t-56.5 13.5t-50.5 20.5l41 75q54 -28 137 -28q53 0 82 21t29 61q0 33 -21 52.5t-41 23.5t-43 4q-30 0 -76 -17l-30 35l106 147q-109 5 -198.5 39t-151.5 90t-107.5 126.5t-71.5 154.5t-38 166.5t-12 169.5z" />
<glyph unicode="&#xc8;" horiz-adv-x="1251" d="M156 0v1479h927v-174h-723v-461h689v-172h-689v-492h740v-180h-944zM346 1905h232l172 -295h-127z" />
<glyph unicode="&#xc9;" horiz-adv-x="1251" d="M156 0v1479h927v-174h-723v-461h689v-172h-689v-492h740v-180h-944zM506 1610l168 295h213l-248 -295h-133z" />
<glyph unicode="&#xca;" horiz-adv-x="1251" d="M156 0v1479h927v-174h-723v-461h689v-172h-689v-492h740v-180h-944zM315 1610l217 297h185l213 -297h-176l-136 196l-145 -196h-158z" />
<glyph unicode="&#xcb;" horiz-adv-x="1251" d="M156 0v1479h927v-174h-723v-461h689v-172h-689v-492h740v-180h-944zM336 1632v209h188v-209h-188zM723 1632v209h190v-209h-190z" />
<glyph unicode="&#xcc;" horiz-adv-x="569" d="M4 1905h232l172 -295h-127zM180 0v1479h205v-1479h-205z" />
<glyph unicode="&#xcd;" horiz-adv-x="569" d="M164 1610l168 295h213l-248 -295h-133zM180 0v1479h205v-1479h-205z" />
<glyph unicode="&#xce;" horiz-adv-x="569" d="M-27 1610l217 297h185l213 -297h-176l-136 196l-145 -196h-158zM180 0v1479h205v-1479h-205z" />
<glyph unicode="&#xcf;" horiz-adv-x="569" d="M-6 1632v209h188v-209h-188zM180 0v1479h205v-1479h-205zM381 1632v209h190v-209h-190z" />
<glyph unicode="&#xd0;" horiz-adv-x="1478" d="M37 756v125h143v598h428q58 0 88.5 -0.5t87 -4t92 -10.5t86.5 -21t88 -34t78.5 -51.5t75.5 -71.5q182 -214 182 -559q0 -114 -22 -215t-59 -175t-77.5 -127t-86.5 -89q-42 -35 -94 -59t-96 -36t-114 -18t-113 -7t-128 -1h-416v756h-143zM385 168h201q131 0 226 16t161 66 q194 145 194 469q0 36 -3.5 76.5t-15.5 113.5t-44 145.5t-80 125.5q-67 74 -158 101.5t-235 27.5h-246v-428h393v-125h-393v-588z" />
<glyph unicode="&#xd1;" horiz-adv-x="1593" d="M195 0v1479h284l727 -1223v1223h189v-1479h-262l-752 1255v-1255h-186zM508 1642q3 89 49 144q48 57 125 57q22 0 45.5 -5.5t112.5 -29.5q54 -14 75 -14q36 0 56 21t20 55h84q1 -56 -14.5 -98.5t-42.5 -65t-56 -33t-59 -10.5q-41 0 -129 27q-16 4 -40.5 11t-40.5 11 t-21 4q-55 0 -78 -74h-86z" />
<glyph unicode="&#xd2;" horiz-adv-x="1593" d="M121 729q0 386 190 590q185 199 494 199q313 0 490.5 -196.5t177.5 -567.5q0 -124 -20 -233.5t-70 -213.5t-126 -178t-196 -119t-273 -45q-147 0 -262.5 41t-190.5 110.5t-124 168.5t-69.5 208t-20.5 236zM336 741q0 -304 131 -467q109 -135 328 -135q213 0 327 135 q133 162 133 482q0 590 -448 590q-109 0 -192.5 -34.5t-135.5 -90.5t-85 -136.5t-45.5 -163.5t-12.5 -180zM516 1905h232l172 -295h-127z" />
<glyph unicode="&#xd3;" horiz-adv-x="1593" d="M121 729q0 386 190 590q185 199 494 199q313 0 490.5 -196.5t177.5 -567.5q0 -124 -20 -233.5t-70 -213.5t-126 -178t-196 -119t-273 -45q-147 0 -262.5 41t-190.5 110.5t-124 168.5t-69.5 208t-20.5 236zM336 741q0 -304 131 -467q109 -135 328 -135q213 0 327 135 q133 162 133 482q0 590 -448 590q-109 0 -192.5 -34.5t-135.5 -90.5t-85 -136.5t-45.5 -163.5t-12.5 -180zM676 1610l168 295h213l-248 -295h-133z" />
<glyph unicode="&#xd4;" horiz-adv-x="1593" d="M121 729q0 386 190 590q185 199 494 199q313 0 490.5 -196.5t177.5 -567.5q0 -124 -20 -233.5t-70 -213.5t-126 -178t-196 -119t-273 -45q-147 0 -262.5 41t-190.5 110.5t-124 168.5t-69.5 208t-20.5 236zM336 741q0 -304 131 -467q109 -135 328 -135q213 0 327 135 q133 162 133 482q0 590 -448 590q-109 0 -192.5 -34.5t-135.5 -90.5t-85 -136.5t-45.5 -163.5t-12.5 -180zM485 1610l217 297h185l213 -297h-176l-136 196l-145 -196h-158z" />
<glyph unicode="&#xd5;" horiz-adv-x="1593" d="M121 729q0 386 190 590q185 199 494 199q313 0 490.5 -196.5t177.5 -567.5q0 -124 -20 -233.5t-70 -213.5t-126 -178t-196 -119t-273 -45q-147 0 -262.5 41t-190.5 110.5t-124 168.5t-69.5 208t-20.5 236zM336 741q0 -304 131 -467q109 -135 328 -135q213 0 327 135 q133 162 133 482q0 590 -448 590q-109 0 -192.5 -34.5t-135.5 -90.5t-85 -136.5t-45.5 -163.5t-12.5 -180zM508 1642q3 89 49 144q48 57 125 57q22 0 45.5 -5.5t112.5 -29.5q54 -14 75 -14q36 0 56 21t20 55h84q1 -56 -14.5 -98.5t-42.5 -65t-56 -33t-59 -10.5 q-41 0 -129 27q-16 4 -40.5 11t-40.5 11t-21 4q-55 0 -78 -74h-86z" />
<glyph unicode="&#xd6;" horiz-adv-x="1593" d="M121 729q0 386 190 590q185 199 494 199q313 0 490.5 -196.5t177.5 -567.5q0 -124 -20 -233.5t-70 -213.5t-126 -178t-196 -119t-273 -45q-147 0 -262.5 41t-190.5 110.5t-124 168.5t-69.5 208t-20.5 236zM336 741q0 -304 131 -467q109 -135 328 -135q213 0 327 135 q133 162 133 482q0 590 -448 590q-109 0 -192.5 -34.5t-135.5 -90.5t-85 -136.5t-45.5 -163.5t-12.5 -180zM506 1632v209h188v-209h-188zM893 1632v209h190v-209h-190z" />
<glyph unicode="&#xd7;" horiz-adv-x="1196" d="M96 133l381 381l-381 381l117 117l381 -379l381 379l119 -117l-381 -381l379 -381l-117 -117l-381 381l-381 -381z" />
<glyph unicode="&#xd8;" horiz-adv-x="1593" d="M121 733q0 394 201 600q91 92 216 138.5t263 46.5q210 0 368 -95l138 213h127l-177 -278q216 -198 216 -615q0 -76 -8.5 -148t-30 -151t-54.5 -147t-87 -130t-122.5 -106t-164.5 -70t-211 -26q-71 0 -130.5 8t-108 24t-73.5 27t-63 31l-152 -235h-129l195 301 q-30 30 -49.5 52t-54 78t-55.5 115.5t-37.5 156.5t-16.5 210zM336 739q0 -279 113 -438l622 967q-94 78 -270 78q-107 0 -190 -35t-134 -92.5t-83.5 -138.5t-45 -163.5t-12.5 -177.5zM524 219q100 -80 273 -80q108 0 191 36.5t132.5 94.5t81 141t42.5 164.5t11 176.5 q0 278 -110 434z" />
<glyph unicode="&#xd9;" horiz-adv-x="1593" d="M190 578v901h205v-916q0 -174 66 -266q108 -145 338 -145q399 0 399 419v908h199v-912q0 -44 -2.5 -77.5t-12.5 -91t-37 -115t-69 -109.5q-51 -64 -118.5 -108t-136.5 -63.5t-121 -26.5t-101 -7q-60 0 -123 10t-137.5 33.5t-144.5 73t-118 119.5q-41 60 -63.5 141.5 t-22.5 231.5zM516 1905h232l172 -295h-127z" />
<glyph unicode="&#xda;" horiz-adv-x="1593" d="M190 578v901h205v-916q0 -174 66 -266q108 -145 338 -145q399 0 399 419v908h199v-912q0 -44 -2.5 -77.5t-12.5 -91t-37 -115t-69 -109.5q-51 -64 -118.5 -108t-136.5 -63.5t-121 -26.5t-101 -7q-60 0 -123 10t-137.5 33.5t-144.5 73t-118 119.5q-41 60 -63.5 141.5 t-22.5 231.5zM676 1610l168 295h213l-248 -295h-133z" />
<glyph unicode="&#xdb;" horiz-adv-x="1593" d="M190 578v901h205v-916q0 -174 66 -266q108 -145 338 -145q399 0 399 419v908h199v-912q0 -44 -2.5 -77.5t-12.5 -91t-37 -115t-69 -109.5q-51 -64 -118.5 -108t-136.5 -63.5t-121 -26.5t-101 -7q-60 0 -123 10t-137.5 33.5t-144.5 73t-118 119.5q-41 60 -63.5 141.5 t-22.5 231.5zM485 1610l217 297h185l213 -297h-176l-136 196l-145 -196h-158z" />
<glyph unicode="&#xdc;" horiz-adv-x="1593" d="M190 578v901h205v-916q0 -174 66 -266q108 -145 338 -145q399 0 399 419v908h199v-912q0 -44 -2.5 -77.5t-12.5 -91t-37 -115t-69 -109.5q-51 -64 -118.5 -108t-136.5 -63.5t-121 -26.5t-101 -7q-60 0 -123 10t-137.5 33.5t-144.5 73t-118 119.5q-41 60 -63.5 141.5 t-22.5 231.5zM506 1632v209h188v-209h-188zM893 1632v209h190v-209h-190z" />
<glyph unicode="&#xdd;" horiz-adv-x="1366" d="M14 1479h254l437 -725l442 725h229l-577 -908v-571h-207v582zM563 1610l168 295h213l-248 -295h-133z" />
<glyph unicode="&#xde;" horiz-adv-x="1251" d="M180 0v1473h205v-242h291q166 0 252.5 -25.5t150.5 -93.5q109 -112 109 -287q0 -171 -117 -288q-64 -64 -161 -95.5t-285 -31.5h-240v-410h-205zM385 582h244q36 0 62 1t64 6.5t65.5 15.5t58 28.5t49 44.5t31 66t12.5 90q0 37 -7 68.5t-18 54t-29.5 40t-35 29t-41.5 19.5 t-42.5 11.5t-45 5.5t-41.5 2.5t-39 0.5h-287v-483z" />
<glyph unicode="&#xdf;" horiz-adv-x="1366" d="M184 0v1081q0 43 3 77t14 80t29.5 81t54 71.5t83.5 60.5t121 39t164 15q63 0 120.5 -8.5t116 -30t101 -55t69.5 -88t27 -123.5q0 -72 -26.5 -118.5t-83.5 -88.5q-91 -69 -116 -97t-25 -69q0 -54 53 -88l178 -116q102 -66 143 -129t41 -154q0 -111 -56.5 -193.5 t-146.5 -123.5t-198 -41q-244 0 -311 163q-25 61 -25 150h188q-1 -82 44.5 -126t121.5 -44q54 0 93 18.5t59 48.5t28.5 59t8.5 58q0 39 -11 70t-34.5 55.5t-42 38.5t-51.5 35l-123 76q-80 49 -118 100t-38 117q0 28 5 52.5t19.5 47.5t25 38t36.5 38t38 32t46 35 q34 25 49.5 39.5t28 41t12.5 61.5q0 82 -63.5 135t-190.5 53q-145 0 -206.5 -69t-61.5 -230v-1075h-193z" />
<glyph unicode="&#xe0;" d="M109 270q0 35 7.5 70t25 77t55.5 82.5t92 71.5q124 68 356 68q51 0 139 -6q0 79 -1 109t-9 63t-26 55q-27 35 -78.5 51.5t-100.5 16.5q-199 0 -207 -174h-192q4 39 8 60.5t20.5 61.5t43.5 72q54 59 144.5 85t186.5 26q121 0 223.5 -39t141.5 -113q35 -65 35 -157l-8 -492 q0 -139 16 -258h-174q-19 69 -19 154q-101 -187 -317 -187q-171 0 -266.5 85t-95.5 218zM289 1516h231l172 -295h-127zM303 297q0 -28 9.5 -56t31.5 -57t66.5 -47t105.5 -18q147 0 219 110q30 49 38 99.5t11 171.5q-52 6 -110 6q-27 0 -46 -0.5t-61 -4.5t-72.5 -11.5 t-69 -23t-63.5 -36.5t-42 -55.5t-17 -77.5z" />
<glyph unicode="&#xe1;" d="M109 270q0 35 7.5 70t25 77t55.5 82.5t92 71.5q124 68 356 68q51 0 139 -6q0 79 -1 109t-9 63t-26 55q-27 35 -78.5 51.5t-100.5 16.5q-199 0 -207 -174h-192q4 39 8 60.5t20.5 61.5t43.5 72q54 59 144.5 85t186.5 26q121 0 223.5 -39t141.5 -113q35 -65 35 -157l-8 -492 q0 -139 16 -258h-174q-19 69 -19 154q-101 -187 -317 -187q-171 0 -266.5 85t-95.5 218zM303 297q0 -28 9.5 -56t31.5 -57t66.5 -47t105.5 -18q147 0 219 110q30 49 38 99.5t11 171.5q-52 6 -110 6q-27 0 -46 -0.5t-61 -4.5t-72.5 -11.5t-69 -23t-63.5 -36.5t-42 -55.5 t-17 -77.5zM449 1221l167 295h213l-247 -295h-133z" />
<glyph unicode="&#xe2;" d="M109 270q0 35 7.5 70t25 77t55.5 82.5t92 71.5q124 68 356 68q51 0 139 -6q0 79 -1 109t-9 63t-26 55q-27 35 -78.5 51.5t-100.5 16.5q-199 0 -207 -174h-192q4 39 8 60.5t20.5 61.5t43.5 72q54 59 144.5 85t186.5 26q121 0 223.5 -39t141.5 -113q35 -65 35 -157l-8 -492 q0 -139 16 -258h-174q-19 69 -19 154q-101 -187 -317 -187q-171 0 -266.5 85t-95.5 218zM258 1221l217 297h184l213 -297h-176l-135 196l-145 -196h-158zM303 297q0 -28 9.5 -56t31.5 -57t66.5 -47t105.5 -18q147 0 219 110q30 49 38 99.5t11 171.5q-52 6 -110 6 q-27 0 -46 -0.5t-61 -4.5t-72.5 -11.5t-69 -23t-63.5 -36.5t-42 -55.5t-17 -77.5z" />
<glyph unicode="&#xe3;" d="M109 270q0 35 7.5 70t25 77t55.5 82.5t92 71.5q124 68 356 68q51 0 139 -6q0 79 -1 109t-9 63t-26 55q-27 35 -78.5 51.5t-100.5 16.5q-199 0 -207 -174h-192q4 39 8 60.5t20.5 61.5t43.5 72q54 59 144.5 85t186.5 26q121 0 223.5 -39t141.5 -113q35 -65 35 -157l-8 -492 q0 -139 16 -258h-174q-19 69 -19 154q-101 -187 -317 -187q-171 0 -266.5 85t-95.5 218zM281 1253q3 89 49 144q48 57 125 57q22 0 44.5 -5t112.5 -30q54 -14 76 -14q36 0 56 21t20 55h84q1 -56 -14.5 -98.5t-42.5 -65t-56 -33t-59 -10.5q-44 0 -129 26q-16 4 -40.5 11 t-41 11.5t-21.5 4.5q-54 0 -77 -74h-86zM303 297q0 -28 9.5 -56t31.5 -57t66.5 -47t105.5 -18q147 0 219 110q30 49 38 99.5t11 171.5q-52 6 -110 6q-27 0 -46 -0.5t-61 -4.5t-72.5 -11.5t-69 -23t-63.5 -36.5t-42 -55.5t-17 -77.5z" />
<glyph unicode="&#xe4;" d="M109 270q0 35 7.5 70t25 77t55.5 82.5t92 71.5q124 68 356 68q51 0 139 -6q0 79 -1 109t-9 63t-26 55q-27 35 -78.5 51.5t-100.5 16.5q-199 0 -207 -174h-192q4 39 8 60.5t20.5 61.5t43.5 72q54 59 144.5 85t186.5 26q121 0 223.5 -39t141.5 -113q35 -65 35 -157l-8 -492 q0 -139 16 -258h-174q-19 69 -19 154q-101 -187 -317 -187q-171 0 -266.5 85t-95.5 218zM279 1264v209h188v-209h-188zM303 297q0 -28 9.5 -56t31.5 -57t66.5 -47t105.5 -18q147 0 219 110q30 49 38 99.5t11 171.5q-52 6 -110 6q-27 0 -46 -0.5t-61 -4.5t-72.5 -11.5 t-69 -23t-63.5 -36.5t-42 -55.5t-17 -77.5zM666 1264v209h190v-209h-190z" />
<glyph unicode="&#xe5;" d="M109 270q0 35 7.5 70t25 77t55.5 82.5t92 71.5q124 68 356 68q51 0 139 -6q0 79 -1 109t-9 63t-26 55q-27 35 -78.5 51.5t-100.5 16.5q-199 0 -207 -174h-192q4 39 8 60.5t20.5 61.5t43.5 72q54 59 144.5 85t186.5 26q121 0 223.5 -39t141.5 -113q35 -65 35 -157l-8 -492 q0 -139 16 -258h-174q-19 69 -19 154q-101 -187 -317 -187q-171 0 -266.5 85t-95.5 218zM303 297q0 -28 9.5 -56t31.5 -57t66.5 -47t105.5 -18q147 0 219 110q30 49 38 99.5t11 171.5q-52 6 -110 6q-27 0 -46 -0.5t-61 -4.5t-72.5 -11.5t-69 -23t-63.5 -36.5t-42 -55.5 t-17 -77.5zM369 1370q0 83 58.5 142t141.5 59t142 -59t59 -142t-59 -142t-142 -59t-141.5 59t-58.5 142zM451 1370q0 -50 34.5 -84.5t83.5 -34.5t84 34.5t35 84.5t-35 84.5t-84 34.5t-83.5 -34.5t-34.5 -84.5z" />
<glyph unicode="&#xe6;" horiz-adv-x="1820" d="M102 295q0 115 79 204.5t233 114.5q114 17 270 17q23 0 69.5 -1t65.5 -1q0 30 -1 52t-6.5 54t-15 54.5t-28 48t-44 41t-65 26t-88.5 10.5q-39 0 -73.5 -7t-68.5 -23t-55 -49t-24 -80h-190q2 28 5.5 47t15 54.5t37 67.5t63.5 56q107 72 280 72q298 0 367 -213 q27 61 71.5 105t84 64t88 31.5t69 13t41.5 1.5q45 0 92 -10t100.5 -32t102 -67.5t78.5 -107.5q23 -47 35 -112t14 -114t2 -127h-711q5 -162 49 -237q37 -67 99.5 -102t132.5 -35q60 0 106 20t71 52.5t37 66t13 67.5h197q-12 -86 -47 -151.5t-78 -101.5t-98 -58t-97 -28.5 t-84 -6.5q-16 0 -30 0.5t-48 5.5t-62.5 13t-67 26t-69 43t-60.5 64.5t-50 89.5q-9 -21 -15 -33.5t-23.5 -41t-35.5 -47t-50.5 -43t-69.5 -39.5t-90 -25.5t-115 -10.5q-110 0 -192.5 29.5t-127.5 78t-66.5 102.5t-21.5 112zM291 291q0 -48 21.5 -84t56.5 -56t74.5 -30 t80.5 -10q89 0 149.5 38.5t94.5 92.5q24 37 36 87.5t13.5 81.5t1.5 83q-199 0 -244 -2q-284 -20 -284 -201zM999 623h508q0 102 -26 157q-6 15 -17 32t-35 42t-65 41t-92 16q-141 0 -219 -110q-44 -61 -54 -178z" />
<glyph unicode="&#xe7;" horiz-adv-x="1024" d="M92 492q0 95 16 175t43.5 137t65.5 101.5t79 72t88 45.5t89.5 25t85.5 7q46 0 92.5 -7t113 -37.5t109.5 -82.5q35 -41 55 -88t24.5 -74.5t7.5 -67.5h-195q-18 215 -205 215q-55 0 -98.5 -18t-70.5 -44t-47 -66.5t-29 -72.5t-14.5 -75.5t-6 -63.5t-0.5 -47 q0 -407 256 -407q59 0 103 20.5t69 54t37 71t14 77.5h195q-8 -150 -110 -253.5t-273 -113.5l-68 -94q50 10 80 10q82 0 122 -45t40 -100q0 -12 -1.5 -26t-15.5 -45t-38 -53.5t-75.5 -41t-121.5 -18.5q-99 0 -191 41l39 75q58 -28 138 -28q53 0 81.5 21t28.5 61 q0 33 -20.5 52.5t-40.5 23.5t-43 4q-28 0 -74 -17l-31 35l105 145q-93 11 -165 45.5t-117 83t-74 114t-40.5 132t-11.5 142.5z" />
<glyph unicode="&#xe8;" d="M106 496q0 167 44.5 285t158.5 198q106 76 281 76q75 0 137 -14t105.5 -39t79 -59t55.5 -73t36 -81.5t21.5 -85.5t10 -83.5t2.5 -76.5t-1 -64h-739q-3 -169 70 -269.5t225 -100.5q99 0 164.5 53.5t77.5 159.5h192q-5 -40 -9 -63.5t-24.5 -69.5t-54.5 -83 q-121 -137 -354 -137q-238 0 -358 138.5t-120 388.5zM289 1516h231l172 -295h-127zM305 614h535q1 37 -2.5 70t-18 78.5t-40.5 77.5t-75.5 55t-117.5 23q-50 0 -96.5 -16t-88.5 -50t-68.5 -95.5t-27.5 -142.5z" />
<glyph unicode="&#xe9;" d="M106 496q0 167 44.5 285t158.5 198q106 76 281 76q75 0 137 -14t105.5 -39t79 -59t55.5 -73t36 -81.5t21.5 -85.5t10 -83.5t2.5 -76.5t-1 -64h-739q-3 -169 70 -269.5t225 -100.5q99 0 164.5 53.5t77.5 159.5h192q-5 -40 -9 -63.5t-24.5 -69.5t-54.5 -83 q-121 -137 -354 -137q-238 0 -358 138.5t-120 388.5zM305 614h535q1 37 -2.5 70t-18 78.5t-40.5 77.5t-75.5 55t-117.5 23q-50 0 -96.5 -16t-88.5 -50t-68.5 -95.5t-27.5 -142.5zM449 1221l167 295h213l-247 -295h-133z" />
<glyph unicode="&#xea;" d="M106 496q0 167 44.5 285t158.5 198q106 76 281 76q75 0 137 -14t105.5 -39t79 -59t55.5 -73t36 -81.5t21.5 -85.5t10 -83.5t2.5 -76.5t-1 -64h-739q-3 -169 70 -269.5t225 -100.5q99 0 164.5 53.5t77.5 159.5h192q-5 -40 -9 -63.5t-24.5 -69.5t-54.5 -83 q-121 -137 -354 -137q-238 0 -358 138.5t-120 388.5zM258 1221l217 297h184l213 -297h-176l-135 196l-145 -196h-158zM305 614h535q1 37 -2.5 70t-18 78.5t-40.5 77.5t-75.5 55t-117.5 23q-50 0 -96.5 -16t-88.5 -50t-68.5 -95.5t-27.5 -142.5z" />
<glyph unicode="&#xeb;" d="M106 496q0 167 44.5 285t158.5 198q106 76 281 76q75 0 137 -14t105.5 -39t79 -59t55.5 -73t36 -81.5t21.5 -85.5t10 -83.5t2.5 -76.5t-1 -64h-739q-3 -169 70 -269.5t225 -100.5q99 0 164.5 53.5t77.5 159.5h192q-5 -40 -9 -63.5t-24.5 -69.5t-54.5 -83 q-121 -137 -354 -137q-238 0 -358 138.5t-120 388.5zM279 1264v209h188v-209h-188zM305 614h535q1 37 -2.5 70t-18 78.5t-40.5 77.5t-75.5 55t-117.5 23q-50 0 -96.5 -16t-88.5 -50t-68.5 -95.5t-27.5 -142.5zM666 1264v209h190v-209h-190z" />
<glyph unicode="&#xec;" horiz-adv-x="569" d="M4 1516h232l172 -295h-127zM190 0v1028h185v-1028h-185z" />
<glyph unicode="&#xed;" horiz-adv-x="569" d="M164 1221l168 295h213l-248 -295h-133zM190 0v1028h185v-1028h-185z" />
<glyph unicode="&#xee;" horiz-adv-x="569" d="M-27 1221l217 297h185l213 -297h-176l-136 196l-145 -196h-158zM190 0v1028h185v-1028h-185z" />
<glyph unicode="&#xef;" horiz-adv-x="569" d="M-6 1264v209h188v-209h-188zM190 0v1028h185v-1028h-185zM381 1264v209h190v-209h-190z" />
<glyph unicode="&#xf0;" horiz-adv-x="1251" d="M111 500q0 114 29 206.5t76.5 152.5t111 101t129 58.5t133.5 17.5q66 0 119.5 -14t91.5 -41t56 -44t42 -46q-108 191 -375 379l-196 -117l-74 72l176 106q-122 77 -172 101l127 120q74 -38 207 -125l203 119l73 -73l-184 -107q37 -28 59.5 -46t64 -53.5t69 -64.5 t66 -74.5t64 -87t53.5 -98.5t44.5 -114.5t27.5 -128t11 -144.5q0 -271 -137 -430.5t-388 -159.5q-109 0 -200.5 33.5t-160.5 98.5t-107.5 168t-38.5 235zM317 510q0 -111 33 -199t105 -144t174 -56q41 0 81 11t82.5 40t74 73t51.5 116t20 163q0 187 -81 290t-222 103 q-142 0 -230 -102t-88 -295z" />
<glyph unicode="&#xf1;" horiz-adv-x="1251" d="M184 1028h193l2 -166q12 22 21 37t38 46.5t61 51t88 36t122 16.5q24 0 50 -2.5t63.5 -12t71.5 -24.5t69 -42t60.5 -62.5t41.5 -89t16 -118.5v-698h-196v653q0 120 -56 176q-73 70 -182 70q-112 0 -190 -80t-78 -227v-592h-193v909zM338 1253q3 89 49 144q48 57 125 57 q22 0 45.5 -5.5t112.5 -29.5q54 -14 75 -14q36 0 56 21t20 55h84q1 -56 -14.5 -98.5t-42.5 -65t-56 -33t-59 -10.5q-44 0 -129 26q-16 4 -40.5 11t-40.5 11.5t-21 4.5q-55 0 -78 -74h-86z" />
<glyph unicode="&#xf2;" horiz-adv-x="1251" d="M104 502q0 81 15 155.5t53.5 148.5t96 128t150 87.5t208.5 33.5q118 0 210 -36t145.5 -91t88.5 -130t47 -143t12 -139q0 -115 -32.5 -213.5t-95.5 -174.5t-163.5 -119.5t-228.5 -43.5q-124 0 -222 41.5t-159 114.5t-93 170t-32 211zM305 514q0 -82 18 -153t54 -128.5 t97 -90.5t140 -33q58 0 110.5 22t99 68t74.5 129t28 194q0 188 -80.5 289.5t-218.5 101.5q-41 0 -81.5 -10t-85 -38t-78 -71t-55.5 -115.5t-22 -164.5zM346 1516h232l172 -295h-127z" />
<glyph unicode="&#xf3;" horiz-adv-x="1251" d="M104 502q0 81 15 155.5t53.5 148.5t96 128t150 87.5t208.5 33.5q118 0 210 -36t145.5 -91t88.5 -130t47 -143t12 -139q0 -115 -32.5 -213.5t-95.5 -174.5t-163.5 -119.5t-228.5 -43.5q-124 0 -222 41.5t-159 114.5t-93 170t-32 211zM305 514q0 -82 18 -153t54 -128.5 t97 -90.5t140 -33q58 0 110.5 22t99 68t74.5 129t28 194q0 188 -80.5 289.5t-218.5 101.5q-41 0 -81.5 -10t-85 -38t-78 -71t-55.5 -115.5t-22 -164.5zM506 1221l168 295h213l-248 -295h-133z" />
<glyph unicode="&#xf4;" horiz-adv-x="1251" d="M104 502q0 81 15 155.5t53.5 148.5t96 128t150 87.5t208.5 33.5q118 0 210 -36t145.5 -91t88.5 -130t47 -143t12 -139q0 -115 -32.5 -213.5t-95.5 -174.5t-163.5 -119.5t-228.5 -43.5q-124 0 -222 41.5t-159 114.5t-93 170t-32 211zM305 514q0 -82 18 -153t54 -128.5 t97 -90.5t140 -33q58 0 110.5 22t99 68t74.5 129t28 194q0 188 -80.5 289.5t-218.5 101.5q-41 0 -81.5 -10t-85 -38t-78 -71t-55.5 -115.5t-22 -164.5zM315 1221l217 297h185l213 -297h-176l-136 196l-145 -196h-158z" />
<glyph unicode="&#xf5;" horiz-adv-x="1251" d="M104 502q0 81 15 155.5t53.5 148.5t96 128t150 87.5t208.5 33.5q118 0 210 -36t145.5 -91t88.5 -130t47 -143t12 -139q0 -115 -32.5 -213.5t-95.5 -174.5t-163.5 -119.5t-228.5 -43.5q-124 0 -222 41.5t-159 114.5t-93 170t-32 211zM305 514q0 -82 18 -153t54 -128.5 t97 -90.5t140 -33q58 0 110.5 22t99 68t74.5 129t28 194q0 188 -80.5 289.5t-218.5 101.5q-41 0 -81.5 -10t-85 -38t-78 -71t-55.5 -115.5t-22 -164.5zM338 1253q3 89 49 144q48 57 125 57q22 0 45.5 -5.5t112.5 -29.5q54 -14 75 -14q36 0 56 21t20 55h84q1 -56 -14.5 -98.5 t-42.5 -65t-56 -33t-59 -10.5q-44 0 -129 26q-16 4 -40.5 11t-40.5 11.5t-21 4.5q-55 0 -78 -74h-86z" />
<glyph unicode="&#xf6;" horiz-adv-x="1251" d="M104 502q0 81 15 155.5t53.5 148.5t96 128t150 87.5t208.5 33.5q118 0 210 -36t145.5 -91t88.5 -130t47 -143t12 -139q0 -115 -32.5 -213.5t-95.5 -174.5t-163.5 -119.5t-228.5 -43.5q-124 0 -222 41.5t-159 114.5t-93 170t-32 211zM305 514q0 -82 18 -153t54 -128.5 t97 -90.5t140 -33q58 0 110.5 22t99 68t74.5 129t28 194q0 188 -80.5 289.5t-218.5 101.5q-41 0 -81.5 -10t-85 -38t-78 -71t-55.5 -115.5t-22 -164.5zM336 1264v209h188v-209h-188zM723 1264v209h190v-209h-190z" />
<glyph unicode="&#xf7;" horiz-adv-x="1196" d="M76 434v160h1044v-160h-1044zM496 20v244h204v-244h-204zM496 764v244h204v-244h-204z" />
<glyph unicode="&#xf8;" horiz-adv-x="1251" d="M104 508q0 114 32 212t94 173.5t160 118.5t222 43q127 0 240 -43l125 211h123l-158 -265q188 -148 188 -444q0 -114 -33 -212.5t-96 -174t-163.5 -119t-227.5 -43.5q-139 0 -231 45l-133 -223h-121l164 276q-24 20 -39.5 35t-46.5 56t-49.5 84.5t-34 115t-15.5 154.5z M305 516q0 -76 19 -156t59 -137l389 654q-71 36 -151 36q-65 0 -118.5 -23t-89.5 -61t-61 -90t-36 -108t-11 -115zM461 150q79 -41 153 -41q131 0 221.5 103.5t90.5 299.5q0 188 -76 293z" />
<glyph unicode="&#xf9;" horiz-adv-x="1251" d="M160 338v690h196v-661q0 -45 7 -79t28 -71t67.5 -57.5t116.5 -20.5q165 0 242 115q43 61 43 192v582h199v-835q0 -22 6 -193h-201l-4 176q-14 -27 -27 -47.5t-40.5 -48.5t-60 -46t-85 -31t-115.5 -13q-184 0 -278 94.5t-94 253.5zM346 1516h232l172 -295h-127z" />
<glyph unicode="&#xfa;" horiz-adv-x="1251" d="M160 338v690h196v-661q0 -45 7 -79t28 -71t67.5 -57.5t116.5 -20.5q165 0 242 115q43 61 43 192v582h199v-835q0 -22 6 -193h-201l-4 176q-14 -27 -27 -47.5t-40.5 -48.5t-60 -46t-85 -31t-115.5 -13q-184 0 -278 94.5t-94 253.5zM506 1221l168 295h213l-248 -295h-133z " />
<glyph unicode="&#xfb;" horiz-adv-x="1251" d="M160 338v690h196v-661q0 -45 7 -79t28 -71t67.5 -57.5t116.5 -20.5q165 0 242 115q43 61 43 192v582h199v-835q0 -22 6 -193h-201l-4 176q-14 -27 -27 -47.5t-40.5 -48.5t-60 -46t-85 -31t-115.5 -13q-184 0 -278 94.5t-94 253.5zM315 1221l217 297h185l213 -297h-176 l-136 196l-145 -196h-158z" />
<glyph unicode="&#xfc;" horiz-adv-x="1251" d="M160 338v690h196v-661q0 -45 7 -79t28 -71t67.5 -57.5t116.5 -20.5q165 0 242 115q43 61 43 192v582h199v-835q0 -22 6 -193h-201l-4 176q-14 -27 -27 -47.5t-40.5 -48.5t-60 -46t-85 -31t-115.5 -13q-184 0 -278 94.5t-94 253.5zM336 1264v209h188v-209h-188zM723 1264 v209h190v-209h-190z" />
<glyph unicode="&#xfd;" d="M25 1028h217l321 -811l328 811h209l-457 -1034l-147 -383h-199l156 393zM449 1221l167 295h213l-247 -295h-133z" />
<glyph unicode="&#xfe;" horiz-adv-x="1251" d="M174 -395v1872h193v-619q34 57 82 97t99 57.5t91 24.5t78 7q86 0 161.5 -30.5t137 -92t97.5 -166.5t36 -243q0 -139 -38.5 -247t-104.5 -173t-148.5 -98t-177.5 -33q-109 0 -190.5 42t-124.5 112v-510h-191zM358 483q0 -381 289 -381q143 0 217 101q84 114 84 321 q0 59 -7.5 110t-27 101.5t-50 86t-81 57.5t-116.5 22q-63 0 -113.5 -19t-82 -47t-54.5 -70.5t-33.5 -77.5t-16.5 -82t-7 -69t-1 -53z" />
<glyph unicode="&#xff;" d="M25 1028h217l321 -811l328 811h209l-457 -1034l-147 -383h-199l156 393zM279 1264v209h188v-209h-188zM666 1264v209h190v-209h-190z" />
<glyph unicode="&#x152;" horiz-adv-x="2048" d="M90 745q0 448 309 644q148 96 406 96q4 0 37.5 -1t56.5 -1q78 -4 92 -4h942v-170h-696v-465h664v-170h-664v-498h702v-176h-1185q-106 0 -203.5 28.5t-181.5 88.5t-146 146.5t-97.5 210t-35.5 271.5zM303 748q0 -267 125 -426q120 -152 410 -152q92 0 192 4v1139 q-173 10 -225 10q-237 0 -361 -139q-141 -150 -141 -436z" />
<glyph unicode="&#x153;" horiz-adv-x="1933" d="M106 504q0 109 34.5 206.5t98 172.5t163 119.5t221.5 44.5q56 0 105.5 -10.5t85 -26t67.5 -40t51 -44.5t38 -49t27 -44t19 -38q23 70 66.5 121.5t86.5 77t96 40t82 17t58 2.5q89 0 162.5 -27t123 -72.5t80.5 -101t44 -117.5q23 -98 18 -256h-717q0 -158 47 -237 q35 -62 100 -96.5t134 -34.5q95 0 158.5 57.5t72.5 148.5h189q-10 -84 -44.5 -149t-78.5 -102t-99.5 -60.5t-100.5 -31t-89 -7.5q-163 0 -283 96q-30 25 -54 56.5t-32 47t-22 46.5q-42 -87 -94 -135q-118 -109 -308 -109q-108 0 -196 33t-144.5 87t-95 125t-54.5 143.5 t-16 146.5zM315 520q0 -37 4 -78.5t25 -113t57 -119.5q78 -100 224 -100q83 0 145 37.5t94.5 99t48 127.5t15.5 137q0 61 -9.5 116t-32.5 107t-56.5 89.5t-85.5 60t-117 22.5q-70 0 -125.5 -24t-90 -62.5t-57 -90.5t-31 -103t-8.5 -105zM1122 621h510q0 116 -33 180 q-57 114 -202 114t-223 -110q-47 -69 -52 -184z" />
<glyph unicode="&#x178;" horiz-adv-x="1366" d="M14 1479h254l437 -725l442 725h229l-577 -908v-571h-207v582zM393 1632v209h189v-209h-189zM780 1632v209h191v-209h-191z" />
<glyph unicode="&#x2c6;" horiz-adv-x="569" d="M-27 1221l217 297h185l213 -297h-176l-136 196l-145 -196h-158z" />
<glyph unicode="&#x2dc;" horiz-adv-x="569" d="M-4 1253q3 89 49 144q48 57 125 57q22 0 45.5 -5.5t112.5 -29.5q54 -14 75 -14q36 0 56 21t20 55h84q1 -56 -14.5 -98.5t-42.5 -65t-56 -33t-59 -10.5q-44 0 -129 26q-16 4 -40.5 11t-40.5 11.5t-21 4.5q-55 0 -78 -74h-86z" />
<glyph unicode="&#x2000;" horiz-adv-x="969" />
<glyph unicode="&#x2001;" horiz-adv-x="1939" />
<glyph unicode="&#x2002;" horiz-adv-x="969" />
<glyph unicode="&#x2003;" horiz-adv-x="1939" />
<glyph unicode="&#x2004;" horiz-adv-x="646" />
<glyph unicode="&#x2005;" horiz-adv-x="484" />
<glyph unicode="&#x2006;" horiz-adv-x="323" />
<glyph unicode="&#x2007;" horiz-adv-x="323" />
<glyph unicode="&#x2008;" horiz-adv-x="242" />
<glyph unicode="&#x2009;" horiz-adv-x="387" />
<glyph unicode="&#x200a;" horiz-adv-x="107" />
<glyph unicode="&#x2010;" horiz-adv-x="681" d="M86 461v155h514v-155h-514z" />
<glyph unicode="&#x2011;" horiz-adv-x="681" d="M86 461v155h514v-155h-514z" />
<glyph unicode="&#x2012;" horiz-adv-x="681" d="M86 461v155h514v-155h-514z" />
<glyph unicode="&#x2013;" horiz-adv-x="1024" d="M0 473v148h1024v-148h-1024z" />
<glyph unicode="&#x2014;" horiz-adv-x="2048" d="M266 473v148h1516v-148h-1516z" />
<glyph unicode="&#x2018;" horiz-adv-x="569" d="M94 975l236 504h137l-137 -504h-236z" />
<glyph unicode="&#x2019;" horiz-adv-x="569" d="M96 975l133 504h236l-229 -504h-140z" />
<glyph unicode="&#x201a;" horiz-adv-x="569" d="M100 -276l127 481h236l-225 -481h-138z" />
<glyph unicode="&#x201c;" d="M178 975l236 504h137l-137 -504h-236zM561 975l236 504h137l-137 -504h-236z" />
<glyph unicode="&#x201d;" d="M199 975l137 504h235l-235 -504h-137zM584 975l137 504h233l-233 -504h-137z" />
<glyph unicode="&#x201e;" d="M209 -276l127 481h235l-225 -481h-137zM590 -276l129 481h233l-225 -481h-137z" />
<glyph unicode="&#x2022;" horiz-adv-x="716" d="M-6 739q0 155 109 263t262 108q152 0 260 -108.5t108 -262.5q0 -153 -107.5 -260.5t-260.5 -107.5q-154 0 -262.5 108t-108.5 260z" />
<glyph unicode="&#x2026;" horiz-adv-x="2048" d="M258 0v246h227v-246h-227zM911 0v246h228v-246h-228zM1565 0v246h227v-246h-227z" />
<glyph unicode="&#x202f;" horiz-adv-x="387" />
<glyph unicode="&#x2039;" horiz-adv-x="569" d="M100 510l228 397h159l-198 -397l203 -401h-164z" />
<glyph unicode="&#x203a;" horiz-adv-x="569" d="M59 907h164l228 -399l-228 -399h-162l199 399z" />
<glyph unicode="&#x205f;" horiz-adv-x="484" />
<glyph unicode="&#x2122;" horiz-adv-x="2048" d="M190 1391v88h515v-88h-216v-652h-90v652h-209zM838 739v740h170l198 -609l203 609h160v-740h-94v664l-230 -664h-92l-221 664v-664h-94z" />
<glyph unicode="&#xe000;" horiz-adv-x="1024" d="M0 0v1024h1024v-1024h-1024z" />
<glyph unicode="&#xfb01;" horiz-adv-x="1251" d="M33 889v139h203v117q0 107 8.5 157t34.5 89q74 112 258 112q61 0 157 -14v-154q-66 4 -112 4q-45 0 -76 -9.5t-46.5 -21.5t-23.5 -35.5t-9 -38.5t-1 -44v-162h240v-139h-240v-889h-190v889h-203zM842 1266v209h229v-209h-229zM862 0v1028h191v-1028h-191z" />
<glyph unicode="&#xfb02;" horiz-adv-x="1251" d="M33 889v139h203v117q0 107 8.5 157t34.5 89q74 112 258 112q61 0 157 -14v-154q-66 4 -112 4q-45 0 -76 -9.5t-46.5 -21.5t-23.5 -35.5t-9 -38.5t-1 -44v-162h240v-139h-240v-889h-190v889h-203zM858 0v1477h193v-1477h-193z" />
</font>
</defs></svg> 