<?xml version="1.0" encoding="utf-8"?>
<!-- Generator: Adobe Illustrator 16.0.4, SVG Export Plug-In . SVG Version: 6.00 Build 0)  -->
<!DOCTYPE svg PUBLIC "-//W3C//DTD SVG 1.1//EN" "http://www.w3.org/Graphics/SVG/1.1/DTD/svg11.dtd">
<svg version="1.1" xmlns="http://www.w3.org/2000/svg" xmlns:xlink="http://www.w3.org/1999/xlink" x="0px" y="0px" width="16px"
	 height="9.994px" viewBox="0 0 16 9.994" enable-background="new 0 0 16 9.994" xml:space="preserve">
<g id="Layer_2" display="none">
	<rect x="-337.647" y="-501.505" display="inline" fill="#E6E7E8" width="1920" height="1080"/>
</g>
<g id="Layer_1">
	<g>
		<path fill-rule="evenodd" clip-rule="evenodd" fill="#FFFFFF" d="M9.994,7.995L7.995,9.994L0,1.999L1.999,0L9.994,7.995z"/>
		<path fill-rule="evenodd" clip-rule="evenodd" fill="#FFFFFF" d="M14.001,0L16,1.999L8.006,9.994L6.007,7.995L14.001,0z"/>
	</g>
</g>
</svg>
