<?xml version="1.0" encoding="utf-8"?>
<!-- Generator: Adobe Illustrator 18.1.1, SVG Export Plug-In . SVG Version: 6.00 Build 0)  -->
<!DOCTYPE svg PUBLIC "-//W3C//DTD SVG 1.1//EN" "http://www.w3.org/Graphics/SVG/1.1/DTD/svg11.dtd">
<svg version="1.1" id="Layer_1" xmlns="http://www.w3.org/2000/svg" xmlns:xlink="http://www.w3.org/1999/xlink" x="0px" y="0px"
	 width="612px" height="792px" viewBox="0 0 612 792" enable-background="new 0 0 612 792" xml:space="preserve">
<path fill="#8095A4" d="M306.6,94.3c168.3-0.6,302.3,138.9,301.1,304.2C606.5,563.1,467.6,699,304.1,697.8
	C137.7,696.5,3.7,558.2,4.3,395.4C4.9,225.9,142.6,93.1,306.6,94.3z M448,283.4c-0.6-0.6-1.2-1.2-1.8-1.8c-5.5,2.4-10.4,6.7-16.5,8
	c-8.6,1.2-16.5,5.5-26.3-1.8c-19-14.7-42.2-18.4-63.6-5.5c-20.2,11.6-32.4,29.4-33,53.9c0,4.3,0,8.6,0,13.5
	c-8.6-0.6-15.9,0.6-22.6-1.8c-13.5-3.7-26.3-9.2-39.2-14.1c-16.5-6.7-30.6-17.1-44.1-28.8c-6.1-4.9-9.2-14.1-18.4-14.1
	c-15.3,28.2-4.3,51.4,14.7,75.3c-9.2-0.6-15.9-1.2-23.9-1.2c4.3,12.2,5.5,24.5,14.7,33c8.6,8,17.7,15.9,26.9,23.9
	c-4.9,0.6-9.8,1.2-15.9,1.8c5.5,27.5,30,32.4,50.2,44.1c-23.9,17.7-51.4,20.8-78.9,26.3c7.3,3.7,14.1,6.1,20.8,9.2
	c11.6,5.5,23.3,10.4,36.1,9.8c2.4,0,4.9,0.6,7.3,0.6c12.9,0.6,25.1,2.4,37.9,1.8c12.9-1.2,25.1-4.3,37.3-8.6
	c11.6-3.7,23.3-7.3,33-14.1c12.2-8,22.6-18.4,33.7-28.2c15.9-14.1,27.5-31.8,34.9-51.4c2.4-6.1,4.3-12.2,6.1-18.4
	c3.7-12.2,8.6-25.1,9.2-37.9c0.6-14.7,3.7-26.3,15.3-34.9c4.3-3.7,8-8.6,11.6-12.9c-0.6-0.6-1.2-1.2-1.2-2.4
	c-6.1,1.8-12.2,4.3-19,6.1c-0.6-0.6-1.8-1.8-2.4-2.4C437,301.1,442.5,292,448,283.4z"/>
</svg>
