<?xml version="1.0" encoding="UTF-8" standalone="no"?>
<!DOCTYPE svg PUBLIC "-//W3C//DTD SVG 1.1//EN" "http://www.w3.org/Graphics/SVG/1.1/DTD/svg11.dtd" >
<svg xmlns="http://www.w3.org/2000/svg"
><metadata
></metadata
><defs
><font horiz-adv-x="1015"
><font-face font-family="Gotham Light" units-per-em="2048" ascent="1839" descent="-376"
></font-face
><missing-glyph horiz-adv-x="748" d="M68 0V1365H612V0H68ZM136 68H544V1297H136V68Z"
></missing-glyph
><glyph unicode="&#xd;" horiz-adv-x="614" d=""
></glyph
><glyph unicode=" " horiz-adv-x="614" d=""
></glyph
><glyph unicode="!" horiz-adv-x="516" d="M190 0V174H326V0H190ZM199 1290V1434H317V1290L287 375H229L199 1290Z"
></glyph
><glyph unicode="&quot;" horiz-adv-x="839" d="M139 913L211 1434H344V1423L199 913H139ZM508 913L580 1434H713V1423L567 913H508Z"
></glyph
><glyph unicode="#" horiz-adv-x="1433" d="M100 383V479H365L449 963H182V1059H465L528 1434H627L563 1059H987L1051 1434H1149L1085 1059H1331V963H1069L985 479H1249V383H969L903 0H805L870 383H446L381 0H283L348 383H100ZM463 479H887L971 963H547L463 479Z"
></glyph
><glyph unicode="$" horiz-adv-x="1294" d="M123 221L190 301Q286 211 386.5 158.5T612 96V678Q381 729 279.5 818T178 1061V1065Q178 1141 210 1207.5T299 1323T435 1402T608 1434V1552H707V1430Q826 1420 918 1377.5T1102 1262L1034 1182Q954 1254 873.5 1290.5T702 1337V762Q935 713 1040 621.5T1145 381V377Q1145 297 1113 229.5T1023 111.5T884 32.5T707 0V-201H608V2Q467 14 350 68.5T123 221ZM283 1069Q283 1020 297 978T348 900T448.5 835.5T612 782V1341Q462 1337 372.5 1260.5T283 1073V1069ZM702 92Q778 94 840.5 115.5T948 174T1016.5 261T1040 369V373Q1040 424 1026 467T973 545T868.5 607.5T702 657V92Z"
></glyph
><glyph unicode="%" horiz-adv-x="1687" d="M113 1079V1083Q113 1155 135.5 1221.5T200 1338.5T300 1419.5T430 1450Q500 1450 558 1420.5T657 1339.5T720.5 1222.5T743 1087V1083Q743 1011 720.5 945T656 827.5T556 746.5T426 717Q354 717 297 746.5T199 826.5T135.5 942.5T113 1079ZM219 1083Q219 1022 235.5 971T281.5 883T349 825.5T430 805Q475 805 513 826.5T578.5 885T621.5 972T637 1079V1083Q637 1142 620.5 1193.5T574.5 1282T507 1340.5T426 1362Q381 1362 343 1340.5T277.5 1281T234.5 1193T219 1087V1083ZM262 0L1315 1434H1425L373 0H262ZM944 274T944 346V350Q944 422 966.5 488.5T1031 605T1131.5 686T1262 717Q1332 717 1390 687T1489 606T1552.5 489.5T1575 354V350Q1575 278 1552.5 211.5T1488 94T1387.5 13.5T1257 -16Q1185 -16 1128 13.5T1030 93T966.5 208.5ZM1051 350Q1051 289 1067 237.5T1113 149.5T1181 92.5T1262 72Q1307 72 1344.5 93.5T1410 151.5T1453 238.5T1468 346V350Q1468 409 1452 460.5T1406 549T1338 607.5T1257 629Q1212 629 1174.5 607.5T1109 548T1066 460T1051 354V350Z"
></glyph
><glyph unicode="&amp;" horiz-adv-x="1425" d="M100 377V381Q100 526 197.5 630.5T471 801Q389 891 350 964.5T311 1128V1133Q311 1203 338 1262T412 1365T525.5 1433.5T670 1458Q740 1458 800 1433.5T904 1367T973.5 1267.5T999 1147V1143Q999 1008 906 918.5T647 772L1024 385Q1077 459 1123 547T1210 733L1307 694Q1258 583 1205.5 487T1094 313L1358 41L1274 -29L1026 227Q924 108 805 44T541 -20Q447 -20 366 9.5T226.5 91T134 216T100 377ZM207 381Q207 315 231.5 259T301 161T407.5 95.5T543 72Q664 72 766 132.5T958 297L535 735Q363 676 285 582.5T207 385V381ZM418 1133Q418 1098 426 1067T453.5 1002.5T505 929T584 838Q893 936 893 1139V1143Q893 1239 828.5 1303.5T666 1368Q555 1368 486.5 1301.5T418 1137V1133Z"
></glyph
><glyph unicode="&#39;" horiz-adv-x="471" d="M139 913L211 1434H344V1423L199 913H139Z"
></glyph
><glyph unicode="(" horiz-adv-x="880" d="M145 588Q145 869 292.5 1090T713 1464L756 1397Q512 1247 382 1046.5T252 588Q252 330 382 129T756 -221L713 -289Q441 -135 293 86T145 588Z"
></glyph
><glyph unicode=")" horiz-adv-x="880" d="M125 -221Q369 -71 499 129.5T629 588Q629 846 499 1046.5T125 1397L168 1464Q440 1310 587.5 1089T735 588Q735 307 587.5 86T168 -289L125 -221Z"
></glyph
><glyph unicode="*" horiz-adv-x="880" d="M154 1020L395 1135L154 1249L199 1325L416 1178L397 1438H483L465 1178L682 1325L727 1249L485 1135L727 1020L682 944L465 1092L483 831H397L416 1092L199 944L154 1020Z"
></glyph
><glyph unicode="+" horiz-adv-x="1310" d="M160 672V770H604V1210H707V770H1151V672H707V231H604V672H160Z"
></glyph
><glyph unicode="," horiz-adv-x="471" d="M109 -168Q175 -133 201 -96T223 0H168V174H303V23Q303 -73 264 -128.5T133 -219L109 -168Z"
></glyph
><glyph unicode="-" horiz-adv-x="835" d="M143 551V666H692V551H143Z"
></glyph
><glyph unicode="." horiz-adv-x="471" d="M168 0V174H303V0H168Z"
></glyph
><glyph unicode="/" horiz-adv-x="1024" d="M-37 -262L930 1634H1030L63 -262H-37Z"
></glyph
><glyph unicode="0" horiz-adv-x="1454" d="M133 713V717Q133 864 175 999.5T295 1236T482.5 1397.5T729 1458Q866 1458 975.5 1398.5T1162 1238T1280 1002.5T1321 721V717Q1321 570 1279 434.5T1159 197.5T971.5 35.5T725 -25Q588 -25 478.5 34.5T292 195.5T174 431T133 713ZM244 717Q244 592 277.5 476T374.5 270T528 126T729 72Q840 72 929 125T1080.5 267T1176.5 472T1210 713V717Q1210 842 1176.5 958.5T1079.5 1164T926 1307.5T725 1362Q614 1362 525 1308.5T373.5 1166T277.5 961.5T244 721V717Z"
></glyph
><glyph unicode="1" horiz-adv-x="686" d="M61 1323L389 1444H471V0H367V1333L90 1239L61 1323Z"
></glyph
><glyph unicode="2" horiz-adv-x="1208" d="M98 0V80L633 563Q721 643 781.5 708.5T880 831.5T934 942T950 1053Q950 1123 923.5 1180T853 1277T749.5 1338.5T627 1360Q490 1360 393.5 1291.5T207 1094L127 1147Q174 1219 224 1275T334.5 1371T469 1432.5T637 1454Q729 1454 807 1424.5T941 1341.5T1030 1216.5T1063 1061V1057Q1063 983 1042.5 918.5T978 789.5T866.5 655.5T705 500L266 102H1077V0H98Z"
></glyph
><glyph unicode="3" horiz-adv-x="1249" d="M111 233L193 301Q279 190 388.5 131T639 72Q711 72 775.5 95.5T888 160T964.5 259T993 389V393Q993 469 959.5 526.5T866.5 624T725 684.5T547 705H469L442 764L936 1333H184V1434H1081V1358L596 803Q698 797 790.5 769T952.5 692T1063 569.5T1104 397V393Q1104 299 1066 222T963.5 90T814 5T637 -25Q461 -25 330 47T111 233Z"
></glyph
><glyph unicode="4" horiz-adv-x="1359" d="M98 430L918 1444H1014V442H1247V350H1014V0H911V350H135L98 430ZM227 442H911V1290L227 442Z"
></glyph
><glyph unicode="5" horiz-adv-x="1239" d="M117 207L193 283Q291 185 399.5 128.5T623 72Q709 72 779.5 99.5T900 176T979 290.5T1008 432V436Q1008 510 979 572.5T898 680T773 750.5T614 776Q514 776 436 749.5T291 686L209 739L250 1434H1055V1331H344L309 795Q379 830 452.5 851T627 872Q731 872 820 840.5T975.5 752.5T1080 616.5T1118 440V436Q1118 334 1080 250T975.5 104.5T818 9T618 -25Q471 -25 341 43T117 207Z"
></glyph
><glyph unicode="6" horiz-adv-x="1314" d="M131 678V682Q131 844 172 985T289 1231.5T473.5 1397.5T715 1458Q838 1458 936 1414T1128 1292L1061 1210Q977 1284 893 1323T707 1362Q598 1362 509 1307.5T358.5 1155T265 919.5T238 618Q269 669 309.5 717.5T404.5 803T528.5 862.5T686 885Q784 885 873.5 853T1030.5 764T1139 627T1180 451V446Q1180 344 1141 258T1034.5 109.5T875.5 11T678 -25Q567 -25 473 14T313 119Q268 164 234.5 215T177.5 331.5T142.5 482T131 678ZM281 432Q281 354 311.5 288.5T396.5 175T525.5 99.5T686 72Q772 72 842.5 101.5T963.5 181T1041.5 299T1069 442V446Q1069 520 1040.5 582.5T959.5 691T836.5 764T680 791Q592 791 518 760T392 679T310.5 565.5T281 436V432Z"
></glyph
><glyph unicode="7" horiz-adv-x="1202" d="M139 1331V1434H1090V1356L436 0H319L971 1331H139Z"
></glyph
><glyph unicode="8" horiz-adv-x="1290" d="M113 383V387Q113 450 137.5 504.5T204 604T304 684T430 741Q377 761 329 793T244 866T184.5 959.5T162 1075V1079Q162 1163 203 1231.5T311.5 1349.5T466 1426.5T645 1454Q737 1454 824 1426.5T979 1349.5T1087.5 1231.5T1128 1079V1075Q1128 1012 1105.5 959.5T1046.5 866T961.5 793.5T860 741Q928 718 986 683.5T1086 604T1153 505T1178 387V383Q1178 293 1137 219T1024 92T855 9.5T645 -20Q532 -20 435 9.5T266.5 92T154 219T113 383ZM223 379Q223 318 252 263.5T335 167T468 100.5T645 76Q743 76 822 100.5T955.5 167T1038.5 263T1067 379V383Q1067 451 1034 507T944 604T810 667.5T645 690Q557 690 480 667.5T346 604T256 507T223 383V379ZM272 1075Q272 1009 302 955T383 862T501.5 801.5T645 780Q721 780 788.5 801.5T907 862T988 955.5T1018 1075V1079Q1018 1140 989.5 1191.5T910.5 1280T791.5 1337.5T645 1358Q567 1358 498.5 1337.5T380 1280T301 1192T272 1079V1075Z"
></glyph
><glyph unicode="9" horiz-adv-x="1314" d="M135 973V977Q135 1075 172 1163T275.5 1316.5T434 1420T639 1458Q756 1458 847 1418T1004 1313Q1045 1272 1078.5 1219.5T1135.5 1099.5T1171.5 946T1184 754V750Q1184 580 1140 438.5T1017 193.5T831.5 32.5T600 -25Q465 -25 361.5 26.5T168 154L236 236Q328 154 416 113T602 72Q711 72 801 127T954.5 280.5T1050.5 514T1077 811Q1046 756 1004.5 705.5T907.5 617.5T783.5 557.5T631 535Q522 535 431 568.5T274.5 661.5T172 801T135 973ZM246 977Q246 901 274.5 837.5T355.5 728T478.5 655.5T635 629Q727 629 800.5 660.5T926.5 743.5T1006.5 860.5T1034 993V997Q1034 1073 1003.5 1139.5T919.5 1255.5T790.5 1333.5T627 1362Q539 1362 468 1330T348 1246T272.5 1124.5T246 981V977Z"
></glyph
><glyph unicode=":" horiz-adv-x="491" d="M178 0V174H313V0H178ZM178 870V1044H313V870H178Z"
></glyph
><glyph unicode=";" horiz-adv-x="491" d="M119 -168Q185 -133 211.5 -96T233 0H178V174H313V23Q313 -73 274.5 -128.5T143 -219L119 -168ZM178 870V1044H313V870H178Z"
></glyph
><glyph unicode="&lt;" horiz-adv-x="1310" d="M150 680V762L1100 1255V1145L274 723L1100 297V186L150 680Z"
></glyph
><glyph unicode="=" horiz-adv-x="1310" d="M190 438V543H1120V438H190ZM190 899V1004H1120V899H190Z"
></glyph
><glyph unicode="&gt;" horiz-adv-x="1310" d="M211 186V297L1036 719L211 1145V1255L1161 762V680L211 186Z"
></glyph
><glyph unicode="?" horiz-adv-x="1093" d="M70 1208Q158 1317 268.5 1384.5T543 1452Q643 1452 726 1420.5T866.5 1334.5T955.5 1207.5T987 1053V1049Q987 953 952.5 880T859.5 754.5T721 671.5T553 631L535 375H469L442 707L453 717Q658 721 768.5 809T879 1044V1049Q879 1112 855 1168.5T787 1267T679.5 1333.5T539 1358Q416 1358 319.5 1301.5T143 1147L70 1208ZM434 0V174H569V0H434Z"
></glyph
><glyph unicode="@" horiz-adv-x="2007" d="M109 561Q109 745 178.5 908T368.5 1193T653 1386.5T1006 1458Q1194 1458 1357 1392.5T1640.5 1215.5T1829.5 956.5T1898 647Q1898 516 1864.5 422T1777.5 267.5T1657.5 178.5T1526 150Q1417 150 1345.5 201T1247 340Q1216 301 1180.5 266T1102 205.5T1008.5 165T897 150Q823 150 756.5 176.5T641 251T563.5 365.5T535 514Q535 625 576.5 718T687 878.5T841 985T1012 1024Q1073 1024 1122 1008.5T1208 966.5T1271.5 907T1317 842L1346 995L1444 983L1368 551Q1350 442 1350 403Q1350 315 1398 269T1534 223Q1587 223 1640.5 247.5T1736 323.5T1803.5 456T1829 647Q1829 788 1766.5 922.5T1593.5 1161.5T1332.5 1329.5T1006 1393Q828 1393 676 1327.5T413.5 1148T240.5 883.5T178 561Q178 389 240.5 238.5T414.5 -24.5T682 -201.5T1022 -266Q1176 -266 1295.5 -231.5T1534 -127L1565 -178Q1446 -250 1314 -291T1022 -332Q825 -332 658.5 -261T369 -68.5T177.5 215T109 561ZM641 522Q641 391 716.5 318.5T913 246Q985 246 1051.5 279.5T1169.5 368.5T1251.5 494.5T1282 641Q1282 702 1261.5 753.5T1205 844T1119 904.5T1012 926Q942 926 875.5 895T757 810T673 682T641 522Z"
></glyph
><glyph unicode="A" horiz-adv-x="1617" d="M90 0L758 1444H860L1528 0H1411L1229 401H383L201 0H90ZM428 498H1184L807 1327L428 498Z"
></glyph
><glyph unicode="B" horiz-adv-x="1478" d="M213 0V1434H805Q928 1434 1023 1400T1178 1307Q1270 1215 1270 1081V1077Q1270 1003 1248.5 948T1192 852T1113 783.5T1026 737Q1089 721 1148.5 693.5T1252 624T1323 525.5T1350 395V391Q1350 301 1313 228.5T1208.5 105.5T1046.5 27.5T836 0H213ZM319 98H840Q1024 98 1132.5 177T1241 391V395Q1241 528 1129.5 601T805 674H319V98ZM319 772H793Q873 772 940.5 791.5T1057 848T1133.5 940T1161 1067V1071Q1161 1190 1069 1262.5T803 1335H319V772Z"
></glyph
><glyph unicode="C" horiz-adv-x="1511" d="M150 713V717Q150 869 204 1004T353.5 1240T580 1399.5T866 1458Q962 1458 1040 1441.5T1184.5 1394.5T1309.5 1322T1423 1229L1348 1151Q1301 1196 1249.5 1235T1139.5 1301.5T1012.5 1345.5T864 1362Q735 1362 624.5 1313T433 1177T306 973T260 721V717Q260 582 307 464T435 259T626.5 122T866 72Q1022 72 1136.5 129T1360 295L1432 225Q1375 170 1314 124T1184.5 45T1036 -6.5T862 -25Q708 -25 577 32.5T351 189.5T203 424T150 713Z"
></glyph
><glyph unicode="D" horiz-adv-x="1601" d="M213 0V1434H690Q858 1434 998.5 1379.5T1240 1229T1396.5 1002.5T1452 721V717Q1452 565 1396.5 434T1240 207T998.5 55.5T690 0H213ZM319 98H690Q840 98 960.5 146.5T1165 277.5T1295 472T1341 713V717Q1341 844 1295 956.5T1165 1153T960.5 1286T690 1335H319V98Z"
></glyph
><glyph unicode="E" horiz-adv-x="1372" d="M213 0V1434H1233V1335H319V772H1141V674H319V98H1243V0H213Z"
></glyph
><glyph unicode="F" horiz-adv-x="1343" d="M213 0V1434H1223V1335H319V748H1130V649H319V0H213Z"
></glyph
><glyph unicode="G" horiz-adv-x="1605" d="M150 713V717Q150 862 200 996T343 1232.5T567 1396.5T858 1458Q946 1458 1019 1446T1154.5 1409T1273 1349.5T1382 1270L1313 1190Q1229 1264 1121.5 1313T852 1362Q721 1362 612.5 1311T425 1171.5T303 966.5T260 721V717Q260 578 302 459T424 254T617.5 119T874 70Q942 70 1007.5 83T1131.5 118.5T1241 171T1331 233V645H852V743H1434V190Q1336 104 1191 39.5T870 -25Q700 -25 566 33.5T340 192.5T199 427T150 713Z"
></glyph
><glyph unicode="H" horiz-adv-x="1556" d="M213 0V1434H319V770H1237V1434H1343V0H1237V672H319V0H213Z"
></glyph
><glyph unicode="I" horiz-adv-x="561" d="M227 0V1434H334V0H227Z"
></glyph
><glyph unicode="J" horiz-adv-x="1124" d="M76 248L164 303Q197 248 232.5 205T310 133T402.5 90T516 76Q582 76 639 100.5T738 173T803.5 293T827 459V1434H934V467Q934 342 898 248T803 94Q746 37 671 8.5T510 -20Q350 -20 245.5 54.5T76 248Z"
></glyph
><glyph unicode="K" horiz-adv-x="1464" d="M213 0V1434H319V492L1233 1434H1378L752 801L1405 0H1266L676 725L319 365V0H213Z"
></glyph
><glyph unicode="L" horiz-adv-x="1267" d="M213 0V1434H319V98H1161V0H213Z"
></glyph
><glyph unicode="M" horiz-adv-x="1777" d="M213 0V1434H313L889 586L1464 1434H1565V0H1458V1245L891 420H883L315 1245V0H213Z"
></glyph
><glyph unicode="N" horiz-adv-x="1617" d="M213 0V1434H313L1303 186V1434H1405V0H1325L315 1274V0H213Z"
></glyph
><glyph unicode="O" horiz-adv-x="1740" d="M150 713V717Q150 864 202 998.5T348 1235T575.5 1397.5T872 1458Q1034 1458 1167 1397.5T1394.5 1236T1540 1001.5T1591 721Q1592 720 1592 719T1591 717Q1591 570 1539 435.5T1392.5 198.5T1164 35.5T868 -25Q704 -25 572 35.5T346 197.5T201 432T150 713ZM260 717Q260 584 306 466T433 261T626.5 123T872 72Q1005 72 1117 122T1310 259T1436 463T1481 713V717Q1481 850 1435 967.5T1308 1172.5T1114 1311T868 1362Q735 1362 623.5 1312T431 1174.5T305 970.5T260 721V717Z"
></glyph
><glyph unicode="P" horiz-adv-x="1368" d="M213 0V1434H733Q852 1434 949.5 1404T1117.5 1318T1227 1181T1266 995V991Q1266 878 1221 792.5T1099 649.5T920.5 563.5T707 535H319V0H213ZM319 633H713Q813 633 895 657.5T1035.5 728T1126.5 839.5T1159 985V989Q1159 1075 1127.5 1139.5T1038.5 1247T901 1312.5T725 1335H319V633Z"
></glyph
><glyph unicode="Q" horiz-adv-x="1740" d="M150 713V717Q150 864 202 998.5T348 1235T575.5 1397.5T872 1458Q1034 1458 1167 1397.5T1394.5 1236T1540 1001.5T1591 721Q1593 719 1591 717Q1591 574 1543 443.5T1403 211L1608 39L1532 -43L1331 139Q1239 61 1123.5 18T868 -25Q704 -25 572 35.5T346 197.5T201 432T150 713ZM260 717Q260 584 306 466T433 261T626.5 123T872 72Q985 72 1081.5 107.5T1253 207L975 444L1051 528L1325 279Q1399 365 1440 476.5T1481 713V717Q1481 850 1435 967.5T1308 1172.5T1114 1311T868 1362Q735 1362 623.5 1312T431 1174.5T305 970.5T260 721V717Z"
></glyph
><glyph unicode="R" horiz-adv-x="1480" d="M213 0V1434H815Q948 1434 1050.5 1396T1219 1292Q1270 1241 1298.5 1172.5T1327 1026V1022Q1327 932 1295.5 861.5T1207.5 739.5T1074 656.5T907 612L1380 0H1245L788 594H784H319V0H213ZM319 690H803Q893 690 970 712.5T1102 777T1189 879.5T1221 1018V1022Q1221 1167 1113.5 1251T809 1335H319V690Z"
></glyph
><glyph unicode="S" horiz-adv-x="1310" d="M121 209L190 289Q249 234 308 194T428 128T557 89T705 76Q785 76 852.5 97.5T967 157T1040.5 247T1067 360V365Q1067 422 1049.5 467T986 549T862 615.5T662 670Q533 697 440.5 732.5T289.5 816T204.5 927.5T178 1073V1077Q178 1157 213 1225.5T309.5 1345.5T455 1425.5T639 1454Q795 1454 908.5 1411T1130 1280L1063 1196Q961 1284 857.5 1321T635 1358Q555 1358 490.5 1336.5T380 1278T309.5 1192T285 1087V1083Q285 1026 302 980T365.5 896T493.5 827.5T702 770Q952 719 1063 625.5T1174 375V371Q1174 285 1138 212T1039.5 88T889.5 8.5T698 -20Q526 -20 388 37T121 209Z"
></glyph
><glyph unicode="T" horiz-adv-x="1327" d="M111 1335V1434H1217V1335H717V0H610V1335H111Z"
></glyph
><glyph unicode="U" horiz-adv-x="1556" d="M190 596V1434H297V606Q297 350 425 212T782 74Q891 74 979 106.5T1129.5 204.5T1226 368.5T1260 596V1434H1366V608Q1366 454 1323 336.5T1202 139T1016.5 18T778 -23Q649 -23 541.5 17T355 136T233 329.5T190 596Z"
></glyph
><glyph unicode="V" horiz-adv-x="1536" d="M90 1434H209L770 115L1333 1434H1446L815 -10H721L90 1434Z"
></glyph
><glyph unicode="W" horiz-adv-x="2256" d="M102 1434H221L672 158L1092 1438H1174L1593 158L2044 1434H2154L1634 -10H1548L1128 1235L709 -10H623L102 1434Z"
></glyph
><glyph unicode="X" horiz-adv-x="1478" d="M104 0L676 731L125 1434H252L741 803L1229 1434H1354L805 733L1374 0H1247L737 662L229 0H104Z"
></glyph
><glyph unicode="Y" horiz-adv-x="1466" d="M66 1434H199L735 664L1274 1434H1401L786 569V0H680V567L66 1434Z"
></glyph
><glyph unicode="Z" horiz-adv-x="1409" d="M139 0V59L1120 1337H174V1434H1272V1374L291 96H1272V0H139Z"
></glyph
><glyph unicode="[" horiz-adv-x="880" d="M201 -266V1434H760V1356H295V-188H760V-266H201Z"
></glyph
><glyph unicode="\" horiz-adv-x="1024" d="M-6 1634H94L1061 -262H961L-6 1634Z"
></glyph
><glyph unicode="]" horiz-adv-x="880" d="M121 -188H586V1356H121V1434H680V-266H121V-188Z"
></glyph
><glyph unicode="^" horiz-adv-x="1024" d="M143 1010L467 1440H557L881 1010H772L510 1352L248 1010H143Z"
></glyph
><glyph unicode="_" horiz-adv-x="1228" d="M-4 -238H1233V-328H-4V-238Z"
></glyph
><glyph unicode="`" horiz-adv-x="1024" d="M322 1430L446 1491L627 1219H541L322 1430Z"
></glyph
><glyph unicode="a" horiz-adv-x="1175" d="M104 303V307Q104 389 138 452.5T231.5 559T375 624.5T561 647Q672 647 751.5 635T907 602V647Q907 807 816 887T563 967Q467 967 387 943.5T236 883L199 971Q285 1012 373 1036.5T569 1061Q784 1061 899 946Q1005 840 1006 651V0H907V174Q880 137 842.5 101.5T756 38T644.5 -7.5T508 -25Q434 -25 362.5 -4.5T233.5 57T140 159.5T104 303ZM211 309Q211 252 235.5 208T302 133T399.5 86T514 70Q594 70 665.5 93.5T791.5 159T877.5 260T909 391V510Q843 526 755.5 541.5T555 557Q389 557 300 490.5T211 313V309Z"
></glyph
><glyph unicode="b" horiz-adv-x="1351" d="M190 0V1495H291V811Q324 862 367 909T462 991T578.5 1047.5T721 1069Q815 1069 906 1032T1069 925.5T1185 754.5T1229 526V522Q1229 395 1185 294T1069 122T906 13T721 -25Q643 -25 577.5 -4.5T460 51T366 131T291 225V0H190ZM285 520Q285 420 320.5 337T415.5 195.5T552 104.5T711 72Q797 72 871.5 102.5T1001.5 190.5T1088.5 331T1120 518V522Q1120 624 1087.5 708.5T998.5 851T867.5 941T711 973Q629 973 552 940T415.5 847.5T320.5 706.5T285 524V520Z"
></glyph
><glyph unicode="c" horiz-adv-x="1169" d="M119 518V522Q119 633 160 731T272.5 905T441.5 1025T651 1069Q725 1069 785.5 1053.5T897 1011.5T990 950T1069 877L997 803Q929 873 847.5 924T649 975Q559 975 482.5 940T349.5 844.5T260 702.5T227 526V522Q227 428 261 345T353.5 200.5T489.5 104.5T657 70Q768 70 855 120T1008 244L1077 182Q997 92 895.5 33.5T651 -25Q538 -25 441 19T272.5 137T160 309.5T119 518Z"
></glyph
><glyph unicode="d" horiz-adv-x="1351" d="M123 518V522Q123 649 167 750.5T282.5 922.5T445.5 1031T631 1069Q709 1069 774.5 1048.5T892 993T986 913T1061 819V1495H1161V0H1061V233Q1026 182 984 135T890 53T773.5 -3.5T631 -25Q537 -25 445.5 12T282.5 118.5T167 289.5T123 518ZM231 522Q231 420 264 336T353.5 193.5T484.5 103.5T641 72Q723 72 800 104.5T936 196.5T1031 338T1067 520V524Q1067 624 1031 707.5T936 849T800 940T641 973Q555 973 480.5 942T350.5 854T263 714T231 526V522Z"
></glyph
><glyph unicode="e" horiz-adv-x="1196" d="M119 520V524Q119 637 157 736.5T261.5 909.5T418 1026T614 1069Q725 1069 813 1027T963.5 911.5T1060 738.5T1094 522Q1094 508 1094 501T1092 481H225Q231 383 268 307T360.5 178T486.5 97.5T635 70Q758 70 843 117T993 233L1063 172Q983 86 882 30.5T631 -25Q529 -25 435.5 14T271.5 125T160 297T119 520ZM225 571H985Q979 651 953.5 724T882 853T768 943T610 977Q532 977 464.5 946T347 861T264 732T225 571Z"
></glyph
><glyph unicode="f" horiz-adv-x="741" d="M100 952V1044H252V1147Q252 1327 344 1419Q426 1501 563 1501Q610 1501 647 1495T719 1477V1382Q674 1396 639 1402.5T563 1409Q352 1409 352 1145V1044H717V952H352V0H252V952H100Z"
></glyph
><glyph unicode="g" horiz-adv-x="1351" d="M123 569V573Q123 686 166 778T279.5 934.5T440 1034T625 1069Q703 1069 769.5 1049.5T889 998.5T985 924T1061 836V1044H1161V162Q1161 47 1126.5 -41T1028 -193Q960 -261 863 -296.5T649 -332Q385 -332 170 -172L229 -90Q419 -237 651 -238Q741 -238 816 -212T945 -135T1030 -8T1061 168V319Q1026 270 983 227T887 150.5T768 97.5T625 78Q531 78 440.5 112.5T279.5 211.5T166 366.5T123 569ZM231 573Q231 485 264 411.5T352.5 285.5T481.5 203.5T635 174Q717 174 794.5 202.5T932.5 283.5T1030 408.5T1067 571V575Q1067 665 1030 739T932.5 865.5T794.5 945.5T635 973Q553 973 479.5 945.5T350.5 866.5T263 742.5T231 578V573Z"
></glyph
><glyph unicode="h" horiz-adv-x="1255" d="M190 0V1495H291V850Q344 942 434 1005.5T668 1069Q766 1069 844 1037.5T976 948.5T1057.5 812T1085 639V0H985V621Q985 783 899 880T653 977Q575 977 509.5 949.5T395 872.5T318.5 754.5T291 604V0H190Z"
></glyph
><glyph unicode="i" horiz-adv-x="509" d="M193 1317V1454H317V1317H193ZM205 0V1044H305V0H205Z"
></glyph
><glyph unicode="j" horiz-adv-x="509" d="M-2 -238Q16 -242 39.5 -243T80 -244Q135 -244 170 -208T205 -98V1044H305V-92Q305 -215 244.5 -274.5T82 -334Q39 -334 -2 -326V-238ZM193 1317V1454H317V1317H193Z"
></glyph
><glyph unicode="k" horiz-adv-x="1146" d="M190 0V1495H291V375L938 1044H1071L614 582L1085 0H958L545 510L291 254V0H190Z"
></glyph
><glyph unicode="l" horiz-adv-x="509" d="M205 0V1495H305V0H205Z"
></glyph
><glyph unicode="m" horiz-adv-x="1947" d="M190 0V1044H291V858Q316 899 347.5 937T420 1004.5T515 1051.5T639 1069Q707 1069 763 1050.5T862 1001.5T937 930T991 844Q1016 887 1050.5 928T1131.5 1000.5T1236 1050.5T1368 1069Q1460 1069 1535 1037.5T1662 949.5T1741.5 812T1769 633V0H1669V621Q1669 791 1587 884T1360 977Q1294 977 1234 952.5T1128.5 881T1056.5 765T1030 608V0H930V627Q930 791 848 884T625 977Q555 977 493.5 948.5T387 868.5T316.5 749.5T291 602V0H190Z"
></glyph
><glyph unicode="n" horiz-adv-x="1255" d="M190 0V1044H291V850Q344 942 434 1005.5T668 1069Q766 1069 844 1037.5T976 948.5T1057.5 812T1085 639V0H985V621Q985 783 899 880T653 977Q575 977 509.5 949.5T395 872.5T318.5 754.5T291 604V0H190Z"
></glyph
><glyph unicode="o" horiz-adv-x="1310" d="M119 518V522Q119 633 159 731T271.5 905T442.5 1025T657 1069Q774 1069 871.5 1025T1040.5 907.5T1152 735.5T1192 526V522Q1192 411 1152 313T1039.5 139T868.5 19T653 -25Q536 -25 439 19T270.5 137T159 309.5T119 518ZM227 522Q227 428 260 345T351.5 200.5T488.5 104.5T657 70Q749 70 828 105.5T963.5 201.5T1051.5 344T1083 518V522Q1083 616 1050.5 699T959.5 843.5T822 940T653 975Q561 975 482 939T347 842.5T259 700T227 526V522Z"
></glyph
><glyph unicode="p" horiz-adv-x="1351" d="M190 -328V1044H291V811Q324 862 367 909T462 991T578.5 1047.5T721 1069Q815 1069 906 1032T1069 925.5T1185 754.5T1229 526V522Q1229 395 1185 294T1069 122T906 13T721 -25Q643 -25 577.5 -4.5T460 51T366 131T291 225V-328H190ZM285 520Q285 420 320.5 337T415.5 195.5T552 104.5T711 72Q797 72 871.5 102.5T1001.5 190.5T1088.5 331T1120 518V522Q1120 624 1087.5 708.5T998.5 851T867.5 941T711 973Q629 973 552 940T415.5 847.5T320.5 706.5T285 524V520Z"
></glyph
><glyph unicode="q" horiz-adv-x="1351" d="M123 518V522Q123 649 167 750.5T282.5 922.5T445.5 1031T631 1069Q709 1069 774.5 1048.5T892 993T986 913T1061 819V1044H1161V-328H1061V233Q1026 182 984 135T890 53T773.5 -3.5T631 -25Q537 -25 445.5 12T282.5 118.5T167 289.5T123 518ZM231 522Q231 420 264 336T353.5 193.5T484.5 103.5T641 72Q723 72 800 104.5T936 196.5T1031 338T1067 520V524Q1067 624 1031 707.5T936 849T800 940T641 973Q555 973 480.5 942T350.5 854T263 714T231 526V522Z"
></glyph
><glyph unicode="r" horiz-adv-x="819" d="M190 0V1044H291V748Q322 818 369 877T476 978Q536 1020 606 1042Q670 1062 741 1061Q748 1061 754 1061V950H743Q653 950 571 916.5T427 816.5T328 652.5T291 428V0H190Z"
></glyph
><glyph unicode="s" horiz-adv-x="1017" d="M100 131L160 211Q246 145 340 109.5T535 74Q641 74 713.5 127T786 272V276Q786 321 763.5 354T702.5 411.5T614.5 452.5T510 485Q447 503 382 524T266 576.5T183.5 655T152 772V776Q152 839 177.5 891.5T248 983T356.5 1043.5T496 1065Q590 1065 689 1034.5T866 950L813 866Q741 913 658 942T492 971Q383 971 318.5 918.5T254 788V784Q254 741 278.5 709.5T343 655.5T436 615.5T545 582Q608 564 669.5 542T780 486.5T859 405.5T889 289V285Q889 215 861.5 158.5T784.5 62.5T669.5 1.5T528 -20Q413 -20 298.5 21.5T100 131Z"
></glyph
><glyph unicode="t" horiz-adv-x="819" d="M94 952V1044H246V1378H346V1044H713V952H346V279Q346 166 404.5 121T555 76Q594 76 629 84T709 113V18Q668 0 628 -9T539 -18Q478 -18 424.5 -2T331 50T268.5 140.5T246 268V952H94Z"
></glyph
><glyph unicode="u" horiz-adv-x="1255" d="M170 406V1044H270V424Q270 262 356 165T602 68Q678 68 744.5 95.5T860 172T937 289.5T965 440V1044H1065V0H965V195Q912 103 821.5 39T588 -25Q490 -25 412 7T279.5 96.5T197.5 232.5T170 406Z"
></glyph
><glyph unicode="v" horiz-adv-x="1191" d="M84 1044H201L596 113L995 1044H1108L639 -8H553L84 1044Z"
></glyph
><glyph unicode="w" horiz-adv-x="1763" d="M100 1044H213L528 127L844 1049H924L1239 127L1554 1044H1663L1280 -8H1194L883 887L569 -8H483L100 1044Z"
></glyph
><glyph unicode="x" horiz-adv-x="1167" d="M92 0L520 532L109 1044H233L586 602L938 1044H1059L647 535L1075 0H950L582 465L213 0H92Z"
></glyph
><glyph unicode="y" horiz-adv-x="1204" d="M80 1044H197L631 111L1008 1044H1118L666 -37Q596 -201 513 -267.5T317 -334Q258 -334 211 -322.5T111 -289L145 -201Q186 -221 225 -230.5T324 -240Q365 -240 399.5 -227.5T465 -185.5T524.5 -108.5T582 6L80 1044Z"
></glyph
><glyph unicode="z" horiz-adv-x="1134" d="M119 0V57L872 954H147V1044H1022V987L268 90H1022V0H119Z"
></glyph
><glyph unicode="{" horiz-adv-x="983" d="M121 549V627H174Q246 627 294 645.5T369.5 697.5T408.5 779T420 887V1049Q420 1129 436.5 1194.5T499 1311T630 1400T852 1464L866 1399Q749 1368 679.5 1337.5T575.5 1266T530.5 1169.5T520 1036V883Q520 815 504.5 766T461.5 682T395 624.5T307 588Q358 572 398 549T465 492.5T506 409.5T520 293V139Q520 61 530.5 6T575.5 -90T680 -162T866 -223L852 -289Q715 -262 630 -224T499 -135T436.5 -18.5T420 127V289Q420 348 408.5 396T369.5 478T294 530.5T174 549H121Z"
></glyph
><glyph unicode="|" horiz-adv-x="585" d="M248 -262V1634H338V-262H248Z"
></glyph
><glyph unicode="}" horiz-adv-x="983" d="M117 -223Q234 -192 303.5 -161.5T407.5 -90T452.5 6T463 139V293Q463 361 478.5 410T521.5 493.5T588 550.5T676 588Q625 604 585 626.5T518.5 683T477.5 766T463 883V1036Q463 1114 452.5 1169.5T407.5 1266T303 1337.5T117 1399L131 1464Q268 1437 353 1399.5T484 1311T546.5 1194T563 1049V887Q563 828 574.5 779.5T613.5 697.5T689 645.5T809 627H862V549H809Q737 549 689 530.5T613.5 478T574.5 396T563 289V127Q563 47 546.5 -18.5T484 -135T353 -224T131 -289L117 -223Z"
></glyph
><glyph unicode="~" horiz-adv-x="942" d="M168 514Q197 625 238 665T340 705Q369 705 403.5 691.5T474 662.5T542.5 634T602 621Q639 621 660.5 642.5T705 723L774 705Q745 594 704.5 554T602 514Q573 514 538.5 527.5T468 556T399.5 584.5T340 598Q303 598 281.5 576.5T238 496L168 514Z"
></glyph
><glyph unicode="&#xa0;" horiz-adv-x="614" d=""
></glyph
><glyph unicode="&#xa1;" horiz-adv-x="516" d="M190 1260V1434H326V1260H190ZM199 0V143L229 1059H287L317 143V0H199Z"
></glyph
><glyph unicode="&#xa2;" horiz-adv-x="1189" d="M127 723V727Q127 838 168 936T280.5 1110T449.5 1230T659 1274H690L723 1446H825L788 1260Q882 1237 951 1189T1077 1081L1006 1008Q955 1061 897.5 1104T764 1165L594 281Q627 275 666 274Q777 274 863.5 324.5T1016 449L1085 387Q1005 297 904 238.5T659 180Q618 180 580 186L541 -12H438L483 211Q403 238 337.5 289T225 407.5T152.5 556T127 723ZM236 727Q236 582 311.5 468T508 305L676 1180H657Q567 1180 490.5 1145T357.5 1049.5T268.5 907T236 731V727Z"
></glyph
><glyph unicode="&#xa3;" horiz-adv-x="1318" d="M143 0V51L319 92V625H143V723H319V965Q319 1082 353 1176T453 1335Q510 1392 588 1423T760 1454Q840 1454 903.5 1437.5T1019 1391.5T1113 1322T1190 1237L1108 1174Q1077 1213 1042.5 1246.5T966 1304.5T872.5 1343.5T758 1358Q615 1358 526 1270Q424 1168 424 967V723H1034V625H424V96H1190V0H143Z"
></glyph
><glyph unicode="&#xa4;" horiz-adv-x="1474" d="M121 502V600H291Q285 655 285 713V717Q285 752 288 787.5T295 852H121V950H313Q340 1061 392 1154T516 1314.5T676 1420T862 1458Q952 1458 1025 1436.5T1157.5 1376T1265 1285T1354 1171L1272 1116Q1231 1175 1188 1221.5T1096 1299.5T989.5 1347.5T858 1364Q780 1364 711.5 1333.5T585.5 1247.5T485 1116T418 950H999V852H399Q395 823 392 789.5T389 721V717Q389 658 395 600H999V502H414Q439 406 482.5 326T586.5 189.5T722 101.5T883 70Q1016 70 1110 142.5T1280 332L1358 281Q1317 218 1268 162T1160.5 64.5T1032.5 -1T877 -25Q771 -25 678.5 13T511 120.5T384 287.5T305 502H121Z"
></glyph
><glyph unicode="&#xa5;" horiz-adv-x="1404" d="M66 1434H195L705 670L1217 1434H1339L788 641H1190V549H754V348H1190V256H754V0H651V256H215V348H651V549H215V641H614L66 1434Z"
></glyph
><glyph unicode="&#xa7;" horiz-adv-x="1294" d="M133 743V748Q133 840 215 901.5T436 979Q356 1014 308 1068T260 1194V1198Q260 1315 358.5 1384.5T621 1454Q758 1454 878.5 1400T1085 1260L1008 1186Q936 1258 834.5 1306T610 1354Q487 1354 430 1308T373 1196V1192Q373 1159 392.5 1130.5T456 1075.5T571.5 1024T748 975Q863 946 941.5 917.5T1069 855T1139.5 780T1161 690V686Q1161 594 1079 532.5T858 455Q938 420 986 365.5T1034 240V236Q1034 119 936 49.5T674 -20Q537 -20 416 34T209 174L287 248Q359 176 460 128T684 80Q807 80 864.5 126T922 238V242Q922 275 902.5 303.5T839 357.5T723 408.5T547 459Q432 486 353 515.5T225 578.5T154.5 653T133 743ZM240 752Q240 723 254 697.5T304 647.5T402.5 599T561 551Q633 533 690.5 525.5T791 518Q850 518 899 531.5T983 567.5T1036.5 618.5T1055 678V682Q1055 709 1040.5 735.5T990 786.5T891.5 834.5T733 883Q659 901 603 908T504 915Q445 915 395.5 902T311 866.5T258 815T240 756V752Z"
></glyph
><glyph unicode="&#xa8;" horiz-adv-x="1024" d="M274 1219V1382H416V1219H274ZM608 1219V1382H750V1219H608Z"
></glyph
><glyph unicode="&#xa9;" horiz-adv-x="1699" d="M109 713V717Q109 869 166 1003T323.5 1238T560 1398.5T852 1458Q1008 1458 1143 1399.5T1377.5 1241T1534 1006.5T1591 721V717Q1591 565 1534 431T1376.5 195.5T1140 34.5T848 -25Q692 -25 557 33.5T322.5 192.5T166 427T109 713ZM170 713Q170 572 221 448T363.5 231.5T579 86T848 33Q993 33 1118 87T1334 234.5T1477.5 451.5T1530 717V721Q1530 862 1478.5 986T1336 1202T1121 1347.5T852 1401Q707 1401 582 1346.5T365.5 1199T222 982T170 717V713ZM485 725V729Q485 807 514 877.5T594 1001.5T712.5 1085.5T860 1116Q960 1116 1026 1080T1149 991L1087 928Q1042 971 986 1002.5T858 1034Q797 1034 745.5 1010.5T656 945T596.5 848T575 731V727Q575 666 598 609.5T658.5 512T748.5 446.5T860 422Q936 422 989 449.5T1096 528L1153 471Q1094 412 1026 376T858 340Q778 340 710.5 370.5T593 453.5T514 575.5T485 725Z"
></glyph
><glyph unicode="&#xaa;" horiz-adv-x="798" d="M127 600V682H643V600H127ZM133 1026V1030Q133 1122 203.5 1171.5T387 1221Q442 1221 482 1214.5T557 1198V1208Q557 1286 511 1326T387 1366Q338 1366 296 1352.5T207 1317L180 1386Q233 1411 282.5 1425.5T391 1440Q510 1440 575 1374Q632 1317 633 1210V854H557V938Q522 893 472 867.5T356 842Q315 842 275.5 853T204 887.5T152.5 945T133 1026ZM215 1030Q215 975 258 945T360 915Q399 915 435 926.5T497.5 958.5T540.5 1008.5T557 1073V1128Q522 1138 481 1144.5T383 1151Q305 1151 260 1118T215 1034V1030Z"
></glyph
><glyph unicode="&#xab;" horiz-adv-x="1054" d="M104 514V530L432 958L508 909L227 524L508 135L432 86L104 514ZM522 514V530L850 958L926 909L645 524L926 135L850 86L522 514Z"
></glyph
><glyph unicode="&#xad;" horiz-adv-x="835" d="M143 551V666H692V551H143Z"
></glyph
><glyph unicode="&#xae;" horiz-adv-x="1699" d="M109 713V717Q109 869 166 1003T323.5 1238T560 1398.5T852 1458Q1008 1458 1143 1399.5T1377.5 1241T1534 1006.5T1591 721V717Q1591 565 1534 431T1376.5 195.5T1140 34.5T848 -25Q692 -25 557 33.5T322.5 192.5T166 427T109 713ZM170 713Q170 572 221 448T363.5 231.5T579 86T848 33Q993 33 1118 87T1334 234.5T1477.5 451.5T1530 717V721Q1530 862 1478.5 986T1336 1202T1121 1347.5T852 1401Q707 1401 582 1346.5T365.5 1199T222 982T170 717V713ZM565 362V1112H901Q971 1112 1028 1091.5T1120 1036Q1145 1011 1161.5 975.5T1178 897V893Q1178 801 1121.5 747.5T973 678L1223 362H1108L870 664H866H653V362H565ZM653 745H887Q973 745 1029 781T1085 889V893Q1085 954 1035 991T897 1028H653V745Z"
></glyph
><glyph unicode="&#xaf;" horiz-adv-x="1024" d="M205 1229V1337H819V1229H205Z"
></glyph
><glyph unicode="&#xb0;" horiz-adv-x="921" d="M152 1143V1147Q152 1206 177.5 1260.5T246 1356T344 1421.5T461 1446Q522 1446 577.5 1421.5T676 1356T744.5 1260.5T770 1147V1143Q770 1084 744.5 1029.5T676 934T577.5 868.5T461 844Q400 844 344.5 868.5T246 934T177.5 1029T152 1143ZM254 1143Q254 1102 269.5 1064T312.5 997.5T378 951.5T461 934Q506 934 544 951.5T609.5 997.5T652.5 1064T668 1143V1147Q668 1188 652.5 1226T609.5 1292.5T544 1338.5T461 1356Q416 1356 378 1338.5T312.5 1292.5T269.5 1226T254 1147V1143Z"
></glyph
><glyph unicode="&#xb1;" horiz-adv-x="1228" d="M92 240L178 303Q258 197 368.5 134.5T625 72Q703 72 769.5 93.5T885 155T961.5 251T989 375V379Q989 518 878.5 597T565 676H422V770H567Q649 770 718.5 790.5T839.5 849T920.5 942T950 1069V1073Q950 1134 925.5 1187.5T856 1280T747.5 1340.5T606 1362Q475 1362 380 1305.5T207 1143L125 1192Q207 1313 325.5 1385.5T610 1458Q708 1458 790 1429.5T932.5 1349.5T1027 1228.5T1061 1077V1073Q1061 999 1037.5 943T975 846T887 777.5T788 733Q854 715 911.5 683T1011 608T1076.5 508T1100 381V377Q1100 293 1064 220T964.5 93T813 7T621 -25Q447 -25 312.5 50T92 240Z"
></glyph
><glyph unicode="&#xb4;" horiz-adv-x="1024" d="M397 1219L578 1491L702 1430L483 1219H397Z"
></glyph
><glyph unicode="&#xb6;" horiz-adv-x="983" d="M109 999V1004Q109 1104 147.5 1184T257 1319T425 1404T639 1434H791V0H682V567H670Q551 567 448.5 596T270.5 680T152 815T109 999Z"
></glyph
><glyph unicode="&#xb7;" horiz-adv-x="471" d="M168 522V696H303V522H168Z"
></glyph
><glyph unicode="&#xb8;" horiz-adv-x="1024" d="M332 -250L516 20H604L444 -303L332 -250Z"
></glyph
><glyph unicode="&#xba;" horiz-adv-x="798" d="M104 600V682H694V600H104ZM104 1139V1143Q104 1204 127 1258.5T188.5 1354T281.5 1419.5T401 1444Q464 1444 518.5 1420.5T612 1356T672.5 1260.5T694 1147V1143Q694 1082 671.5 1027.5T610 932T515.5 866.5T397 842Q334 842 279.5 865.5T186 930T125.5 1025T104 1139ZM193 1143Q193 1096 209 1056T253 986T318.5 939T401 922Q493 922 549.5 985.5T606 1139V1143Q606 1188 589.5 1229T545.5 1299.5T480 1346.5T397 1364Q305 1364 249 1300.5T193 1147V1143Z"
></glyph
><glyph unicode="&#xbb;" horiz-adv-x="1054" d="M129 135L410 520L129 909L205 958L532 530V514L205 86L129 135ZM547 135L827 520L547 909L623 958L950 530V514L623 86L547 135Z"
></glyph
><glyph unicode="&#xbf;" horiz-adv-x="1093" d="M106 381V385Q106 479 141 553T234.5 679T372 762T541 803L559 1059H625L651 727L641 717Q436 713 325.5 625T215 389V385Q215 322 238.5 265.5T306 167T413.5 100.5T555 76Q678 76 774 132T950 287L1024 225Q981 170 932 126T825.5 49T700.5 -1T551 -18Q449 -18 367 13.5T227.5 99.5T138 226.5T106 381ZM524 1260V1434H659V1260H524Z"
></glyph
><glyph unicode="&#xc0;" horiz-adv-x="1617" d="M90 0L758 1444H860L1528 0H1411L1229 401H383L201 0H90ZM428 498H1184L807 1327L428 498ZM539 1778L664 1839L844 1567H758L539 1778Z"
></glyph
><glyph unicode="&#xc1;" horiz-adv-x="1617" d="M90 0L758 1444H860L1528 0H1411L1229 401H383L201 0H90ZM428 498H1184L807 1327L428 498ZM774 1567L954 1839L1079 1778L860 1567H774Z"
></glyph
><glyph unicode="&#xc2;" horiz-adv-x="1617" d="M90 0L758 1444H860L1528 0H1411L1229 401H383L201 0H90ZM428 498H1184L807 1327L428 498ZM563 1556L768 1806H850L1055 1556H958L807 1696L655 1556H563Z"
></glyph
><glyph unicode="&#xc3;" horiz-adv-x="1617" d="M90 0L758 1444H860L1528 0H1411L1229 401H383L201 0H90ZM428 498H1184L807 1327L428 498ZM506 1567Q535 1678 575.5 1717.5T678 1757Q707 1757 741.5 1744T812 1715.5T880.5 1686.5T940 1673Q977 1673 998.5 1694.5T1042 1776L1112 1757Q1083 1646 1042 1606.5T940 1567Q911 1567 876.5 1580T806 1608.5T737.5 1637.5T678 1651Q641 1651 619.5 1629.5T575 1548L506 1567Z"
></glyph
><glyph unicode="&#xc4;" horiz-adv-x="1617" d="M90 0L758 1444H860L1528 0H1411L1229 401H383L201 0H90ZM428 498H1184L807 1327L428 498ZM571 1567V1731H713V1567H571ZM905 1567V1731H1047V1567H905Z"
></glyph
><glyph unicode="&#xc5;" horiz-adv-x="1617" d="M90 0L731 1386Q678 1409 643 1456T608 1563V1567Q608 1606 624.5 1640.5T668.5 1700.5T732 1741.5T809 1757Q848 1757 885 1741.5T949.5 1700.5T993.5 1640.5T1010 1567V1563Q1010 1504 975 1457.5T887 1389L1528 0H1411L1229 401H383L201 0H90ZM428 498H1184L807 1327L428 498ZM682 1563Q682 1512 720 1475T809 1438Q860 1438 898 1474.5T936 1563V1567Q936 1618 899 1655T809 1692Q756 1692 719 1655T682 1567V1563Z"
></glyph
><glyph unicode="&#xc6;" horiz-adv-x="2140" d="M41 0L909 1434H2001V1335H1118V772H1909V674H1118V98H2011V0H1012V401H397L156 0H41ZM455 498H1012V1337H958L455 498Z"
></glyph
><glyph unicode="&#xc7;" horiz-adv-x="1511" d="M150 713V717Q150 869 204 1004T353.5 1240T580 1399.5T866 1458Q962 1458 1040 1441.5T1184.5 1394.5T1309.5 1322T1423 1229L1348 1151Q1301 1196 1249.5 1235T1139.5 1301.5T1012.5 1345.5T864 1362Q735 1362 624.5 1313T433 1177T306 973T260 721V717Q260 582 307 464T435 259T626.5 122T866 72Q1022 72 1136.5 129T1360 295L1432 225Q1377 172 1319.5 127T1196 49T1054.5 -3.5T889 -25L752 -303L639 -250L795 -23Q654 -11 536 52T332 213T198 439T150 713Z"
></glyph
><glyph unicode="&#xc8;" horiz-adv-x="1372" d="M213 0V1434H1233V1335H319V772H1141V674H319V98H1243V0H213ZM496 1778L621 1839L801 1567H715L496 1778Z"
></glyph
><glyph unicode="&#xc9;" horiz-adv-x="1372" d="M213 0V1434H1233V1335H319V772H1141V674H319V98H1243V0H213ZM633 1567L813 1839L938 1778L719 1567H633Z"
></glyph
><glyph unicode="&#xca;" horiz-adv-x="1372" d="M213 0V1434H1233V1335H319V772H1141V674H319V98H1243V0H213ZM469 1567L674 1817H756L961 1567H864L713 1706L561 1567H469Z"
></glyph
><glyph unicode="&#xcb;" horiz-adv-x="1372" d="M213 0V1434H1233V1335H319V772H1141V674H319V98H1243V0H213ZM477 1567V1731H618V1567H477ZM811 1567V1731H952V1567H811Z"
></glyph
><glyph unicode="&#xcc;" horiz-adv-x="561" d="M14 1778L139 1839L319 1567H233L14 1778ZM227 0V1434H334V0H227Z"
></glyph
><glyph unicode="&#xcd;" horiz-adv-x="561" d="M227 0V1434H334V0H227ZM242 1567L422 1839L547 1778L328 1567H242Z"
></glyph
><glyph unicode="&#xce;" horiz-adv-x="561" d="M37 1567L242 1817H324L528 1567H432L281 1706L129 1567H37ZM227 0V1434H334V0H227Z"
></glyph
><glyph unicode="&#xcf;" horiz-adv-x="561" d="M45 1567V1731H186V1567H45ZM227 0V1434H334V0H227ZM379 1567V1731H520V1567H379Z"
></glyph
><glyph unicode="&#xd0;" horiz-adv-x="1662" d="M121 672V770H274V1434H752Q920 1434 1060 1379.5T1301.5 1229T1458 1002.5T1513 721V717Q1513 565 1458 434T1301.5 207T1060 55.5T752 0H274V672H121ZM381 98H752Q902 98 1022.5 146.5T1227 277.5T1357 472T1403 713V717Q1403 844 1357 956.5T1227 1153T1022 1286T752 1335H381V770H856V672H381V98Z"
></glyph
><glyph unicode="&#xd1;" horiz-adv-x="1617" d="M213 0V1434H313L1303 186V1434H1405V0H1325L315 1274V0H213ZM506 1567Q535 1678 575.5 1717.5T678 1757Q707 1757 741.5 1744T812 1715.5T880.5 1686.5T940 1673Q977 1673 998.5 1694.5T1042 1776L1112 1757Q1083 1646 1042 1606.5T940 1567Q911 1567 876.5 1580T806 1608.5T737.5 1637.5T678 1651Q641 1651 619.5 1629.5T575 1548L506 1567Z"
></glyph
><glyph unicode="&#xd2;" horiz-adv-x="1740" d="M150 713V717Q150 864 202 998.5T348 1235T575.5 1397.5T872 1458Q1034 1458 1167 1397.5T1394.5 1236T1540 1001.5T1591 721Q1593 719 1591 717Q1591 570 1539 435.5T1392.5 198.5T1164 35.5T868 -25Q704 -25 572 35.5T346 197.5T201 432T150 713ZM260 717Q260 584 306 466T433 261T626.5 123T872 72Q1005 72 1117 122T1310 259T1436 463T1481 713V717Q1481 850 1435 967.5T1308 1172.5T1114 1311T868 1362Q735 1362 623.5 1312T431 1174.5T305 970.5T260 721V717ZM598 1778L723 1839L903 1567H817L598 1778Z"
></glyph
><glyph unicode="&#xd3;" horiz-adv-x="1740" d="M150 713V717Q150 864 202 998.5T348 1235T575.5 1397.5T872 1458Q1034 1458 1167 1397.5T1394.5 1236T1540 1001.5T1591 721Q1593 719 1591 717Q1591 570 1539 435.5T1392.5 198.5T1164 35.5T868 -25Q704 -25 572 35.5T346 197.5T201 432T150 713ZM260 717Q260 584 306 466T433 261T626.5 123T872 72Q1005 72 1117 122T1310 259T1436 463T1481 713V717Q1481 850 1435 967.5T1308 1172.5T1114 1311T868 1362Q735 1362 623.5 1312T431 1174.5T305 970.5T260 721V717ZM838 1567L1018 1839L1143 1778L924 1567H838Z"
></glyph
><glyph unicode="&#xd4;" horiz-adv-x="1740" d="M150 713V717Q150 864 202 998.5T348 1235T575.5 1397.5T872 1458Q1034 1458 1167 1397.5T1394.5 1236T1540 1001.5T1591 721Q1593 719 1591 717Q1591 570 1539 435.5T1392.5 198.5T1164 35.5T868 -25Q704 -25 572 35.5T346 197.5T201 432T150 713ZM260 717Q260 584 306 466T433 261T626.5 123T872 72Q1005 72 1117 122T1310 259T1436 463T1481 713V717Q1481 850 1435 967.5T1308 1172.5T1114 1311T868 1362Q735 1362 623.5 1312T431 1174.5T305 970.5T260 721V717ZM625 1567L829 1817H911L1116 1567H1020L868 1706L717 1567H625Z"
></glyph
><glyph unicode="&#xd5;" horiz-adv-x="1740" d="M150 713V717Q150 864 202 998.5T348 1235T575.5 1397.5T872 1458Q1034 1458 1167 1397.5T1394.5 1236T1540 1001.5T1591 721Q1593 719 1591 717Q1591 570 1539 435.5T1392.5 198.5T1164 35.5T868 -25Q704 -25 572 35.5T346 197.5T201 432T150 713ZM260 717Q260 584 306 466T433 261T626.5 123T872 72Q1005 72 1117 122T1310 259T1436 463T1481 713V717Q1481 850 1435 967.5T1308 1172.5T1114 1311T868 1362Q735 1362 623.5 1312T431 1174.5T305 970.5T260 721V717ZM567 1567Q596 1678 637 1717.5T739 1757Q768 1757 803 1744T873.5 1715.5T942 1686.5T1001 1673Q1038 1673 1059.5 1694.5T1104 1776L1174 1757Q1145 1646 1104 1606.5T1001 1567Q972 1567 937.5 1580T867 1608.5T798.5 1637.5T739 1651Q702 1651 680.5 1629.5T637 1548L567 1567Z"
></glyph
><glyph unicode="&#xd6;" horiz-adv-x="1740" d="M150 713V717Q150 864 202 998.5T348 1235T575.5 1397.5T872 1458Q1034 1458 1167 1397.5T1394.5 1236T1540 1001.5T1591 721Q1593 719 1591 717Q1591 570 1539 435.5T1392.5 198.5T1164 35.5T868 -25Q704 -25 572 35.5T346 197.5T201 432T150 713ZM260 717Q260 584 306 466T433 261T626.5 123T872 72Q1005 72 1117 122T1310 259T1436 463T1481 713V717Q1481 850 1435 967.5T1308 1172.5T1114 1311T868 1362Q735 1362 623.5 1312T431 1174.5T305 970.5T260 721V717ZM633 1567V1731H774V1567H633ZM967 1567V1731H1108V1567H967Z"
></glyph
><glyph unicode="&#xd8;" horiz-adv-x="1740" d="M133 -10L338 207Q246 309 198 439T150 713V717Q150 864 202 998.5T348 1235T575.5 1397.5T872 1458Q1013 1458 1130 1413T1339 1288L1485 1444H1608L1403 1227Q1495 1125 1543 994.5T1591 721Q1593 719 1591 717Q1591 570 1539 435.5T1392.5 198.5T1164 35.5T868 -25Q727 -25 610.5 20.5T401 143L256 -10H133ZM260 717Q260 594 300 483.5T412 287L1270 1208Q1192 1280 1089.5 1321T868 1362Q735 1362 623.5 1312T431 1174.5T305 970.5T260 721V717ZM471 225Q549 153 651 112.5T872 72Q1005 72 1117 122T1310 259T1436 463T1481 713V717Q1481 840 1441 950.5T1329 1147L471 225Z"
></glyph
><glyph unicode="&#xd9;" horiz-adv-x="1556" d="M190 596V1434H297V606Q297 350 425 212T782 74Q891 74 979 106.5T1129.5 204.5T1226 368.5T1260 596V1434H1366V608Q1366 454 1323 336.5T1202 139T1016.5 18T778 -23Q649 -23 541.5 17T355 136T233 329.5T190 596ZM524 1767L649 1829L829 1556H743L524 1767Z"
></glyph
><glyph unicode="&#xda;" horiz-adv-x="1556" d="M190 596V1434H297V606Q297 350 425 212T782 74Q891 74 979 106.5T1129.5 204.5T1226 368.5T1260 596V1434H1366V608Q1366 454 1323 336.5T1202 139T1016.5 18T778 -23Q649 -23 541.5 17T355 136T233 329.5T190 596ZM727 1556L907 1829L1032 1767L813 1556H727Z"
></glyph
><glyph unicode="&#xdb;" horiz-adv-x="1556" d="M190 596V1434H297V606Q297 350 425 212T782 74Q891 74 979 106.5T1129.5 204.5T1226 368.5T1260 596V1434H1366V608Q1366 454 1323 336.5T1202 139T1016.5 18T778 -23Q649 -23 541.5 17T355 136T233 329.5T190 596ZM532 1556L737 1806H819L1024 1556H928L776 1696L625 1556H532Z"
></glyph
><glyph unicode="&#xdc;" horiz-adv-x="1556" d="M190 596V1434H297V606Q297 350 425 212T782 74Q891 74 979 106.5T1129.5 204.5T1226 368.5T1260 596V1434H1366V608Q1366 454 1323 336.5T1202 139T1016.5 18T778 -23Q649 -23 541.5 17T355 136T233 329.5T190 596ZM541 1556V1720H682V1556H541ZM874 1556V1720H1016V1556H874Z"
></glyph
><glyph unicode="&#xdd;" horiz-adv-x="1466" d="M66 1434H199L735 664L1274 1434H1401L786 569V0H680V567L66 1434ZM696 1556L877 1829L1001 1767L782 1556H696Z"
></glyph
><glyph unicode="&#xde;" horiz-adv-x="1378" d="M213 0V1434H319V1174H733Q852 1174 949.5 1144T1117.5 1057.5T1227 920.5T1266 735V731Q1266 618 1221 532T1099 389T920.5 302T707 272H319V0H213ZM319 371H713Q813 371 895 396.5T1035.5 468T1126.5 579.5T1159 725V729Q1159 815 1127.5 879.5T1038.5 987T901 1052.5T725 1075H319V371Z"
></glyph
><glyph unicode="&#xdf;" horiz-adv-x="1269" d="M190 0V1024Q190 1130 222 1219.5T312.5 1373.5T454 1473.5T641 1509Q733 1509 808 1481.5T937 1406T1020 1292.5T1049 1151V1147Q1049 1073 1021 1010.5T948 899T844.5 814T727 758Q807 744 881.5 716T1013.5 643T1106 535.5T1141 391V387Q1141 295 1103 222.5T993.5 99.5T820.5 22.5T592 -4V84Q797 88 914.5 163T1032 383V387Q1032 526 914.5 602T592 700V784Q668 807 731.5 839.5T841 916.5T913.5 1017T940 1143V1147Q940 1204 917.5 1254.5T855 1339.5T758.5 1394.5T635 1415Q561 1415 497.5 1387.5T388 1310T316.5 1187T291 1024V0H190Z"
></glyph
><glyph unicode="&#xe0;" horiz-adv-x="1175" d="M104 303V307Q104 389 138 452.5T231.5 559T375 624.5T561 647Q672 647 751.5 635T907 602V647Q907 807 816 887T563 967Q467 967 387 943.5T236 883L199 971Q285 1012 373 1036.5T569 1061Q784 1061 899 946Q1005 840 1006 651V0H907V174Q880 137 842.5 101.5T756 38T644.5 -7.5T508 -25Q434 -25 362.5 -4.5T233.5 57T140 159.5T104 303ZM211 309Q211 252 235.5 208T302 133T399.5 86T514 70Q594 70 665.5 93.5T791.5 159T877.5 260T909 391V510Q843 526 755.5 541.5T555 557Q389 557 300 490.5T211 313V309ZM322 1430L446 1491L627 1219H541L322 1430Z"
></glyph
><glyph unicode="&#xe1;" horiz-adv-x="1175" d="M104 303V307Q104 389 138 452.5T231.5 559T375 624.5T561 647Q672 647 751.5 635T907 602V647Q907 807 816 887T563 967Q467 967 387 943.5T236 883L199 971Q285 1012 373 1036.5T569 1061Q784 1061 899 946Q1005 840 1006 651V0H907V174Q880 137 842.5 101.5T756 38T644.5 -7.5T508 -25Q434 -25 362.5 -4.5T233.5 57T140 159.5T104 303ZM211 309Q211 252 235.5 208T302 133T399.5 86T514 70Q594 70 665.5 93.5T791.5 159T877.5 260T909 391V510Q843 526 755.5 541.5T555 557Q389 557 300 490.5T211 313V309ZM524 1219L705 1491L829 1430L610 1219H524Z"
></glyph
><glyph unicode="&#xe2;" horiz-adv-x="1175" d="M104 303V307Q104 389 138 452.5T231.5 559T375 624.5T561 647Q672 647 751.5 635T907 602V647Q907 807 816 887T563 967Q467 967 387 943.5T236 883L199 971Q285 1012 373 1036.5T569 1061Q784 1061 899 946Q1005 840 1006 651V0H907V174Q880 137 842.5 101.5T756 38T644.5 -7.5T508 -25Q434 -25 362.5 -4.5T233.5 57T140 159.5T104 303ZM211 309Q211 252 235.5 208T302 133T399.5 86T514 70Q594 70 665.5 93.5T791.5 159T877.5 260T909 391V510Q843 526 755.5 541.5T555 557Q389 557 300 490.5T211 313V309ZM348 1219L553 1468H635L840 1219H743L592 1358L440 1219H348Z"
></glyph
><glyph unicode="&#xe3;" horiz-adv-x="1175" d="M104 303V307Q104 389 138 452.5T231.5 559T375 624.5T561 647Q672 647 751.5 635T907 602V647Q907 807 816 887T563 967Q467 967 387 943.5T236 883L199 971Q285 1012 373 1036.5T569 1061Q784 1061 899 946Q1005 840 1006 651V0H907V174Q880 137 842.5 101.5T756 38T644.5 -7.5T508 -25Q434 -25 362.5 -4.5T233.5 57T140 159.5T104 303ZM211 309Q211 252 235.5 208T302 133T399.5 86T514 70Q594 70 665.5 93.5T791.5 159T877.5 260T909 391V510Q843 526 755.5 541.5T555 557Q389 557 300 490.5T211 313V309ZM291 1219Q320 1330 360.5 1369.5T463 1409Q492 1409 526.5 1395.5T597 1367T665.5 1338.5T725 1325Q762 1325 783.5 1346.5T827 1427L897 1409Q868 1298 827 1258.5T725 1219Q696 1219 661.5 1232T591 1260.5T522 1289.5T463 1303Q426 1303 404.5 1281.5T360 1200L291 1219Z"
></glyph
><glyph unicode="&#xe4;" horiz-adv-x="1175" d="M104 303V307Q104 389 138 452.5T231.5 559T375 624.5T561 647Q672 647 751.5 635T907 602V647Q907 807 816 887T563 967Q467 967 387 943.5T236 883L199 971Q285 1012 373 1036.5T569 1061Q784 1061 899 946Q1005 840 1006 651V0H907V174Q880 137 842.5 101.5T756 38T644.5 -7.5T508 -25Q434 -25 362.5 -4.5T233.5 57T140 159.5T104 303ZM211 309Q211 252 235.5 208T302 133T399.5 86T514 70Q594 70 665.5 93.5T791.5 159T877.5 260T909 391V510Q843 526 755.5 541.5T555 557Q389 557 300 490.5T211 313V309ZM356 1219V1382H498V1219H356ZM690 1219V1382H831V1219H690Z"
></glyph
><glyph unicode="&#xe5;" horiz-adv-x="1175" d="M104 303V307Q104 389 138 452.5T231.5 559T375 624.5T561 647Q672 647 751.5 635T907 602V647Q907 807 816 887T563 967Q467 967 387 943.5T236 883L199 971Q285 1012 373 1036.5T569 1061Q784 1061 899 946Q1005 840 1006 651V0H907V174Q880 137 842.5 101.5T756 38T644.5 -7.5T508 -25Q434 -25 362.5 -4.5T233.5 57T140 159.5T104 303ZM211 309Q211 252 235.5 208T302 133T399.5 86T514 70Q594 70 665.5 93.5T791.5 159T877.5 260T909 391V510Q843 526 755.5 541.5T555 557Q389 557 300 490.5T211 313V309ZM393 1405V1409Q393 1448 409.5 1483T453.5 1543.5T517 1584T594 1599Q633 1599 670 1584T734.5 1543.5T778.5 1483T795 1409V1405Q795 1366 778.5 1331T734.5 1270.5T670 1229.5T594 1214Q553 1214 517 1229.5T453.5 1270.5T409.5 1331T393 1405ZM467 1405Q467 1354 505 1317T594 1280Q645 1280 683 1317T721 1405V1409Q721 1460 684 1497T594 1534Q541 1534 504 1497T467 1409V1405Z"
></glyph
><glyph unicode="&#xe6;" horiz-adv-x="1953" d="M104 303V307Q104 389 137 452.5T229.5 559T371 624.5T551 647Q653 647 728 635T879 602V647Q879 807 793 887T549 967Q457 967 382 943.5T236 883L199 971Q287 1012 369 1036.5T555 1061Q711 1061 813 995.5T950 799Q1011 922 1122 995.5T1372 1069Q1483 1069 1571 1027T1721.5 911.5T1817.5 738.5T1851 522Q1851 508 1851 501T1849 481H983Q989 383 1026 307T1118.5 178T1244.5 97.5T1393 70Q1516 70 1601 117T1751 233L1821 172Q1741 86 1639.5 30.5T1389 -25Q1260 -25 1148 35.5T967 205Q885 111 769.5 43T498 -25Q426 -25 355.5 -4.5T229.5 57T139 159.5T104 303ZM211 309Q211 252 234.5 208T298 133T391.5 86T504 70Q639 70 742.5 132.5T922 289Q902 340 890.5 395.5T877 512Q811 528 728 542.5T545 557Q383 557 297 490.5T211 313V309ZM983 571H1743Q1737 651 1711.5 724T1639.5 853T1525.5 943T1368 977Q1290 977 1222.5 946T1105 861T1022 732T983 571Z"
></glyph
><glyph unicode="&#xe7;" horiz-adv-x="1169" d="M119 518V522Q119 633 160 731T272.5 905T441.5 1025T651 1069Q725 1069 785.5 1053.5T897 1011.5T990 950T1069 877L997 803Q929 873 847.5 924T649 975Q559 975 482.5 940T349.5 844.5T260 702.5T227 526V522Q227 428 261 345T353.5 200.5T489.5 104.5T657 70Q768 70 855 120T1008 244L1077 182Q999 96 905 39T676 -25L539 -303L426 -250L582 -20Q482 -8 396.5 40T249.5 160.5T153.5 324.5T119 518Z"
></glyph
><glyph unicode="&#xe8;" horiz-adv-x="1196" d="M119 520V524Q119 637 157 736.5T261.5 909.5T418 1026T614 1069Q725 1069 813 1027T963.5 911.5T1060 738.5T1094 522Q1094 508 1094 501T1092 481H225Q231 383 268 307T360.5 178T486.5 97.5T635 70Q758 70 843 117T993 233L1063 172Q983 86 882 30.5T631 -25Q529 -25 435.5 14T271.5 125T160 297T119 520ZM225 571H985Q979 651 953.5 724T882 853T768 943T610 977Q532 977 464.5 946T347 861T264 732T225 571ZM367 1430L492 1491L672 1219H586L367 1430Z"
></glyph
><glyph unicode="&#xe9;" horiz-adv-x="1196" d="M119 520V524Q119 637 157 736.5T261.5 909.5T418 1026T614 1069Q725 1069 813 1027T963.5 911.5T1060 738.5T1094 522Q1094 508 1094 501T1092 481H225Q231 383 268 307T360.5 178T486.5 97.5T635 70Q758 70 843 117T993 233L1063 172Q983 86 882 30.5T631 -25Q529 -25 435.5 14T271.5 125T160 297T119 520ZM225 571H985Q979 651 953.5 724T882 853T768 943T610 977Q532 977 464.5 946T347 861T264 732T225 571ZM526 1219L707 1491L831 1430L612 1219H526Z"
></glyph
><glyph unicode="&#xea;" horiz-adv-x="1196" d="M119 520V524Q119 637 157 736.5T261.5 909.5T418 1026T614 1069Q725 1069 813 1027T963.5 911.5T1060 738.5T1094 522Q1094 508 1094 501T1092 481H225Q231 383 268 307T360.5 178T486.5 97.5T635 70Q758 70 843 117T993 233L1063 172Q983 86 882 30.5T631 -25Q529 -25 435.5 14T271.5 125T160 297T119 520ZM225 571H985Q979 651 953.5 724T882 853T768 943T610 977Q532 977 464.5 946T347 861T264 732T225 571ZM362 1219L567 1468H649L854 1219H758L606 1358L455 1219H362Z"
></glyph
><glyph unicode="&#xeb;" horiz-adv-x="1196" d="M119 520V524Q119 637 157 736.5T261.5 909.5T418 1026T614 1069Q725 1069 813 1027T963.5 911.5T1060 738.5T1094 522Q1094 508 1094 501T1092 481H225Q231 383 268 307T360.5 178T486.5 97.5T635 70Q758 70 843 117T993 233L1063 172Q983 86 882 30.5T631 -25Q529 -25 435.5 14T271.5 125T160 297T119 520ZM225 571H985Q979 651 953.5 724T882 853T768 943T610 977Q532 977 464.5 946T347 861T264 732T225 571ZM371 1219V1382H512V1219H371ZM705 1219V1382H846V1219H705Z"
></glyph
><glyph unicode="&#xec;" horiz-adv-x="509" d="M-10 1430L115 1491L295 1219H209L-10 1430ZM205 0V1044H305V0H205Z"
></glyph
><glyph unicode="&#xed;" horiz-adv-x="509" d="M205 0V1044H305V0H205ZM215 1219L395 1491L520 1430L301 1219H215Z"
></glyph
><glyph unicode="&#xee;" horiz-adv-x="509" d="M8 1219L213 1468H295L500 1219H403L252 1358L100 1219H8ZM205 0V1044H305V0H205Z"
></glyph
><glyph unicode="&#xef;" horiz-adv-x="509" d="M16 1219V1382H158V1219H16ZM205 0V1044H305V0H205ZM350 1219V1382H492V1219H350Z"
></glyph
><glyph unicode="&#xf0;" horiz-adv-x="1286" d="M119 498V502Q119 613 160 704T268.5 859.5T425 959.5T610 995Q735 995 820 957.5T973 866L672 1292L399 1153L340 1227L621 1364L528 1495H657L713 1411L913 1513L971 1440L762 1337L985 1008Q1063 893 1113 775T1163 510V506Q1163 402 1125 305.5T1018.5 135T852 18T633 -25Q522 -25 428 17T265.5 131T158 298T119 498ZM227 492Q227 412 258 335T344 199.5T476 105.5T643 70Q735 70 811 104.5T941 197.5T1025 334T1055 496V500Q1055 582 1022 655.5T930.5 784.5T793.5 872.5T623 905Q531 905 458 873.5T334 786.5T255 656.5T227 496V492Z"
></glyph
><glyph unicode="&#xf1;" horiz-adv-x="1255" d="M190 0V1044H291V850Q344 942 434 1005.5T668 1069Q766 1069 844 1037.5T976 948.5T1057.5 812T1085 639V0H985V621Q985 783 899 880T653 977Q575 977 509.5 949.5T395 872.5T318.5 754.5T291 604V0H190ZM334 1219Q363 1330 403.5 1369.5T506 1409Q535 1409 569.5 1395.5T640 1367T708.5 1338.5T768 1325Q805 1325 826.5 1346.5T870 1427L940 1409Q911 1298 870 1258.5T768 1219Q739 1219 704.5 1232T634 1260.5T565 1289.5T506 1303Q469 1303 447.5 1281.5T403 1200L334 1219Z"
></glyph
><glyph unicode="&#xf2;" horiz-adv-x="1310" d="M119 518V522Q119 633 159 731T271.5 905T442.5 1025T657 1069Q774 1069 871.5 1025T1040.5 907.5T1152 735.5T1192 526V522Q1192 411 1152 313T1039.5 139T868.5 19T653 -25Q536 -25 439 19T270.5 137T159 309.5T119 518ZM227 522Q227 428 260 345T351.5 200.5T488.5 104.5T657 70Q749 70 828 105.5T963.5 201.5T1051.5 344T1083 518V522Q1083 616 1050.5 699T959.5 843.5T822 940T653 975Q561 975 482 939T347 842.5T259 700T227 526V522ZM391 1430L516 1491L696 1219H610L391 1430Z"
></glyph
><glyph unicode="&#xf3;" horiz-adv-x="1310" d="M119 518V522Q119 633 159 731T271.5 905T442.5 1025T657 1069Q774 1069 871.5 1025T1040.5 907.5T1152 735.5T1192 526V522Q1192 411 1152 313T1039.5 139T868.5 19T653 -25Q536 -25 439 19T270.5 137T159 309.5T119 518ZM227 522Q227 428 260 345T351.5 200.5T488.5 104.5T657 70Q749 70 828 105.5T963.5 201.5T1051.5 344T1083 518V522Q1083 616 1050.5 699T959.5 843.5T822 940T653 975Q561 975 482 939T347 842.5T259 700T227 526V522ZM614 1219L795 1491L920 1430L700 1219H614Z"
></glyph
><glyph unicode="&#xf4;" horiz-adv-x="1310" d="M119 518V522Q119 633 159 731T271.5 905T442.5 1025T657 1069Q774 1069 871.5 1025T1040.5 907.5T1152 735.5T1192 526V522Q1192 411 1152 313T1039.5 139T868.5 19T653 -25Q536 -25 439 19T270.5 137T159 309.5T119 518ZM227 522Q227 428 260 345T351.5 200.5T488.5 104.5T657 70Q749 70 828 105.5T963.5 201.5T1051.5 344T1083 518V522Q1083 616 1050.5 699T959.5 843.5T822 940T653 975Q561 975 482 939T347 842.5T259 700T227 526V522ZM410 1219L614 1468H696L901 1219H805L653 1358L502 1219H410Z"
></glyph
><glyph unicode="&#xf5;" horiz-adv-x="1310" d="M119 518V522Q119 633 159 731T271.5 905T442.5 1025T657 1069Q774 1069 871.5 1025T1040.5 907.5T1152 735.5T1192 526V522Q1192 411 1152 313T1039.5 139T868.5 19T653 -25Q536 -25 439 19T270.5 137T159 309.5T119 518ZM227 522Q227 428 260 345T351.5 200.5T488.5 104.5T657 70Q749 70 828 105.5T963.5 201.5T1051.5 344T1083 518V522Q1083 616 1050.5 699T959.5 843.5T822 940T653 975Q561 975 482 939T347 842.5T259 700T227 526V522ZM352 1219Q381 1330 422 1369.5T524 1409Q553 1409 588 1395.5T658.5 1367T727 1338.5T786 1325Q823 1325 844.5 1346.5T889 1427L958 1409Q929 1298 888.5 1258.5T786 1219Q757 1219 722.5 1232T652 1260.5T583.5 1289.5T524 1303Q487 1303 465.5 1281.5T422 1200L352 1219Z"
></glyph
><glyph unicode="&#xf6;" horiz-adv-x="1310" d="M119 518V522Q119 633 159 731T271.5 905T442.5 1025T657 1069Q774 1069 871.5 1025T1040.5 907.5T1152 735.5T1192 526V522Q1192 411 1152 313T1039.5 139T868.5 19T653 -25Q536 -25 439 19T270.5 137T159 309.5T119 518ZM227 522Q227 428 260 345T351.5 200.5T488.5 104.5T657 70Q749 70 828 105.5T963.5 201.5T1051.5 344T1083 518V522Q1083 616 1050.5 699T959.5 843.5T822 940T653 975Q561 975 482 939T347 842.5T259 700T227 526V522ZM418 1219V1382H559V1219H418ZM752 1219V1382H893V1219H752Z"
></glyph
><glyph unicode="&#xf8;" horiz-adv-x="1310" d="M88 -10L250 158Q189 230 154 323T119 518V522Q119 633 159 731T271.5 905T442.5 1025T657 1069Q757 1069 844.5 1036.5T999 944L1106 1059H1223L1059 887Q1122 815 1157 723T1192 526V522Q1192 411 1152 313T1039.5 139T868.5 19T653 -25Q553 -25 466 8T311 98L205 -10H88ZM227 522Q227 438 251.5 365.5T324 233L934 866Q877 917 806 946T653 975Q561 975 482 939T347 842.5T259 700T227 526V522ZM377 176Q434 125 504.5 97.5T657 70Q749 70 828 105.5T963.5 201.5T1051.5 344T1083 518V522Q1083 606 1057.5 679T987 811L377 176Z"
></glyph
><glyph unicode="&#xf9;" horiz-adv-x="1255" d="M170 406V1044H270V424Q270 262 356 165T602 68Q678 68 744.5 95.5T860 172T937 289.5T965 440V1044H1065V0H965V195Q912 103 821.5 39T588 -25Q490 -25 412 7T279.5 96.5T197.5 232.5T170 406ZM373 1419L498 1481L678 1208H592L373 1419Z"
></glyph
><glyph unicode="&#xfa;" horiz-adv-x="1255" d="M170 406V1044H270V424Q270 262 356 165T602 68Q678 68 744.5 95.5T860 172T937 289.5T965 440V1044H1065V0H965V195Q912 103 821.5 39T588 -25Q490 -25 412 7T279.5 96.5T197.5 232.5T170 406ZM567 1208L748 1481L872 1419L653 1208H567Z"
></glyph
><glyph unicode="&#xfb;" horiz-adv-x="1255" d="M170 406V1044H270V424Q270 262 356 165T602 68Q678 68 744.5 95.5T860 172T937 289.5T965 440V1044H1065V0H965V195Q912 103 821.5 39T588 -25Q490 -25 412 7T279.5 96.5T197.5 232.5T170 406ZM385 1219L590 1468H672L877 1219H780L629 1358L477 1219H385Z"
></glyph
><glyph unicode="&#xfc;" horiz-adv-x="1255" d="M170 406V1044H270V424Q270 262 356 165T602 68Q678 68 744.5 95.5T860 172T937 289.5T965 440V1044H1065V0H965V195Q912 103 821.5 39T588 -25Q490 -25 412 7T279.5 96.5T197.5 232.5T170 406ZM393 1219V1382H535V1219H393ZM727 1219V1382H868V1219H727Z"
></glyph
><glyph unicode="&#xfd;" horiz-adv-x="1204" d="M80 1044H197L631 111L1008 1044H1118L666 -37Q596 -201 513 -267.5T317 -334Q258 -334 211 -322.5T111 -289L145 -201Q186 -221 225 -230.5T324 -240Q365 -240 399.5 -227.5T465 -185.5T524.5 -108.5T582 6L80 1044ZM575 1208L756 1481L881 1419L662 1208H575Z"
></glyph
><glyph unicode="&#xfe;" horiz-adv-x="1351" d="M190 -328V1495H291V811Q324 862 367 909T462 991T578.5 1047.5T721 1069Q815 1069 906 1032T1069 925.5T1185 754.5T1229 526V522Q1229 395 1185 294T1069 122T906 13T721 -25Q643 -25 577.5 -4.5T460 51T366 131T291 225V-328H190ZM285 520Q285 420 320.5 337T415.5 195.5T552 104.5T711 72Q797 72 871.5 102.5T1001.5 190.5T1088.5 331T1120 518V522Q1120 624 1087.5 708.5T998.5 851T867.5 941T711 973Q629 973 552 940T415.5 847.5T320.5 706.5T285 524V520Z"
></glyph
><glyph unicode="&#xff;" horiz-adv-x="1204" d="M80 1044H197L631 111L1008 1044H1118L666 -37Q596 -201 513 -267.5T317 -334Q258 -334 211 -322.5T111 -289L145 -201Q186 -221 225 -230.5T324 -240Q365 -240 399.5 -227.5T465 -185.5T524.5 -108.5T582 6L80 1044ZM365 1219V1382H506V1219H365ZM698 1219V1382H840V1219H698Z"
></glyph
><glyph unicode="&#x152;" horiz-adv-x="2359" d="M150 713V717Q150 869 205 999.5T361.5 1226.5T602 1378.5T911 1434H2220V1335H1337V772H2128V674H1337V98H2230V0H911Q741 0 602 54.5T361.5 205T205 431T150 713ZM260 717Q260 590 306 477.5T436 281T641 147.5T911 98H1231V1335H911Q761 1335 640.5 1287T436 1156T306 961.5T260 721V717Z"
></glyph
><glyph unicode="&#x153;" horiz-adv-x="2160" d="M119 518V522Q119 633 160 731T272.5 905T442.5 1025T655 1069Q737 1069 812 1045.5T948.5 979T1057 877.5T1135 750Q1192 893 1309.5 981T1581 1069Q1690 1069 1778 1027T1928.5 911.5T2024.5 738.5T2058 522Q2058 508 2058 501T2056 481H1190Q1196 383 1233 307T1325 178T1451 97.5T1599 70Q1722 70 1807 117T1958 233L2028 172Q1948 86 1847.5 30.5T1599 -25Q1523 -25 1452.5 -2.5T1321 61T1212.5 162.5T1135 297Q1104 227 1057 168T947.5 66T810 -1T651 -25Q536 -25 439 19T270.5 137T159 309.5T119 518ZM227 522Q227 428 260 345T351.5 200.5T488.5 104.5T657 70Q749 70 828 105.5T963.5 201.5T1051.5 344T1083 518V522Q1083 616 1050.5 699T959.5 843.5T822 940T653 975Q561 975 482 939T347 842.5T259 700T227 526V522ZM1190 571H1950Q1944 651 1918 724T1846 853T1732.5 943T1575 977Q1497 977 1429.5 946T1312 861T1229 732T1190 571Z"
></glyph
><glyph unicode="&#x178;" horiz-adv-x="1466" d="M66 1434H199L735 664L1274 1434H1401L786 569V0H680V567L66 1434ZM496 1556V1720H637V1556H496ZM829 1556V1720H971V1556H829Z"
></glyph
><glyph unicode="&#x2c6;" horiz-adv-x="1024" d="M266 1219L471 1468H553L758 1219H662L510 1358L358 1219H266Z"
></glyph
><glyph unicode="&#x2dc;" horiz-adv-x="1024" d="M209 1219Q238 1330 278.5 1369.5T381 1409Q410 1409 444.5 1395.5T515 1367T583.5 1338.5T643 1325Q680 1325 701.5 1346.5T745 1427L815 1409Q786 1298 745.5 1258.5T643 1219Q614 1219 579.5 1232T509 1260.5T440.5 1289.5T381 1303Q344 1303 322.5 1281.5T279 1200L209 1219Z"
></glyph
><glyph unicode="&#x2000;" horiz-adv-x="919" d=""
></glyph
><glyph unicode="&#x2001;" horiz-adv-x="1839" d=""
></glyph
><glyph unicode="&#x2002;" horiz-adv-x="919" d=""
></glyph
><glyph unicode="&#x2003;" horiz-adv-x="1839" d=""
></glyph
><glyph unicode="&#x2004;" horiz-adv-x="613" d=""
></glyph
><glyph unicode="&#x2005;" horiz-adv-x="459" d=""
></glyph
><glyph unicode="&#x2006;" horiz-adv-x="306" d=""
></glyph
><glyph unicode="&#x2007;" horiz-adv-x="306" d=""
></glyph
><glyph unicode="&#x2008;" horiz-adv-x="229" d=""
></glyph
><glyph unicode="&#x2009;" horiz-adv-x="367" d=""
></glyph
><glyph unicode="&#x200a;" horiz-adv-x="102" d=""
></glyph
><glyph unicode="&#x2010;" horiz-adv-x="835" d="M143 551V666H692V551H143Z"
></glyph
><glyph unicode="&#x2011;" horiz-adv-x="835" d="M143 551V666H692V551H143Z"
></glyph
><glyph unicode="&#x2012;" horiz-adv-x="835" d="M143 551V666H692V551H143Z"
></glyph
><glyph unicode="&#x2013;" horiz-adv-x="1081" d="M143 555V662H938V555H143Z"
></glyph
><glyph unicode="&#x2014;" horiz-adv-x="1839" d="M143 555V662H1696V555H143Z"
></glyph
><glyph unicode="&#x2018;" horiz-adv-x="471" d="M158 1051V1202Q158 1298 197 1353.5T328 1444L352 1393Q286 1358 259.5 1321T238 1225H293V1051H158Z"
></glyph
><glyph unicode="&#x2019;" horiz-adv-x="471" d="M119 1092Q185 1127 211.5 1163.5T233 1260H178V1434H313V1282Q313 1186 274.5 1130.5T143 1040L119 1092Z"
></glyph
><glyph unicode="&#x201a;" horiz-adv-x="471" d="M109 -168Q175 -133 201 -96T223 0H168V174H303V23Q303 -73 264 -128.5T133 -219L109 -168Z"
></glyph
><glyph unicode="&#x201c;" horiz-adv-x="839" d="M158 1051V1202Q158 1298 197 1353.5T328 1444L352 1393Q286 1358 259.5 1321T238 1225H293V1051H158ZM526 1051V1202Q526 1298 565 1353.5T696 1444L721 1393Q655 1358 628.5 1321T606 1225H662V1051H526Z"
></glyph
><glyph unicode="&#x201d;" horiz-adv-x="839" d="M119 1092Q185 1127 211.5 1163.5T233 1260H178V1434H313V1282Q313 1186 274.5 1130.5T143 1040L119 1092ZM487 1092Q553 1127 579.5 1163.5T602 1260H547V1434H682V1282Q682 1186 643 1130.5T512 1040L487 1092Z"
></glyph
><glyph unicode="&#x201e;" horiz-adv-x="839" d="M109 -168Q175 -133 201 -96T223 0H168V174H303V23Q303 -73 264 -128.5T133 -219L109 -168ZM477 -168Q543 -133 569.5 -96T592 0H537V174H672V23Q672 -73 633 -128.5T502 -219L477 -168Z"
></glyph
><glyph unicode="&#x2022;" horiz-adv-x="962" d="M227 719V723Q227 774 247.5 820T304 901T386 955.5T481 975Q530 975 576.5 955.5T657.5 901T713.5 820T735 723V719Q735 666 714.5 620.5T660.5 540.5T579.5 486.5T481 467Q428 467 382 486.5T302 540.5T247.5 620.5T227 719Z"
></glyph
><glyph unicode="&#x2026;" horiz-adv-x="1392" d="M168 0V170H299V0H168ZM631 0V170H762V0H631ZM1094 0V170H1225V0H1094Z"
></glyph
><glyph unicode="&#x202f;" horiz-adv-x="367" d=""
></glyph
><glyph unicode="&#x2039;" horiz-adv-x="636" d="M104 514V530L432 958L508 909L227 524L508 135L432 86L104 514Z"
></glyph
><glyph unicode="&#x203a;" horiz-adv-x="636" d="M129 135L410 520L129 909L205 958L532 530V514L205 86L129 135Z"
></glyph
><glyph unicode="&#x205f;" horiz-adv-x="459" d=""
></glyph
><glyph unicode="&#x2122;" horiz-adv-x="1413" d="M53 1364V1434H539V1364H332V803H260V1364H53ZM682 803V1434H758L1004 1059L1249 1434H1323V803H1251V1307L1008 942H997L754 1307V803H682Z"
></glyph
><glyph unicode="&#xe000;" horiz-adv-x="1044" d="M0 0V1044H1044V0H0Z"
></glyph
><glyph unicode="&#xfb01;" horiz-adv-x="1251" d="M100 952V1044H252V1147Q252 1327 344 1419Q426 1501 563 1501Q610 1501 647 1495T719 1477V1382Q674 1396 639 1402.5T563 1409Q352 1409 352 1145V1044H717V952H352V0H252V952H100ZM934 1317V1454H1059V1317H934ZM946 0V1044H1047V0H946Z"
></glyph
><glyph unicode="&#xfb02;" horiz-adv-x="1251" d="M100 952V1044H252V1147Q252 1327 344 1419Q426 1501 563 1501Q610 1501 647 1495T719 1477V1382Q674 1396 639 1402.5T563 1409Q352 1409 352 1145V1044H717V952H352V0H252V952H100ZM946 0V1495H1047V0H946Z"
></glyph
></font
></defs
><g style="font-family: &quot;Gotham Light&quot;; font-size:50;fill:black"
><text x="20" y="50"
>!&quot;#$%&amp;&#39;()*+,-./0123456789:;&#229;&lt;&gt;?</text
><text x="20" y="100"
>@ABCDEFGHIJKLMNOPQRSTUVWXYZ[\]^_</text
><text x="20" y="150"
>` abcdefghijklmnopqrstuvwxyz|{}~</text
></g
></svg
>