<svg xmlns="http://www.w3.org/2000/svg" xmlns:xlink="http://www.w3.org/1999/xlink" version="1.1" id="Layer_1" x="0px" y="0px" viewBox="0 0 34 34" enable-background="new 0 0 34 34" xml:space="preserve">
<g>
	<g>
		<defs>
			<rect id="SVGID_1_" width="34" height="34"/>
		</defs>
		<clipPath id="SVGID_2_">
			<use xlink:href="#SVGID_1_" overflow="visible"/>
		</clipPath>
		<path clip-path="url(#SVGID_2_)" fill="#FFFFFF" d="M0 17c0 9.4 7.6 17 17 17s17-7.6 17-17S26.4 0 17 0S0 7.6 0 17"/>
	</g>
</g>
<line fill="none" stroke="#48154A" stroke-width="1.8" x1="7.4" y1="17.2" x2="24.4" y2="17.2"/>
<polygon fill="#48154A" points="18.4,24.5 17.2,23.2 23.7,17.2 17.2,11.1 18.4,9.8 26.3,17.2"/>
</svg>
