<svg xmlns="http://www.w3.org/2000/svg" xmlns:xlink="http://www.w3.org/1999/xlink" version="1.1" id="Layer_1" x="0px" y="0px" viewBox="0 0 50.5 50.5" enable-background="new 0 0 50.5 50.5" xml:space="preserve">
<g>
	<defs>
		<rect id="SVGID_1_" width="50.5" height="50.5"/>
	</defs>
	<clipPath id="SVGID_2_">
		<use xlink:href="#SVGID_1_" overflow="visible"/>
	</clipPath>
	<path clip-path="url(#SVGID_2_)" fill="none" stroke="#48154A" stroke-width="3" d="M25.3 49C12.2 49 1.5 38.3 1.5 25.3 S12.2 1.5 25.3 1.5S49 12.2 49 25.3S38.3 49 25.3 49z"/>
</g>
<rect x="15" y="24" fill="#48154A" width="21.9" height="2.5"/>
<polygon fill="#48154A" points="24.9,13.3 26.6,15.1 16,25.2 26.6,35.4 24.9,37.2 12.3,25.2"/>
</svg>
