<?xml version="1.0" encoding="utf-8"?>
<!-- Generator: Adobe Illustrator 18.1.1, SVG Export Plug-In . SVG Version: 6.00 Build 0)  -->
<!DOCTYPE svg PUBLIC "-//W3C//DTD SVG 1.1//EN" "http://www.w3.org/Graphics/SVG/1.1/DTD/svg11.dtd">
<svg version="1.1" id="Layer_1" xmlns="http://www.w3.org/2000/svg" xmlns:xlink="http://www.w3.org/1999/xlink" x="0px" y="0px"
	 width="35px" height="35px" viewBox="-288 379 35 35" enable-background="new -288 379 35 35" xml:space="preserve">
<g>
	<g>
		<g>
			<defs>
				<rect id="SVGID_1_" x="-288" y="379" width="35" height="35"/>
			</defs>
			<clipPath id="SVGID_2_">
				<use xlink:href="#SVGID_1_"  overflow="visible"/>
			</clipPath>
			<path clip-path="url(#SVGID_2_)" fill="#FFB81C" d="M-257.5,403.5v-17.2c0-0.5-0.4-0.8-0.8-0.8h-9.5v-1.3c0-0.5-0.4-0.8-0.8-0.8
				s-0.8,0.4-0.8,0.8v1.3h-2v-1.3c0-0.5-0.4-0.8-0.8-0.8c-0.5,0-0.8,0.4-0.8,0.8v1.3h-9.5c-0.5,0-0.8,0.4-0.8,0.8v17.2
				c0,0.5,0.4,0.8,0.8,0.8h7.9l-2,4.1c-0.2,0.4,0,0.9,0.4,1.1c0.1,0.1,0.2,0.1,0.4,0.1c0.3,0,0.6-0.2,0.7-0.5l2.4-4.8h4.7l2.4,4.8
				c0.1,0.3,0.4,0.5,0.7,0.5c0.1,0,0.3,0,0.4-0.1c0.4-0.2,0.6-0.7,0.4-1.1l-2-4.1h7.9C-257.9,404.4-257.5,404-257.5,403.5
				 M-281.8,387.2h22.6v15.5h-22.6V387.2z"/>
		</g>
	</g>
	<g>
		<g>
			<defs>
				<rect id="SVGID_3_" x="-288" y="379" width="35" height="35"/>
			</defs>
			<clipPath id="SVGID_4_">
				<use xlink:href="#SVGID_3_"  overflow="visible"/>
			</clipPath>
			<path clip-path="url(#SVGID_4_)" fill="#FFB81C" d="M-262.7,389.5l-7.5,8.6l-4.7-3.6c-0.3-0.3-0.8-0.2-1.1,0.1l-4.1,4.1
				c-0.3,0.3-0.3,0.9,0,1.2c0.3,0.3,0.9,0.3,1.2,0l3.5-3.6l4.7,3.6c0.2,0.1,0.3,0.2,0.5,0.2c0.2,0,0.5-0.1,0.7-0.3l8-9.2
				c0.3-0.4,0.3-0.9-0.1-1.2C-261.8,389.1-262.4,389.1-262.7,389.5"/>
		</g>
	</g>
</g>
</svg>
