<?xml version="1.0" encoding="utf-8"?>
<!-- Generator: Adobe Illustrator 15.1.0, SVG Export Plug-In  -->
<!DOCTYPE svg PUBLIC "-//W3C//DTD SVG 1.1//EN" "http://www.w3.org/Graphics/SVG/1.1/DTD/svg11.dtd" [
	<!ENTITY ns_flows "http://ns.adobe.com/Flows/1.0/">
]>
<svg version="1.1"
	 xmlns="http://www.w3.org/2000/svg" xmlns:xlink="http://www.w3.org/1999/xlink" xmlns:a="http://ns.adobe.com/AdobeSVGViewerExtensions/3.0/"
	 x="0px" y="0px" width="14px" height="10px" viewBox="0 0 14 10" overflow="visible" enable-background="new 0 0 14 10"
	 xml:space="preserve">
<defs>
</defs>
<image display="none" overflow="visible" width="14" height="10" xlink:href="data:image/png;base64,iVBORw0KGgoAAAANSUhEUgAAAA4AAAAKCAYAAACE2W/HAAAAGXRFWHRTb2Z0d2FyZQBBZG9iZSBJ
bWFnZVJlYWR5ccllPAAAAG9JREFUeNpiXMUQL8DAwLAfiC+EMSxMZMADgGrnAykDIHZkgmoCcRKg
Evg0JUDV7gdpvIAkj1UzkiYYuMCIQ2IBzNm45BjxmLoA5gpsBjIScBIDNk0YGvFoXoAe4owEQhCr
JgYCcbYfhBmoDQACDADYNS5STxhMwwAAAABJRU5ErkJggg==">
</image>
<g>
	<g>
		<polygon fill="#AA005F" points="7,5.071 1.964,0.035 0,2 7,9 14,2 12.036,0.035 		"/>
	</g>
</g>
</svg>
