<?xml version="1.0" encoding="utf-8"?>
<!-- Generator: Adobe Illustrator 16.0.4, SVG Export Plug-In . SVG Version: 6.00 Build 0)  -->
<!DOCTYPE svg PUBLIC "-//W3C//DTD SVG 1.1//EN" "http://www.w3.org/Graphics/SVG/1.1/DTD/svg11.dtd">
<svg version="1.1" id="Layer_1" xmlns="http://www.w3.org/2000/svg" xmlns:xlink="http://www.w3.org/1999/xlink" x="0px" y="0px"
	 width="21px" height="44px" viewBox="0 0 21 44" enable-background="new 0 0 21 44" xml:space="preserve">
<g>
	<path fill="#595A5B" d="M18.293,2.097c0.779,0,1.473,0.018,2.33,0.008l-1.791,1.499c0.174,0.628,0.324,1.355,0.539,2.199
		l-1.773-1.239C16.85,4.909,16.4,5.321,15.631,5.729l0.613-2.125c-0.586-0.483-1.236-0.939-1.791-1.426
		c0.805-0.022,1.516,0.01,2.297-0.004c0.314-0.704,0.541-1.381,0.85-2.122L18.293,2.097z"/>
	<path fill="#595A5B" d="M15.043,11.238c0.551,0,1.041,0.01,1.648,0.007l-1.268,1.056c0.123,0.446,0.229,0.954,0.383,1.553
		l-1.256-0.873c-0.527,0.24-0.844,0.535-1.389,0.817l0.436-1.496c-0.412-0.342-0.875-0.664-1.268-1.008
		c0.572-0.014,1.072,0.009,1.623-0.003c0.223-0.493,0.383-0.973,0.6-1.498L15.043,11.238z"/>
	<path fill="#595A5B" d="M9.852,35.166c-2.246,0-4.07-1.82-4.068-4.073c0.002-2.243,1.824-4.064,4.072-4.068
		c2.248,0.003,4.068,1.827,4.068,4.075C13.922,33.349,12.1,35.17,9.852,35.166 M19.221,19.615c-0.012-0.053-0.051-0.1-0.098-0.125
		l-0.908-0.122l-0.268-2.331v-0.003c-0.014-0.05-0.057-0.091-0.113-0.102L1.883,16.926c-0.053,0.011-0.102,0.049-0.109,0.103v0.002
		l-0.27,2.33l-0.906,0.124c-0.053,0.024-0.088,0.065-0.102,0.122l-0.119,1.386l1,0.007L3.82,43.995l6.027-0.005l6.027,0.009
		l2.465-22.992l0.998-0.008L19.221,19.615z"/>
</g>
</svg>
