<?xml  version="1.0" encoding="UTF-8"?>
<!DOCTYPE svg PUBLIC "-//W3C//DTD SVG 1.0//EN" "http://www.w3.org/TR/2001/REC-SVG-20010904/DTD/svg10.dtd" >
<svg xmlns="http://www.w3.org/2000/svg" >
<metadata>
<version>1.0</version>
<id><![CDATA[Bank Gothic W03 Light]]></id>
<vendor>Monotype Imaging Inc.</vendor>
<credits>
<name>Fonts.com WebFonts</name>
<URL>http://webfonts.fonts.com</URL>
<role>Home of the Web fonts</role>
</credits>
<license>
<URL>http://webfonts.fonts.com/Legal</URL>
</license>
<copyright><![CDATA[Copyright 1990-2003 Bitstream Inc. All rights reserved.]]></copyright>
<trademark></trademark>
<licensee>
<name></name>
</licensee>
</metadata>
<defs >
<font horiz-adv-x="1327" id="90b7667c-97a5-4d35-badf-047d6df4cfc8">
<font-face font-family="" panose-1="2 11 6 7 2 2 3 6 2 4" ascent="1653" descent="-483" units-per-em="2048" alphabetic="0">
</font-face>
<missing-glyph horiz-adv-x="1229" d="M102 -362V1444H1126V-362H102ZM217 -248H1012V1329H217V-248Z"  />

<glyph unicode="&#xA;" />
<glyph unicode="&#xD;" />
<glyph unicode=" " horiz-adv-x="766" />
<glyph unicode="!" horiz-adv-x="840" d="M360 430L307 1057H532L477 430H360ZM471 225Q513 225 521 215T530 170V53Q530 18 523 9T471 0H348Q323 0 315 9T307 53V170Q307 204 316 214T369 225H471Z"  />
<glyph unicode="&quot;" horiz-adv-x="569" d="M473 1434V881H371V1434H473ZM199 1434V881H98V1434H199Z"  />
<glyph unicode="#" horiz-adv-x="1575" d="M975 864H709L612 588H879L975 864ZM918 1454L750 971H1014L1186 1454H1313L1143 971H1458L1421 864H1104L1006 588H1346L1309 479H969L799 0H670L842 479H573L401 0H274L444 479H117L156 588H481L582 864H229L264 971H618L791 1454H918Z"  />
<glyph unicode="$" horiz-adv-x="1532" d="M866 127H1186V457H866V127ZM743 606V928H434V606H743ZM1171 928H866V606H1102Q1247 606 1297 554T1348 356V250Q1348 105 1297 53T1102 0H866V-266H743V0H481Q342 0 288 49T233 221V266L406 301V127H743V457H520Q378 457 325 510T272 709V807Q272 952 324 1004T520 1057H743V1266H866V1057H1083Q1219 1057 1275 1009T1331 850V803L1171 764V928Z"  />
<glyph unicode="%" horiz-adv-x="1765" d="M1104 281Q1104 200 1162 142T1300 84Q1384 84 1441 141T1499 281Q1499 362 1441 419T1300 477Q1219 477 1162 420T1104 281ZM987 283Q987 414 1077 504T1300 594Q1433 594 1524 504T1616 283Q1616 156 1522 62T1300 -33Q1174 -33 1081 61T987 283ZM1382 1090L489 -33H373L1262 1090H1382ZM266 776Q266 696 325 638T465 580Q547 580 604 637T662 776Q662 858 604 916T465 975Q383 975 325 917T266 776ZM150 778Q150 910 240 1000T463 1090Q595 1090 686 1000T778 778Q778 651 684 557T463 463Q337 463 244 557T150 778Z"  />
<glyph unicode="&amp;" horiz-adv-x="1581" d="M315 135H827L965 262L586 565L315 373V135ZM946 63Q906 26 871 13T760 0H414Q269 0 218 53T166 250V319Q166 389 189 428T289 516L492 645Q446 686 426 723T406 805V864Q406 969 461 1013T653 1057H852Q995 1057 1046 1011T1098 844V788L958 762V928H555V774L1067 354L1313 586L1403 500L1165 274L1501 0H1282L1065 178L946 63Z"  />
<glyph unicode="&apos;" horiz-adv-x="295" d="M199 1434V881H98V1434H199Z"  />
<glyph unicode="(" horiz-adv-x="758" d="M389 -41Q301 96 257 238T213 528Q213 676 257 818T389 1098H553Q454 958 406 819T358 528Q358 380 407 238T553 -41H389Z"  />
<glyph unicode=")" horiz-adv-x="758" d="M369 -41H205Q302 95 350 237T399 528Q399 679 352 818T205 1098H369Q457 961 501 819T545 528Q545 381 501 239T369 -41Z"  />
<glyph unicode="*" horiz-adv-x="1024" d="M516 664L365 420L264 500L461 702L178 770L219 891L479 768L449 1057H575L547 770L803 891L842 770L573 705L766 500L657 420L516 664Z"  />
<glyph unicode="+" horiz-adv-x="1706" d="M903 1221V659H1452V561H903V0H805V561H254V659H805V1221H903Z"  />
<glyph unicode="&#x2c;" horiz-adv-x="766" d="M434 225Q478 225 487 215T496 170V14L352 -205H262L383 20H313Q288 20 279 31T270 76V170Q270 205 279 215T332 225H434Z"  />
<glyph unicode="-" horiz-adv-x="676" d="M115 471V621H561V471H115Z"  />
<glyph unicode="." horiz-adv-x="766" d="M434 225Q477 225 486 215T496 170V53Q496 19 488 10T434 0H311Q287 0 279 9T270 53V170Q270 204 279 214T332 225H434Z"  />
<glyph unicode="/" horiz-adv-x="717" d="M41 -33L571 1090H676L141 -33H41Z"  />
<glyph unicode="0" horiz-adv-x="1532" d="M203 807Q203 952 250 1004T430 1057H1102Q1233 1057 1281 1005T1329 807V250Q1329 105 1281 53T1102 0H430Q298 0 251 52T203 250V807ZM373 145H1159V915H373V145Z"  />
<glyph unicode="1" horiz-adv-x="1532" d="M719 0V891H489V997L881 1065V0H719Z"  />
<glyph unicode="2" horiz-adv-x="1532" d="M311 850Q311 969 357 1013T539 1057H1049Q1183 1057 1229 1013T1276 850V784Q1276 706 1251 663T1145 569L461 145H1155V346L1323 291V207Q1323 88 1276 44T1094 0H262V66Q262 139 290 177T385 258L1102 709V915H479V668L311 713V850Z"  />
<glyph unicode="3" horiz-adv-x="1532" d="M487 0Q353 0 307 43T260 207V293L428 332V145H1038Q1096 145 1114 163T1133 240V381Q1133 440 1114 458T1038 477H664V612H999Q1056 612 1075 635T1094 733V795Q1094 869 1075 892T999 915H434V752L274 784V850Q274 969 320 1013T502 1057H1038Q1173 1057 1219 1013T1266 850V754Q1266 663 1230 618T1106 553Q1212 537 1258 487T1305 338V227Q1305 97 1252 49T1063 0H487Z"  />
<glyph unicode="4" horiz-adv-x="1532" d="M999 383V942L385 383H999ZM999 0V252H199V383L961 1069H1161V383H1403V252H1161V0H999Z"  />
<glyph unicode="5" horiz-adv-x="1532" d="M289 203Q433 169 569 152T823 135Q1015 135 1098 183T1182 342Q1182 456 1094 507T811 559Q692 559 563 543T291 494L346 1057H1202L1190 915H479L442 659Q541 681 638 691T834 702Q1104 702 1234 614T1364 340Q1364 151 1231 68T793 -16Q695 -16 587 -5T340 33L289 203Z"  />
<glyph unicode="6" horiz-adv-x="1532" d="M410 498Q407 478 405 462T403 434Q403 222 437 182T627 141H948Q1070 141 1111 175T1153 305V373Q1153 469 1101 503T903 537Q769 537 645 527T410 498ZM1148 940Q1137 941 1123 941T1083 942Q772 942 611 865T426 629Q540 651 657 662T895 674Q1141 674 1232 615T1323 401V258Q1323 125 1241 63T983 0H563Q376 0 307 69T238 326V465Q238 760 429 921T969 1083Q983 1083 998 1083T1040 1079L1148 940Z"  />
<glyph unicode="7" horiz-adv-x="1532" d="M569 -18L1182 915H412V668L254 698V1057H1356V920L774 -18H569Z"  />
<glyph unicode="8" horiz-adv-x="1532" d="M449 0Q313 0 260 48T207 227V338Q207 434 252 484T399 549Q311 561 270 610T229 754V850Q229 969 275 1013T457 1057H1075Q1210 1057 1256 1013T1303 850V754Q1303 660 1262 611T1130 549Q1233 534 1279 484T1325 338V227Q1325 98 1272 49T1081 0H449ZM397 805V723Q397 655 419 634T504 612H1028Q1092 612 1113 634T1135 723V805Q1135 873 1113 894T1028 915H504Q443 915 420 894T397 805ZM377 367V252Q377 187 398 165T483 143H1049Q1112 143 1133 165T1155 252V367Q1155 432 1134 453T1049 475H483Q421 475 399 453T377 367Z"  />
<glyph unicode="9" horiz-adv-x="1532" d="M383 119Q387 118 394 118Q430 115 446 115Q758 115 920 192T1106 428Q992 406 874 395T635 383Q391 383 300 443T209 657V799Q209 931 291 994T549 1057H967Q1155 1057 1224 988T1294 731V592Q1294 297 1103 136T563 -25Q533 -25 519 -25T491 -22L383 119ZM1120 559Q1123 578 1124 595T1126 625Q1126 838 1093 876T905 915H584Q461 915 419 882T377 752V684Q377 588 429 554T627 520Q761 520 885 530T1120 559Z"  />
<glyph unicode=":" horiz-adv-x="766" d="M434 868Q477 868 486 858T496 813V696Q496 662 488 653T434 643H311Q287 643 279 652T270 696V813Q270 847 279 857T332 868H434ZM434 225Q477 225 486 215T496 170V53Q496 19 488 10T434 0H311Q287 0 279 9T270 53V170Q270 204 279 214T332 225H434Z"  />
<glyph unicode=";" horiz-adv-x="766" d="M434 225Q478 225 487 215T496 170V14L352 -205H262L383 20H313Q288 20 279 31T270 76V170Q270 205 279 215T332 225H434ZM434 868Q477 868 486 858T496 813V696Q496 662 488 653T434 643H311Q287 643 279 652T270 696V813Q270 847 279 857T332 868H434Z"  />
<glyph unicode="&lt;" horiz-adv-x="1706" d="M1442 1026L420 610L1442 197V88L264 569V651L1442 1135V1026Z"  />
<glyph unicode="=" horiz-adv-x="1706" d="M1452 473V375H254V473H1452ZM1452 846V748H254V846H1452Z"  />
<glyph unicode="&gt;" horiz-adv-x="1706" d="M1442 651V569L264 88V197L1286 610L264 1026V1135L1442 651Z"  />
<glyph unicode="?" d="M567 428V575L920 752V922H377V756L231 782V840Q231 949 283 1003T440 1057H831Q952 1057 1010 1009T1069 860V676L700 487V428H567ZM682 225Q725 225 734 215T743 170V53Q743 19 735 10T682 0H559Q534 0 526 9T518 53V170Q518 204 527 214T580 225H682Z"  />
<glyph unicode="@" horiz-adv-x="2048" d="M1298 836L1358 961H1452L1313 399Q1303 355 1300 337T1296 307Q1296 264 1324 240T1403 215Q1455 215 1509 236T1614 297Q1711 374 1765 501T1819 784Q1819 1038 1621 1201T1112 1364Q937 1364 792 1315T530 1165Q383 1039 308 875T233 512Q233 338 293 207T477 -25Q579 -107 721 -153T1022 -199Q1193 -199 1356 -150T1657 -6L1696 -61Q1549 -172 1385 -227T1042 -283Q851 -283 695 -237T420 -98Q265 20 191 175T117 537Q117 741 203 918T455 1233Q587 1342 753 1398T1114 1454Q1276 1454 1422 1410T1671 1286Q1800 1187 1865 1058T1931 778Q1931 607 1869 469T1688 236Q1618 182 1539 154T1378 125Q1281 125 1234 162T1186 276Q1186 280 1187 290T1188 305Q1137 218 1061 172T893 125Q740 125 660 208T580 453Q580 683 715 841T1044 999Q1138 999 1202 958T1298 836ZM1210 469L1272 717Q1254 810 1197 862T1057 915Q903 915 803 782T702 444Q702 333 757 271T909 209Q1016 209 1098 280T1210 469Z"  />
<glyph unicode="A" horiz-adv-x="1489" d="M451 395H1020L735 936L451 395ZM68 0L645 1057H834L1421 0H1227L1092 260H377L242 0H68Z"  />
<glyph unicode="B" horiz-adv-x="1569" d="M1178 270V358Q1178 430 1153 457T1061 485H451V145H1061Q1128 145 1153 172T1178 270ZM1169 717V823Q1169 875 1147 895T1061 915H451V623H1061Q1122 623 1145 644T1169 717ZM274 0V1057H1126Q1245 1057 1297 1009T1350 852V729Q1350 644 1308 602T1174 549Q1263 538 1309 486T1356 342V207Q1356 102 1284 51T1063 0H274Z"  />
<glyph unicode="C" horiz-adv-x="1536" d="M1169 913H436V147H1169V412L1346 375V250Q1346 104 1295 52T1100 0H508Q364 0 312 52T260 250V807Q260 952 312 1004T508 1057H1100Q1244 1057 1295 1005T1346 807V707L1169 674V913Z"  />
<glyph unicode="D" horiz-adv-x="1655" d="M831 913H451V147H831Q1088 147 1194 237T1300 535Q1300 736 1192 824T831 913ZM856 1057Q1002 1057 1098 1038T1262 975Q1364 908 1422 791T1481 535Q1481 387 1424 269T1262 82Q1197 40 1100 20T856 0H274V1057H856Z"  />
<glyph unicode="E" horiz-adv-x="1446" d="M274 0V1057H1292V915H451V621H965V481H451V145H1300V0H274Z"  />
<glyph unicode="F" horiz-adv-x="1305" d="M274 0V1057H1280V913H451V567H924V426H451V0H274Z"  />
<glyph unicode="G" horiz-adv-x="1673" d="M1264 913H436V147H1264V457H836V592H1440V250Q1440 105 1388 53T1192 0H508Q363 0 312 53T260 250V807Q260 951 311 1004T508 1057H1192Q1334 1057 1387 1006T1440 819V793L1264 758V913Z"  />
<glyph unicode="H" horiz-adv-x="1735" d="M274 0V1057H451V625H1284V1057H1460V0H1284V479H451V0H274Z"  />
<glyph unicode="I" horiz-adv-x="725" d="M274 0V1057H451V0H274Z"  />
<glyph unicode="J" horiz-adv-x="1384" d="M453 0Q309 0 258 52T207 250V461L381 498V147H948V1057H1124V250Q1124 105 1073 53T877 0H453Z"  />
<glyph unicode="K" horiz-adv-x="1493" d="M274 0V1057H451V604L1110 1057H1368L602 551L1452 0H1157L451 475V0H274Z"  />
<glyph unicode="L" horiz-adv-x="1337" d="M274 0V1057H451V147H1251V0H274Z"  />
<glyph unicode="M" horiz-adv-x="1849" d="M416 868Q420 837 422 803T424 713V0H274V1057H418L932 369L1411 1057H1573V0H1411V713Q1411 727 1414 783T1419 868Q1399 827 1384 799T1356 754L952 166H907L487 738Q486 739 482 745Q436 808 416 868Z"  />
<glyph unicode="N" horiz-adv-x="1716" d="M274 0V1057H385L1176 350Q1203 326 1233 292T1296 217Q1288 268 1284 323T1280 477V1057H1442V0H1343L531 735Q525 740 513 751Q453 805 424 854Q430 806 433 752T436 623V0H274Z"  />
<glyph unicode="O" horiz-adv-x="1747" d="M436 147H1311V913H436V147ZM260 807Q260 951 311 1004T508 1057H1239Q1382 1057 1433 1005T1485 807V250Q1485 104 1434 52T1239 0H508Q363 0 312 53T260 250V807Z"  />
<glyph unicode="P" horiz-adv-x="1507" d="M1057 920H451V551H1057Q1122 551 1146 576T1171 662V809Q1171 870 1147 895T1057 920ZM274 0V1057H1126Q1245 1057 1297 1009T1350 852V616Q1350 509 1298 461T1126 412H451V0H274Z"  />
<glyph unicode="Q" horiz-adv-x="1747" d="M1049 147H1311V913H436V147H895L786 391L905 438L1049 147ZM260 807Q260 951 311 1004T508 1057H1239Q1382 1057 1433 1005T1485 807V250Q1485 104 1434 52T1239 0H1118L1243 -258H1075L963 0H508Q363 0 312 53T260 250V807Z"  />
<glyph unicode="R" horiz-adv-x="1561" d="M1057 920H451V549H1057Q1123 549 1147 573T1171 657V811Q1171 871 1147 895T1057 920ZM274 0V1057H1126Q1245 1057 1297 1009T1350 852V616Q1350 509 1298 461T1126 412H971L1454 0H1192L762 412H451V0H274Z"  />
<glyph unicode="S" horiz-adv-x="1599" d="M1176 913H428V618H1094Q1235 618 1287 566T1339 369V250Q1339 104 1288 52T1094 0H477Q333 0 281 52T229 250V279L393 317V147H1180V465H516Q372 465 321 517T270 715V807Q270 952 321 1004T516 1057H1079Q1220 1057 1273 1006T1327 825V803L1176 760V913Z"  />
<glyph unicode="T" horiz-adv-x="1192" d="M684 913V0H508V913H25V1057H1169V913H684Z"  />
<glyph unicode="U" horiz-adv-x="1671" d="M451 1057V147H1221V1057H1395V250Q1395 104 1344 52T1149 0H522Q378 0 326 53T274 250V1057H451Z"  />
<glyph unicode="V" horiz-adv-x="1413" d="M645 0L68 1057H258L725 176L1171 1057H1346L793 0H645Z"  />
<glyph unicode="W" horiz-adv-x="1763" d="M449 0L66 1057H244L530 217L842 1057H950L1251 217L1540 1057H1698L1315 0H1184L891 799L588 0H449Z"  />
<glyph unicode="X" horiz-adv-x="1460" d="M123 0L635 545L115 1057H369L739 657L1087 1057H1307L842 561L1409 0H1155L735 451L346 0H123Z"  />
<glyph unicode="Y" horiz-adv-x="1374" d="M602 0V461L66 1057H285L698 586L1094 1057H1309L778 465V0H602Z"  />
<glyph unicode="Z" horiz-adv-x="1395" d="M135 0V72L918 913H203V1057H1200V997L403 147H1200V0H135Z"  />
<glyph unicode="[" horiz-adv-x="758" d="M629 -33H227V1090H629V977H373V80H629V-33Z"  />
<glyph unicode="\" horiz-adv-x="717" d="M143 1090L676 -33H573L41 1090H143Z"  />
<glyph unicode="]" horiz-adv-x="758" d="M131 -33V80H385V977H131V1090H530V-33H131Z"  />
<glyph unicode="^" horiz-adv-x="2048" d="M1094 1458L1624 901H1481L1024 1356L565 901H422L954 1458H1094Z"  />
<glyph unicode="_" horiz-adv-x="1024" d="M1024 -383V-483H0V-383H1024Z"  />
<glyph unicode="`" horiz-adv-x="1024" d="M649 979H543L262 1327H440L649 979Z"  />
<glyph unicode="a" horiz-adv-x="1284" d="M59 0L561 868H711L1225 0H1047L934 203H334L223 0H59ZM403 328H864L633 741L403 328Z"  />
<glyph unicode="b" horiz-adv-x="1294" d="M365 391V127H868Q924 127 945 148T967 225V293Q967 347 945 369T868 391H365ZM961 588V670Q961 710 941 725T868 741H365V518H868Q925 518 943 533T961 588ZM201 0V868H934Q1034 868 1079 828T1124 698V598Q1124 529 1088 494T973 449Q1050 441 1090 398T1130 281V170Q1130 84 1068 42T879 0H201Z"  />
<glyph unicode="c" horiz-adv-x="1262" d="M950 739H344V131H950V338L1114 307V205Q1114 86 1070 43T901 0H391Q267 0 224 41T180 205V662Q180 783 224 825T391 868H901Q1025 868 1069 825T1114 662V580L950 553V739Z"  />
<glyph unicode="d" horiz-adv-x="1493" d="M750 739H432V131H750Q962 131 1051 202T1141 438Q1141 598 1051 668T750 739ZM768 868Q892 868 976 852T1116 801Q1205 745 1255 649T1305 436Q1305 217 1172 109T768 0H268V868H768Z"  />
<glyph unicode="e" horiz-adv-x="1190" d="M201 0V868H1075V739H365V516H793V387H365V127H1083V0H201Z"  />
<glyph unicode="f" horiz-adv-x="1112" d="M201 0V868H1065V739H365V471H760V344H365V0H201Z"  />
<glyph unicode="g" horiz-adv-x="1356" d="M1030 739H344V131H1030V367H676V485H1194V205Q1194 86 1150 43T981 0H393Q269 0 225 42T180 205V662Q180 781 225 824T393 868H981Q1102 868 1148 825T1194 674V649L1030 621V739Z"  />
<glyph unicode="h" horiz-adv-x="1421" d="M201 0V866H365V518H1057V866H1221V0H1057V387H365V0H201Z"  />
<glyph unicode="i" horiz-adv-x="557" d="M360 0H197V866H360V0Z"  />
<glyph unicode="j" horiz-adv-x="1143" d="M365 0Q240 0 196 43T152 205V373L315 406V131H776V868H940V205Q940 86 896 43T727 0H365Z"  />
<glyph unicode="k" horiz-adv-x="1237" d="M201 0V868H365V496L913 868H1141L500 449L1212 0H944L365 389V0H201Z"  />
<glyph unicode="l" horiz-adv-x="1096" d="M201 0V868H365V131H1040V0H201Z"  />
<glyph unicode="m" horiz-adv-x="1520" d="M332 707Q332 688 334 655Q336 601 336 586V0H201V868H336L768 305L1165 868H1317V0H1165V586Q1165 618 1167 648T1175 706Q1161 665 1146 634T1118 586L784 137H741L395 582Q377 605 361 636T332 707Z"  />
<glyph unicode="n" horiz-adv-x="1405" d="M340 694Q346 656 349 617T352 539V0H201V868H326L963 301Q991 277 1016 248T1067 182Q1060 221 1057 261T1053 344V868H1204V0H1092L442 575Q408 607 384 635T340 694Z"  />
<glyph unicode="o" horiz-adv-x="1413" d="M344 131H1069V739H344V131ZM180 662Q180 781 225 824T393 868H1020Q1143 868 1188 825T1233 662V205Q1233 86 1189 43T1020 0H393Q268 0 224 42T180 205V662Z"  />
<glyph unicode="p" horiz-adv-x="1241" d="M860 741H365V467H860Q915 467 936 485T958 549V659Q958 704 937 722T860 741ZM201 0V868H934Q1035 868 1079 829T1124 700V506Q1124 418 1080 379T934 340H365V0H201Z"  />
<glyph unicode="q" horiz-adv-x="1413" d="M872 131H1069V739H344V131H741L633 375L735 418L872 131ZM180 662Q180 781 225 824T393 868H1020Q1143 868 1188 825T1233 662V205Q1233 86 1189 43T1020 0H934L1057 -258H911L799 0H393Q268 0 224 42T180 205V662Z"  />
<glyph unicode="r" horiz-adv-x="1255" d="M827 741H365V461H827Q882 461 901 479T920 549V653Q920 701 900 721T827 741ZM201 0V868H899Q996 868 1038 829T1081 700V506Q1081 418 1039 379T899 340H784L1167 0H948L602 340H365V0H201Z"  />
<glyph unicode="s" horiz-adv-x="1305" d="M967 739H358V514H915Q1037 514 1081 472T1126 309V205Q1126 85 1083 43T915 0H387Q263 0 219 42T174 205V229L324 260V131H979V375H420Q297 375 253 417T209 580V662Q209 781 253 824T420 868H903Q1024 868 1070 826T1116 678V657L967 625V739Z"  />
<glyph unicode="t" horiz-adv-x="1075" d="M618 739V0H455V739H45V868H1030V739H618Z"  />
<glyph unicode="u" horiz-adv-x="1366" d="M365 868V131H999V868H1165V205Q1165 85 1121 43T952 0H414Q290 0 246 43T201 205V868H365Z"  />
<glyph unicode="v" horiz-adv-x="1190" d="M545 0L45 868H221L610 170L983 868H1145L670 0H545Z"  />
<glyph unicode="w" horiz-adv-x="1507" d="M383 0L47 868H217L457 205L713 868H821L1071 205L1311 868H1458L1126 0H1006L762 647L506 0H383Z"  />
<glyph unicode="x" horiz-adv-x="1214" d="M68 0L504 444L61 868H283L596 553L883 868H1085L686 465L1174 0H944L594 352L279 0H68Z"  />
<glyph unicode="y" horiz-adv-x="1155" d="M496 0V379L43 868H242L588 492L918 868H1110L659 379V0H496Z"  />
<glyph unicode="z" horiz-adv-x="1264" d="M147 0V78L803 739H207V868H1063V799L401 131H1063V0H147Z"  />
<glyph unicode="{" horiz-adv-x="1024" d="M854 1370H817Q686 1370 640 1321T594 1116V874Q594 706 551 634T397 530Q507 499 550 427T594 186V-55Q594 -210 639 -259T809 -309Q816 -309 831 -308T854 -307V-414H807Q610 -414 541 -342T471 -45V199Q471 353 414 416T219 479Q212 479 198 478T174 477V586Q183 586 197 585T219 584Q357 584 414 647T471 864V1106Q471 1329 541 1403T807 1477H854V1370Z"  />
<glyph unicode="|" horiz-adv-x="1024" d="M567 1565V-483H459V1565H567Z"  />
<glyph unicode="}" horiz-adv-x="1024" d="M555 1106V864Q555 710 612 647T807 584Q814 584 829 585T852 586V477Q844 477 829 478T807 479Q669 479 612 416T555 199V-45Q555 -268 486 -341T219 -414H172V-307H211Q341 -307 386 -258T432 -55V186Q432 357 475 428T629 530Q518 562 475 633T432 874V1116Q432 1273 387 1322T217 1372Q210 1372 195 1371T172 1370V1477H219Q415 1477 485 1403T555 1106Z"  />
<glyph unicode="~" horiz-adv-x="1706" d="M1530 637Q1428 565 1332 530T1143 494Q1044 494 883 551Q863 558 854 561L838 567Q662 631 565 631Q482 631 390 593T178 471V584Q284 657 380 693T565 729Q669 729 837 668Q848 664 855 661Q864 658 886 650Q1053 590 1143 590Q1228 590 1320 628T1530 750V637Z"  />
<glyph unicode="&#x80;" horiz-adv-x="1532" d="M1346 248Q1346 102 1296 51T1102 0H506Q362 0 311 51T260 248V379H111L158 477H260V614H111L160 715H260V809Q260 954 311 1005T506 1057H1102Q1246 1057 1296 1006T1346 809V760L1176 729V915H428V715H1079L1030 614H428V477H965L918 379H428V145H1176V340L1346 305V248Z"  />
<glyph unicode="&#xA0;" horiz-adv-x="1532" />
<glyph unicode="&#xA1;" horiz-adv-x="840" d="M360 627H477L532 0H307L360 627ZM471 831H346Q323 831 315 842T307 887V1004Q307 1038 315 1047T369 1057H471Q515 1057 522 1048T530 1004V887Q530 852 522 842T471 831Z"  />
<glyph unicode="&#xA2;" horiz-adv-x="1532" d="M668 125L813 584H563V125H668ZM561 -207L627 0H565Q483 0 450 36T416 166V547Q416 643 453 676T598 709H854L907 877H1006L952 709H985Q1077 709 1111 679T1145 557V465L1010 442V584H913L766 125H1010V295L1145 262V129Q1145 58 1111 29T989 0H727L659 -207H561Z"  />
<glyph unicode="&#xA3;" horiz-adv-x="1532" d="M215 -25V123Q337 136 384 194T432 389Q432 408 431 431T426 485H215V606H416Q412 651 410 690T408 762Q408 917 480 987T715 1057H1053Q1181 1057 1249 1005T1317 852V756L1155 717V795Q1155 862 1126 888T1018 915H737Q641 915 606 880T571 750Q571 715 572 680T578 606H870V485H592Q592 478 591 462T590 436Q590 389 581 335T555 227Q707 178 843 153T1090 127Q1176 127 1209 163T1243 293V334L1393 305V244Q1393 115 1313 50T1075 -16Q961 -16 813 11T485 94Q432 30 374 3T233 -25H215Z"  />
<glyph unicode="&#xA4;" horiz-adv-x="1532" d="M1346 248Q1346 102 1296 51T1102 0H506Q362 0 311 51T260 248V379H111L158 477H260V614H111L160 715H260V809Q260 954 311 1005T506 1057H1102Q1246 1057 1296 1006T1346 809V760L1176 729V915H428V715H1079L1030 614H428V477H965L918 379H428V145H1176V340L1346 305V248Z"  />
<glyph unicode="&#xA5;" horiz-adv-x="1532" d="M688 0V367H195V465H688L535 635H195V735H446L164 1057H371L776 582L1165 1057H1368L1087 735H1335V635H999L848 465H1335V367H848V0H688Z"  />
<glyph unicode="&#xA6;" horiz-adv-x="1024" d="M567 408V-350H459V408H567ZM567 1432V674H459V1432H567Z"  />
<glyph unicode="&#xA7;" horiz-adv-x="1024" d="M266 547Q266 509 295 475T391 401Q462 359 539 333T664 307Q709 307 737 330T766 391Q766 427 730 464T618 545Q549 584 478 607T362 631Q319 631 293 608T266 547ZM178 -43L264 45Q332 -18 395 -48T522 -78Q592 -78 638 -42T684 47Q684 140 515 204Q477 219 457 227Q285 299 223 360T160 508Q160 582 206 628T342 692Q286 729 260 773T233 874Q233 972 308 1033T504 1094Q591 1094 670 1063T811 973L725 889Q676 941 620 967T502 993Q435 993 397 962T358 877Q358 804 590 706L599 702Q754 636 813 576T872 432Q872 364 822 314T682 246Q737 217 769 165T801 49Q801 -51 721 -116T516 -182Q425 -182 335 -145T178 -43Z"  />
<glyph unicode="&#xA8;" horiz-adv-x="1024" d="M592 1042V1231H752V1042H592ZM272 1042V1231H432V1042H272Z"  />
<glyph unicode="&#xA9;" horiz-adv-x="1706" d="M1073 915Q1055 995 998 1039T856 1083Q734 1083 666 988T598 721Q598 555 667 461T856 367Q945 367 1007 417T1085 555H1200Q1189 430 1092 350T850 270Q673 270 571 392T469 727Q469 930 576 1053T860 1176Q995 1176 1086 1104T1190 915H1073ZM1505 723Q1505 855 1457 974T1317 1184Q1223 1278 1104 1327T852 1376Q720 1376 603 1328T395 1188Q301 1092 251 973T201 723Q201 594 250 476T393 264Q487 171 605 122T852 72Q982 72 1102 122T1319 266Q1410 355 1457 472T1505 723ZM852 1456Q1001 1456 1135 1401T1374 1241Q1476 1139 1530 1006T1585 723Q1585 573 1532 442T1374 209Q1267 103 1132 47T852 -10Q707 -10 574 45T336 207Q231 311 176 444T121 723Q121 868 177 1002T340 1245Q441 1348 572 1402T852 1456Z"  />
<glyph unicode="&#xAA;" horiz-adv-x="848" d="M39 422L371 942H469L809 422H690L616 543H221L147 422H39ZM266 618H571L418 866L266 618Z"  />
<glyph unicode="&#xAB;" horiz-adv-x="1067" d="M508 131H365L123 434L365 735H508L274 434L508 131ZM940 131H797L553 434L797 735H940L707 434L940 131Z"  />
<glyph unicode="&#xAC;" horiz-adv-x="1706" d="M1452 858V356H1356V758H254V858H1452Z"  />
<glyph unicode="&#xAD;" horiz-adv-x="676" d="M115 471V621H561V471H115Z"  />
<glyph unicode="&#xAE;" horiz-adv-x="1706" d="M850 1071H692V768H850Q984 768 1038 801T1092 915Q1092 998 1035 1034T850 1071ZM874 1157Q1052 1157 1137 1100T1223 924Q1223 835 1169 775T1024 702L1212 313H1067L889 684H692V313H565V1157H874ZM1505 721Q1505 855 1457 974T1319 1184Q1225 1277 1106 1326T852 1376Q722 1376 606 1328T397 1188Q302 1091 252 972T201 723Q201 594 250 476T393 264Q487 171 605 122T852 72Q982 72 1102 122T1319 266Q1410 355 1457 470T1505 721ZM852 1456Q1004 1456 1137 1401T1374 1241Q1476 1139 1530 1006T1585 723Q1585 573 1532 442T1374 209Q1267 103 1132 47T852 -10Q705 -10 573 45T336 207Q231 311 176 444T121 723Q121 867 177 1002T340 1245Q441 1348 572 1402T852 1456Z"  />
<glyph unicode="&#xAF;" horiz-adv-x="1024" d="M254 1073V1198H770V1073H254Z"  />
<glyph unicode="&#xB0;" horiz-adv-x="674" d="M545 1174Q545 1260 485 1321T338 1382Q252 1382 191 1321T129 1174Q129 1087 190 1027T338 967Q425 967 485 1027T545 1174ZM338 1452Q453 1452 533 1371T614 1174Q614 1059 533 977T336 895Q219 895 139 976T59 1174Q59 1290 140 1371T338 1452Z"  />
<glyph unicode="&#xB1;" horiz-adv-x="1706" d="M1452 150V51H254V150H1452ZM903 1169V821H1452V723H903V375H805V723H254V821H805V1169H903Z"  />
<glyph unicode="&#xB2;" horiz-adv-x="1012" d="M205 932Q205 1004 236 1030T356 1057H692Q780 1057 811 1031T842 932V893Q842 845 826 820T756 764L305 510H762V629L872 596V547Q872 475 842 449T721 422H172V461Q172 504 191 527T254 578L727 848V971H315V823L205 850V932Z"  />
<glyph unicode="&#xB3;" horiz-adv-x="1012" d="M322 422Q232 422 202 448T172 547V598L283 621V510H686Q724 510 736 520T748 565V651Q748 686 736 697T686 709H438V788H659Q696 788 708 802T721 862V899Q721 943 709 957T659 971H287V872L180 893V932Q180 1004 211 1030T332 1057H686Q774 1057 805 1030T836 932V874Q836 820 812 793T730 754Q799 744 829 714T860 625V559Q860 481 826 452T702 422H322Z"  />
<glyph unicode="&#xB4;" horiz-adv-x="1024" d="M375 979L584 1327H762L481 979H375Z"  />
<glyph unicode="&#xB5;" horiz-adv-x="1110" d="M344 1065L219 473Q211 434 207 400T203 334Q203 217 261 154T428 90Q553 90 643 197T776 508L897 1065H1036L872 295Q860 240 855 210T850 162Q850 129 867 113T918 96Q925 96 934 96T954 98L934 -12Q915 -17 893 -20T848 -23Q778 -23 745 13T711 123V137Q669 60 591 18T412 -25Q320 -25 251 15T143 131L29 -426H-111L205 1065H344Z"  />
<glyph unicode="&#xB6;" horiz-adv-x="1024" d="M940 1409H813V0H731V1409H545V0H461V782Q287 790 186 884T84 1130Q84 1287 191 1383T477 1479H940V1409Z"  />
<glyph unicode="&#xB7;" horiz-adv-x="766" d="M264 528Q264 579 298 613T383 647Q433 647 466 613T500 528Q500 480 465 445T383 410Q335 410 300 445T264 528Z"  />
<glyph unicode="&#xB8;" horiz-adv-x="1024" d="M299 -422V-336Q375 -353 437 -362T545 -371Q605 -371 635 -351T666 -289Q666 -237 635 -214T532 -190Q516 -190 503 -190T475 -192V0H549V-106H571Q683 -106 740 -151T797 -283Q797 -372 735 -418T551 -465Q506 -465 447 -455T299 -422Z"  />
<glyph unicode="&#xB9;" horiz-adv-x="1010" d="M473 422V956H322V1020L580 1061V422H473Z"  />
<glyph unicode="&#xBA;" horiz-adv-x="932" d="M227 500H707V866H227V500ZM119 819Q119 891 148 916T260 942H674Q754 942 783 917T813 819V545Q813 474 784 448T674 422H260Q177 422 148 447T119 545V819Z"  />
<glyph unicode="&#xBB;" horiz-adv-x="1067" d="M557 131L791 434L557 735H702L944 434L702 131H557ZM127 131L360 434L127 735H270L512 434L270 131H127Z"  />
<glyph unicode="&#xBC;" horiz-adv-x="2271" d="M1935 215V528L1548 215H1935ZM1935 0V141H1432V215L1911 598H2038V215H2191V141H2038V0H1935ZM1647 1090L727 -33H623L1542 1090H1647ZM451 465V965H307V1024L553 1061V465H451Z"  />
<glyph unicode="&#xBD;" horiz-adv-x="2271" d="M1503 475Q1503 543 1532 567T1647 592H1968Q2052 592 2080 568T2109 475V438Q2109 394 2094 370T2028 319L1597 82H2034V195L2140 164V117Q2140 49 2110 25T1995 0H1473V37Q1473 79 1490 100T1548 145L2001 397V512H1608V375L1503 399V475ZM1647 1090L727 -33H623L1542 1090H1647ZM451 465V965H307V1024L553 1061V465H451Z"  />
<glyph unicode="&#xBE;" horiz-adv-x="2271" d="M1935 215V528L1548 215H1935ZM1935 0V141H1432V215L1911 598H2038V215H2191V141H2038V0H1935ZM1647 1090L727 -33H623L1542 1090H1647ZM307 465Q223 465 194 490T164 582V629L270 651V547H653Q690 547 701 557T713 600V678Q713 711 702 721T653 731H418V807H629Q664 807 676 819T688 874V909Q688 951 677 964T629 977H274V887L172 903V940Q172 1007 201 1032T315 1057H653Q738 1057 767 1033T797 940V887Q797 835 774 810T696 774Q763 766 792 738T821 653V592Q821 519 788 492T670 465H307Z"  />
<glyph unicode="&#xBF;" d="M645 831H623Q601 831 593 842T584 887V1004Q584 1038 592 1047T645 1057H748Q792 1057 800 1048T809 1004V887Q809 852 800 842T748 831H645ZM760 629V481L408 305V135H952V301L1096 274V217Q1096 108 1045 54T889 0H496Q376 0 317 49T258 199V383L627 569V629H760Z"  />
<glyph unicode="&#xC0;" horiz-adv-x="1489" d="M451 395H1020L735 936L451 395ZM68 0L645 1057H834L1421 0H1227L1092 260H377L242 0H68ZM882 1169H776L495 1517H673L882 1169Z"  />
<glyph unicode="&#xC1;" horiz-adv-x="1489" d="M451 395H1020L735 936L451 395ZM68 0L645 1057H834L1421 0H1227L1092 260H377L242 0H68ZM608 1169L817 1517H995L714 1169H608Z"  />
<glyph unicode="&#xC2;" horiz-adv-x="1489" d="M451 395H1020L735 936L451 395ZM68 0L645 1057H834L1421 0H1227L1092 260H377L242 0H68ZM458 1169L655 1517H833L1030 1169H923L745 1413L565 1169H458Z"  />
<glyph unicode="&#xC3;" horiz-adv-x="1489" d="M451 395H1020L735 936L451 395ZM68 0L645 1057H834L1421 0H1227L1092 260H377L242 0H68ZM1036 1437Q1012 1344 961 1295T837 1245Q820 1245 805 1247T772 1255L692 1282Q680 1286 666 1288T639 1290Q603 1290 580 1275T542 1226H454Q475 1317 526 1365T653 1413Q670 1413 685 1411T712 1404L790 1376Q806 1371 822 1369T851 1366Q887 1366 911 1384T948 1437H1036Z"  />
<glyph unicode="&#xC4;" horiz-adv-x="1489" d="M451 395H1020L735 936L451 395ZM68 0L645 1057H834L1421 0H1227L1092 260H377L242 0H68ZM825 1232V1421H985V1232H825ZM505 1232V1421H665V1232H505Z"  />
<glyph unicode="&#xC5;" horiz-adv-x="1489" d="M451 395H1020L735 936L451 395ZM596 1370Q596 1311 637 1270T739 1229Q799 1229 840 1269T881 1370Q881 1430 840 1471T739 1513Q679 1513 638 1472T596 1370ZM492 1372Q492 1476 563 1548T739 1620Q843 1620 915 1548T987 1372Q987 1268 916 1196T739 1124Q635 1124 564 1196T492 1372ZM68 0L645 1057H834L1421 0H1227L1092 260H377L242 0H68Z"  />
<glyph unicode="&#xC6;" horiz-adv-x="2015" d="M1853 145V0H1008V293H422L199 0H0L829 1057H1843V915H1174V621H1661V481H1174V145H1853ZM1008 428V918H905L524 428H1008Z"  />
<glyph unicode="&#xC7;" horiz-adv-x="1536" d="M1169 913H436V147H1169V412L1346 375V250Q1346 104 1295 52T1100 0H508Q364 0 312 52T260 250V807Q260 952 312 1004T508 1057H1100Q1244 1057 1295 1005T1346 807V707L1169 674V913ZM588 -422V-336Q664 -353 726 -362T834 -371Q894 -371 924 -351T955 -289Q955 -237 924 -214T821 -190Q805 -190 792 -190T764 -192V0H838V-106H860Q972 -106 1029 -151T1086 -283Q1086 -372 1024 -418T840 -465Q795 -465 736 -455T588 -422Z"  />
<glyph unicode="&#xC8;" horiz-adv-x="1446" d="M274 0V1057H1292V915H451V621H965V481H451V145H1300V0H274ZM921 1169H815L534 1517H712L921 1169Z"  />
<glyph unicode="&#xC9;" horiz-adv-x="1446" d="M274 0V1057H1292V915H451V621H965V481H451V145H1300V0H274ZM647 1169L856 1517H1034L753 1169H647Z"  />
<glyph unicode="&#xCA;" horiz-adv-x="1446" d="M274 0V1057H1292V915H451V621H965V481H451V145H1300V0H274ZM497 1169L694 1517H872L1069 1169H962L784 1413L604 1169H497Z"  />
<glyph unicode="&#xCB;" horiz-adv-x="1446" d="M274 0V1057H1292V915H451V621H965V481H451V145H1300V0H274ZM864 1232V1421H1024V1232H864ZM544 1232V1421H704V1232H544Z"  />
<glyph unicode="&#xCC;" horiz-adv-x="725" d="M274 0V1057H451V0H274ZM500 1169H394L113 1517H291L500 1169Z"  />
<glyph unicode="&#xCD;" horiz-adv-x="725" d="M274 0V1057H451V0H274ZM226 1169L435 1517H613L332 1169H226Z"  />
<glyph unicode="&#xCE;" horiz-adv-x="725" d="M274 0V1057H451V0H274ZM76 1169L273 1517H451L648 1169H541L363 1413L183 1169H76Z"  />
<glyph unicode="&#xCF;" horiz-adv-x="725" d="M274 0V1057H451V0H274ZM443 1232V1421H603V1232H443ZM123 1232V1421H283V1232H123Z"  />
<glyph unicode="&#xD0;" horiz-adv-x="1655" d="M831 913H451V606H838V489H451V147H831Q1088 147 1194 237T1300 535Q1300 736 1192 824T831 913ZM856 1057Q1002 1057 1098 1038T1262 975Q1364 908 1422 791T1481 535Q1481 387 1424 269T1262 82Q1197 40 1100 20T856 0H274V489H70V606H274V1057H856Z"  />
<glyph unicode="&#xD1;" horiz-adv-x="1716" d="M274 0V1057H385L1176 350Q1203 326 1233 292T1296 217Q1288 268 1284 323T1280 477V1057H1442V0H1343L531 735Q525 740 513 751Q453 805 424 854Q430 806 433 752T436 623V0H274ZM1149 1437Q1125 1344 1074 1295T950 1245Q933 1245 918 1247T885 1255L805 1282Q793 1286 779 1288T752 1290Q716 1290 693 1275T655 1226H567Q588 1317 639 1365T766 1413Q783 1413 798 1411T825 1404L903 1376Q919 1371 935 1369T964 1366Q1000 1366 1024 1384T1061 1437H1149Z"  />
<glyph unicode="&#xD2;" horiz-adv-x="1747" d="M436 147H1311V913H436V147ZM260 807Q260 951 311 1004T508 1057H1239Q1382 1057 1433 1005T1485 807V250Q1485 104 1434 52T1239 0H508Q363 0 312 53T260 250V807ZM1011 1169H905L624 1517H802L1011 1169Z"  />
<glyph unicode="&#xD3;" horiz-adv-x="1747" d="M436 147H1311V913H436V147ZM260 807Q260 951 311 1004T508 1057H1239Q1382 1057 1433 1005T1485 807V250Q1485 104 1434 52T1239 0H508Q363 0 312 53T260 250V807ZM737 1169L946 1517H1124L843 1169H737Z"  />
<glyph unicode="&#xD4;" horiz-adv-x="1747" d="M436 147H1311V913H436V147ZM260 807Q260 951 311 1004T508 1057H1239Q1382 1057 1433 1005T1485 807V250Q1485 104 1434 52T1239 0H508Q363 0 312 53T260 250V807ZM587 1169L784 1517H962L1159 1169H1052L874 1413L694 1169H587Z"  />
<glyph unicode="&#xD5;" horiz-adv-x="1747" d="M436 147H1311V913H436V147ZM260 807Q260 951 311 1004T508 1057H1239Q1382 1057 1433 1005T1485 807V250Q1485 104 1434 52T1239 0H508Q363 0 312 53T260 250V807ZM1165 1437Q1141 1344 1090 1295T966 1245Q949 1245 934 1247T901 1255L821 1282Q809 1286 795 1288T768 1290Q732 1290 709 1275T671 1226H583Q604 1317 655 1365T782 1413Q799 1413 814 1411T841 1404L919 1376Q935 1371 951 1369T980 1366Q1016 1366 1040 1384T1077 1437H1165Z"  />
<glyph unicode="&#xD6;" horiz-adv-x="1747" d="M436 147H1311V913H436V147ZM260 807Q260 951 311 1004T508 1057H1239Q1382 1057 1433 1005T1485 807V250Q1485 104 1434 52T1239 0H508Q363 0 312 53T260 250V807ZM954 1232V1421H1114V1232H954ZM634 1232V1421H794V1232H634Z"  />
<glyph unicode="&#xD7;" horiz-adv-x="1706" d="M856 680L1337 1161L1407 1092L926 610L1407 129L1337 59L856 541L375 59L305 129L786 610L305 1092L375 1161L856 680Z"  />
<glyph unicode="&#xD8;" horiz-adv-x="1747" d="M436 147H549L1047 913H436V147ZM696 147H1311V913H1196L696 147ZM260 807Q260 951 311 1004T508 1057H1139L1309 1319H1466L1295 1055Q1399 1051 1442 996T1485 807V250Q1485 104 1434 52T1239 0H608L438 -262H283L455 4Q350 4 305 60T260 250V807Z"  />
<glyph unicode="&#xD9;" horiz-adv-x="1671" d="M451 1057V147H1221V1057H1395V250Q1395 104 1344 52T1149 0H522Q378 0 326 53T274 250V1057H451ZM973 1169H867L586 1517H764L973 1169Z"  />
<glyph unicode="&#xDA;" horiz-adv-x="1671" d="M451 1057V147H1221V1057H1395V250Q1395 104 1344 52T1149 0H522Q378 0 326 53T274 250V1057H451ZM699 1169L908 1517H1086L805 1169H699Z"  />
<glyph unicode="&#xDB;" horiz-adv-x="1671" d="M451 1057V147H1221V1057H1395V250Q1395 104 1344 52T1149 0H522Q378 0 326 53T274 250V1057H451ZM549 1169L746 1517H924L1121 1169H1014L836 1413L656 1169H549Z"  />
<glyph unicode="&#xDC;" horiz-adv-x="1671" d="M451 1057V147H1221V1057H1395V250Q1395 104 1344 52T1149 0H522Q378 0 326 53T274 250V1057H451ZM916 1232V1421H1076V1232H916ZM596 1232V1421H756V1232H596Z"  />
<glyph unicode="&#xDD;" horiz-adv-x="1374" d="M602 0V461L66 1057H285L698 586L1094 1057H1309L778 465V0H602ZM551 1169L760 1517H938L657 1169H551Z"  />
<glyph unicode="&#xDE;" horiz-adv-x="1507" d="M451 733V365H1057Q1122 365 1146 389T1171 475V621Q1171 682 1146 707T1057 733H451ZM274 1057H451V870H1126Q1243 870 1296 822T1350 666V430Q1350 322 1298 274T1126 225H451V0H274V1057Z"  />
<glyph unicode="&#xDF;" horiz-adv-x="2609" d="M967 739H358V514H915Q1037 514 1081 472T1126 309V205Q1126 85 1083 43T915 0H387Q263 0 219 42T174 205V229L324 260V131H979V375H420Q297 375 253 417T209 580V662Q209 781 253 824T420 868H903Q1024 868 1070 826T1116 678V657L967 625V739ZM2272 739H1663V514H2220Q2342 514 2386 472T2431 309V205Q2431 85 2388 43T2220 0H1692Q1568 0 1524 42T1479 205V229L1629 260V131H2284V375H1725Q1602 375 1558 417T1514 580V662Q1514 781 1558 824T1725 868H2208Q2329 868 2375 826T2421 678V657L2272 625V739Z"  />
<glyph unicode="&#xE0;" horiz-adv-x="1284" d="M59 0L561 868H711L1225 0H1047L934 203H334L223 0H59ZM403 328H864L633 741L403 328ZM780 979H674L393 1327H571L780 979Z"  />
<glyph unicode="&#xE1;" horiz-adv-x="1284" d="M59 0L561 868H711L1225 0H1047L934 203H334L223 0H59ZM403 328H864L633 741L403 328ZM506 979L715 1327H893L612 979H506Z"  />
<glyph unicode="&#xE2;" horiz-adv-x="1284" d="M59 0L561 868H711L1225 0H1047L934 203H334L223 0H59ZM403 328H864L633 741L403 328ZM356 979L553 1327H731L928 979H821L643 1223L463 979H356Z"  />
<glyph unicode="&#xE3;" horiz-adv-x="1284" d="M59 0L561 868H711L1225 0H1047L934 203H334L223 0H59ZM403 328H864L633 741L403 328ZM934 1247Q910 1154 859 1105T735 1055Q718 1055 703 1057T670 1065L590 1092Q578 1096 564 1098T537 1100Q501 1100 478 1085T440 1036H352Q373 1127 424 1175T551 1223Q568 1223 583 1221T610 1214L688 1186Q704 1181 720 1179T749 1176Q785 1176 809 1194T846 1247H934Z"  />
<glyph unicode="&#xE4;" horiz-adv-x="1284" d="M59 0L561 868H711L1225 0H1047L934 203H334L223 0H59ZM403 328H864L633 741L403 328ZM723 1042V1231H883V1042H723ZM403 1042V1231H563V1042H403Z"  />
<glyph unicode="&#xE5;" horiz-adv-x="1284" d="M59 0L561 868H711L1225 0H1047L934 203H334L223 0H59ZM403 328H864L633 741L403 328ZM502 1206Q502 1146 542 1105T643 1063Q703 1063 744 1104T786 1206Q786 1266 745 1308T643 1350Q583 1350 543 1309T502 1206ZM395 1208Q395 1311 467 1382T643 1454Q747 1454 819 1383T891 1208Q891 1104 819 1033T643 961Q539 961 467 1032T395 1208Z"  />
<glyph unicode="&#xE6;" horiz-adv-x="1700" d="M864 362V743H786L481 362H864ZM1593 131V0H864V236H383L201 0H0L715 868H1585V739H1014V516H1427V387H1014V131H1593Z"  />
<glyph unicode="&#xE7;" horiz-adv-x="1262" d="M950 739H344V131H950V338L1114 307V205Q1114 86 1070 43T901 0H391Q267 0 224 41T180 205V662Q180 783 224 825T391 868H901Q1025 868 1069 825T1114 662V580L950 553V739ZM428 -422V-336Q504 -353 566 -362T674 -371Q734 -371 764 -351T795 -289Q795 -237 764 -214T661 -190Q645 -190 632 -190T604 -192V0H678V-106H700Q812 -106 869 -151T926 -283Q926 -372 864 -418T680 -465Q635 -465 576 -455T428 -422Z"  />
<glyph unicode="&#xE8;" horiz-adv-x="1190" d="M201 0V868H1075V739H365V516H793V387H365V127H1083V0H201ZM790 979H684L403 1327H581L790 979Z"  />
<glyph unicode="&#xE9;" horiz-adv-x="1190" d="M201 0V868H1075V739H365V516H793V387H365V127H1083V0H201ZM516 979L725 1327H903L622 979H516Z"  />
<glyph unicode="&#xEA;" horiz-adv-x="1190" d="M201 0V868H1075V739H365V516H793V387H365V127H1083V0H201ZM366 979L563 1327H741L938 979H831L653 1223L473 979H366Z"  />
<glyph unicode="&#xEB;" horiz-adv-x="1190" d="M201 0V868H1075V739H365V516H793V387H365V127H1083V0H201ZM733 1042V1231H893V1042H733ZM413 1042V1231H573V1042H413Z"  />
<glyph unicode="&#xEC;" horiz-adv-x="557" d="M360 0H197V866H360V0ZM417 979H311L30 1327H208L417 979Z"  />
<glyph unicode="&#xED;" horiz-adv-x="557" d="M360 0H197V866H360V0ZM143 979L352 1327H530L249 979H143Z"  />
<glyph unicode="&#xEE;" horiz-adv-x="557" d="M360 0H197V866H360V0ZM-7 979L190 1327H368L565 979H458L280 1223L100 979H-7Z"  />
<glyph unicode="&#xEF;" horiz-adv-x="557" d="M360 0H197V866H360V0ZM360 1042V1231H520V1042H360ZM40 1042V1231H200V1042H40Z"  />
<glyph unicode="&#xF0;" horiz-adv-x="1493" d="M768 868Q892 868 976 852T1116 801Q1205 745 1255 649T1305 436Q1305 217 1172 109T768 0H268V395H94V516H268V868H768ZM750 739H432V516H774V395H432V131H750Q962 131 1051 202T1141 438Q1141 598 1051 668T750 739Z"  />
<glyph unicode="&#xF1;" horiz-adv-x="1405" d="M340 694Q346 656 349 617T352 539V0H201V868H326L963 301Q991 277 1016 248T1067 182Q1060 221 1057 261T1053 344V868H1204V0H1092L442 575Q408 607 384 635T340 694ZM993 1247Q969 1154 918 1105T794 1055Q777 1055 762 1057T729 1065L649 1092Q637 1096 623 1098T596 1100Q560 1100 537 1085T499 1036H411Q432 1127 483 1175T610 1223Q627 1223 642 1221T669 1214L747 1186Q763 1181 779 1179T808 1176Q844 1176 868 1194T905 1247H993Z"  />
<glyph unicode="&#xF2;" horiz-adv-x="1413" d="M344 131H1069V739H344V131ZM180 662Q180 781 225 824T393 868H1020Q1143 868 1188 825T1233 662V205Q1233 86 1189 43T1020 0H393Q268 0 224 42T180 205V662ZM844 979H738L457 1327H635L844 979Z"  />
<glyph unicode="&#xF3;" horiz-adv-x="1413" d="M344 131H1069V739H344V131ZM180 662Q180 781 225 824T393 868H1020Q1143 868 1188 825T1233 662V205Q1233 86 1189 43T1020 0H393Q268 0 224 42T180 205V662ZM570 979L779 1327H957L676 979H570Z"  />
<glyph unicode="&#xF4;" horiz-adv-x="1413" d="M344 131H1069V739H344V131ZM180 662Q180 781 225 824T393 868H1020Q1143 868 1188 825T1233 662V205Q1233 86 1189 43T1020 0H393Q268 0 224 42T180 205V662ZM420 979L617 1327H795L992 979H885L707 1223L527 979H420Z"  />
<glyph unicode="&#xF5;" horiz-adv-x="1413" d="M344 131H1069V739H344V131ZM180 662Q180 781 225 824T393 868H1020Q1143 868 1188 825T1233 662V205Q1233 86 1189 43T1020 0H393Q268 0 224 42T180 205V662ZM998 1247Q974 1154 923 1105T799 1055Q782 1055 767 1057T734 1065L654 1092Q642 1096 628 1098T601 1100Q565 1100 542 1085T504 1036H416Q437 1127 488 1175T615 1223Q632 1223 647 1221T674 1214L752 1186Q768 1181 784 1179T813 1176Q849 1176 873 1194T910 1247H998Z"  />
<glyph unicode="&#xF6;" horiz-adv-x="1413" d="M344 131H1069V739H344V131ZM180 662Q180 781 225 824T393 868H1020Q1143 868 1188 825T1233 662V205Q1233 86 1189 43T1020 0H393Q268 0 224 42T180 205V662ZM787 1042V1231H947V1042H787ZM467 1042V1231H627V1042H467Z"  />
<glyph unicode="&#xF7;" horiz-adv-x="1706" d="M854 365Q899 365 930 334T961 258Q961 214 930 183T854 152Q809 152 779 183T748 258Q748 302 779 333T854 365ZM1452 659V561H254V659H1452ZM854 1071Q898 1071 929 1039T961 963Q961 918 930 887T854 856Q809 856 779 886T748 963Q748 1007 779 1039T854 1071Z"  />
<glyph unicode="&#xF8;" horiz-adv-x="1413" d="M868 739H344V131H428L868 739ZM545 131H1069V739H981L545 131ZM180 662Q180 781 225 824T393 868H954L1108 1081H1233L1077 868Q1164 857 1198 813T1233 662V205Q1233 86 1189 43T1020 0H457L305 -215H180L330 0Q243 15 212 57T180 205V662Z"  />
<glyph unicode="&#xF9;" horiz-adv-x="1366" d="M365 868V131H999V868H1165V205Q1165 85 1121 43T952 0H414Q290 0 246 43T201 205V868H365ZM821 979H715L434 1327H612L821 979Z"  />
<glyph unicode="&#xFA;" horiz-adv-x="1366" d="M365 868V131H999V868H1165V205Q1165 85 1121 43T952 0H414Q290 0 246 43T201 205V868H365ZM547 979L756 1327H934L653 979H547Z"  />
<glyph unicode="&#xFB;" horiz-adv-x="1366" d="M365 868V131H999V868H1165V205Q1165 85 1121 43T952 0H414Q290 0 246 43T201 205V868H365ZM397 979L594 1327H772L969 979H862L684 1223L504 979H397Z"  />
<glyph unicode="&#xFC;" horiz-adv-x="1366" d="M365 868V131H999V868H1165V205Q1165 85 1121 43T952 0H414Q290 0 246 43T201 205V868H365ZM764 1042V1231H924V1042H764ZM444 1042V1231H604V1042H444Z"  />
<glyph unicode="&#xFD;" horiz-adv-x="1155" d="M496 0V379L43 868H242L588 492L918 868H1110L659 379V0H496ZM441 979L650 1327H828L547 979H441Z"  />
<glyph unicode="&#xFE;" horiz-adv-x="1241" d="M958 508Q958 553 937 571T860 590H365V317H860Q915 317 936 336T958 399V508ZM201 868H365V717H934Q1035 717 1079 677T1124 549V356Q1124 268 1080 228T934 188H365V0H201V868Z"  />
<glyph unicode="&#xFF;" horiz-adv-x="1155" d="M496 0V379L43 868H242L588 492L918 868H1110L659 379V0H496ZM658 1042V1231H818V1042H658ZM338 1042V1231H498V1042H338Z"  />
<glyph unicode="&#x106;" horiz-adv-x="1536" d="M1169 913H436V147H1169V412L1346 375V250Q1346 104 1295 52T1100 0H508Q364 0 312 52T260 250V807Q260 952 312 1004T508 1057H1100Q1244 1057 1295 1005T1346 807V707L1169 674V913ZM678 1169L887 1517H1065L784 1169H678Z"  />
<glyph unicode="&#x107;" horiz-adv-x="1262" d="M950 739H344V131H950V338L1114 307V205Q1114 86 1070 43T901 0H391Q267 0 224 41T180 205V662Q180 783 224 825T391 868H901Q1025 868 1069 825T1114 662V580L950 553V739ZM508 979L717 1327H895L614 979H508Z"  />
<glyph unicode="&#x10C;" horiz-adv-x="1536" d="M1169 913H436V147H1169V412L1346 375V250Q1346 104 1295 52T1100 0H508Q364 0 312 52T260 250V807Q260 952 312 1004T508 1057H1100Q1244 1057 1295 1005T1346 807V707L1169 674V913ZM528 1517H635L815 1273L993 1517H1100L903 1169H725L528 1517Z"  />
<glyph unicode="&#x10D;" horiz-adv-x="1262" d="M950 739H344V131H950V338L1114 307V205Q1114 86 1070 43T901 0H391Q267 0 224 41T180 205V662Q180 783 224 825T391 868H901Q1025 868 1069 825T1114 662V580L950 553V739ZM358 1327H465L645 1083L823 1327H930L733 979H555L358 1327Z"  />
<glyph unicode="&#x111;" horiz-adv-x="1493" d="M768 868Q892 868 976 852T1116 801Q1205 745 1255 649T1305 436Q1305 217 1172 109T768 0H268V395H94V516H268V868H768ZM750 739H432V516H774V395H432V131H750Q962 131 1051 202T1141 438Q1141 598 1051 668T750 739Z"  />
<glyph unicode="&#x11E;" horiz-adv-x="1673" d="M1264 913H436V147H1264V457H836V592H1440V250Q1440 105 1388 53T1192 0H508Q363 0 312 53T260 250V807Q260 951 311 1004T508 1057H1192Q1334 1057 1387 1006T1440 819V793L1264 758V913ZM556 1478H645Q652 1402 697 1368T838 1333Q934 1333 979 1367T1031 1478H1121Q1110 1337 1043 1273T838 1208Q701 1208 633 1273T556 1478Z"  />
<glyph unicode="&#x11F;" horiz-adv-x="1356" d="M1030 739H344V131H1030V367H676V485H1194V205Q1194 86 1150 43T981 0H393Q269 0 225 42T180 205V662Q180 781 225 824T393 868H981Q1102 868 1148 825T1194 674V649L1030 621V739ZM396 1288H485Q492 1212 537 1178T678 1143Q774 1143 819 1177T871 1288H961Q950 1147 883 1083T678 1018Q541 1018 473 1083T396 1288Z"  />
<glyph unicode="&#x130;" horiz-adv-x="725" d="M274 0V1057H451V0H274ZM279 1226V1425H447V1226H279Z"  />
<glyph unicode="&#x131;" horiz-adv-x="557" d="M360 0H197V866H360V0Z"  />
<glyph unicode="&#x141;" horiz-adv-x="1337" d="M274 0V332L92 203V338L274 467V1057H451V586L797 829V692L451 449V147H1251V0H274Z"  />
<glyph unicode="&#x142;" horiz-adv-x="1096" d="M201 0V272L63 174V313L201 410V868H365V496L688 725V586L365 358V131H1040V0H201Z"  />
<glyph unicode="&#x152;" horiz-adv-x="2144" d="M436 145H1133V915H436V145ZM260 807Q260 952 312 1004T508 1057H1974V915H1303V621H1792V481H1303V145H1985V0H508Q364 0 312 52T260 250V807Z"  />
<glyph unicode="&#x153;" horiz-adv-x="1767" d="M344 131H924V739H344V131ZM180 664Q180 782 224 825T393 868H1655V739H1079V516H1497V387H1079V131H1661V0H393Q272 0 226 44T180 207V664Z"  />
<glyph unicode="&#x15E;" horiz-adv-x="1599" d="M1176 913H428V618H1094Q1235 618 1287 566T1339 369V250Q1339 104 1288 52T1094 0H477Q333 0 281 52T229 250V279L393 317V147H1180V465H516Q372 465 321 517T270 715V807Q270 952 321 1004T516 1057H1079Q1220 1057 1273 1006T1327 825V803L1176 760V913ZM588 -422V-336Q664 -353 726 -362T834 -371Q894 -371 924 -351T955 -289Q955 -237 924 -214T821 -190Q805 -190 792 -190T764 -192V0H838V-106H860Q972 -106 1029 -151T1086 -283Q1086 -372 1024 -418T840 -465Q795 -465 736 -455T588 -422Z"  />
<glyph unicode="&#x15F;" horiz-adv-x="1305" d="M967 739H358V514H915Q1037 514 1081 472T1126 309V205Q1126 85 1083 43T915 0H387Q263 0 219 42T174 205V229L324 260V131H979V375H420Q297 375 253 417T209 580V662Q209 781 253 824T420 868H903Q1024 868 1070 826T1116 678V657L967 625V739ZM440 -422V-336Q516 -353 578 -362T686 -371Q746 -371 776 -351T807 -289Q807 -237 776 -214T673 -190Q657 -190 644 -190T616 -192V0H690V-106H712Q824 -106 881 -151T938 -283Q938 -372 876 -418T692 -465Q647 -465 588 -455T440 -422Z"  />
<glyph unicode="&#x160;" horiz-adv-x="1599" d="M1176 913H428V618H1094Q1235 618 1287 566T1339 369V250Q1339 104 1288 52T1094 0H477Q333 0 281 52T229 250V279L393 317V147H1180V465H516Q372 465 321 517T270 715V807Q270 952 321 1004T516 1057H1079Q1220 1057 1273 1006T1327 825V803L1176 760V913ZM514 1517H621L801 1273L979 1517H1086L889 1169H711L514 1517Z"  />
<glyph unicode="&#x161;" horiz-adv-x="1305" d="M967 739H358V514H915Q1037 514 1081 472T1126 309V205Q1126 85 1083 43T915 0H387Q263 0 219 42T174 205V229L324 260V131H979V375H420Q297 375 253 417T209 580V662Q209 781 253 824T420 868H903Q1024 868 1070 826T1116 678V657L967 625V739ZM366 1327H473L653 1083L831 1327H938L741 979H563L366 1327Z"  />
<glyph unicode="&#x178;" horiz-adv-x="1374" d="M602 0V461L66 1057H285L698 586L1094 1057H1309L778 465V0H602ZM768 1232V1421H928V1232H768ZM448 1232V1421H608V1232H448Z"  />
<glyph unicode="&#x17D;" horiz-adv-x="1395" d="M135 0V72L918 913H203V1057H1200V997L403 147H1200V0H135ZM411 1517H518L698 1273L876 1517H983L786 1169H608L411 1517Z"  />
<glyph unicode="&#x17E;" horiz-adv-x="1264" d="M147 0V78L803 739H207V868H1063V799L401 131H1063V0H147ZM346 1327H453L633 1083L811 1327H918L721 979H543L346 1327Z"  />
<glyph unicode="&#x192;" horiz-adv-x="1532" d="M549 686V780H762L807 1004Q837 1161 905 1218T1126 1276Q1241 1276 1302 1224T1364 1075V1006L1219 987V1051Q1219 1097 1189 1123T1106 1149Q1034 1149 1003 1121T954 999L913 780H1135V686H893L760 12Q728 -144 660 -202T449 -260Q330 -260 269 -209T207 -57V12L356 47V-12Q356 -84 377 -106T449 -129Q528 -129 561 -102T612 20L743 686H549Z"  />
<glyph unicode="&#x2C6;" horiz-adv-x="1024" d="M225 979L422 1327H600L797 979H690L512 1223L332 979H225Z"  />
<glyph unicode="&#x2C7;" horiz-adv-x="1024" d="M225 1327H332L512 1083L690 1327H797L600 979H422L225 1327Z"  />
<glyph unicode="&#x2D8;" horiz-adv-x="1024" d="M229 1288H318Q325 1212 370 1178T511 1143Q607 1143 652 1177T704 1288H794Q783 1147 716 1083T511 1018Q374 1018 306 1083T229 1288Z"  />
<glyph unicode="&#x2D9;" horiz-adv-x="1024" d="M428 1036V1235H596V1036H428Z"  />
<glyph unicode="&#x2DA;" horiz-adv-x="1024" d="M371 1206Q371 1146 411 1105T512 1063Q572 1063 613 1104T655 1206Q655 1266 614 1308T512 1350Q452 1350 412 1309T371 1206ZM264 1208Q264 1311 336 1382T512 1454Q616 1454 688 1383T760 1208Q760 1104 688 1033T512 961Q408 961 336 1032T264 1208Z"  />
<glyph unicode="&#x2DB;" horiz-adv-x="1024" d="M588 0Q518 -64 486 -117T453 -223Q453 -268 475 -286T549 -305H629V-434H551Q437 -434 383 -394T328 -270Q328 -206 367 -148T516 0H588Z"  />
<glyph unicode="&#x2DC;" horiz-adv-x="1024" d="M803 1247Q779 1154 728 1105T604 1055Q587 1055 572 1057T539 1065L459 1092Q447 1096 433 1098T406 1100Q370 1100 347 1085T309 1036H221Q242 1127 293 1175T420 1223Q437 1223 452 1221T479 1214L557 1186Q573 1181 589 1179T618 1176Q654 1176 678 1194T715 1247H803Z"  />
<glyph unicode="&#x2DD;" horiz-adv-x="1024" d="M580 979L748 1327H903L664 979H580ZM322 979L469 1327H627L406 979H322Z"  />
<glyph unicode="&#x3A9;" horiz-adv-x="1579" d="M1462 139V0H881V127Q1088 251 1194 420T1300 795Q1300 1055 1159 1215T791 1376Q563 1376 421 1216T279 797Q279 590 385 420T698 127V0H117V139H461Q288 272 205 430T121 784Q121 1104 309 1308T791 1513Q1082 1513 1271 1310T1460 786Q1460 590 1377 432T1118 139H1462Z"  />
<glyph unicode="&#x3C0;" horiz-adv-x="1171" d="M1120 944H938L823 403Q808 334 801 286T793 215Q793 157 818 133T903 109Q932 109 954 111T995 118L969 0Q941 -8 916 -12T868 -16Q767 -16 711 37T655 186Q655 232 666 304T711 537L797 944H432L233 0H94L293 944H254Q199 944 169 913T127 813H-4Q21 956 84 1010T299 1065H1147L1120 944Z"  />
<glyph unicode="&#x2013;" horiz-adv-x="1024" d="M0 494V596H1024V494H0Z"  />
<glyph unicode="&#x2014;" horiz-adv-x="2048" d="M0 596H2048V494H0V596Z"  />
<glyph unicode="&#x2018;" horiz-adv-x="766" d="M330 629H307Q285 629 277 640T268 684V838L410 1057H502L379 834H432Q476 834 485 824T494 778V684Q494 649 485 639T432 629H330Z"  />
<glyph unicode="&#x2019;" horiz-adv-x="766" d="M434 1057Q478 1057 487 1047T496 1001V848L352 629H262L383 852H313Q288 852 279 863T270 907V1001Q270 1037 279 1047T332 1057H434Z"  />
<glyph unicode="&#x201A;" horiz-adv-x="766" d="M434 225Q478 225 487 215T496 170V14L352 -205H262L383 20H313Q288 20 279 31T270 76V170Q270 205 279 215T332 225H434Z"  />
<glyph unicode="&#x201C;" horiz-adv-x="1149" d="M713 629H690Q668 629 660 640T651 684V838L795 1057H887L764 834H817Q860 834 868 824T877 778V684Q877 648 868 639T817 629H713ZM332 629H307Q286 629 278 639T270 684V838L412 1057H504L381 834H434Q478 834 487 824T496 778V684Q496 649 487 639T434 629H332Z"  />
<glyph unicode="&#x201D;" horiz-adv-x="1149" d="M819 1057Q862 1057 870 1047T879 1001V848L737 629H645L768 852H696Q671 852 662 863T653 907V1001Q653 1036 662 1046T715 1057H819ZM434 1057Q478 1057 487 1047T496 1001V848L352 629H262L383 852H313Q288 852 279 863T270 907V1001Q270 1037 279 1047T332 1057H434Z"  />
<glyph unicode="&#x201E;" horiz-adv-x="1149" d="M817 225Q861 225 870 215T879 170V14L735 -205H645L766 20H694Q670 20 662 30T653 76V170Q653 205 662 215T715 225H817ZM434 225Q478 225 487 215T496 170V14L352 -205H262L383 20H313Q288 20 279 31T270 76V170Q270 205 279 215T332 225H434Z"  />
<glyph unicode="&#x2020;" horiz-adv-x="1024" d="M147 776L483 721L416 1057H608L541 721L877 776V588L541 653Q549 589 565 521T604 379Q577 249 560 103T535 -217H489Q481 -44 464 102T420 379Q443 450 459 518T483 653L147 588V776Z"  />
<glyph unicode="&#x2021;" horiz-adv-x="1024" d="M483 653L147 588V776L483 721L416 1057H608L541 721L877 776V588L541 653L600 426L541 201L877 266V76L541 133L608 -205H416L483 133L147 76V266L483 201L420 426L483 653Z"  />
<glyph unicode="&#x2022;" horiz-adv-x="1208" d="M307 762Q307 885 394 971T604 1057Q726 1057 812 971T899 762Q899 640 812 553T602 465Q479 465 393 552T307 762Z"  />
<glyph unicode="&#x2026;" horiz-adv-x="2048" d="M394 225Q437 225 446 215T456 170V53Q456 19 448 10T394 0H271Q247 0 239 9T230 53V170Q230 204 239 214T292 225H394ZM1075 225Q1118 225 1127 215T1137 170V53Q1137 19 1129 10T1075 0H952Q928 0 920 9T911 53V170Q911 204 920 214T973 225H1075ZM1759 225Q1802 225 1811 215T1821 170V53Q1821 19 1813 10T1759 0H1636Q1612 0 1604 9T1595 53V170Q1595 204 1604 214T1657 225H1759Z"  />
<glyph unicode="&#x2030;" horiz-adv-x="2519" d="M1858 281Q1858 200 1915 142T2054 84Q2137 84 2195 141T2253 281Q2253 362 2195 419T2054 477Q1973 477 1916 420T1858 281ZM1741 283Q1741 414 1832 504T2056 594Q2188 594 2279 504T2370 283Q2370 155 2276 61T2056 -33Q1930 -33 1836 61T1741 283ZM266 776Q266 696 325 638T465 580Q547 580 604 637T662 776Q662 858 604 916T465 975Q383 975 325 917T266 776ZM1382 1090L489 -33H373L1262 1090H1382ZM1104 281Q1104 200 1162 142T1300 84Q1384 84 1441 141T1499 281Q1499 362 1441 419T1300 477Q1219 477 1162 420T1104 281ZM987 283Q987 414 1077 504T1300 594Q1433 594 1524 504T1616 283Q1616 156 1522 62T1300 -33Q1174 -33 1081 61T987 283ZM150 778Q150 910 240 1000T463 1090Q595 1090 686 1000T778 778Q778 651 684 557T463 463Q337 463 244 557T150 778Z"  />
<glyph unicode="&#x2039;" horiz-adv-x="635" d="M508 131H365L123 434L365 735H508L274 434L508 131Z"  />
<glyph unicode="&#x203A;" horiz-adv-x="635" d="M127 131L360 434L127 735H270L512 434L270 131H127Z"  />
<glyph unicode="&#x20A3;" horiz-adv-x="2560" d="M274 0V1057H1280V913H451V567H924V426H451V0H274ZM2132 741H1670V461H2132Q2187 461 2206 479T2225 549V653Q2225 701 2205 721T2132 741ZM1506 0V868H2204Q2301 868 2343 829T2386 700V506Q2386 418 2344 379T2204 340H2089L2472 0H2253L1907 340H1670V0H1506Z"  />
<glyph unicode="&#x20AC;" horiz-adv-x="1532" d="M1346 248Q1346 102 1296 51T1102 0H506Q362 0 311 51T260 248V379H111L158 477H260V614H111L160 715H260V809Q260 954 311 1005T506 1057H1102Q1246 1057 1296 1006T1346 809V760L1176 729V915H428V715H1079L1030 614H428V477H965L918 379H428V145H1176V340L1346 305V248Z"  />
<glyph unicode="&#x2122;" horiz-adv-x="1706" d="M938 1454L1104 1032L1260 1454H1376V924H1305V1391L1128 924H1079L893 1391V924H821V1454H938ZM694 1454V1397H522V924H440V1397H264V1454H694Z"  />
<glyph unicode="&#x2202;" horiz-adv-x="1034" d="M752 592Q764 675 770 752T776 901Q776 1059 736 1143T621 1227Q571 1227 513 1159T410 1090Q379 1090 358 1110T336 1157Q336 1219 399 1264T555 1309Q720 1309 819 1159T918 752Q918 418 782 196T449 -27Q306 -27 216 80T125 358Q125 537 234 662T496 788Q594 788 656 740T752 592ZM711 463Q711 591 666 656T532 721Q419 721 346 597T272 274Q272 148 316 86T451 23Q563 23 637 148T711 463Z"  />
<glyph unicode="&#x2206;" horiz-adv-x="1346" d="M1139 139L672 1325L207 139H1139ZM766 1473L1356 0H-10L580 1473H766Z"  />
<glyph unicode="&#x220F;" horiz-adv-x="1509" d="M160 1473H1348V-393H1180V1325H328V-393H160V1473Z"  />
<glyph unicode="&#x2211;" horiz-adv-x="1317" d="M49 1473H1272V1329H258L963 563L223 -250H1280V-393H14V-260L758 561L49 1333V1473Z"  />
<glyph unicode="&#x2212;" horiz-adv-x="1706" d="M1452 659V561H254V659H1452Z"  />
<glyph unicode="&#x2215;" horiz-adv-x="342" d="M682 1090L-238 -33H-342L578 1090H682Z"  />
<glyph unicode="&#x2219;" horiz-adv-x="766" d="M264 528Q264 579 298 613T383 647Q433 647 466 613T500 528Q500 480 465 445T383 410Q335 410 300 445T264 528Z"  />
<glyph unicode="&#x221A;" horiz-adv-x="1276" d="M1276 1636V1565H1151L557 -41H516L188 858L74 819L55 877L301 963L573 217L1098 1636H1276Z"  />
<glyph unicode="&#x221E;" horiz-adv-x="1706" d="M897 559Q949 459 1019 410T1178 360Q1284 360 1351 435T1419 627Q1419 740 1357 814T1200 889Q1114 889 1045 815T897 559ZM811 668Q759 767 690 815T530 864Q424 864 357 790T289 600Q289 488 352 413T508 338Q595 338 664 413T811 668ZM838 721Q910 865 987 927T1169 989Q1293 989 1384 882T1475 616Q1475 447 1394 343T1182 238Q1087 238 1014 298T868 502Q797 363 720 301T547 238Q415 238 324 344T233 612Q233 781 314 885T526 989Q623 989 697 925T838 721Z"  />
<glyph unicode="&#x222B;" horiz-adv-x="985" d="M293 -272Q397 -272 410 441Q412 568 414 637Q425 1123 512 1335T780 1548Q850 1548 894 1511T938 1415Q938 1367 910 1339T831 1311Q753 1311 728 1380T694 1450Q589 1450 578 827Q574 642 571 538Q556 41 470 -165T203 -371Q134 -371 90 -335T45 -244Q45 -193 76 -163T158 -133Q194 -133 219 -149T260 -201Q264 -210 267 -234Q271 -272 293 -272Z"  />
<glyph unicode="&#x2248;" horiz-adv-x="1706" d="M1530 469Q1424 395 1329 360T1143 324Q1042 324 852 393T565 463Q483 463 394 427T178 303V414Q285 488 380 523T565 559Q674 559 863 491T1143 422Q1229 422 1318 457T1530 580V469ZM1530 807Q1426 733 1331 698T1143 662Q1040 662 851 731T565 801Q483 801 394 765T178 641V754Q283 827 379 863T565 899Q674 899 863 830T1143 760Q1227 760 1314 794T1530 918V807Z"  />
<glyph unicode="&#x2260;" horiz-adv-x="1706" d="M1288 1110L1083 846H1452V750H1020L805 473H1452V375H743L489 51L416 111L621 375H254V473H682L897 750H254V846H961L1214 1169L1288 1110Z"  />
<glyph unicode="&#x2264;" horiz-adv-x="1706" d="M1442 139V41H264V139H1442ZM1442 1075L432 737L1442 401V295L264 696V780L1442 1182V1075Z"  />
<glyph unicode="&#x2265;" horiz-adv-x="1706" d="M1442 139V41H264V139H1442ZM1442 780V696L264 295V401L1274 737L264 1075V1182L1442 780Z"  />
<glyph unicode="&#x25CA;" horiz-adv-x="1012" d="M506 1409L121 592L506 -233L891 592L506 1409ZM506 1653L1006 592L506 -477L6 592L506 1653Z"  />
<glyph unicode="&#xF000;" horiz-adv-x="1618" d="M836 1216Q835 1222 835 1230T834 1253Q834 1377 929 1482T1165 1614Q1166 1604 1166 1591T1167 1552Q1167 1421 1064 1318T860 1214H852Q849 1214 845 1215T836 1216ZM1505 403Q1391 156 1300 61T1096 -35Q1046 -35 965 -2T842 31Q797 31 711 -2T584 -35Q520 -35 456 9T326 141Q224 281 169 436T113 737Q113 956 238 1093T561 1231Q629 1231 716 1197T840 1163Q874 1163 961 1197T1114 1231Q1225 1231 1313 1192T1473 1069Q1371 1004 1322 924T1272 741Q1272 628 1332 541T1505 403Z"  />
<glyph unicode="&#xF001;" horiz-adv-x="1669" d="M201 0V868H1065V739H365V471H760V344H365V0H201ZM1472 0H1309V866H1472V0Z"  />
<glyph unicode="&#xF002;" horiz-adv-x="2208" d="M201 0V868H1065V739H365V471H760V344H365V0H201ZM1313 0V868H1477V131H2152V0H1313Z"  />
<glyph unicode="&#xFB01;" horiz-adv-x="1669" d="M201 0V868H1065V739H365V471H760V344H365V0H201ZM1472 0H1309V866H1472V0Z"  />
<glyph unicode="&#xFB02;" horiz-adv-x="2208" d="M201 0V868H1065V739H365V471H760V344H365V0H201ZM1313 0V868H1477V131H2152V0H1313Z"  />


</font>
</defs>
<text x="40" y="40" font-family="" font-size="30" fill="#933" >ABCDEFGHIJKLMNOPQRSTUVWXYZ abcdefghijklmnopqrstuvwxyz AÁÀÂÄÅÃÆ CÇ DÐ EÉÈÊË I Í Ì Î Ï NÑ</text>
<text x="40" y="80" font-family="" font-size="30" fill="#933" >OÓÒÔÖÕØŒ SŠ UÚÙÛÜ YÝŸ ZŽ Þ aáàâäåãæ cç dð eéèêë i ı í ì î ï nñ oóòôöõøœ sšß uúùûü yýÿ zž</text>
<text x="40" y="120" font-family="" font-size="30" fill="#933" >þ 1234567890 ½ ¼ ¾ % ‰ $¢£¥ƒ€¤ † ‡ § ¶ # ^~µ +×± &lt; = &gt; ÷¬ !¡?¿ &quot; &amp; &apos; * ° . , : ; () [ \ ] {} / |</text>
<text x="40" y="160" font-family="" font-size="30" fill="#933" >¦ _ ‚ „ … ‹› «» ‘ ’ “ ” • ­ - – — @ © ® ™ ªº ¹²³ ´ ` ˆ ˜ ¨ ¯ · ¸</text>
</svg>
