<?xml  version="1.0" encoding="UTF-8"?>
<!DOCTYPE svg PUBLIC "-//W3C//DTD SVG 1.0//EN" "http://www.w3.org/TR/2001/REC-SVG-20010904/DTD/svg10.dtd" >
<svg xmlns="http://www.w3.org/2000/svg" >
<metadata>
<version>1.0</version>
<id><![CDATA[FreeSet W01 Book]]></id>
<vendor>Monotype Imaging Inc.</vendor>
<credits>
<name>Fonts.com WebFonts</name>
<URL>http://webfonts.fonts.com</URL>
<role>Home of the Web fonts</role>
</credits>
<license>
<URL>http://webfonts.fonts.com/Legal</URL>
</license>
<copyright></copyright>
<trademark></trademark>
<licensee>
<name></name>
</licensee>
</metadata>
<defs >
<font horiz-adv-x="551" id="3da84186-a6ee-481e-a5d6-9a7979b7d86d">
<font-face font-family="FreeSet W01 Book" panose-1="2 11 5 3 4 5 4 2 2 4" ascent="770" descent="-230" units-per-em="1000" alphabetic="0">
</font-face>
<missing-glyph horiz-adv-x="0" />

<glyph unicode="&#xA;" />
<glyph unicode="&#xD;" />
<glyph unicode=" " horiz-adv-x="233" />
<glyph unicode="!" horiz-adv-x="389" d="M139 112H251V0H139V112ZM235 196H155L139 700H251L235 196Z"  />
<glyph unicode="&quot;" horiz-adv-x="556" d="M159 700H247V455H159V700ZM309 700H397V455H309V700Z"  />
<glyph unicode="#" horiz-adv-x="556" d="M123 208H28V284H134L152 414H56V490H163L192 698H268L239 490H357L386 698H462L433 490H528V414H422L404 284H499V208H393L364 0H288L317 208H199L170 0H94L123 208ZM346 414H228L210 284H328L346 414Z"  />
<glyph unicode="$" horiz-adv-x="556" d="M247 615Q233 613 219 607T195 590Q171 566 171 523Q171 490 193 471T247 435V615ZM305 84Q319 87 335 96T366 126Q377 142 381 159T385 193Q385 213 378 227T360 254Q352 262 339 272T305 290V84ZM247 -12H235Q175 -12 137 -1T83 17L95 113Q135 89 169 83T233 76H247V319L212 336Q203 340 190 347T161 364T132 384T107 407Q93 422 79 449T65 520Q65 599 121 653Q140 671 171 688T247 707V806H305V710Q363 709 397 700T448 685L434 593Q420 601 391 611T315 622H305V405L363 373Q385 361 410 345T454 305Q471 285 481 257T491 195Q491 144 474 110T436 53Q404 20 371 7T305 -8V-106H247V-12Z"  />
<glyph unicode="%" horiz-adv-x="1000" d="M260 310Q217 310 188 327T142 372T118 436T110 510Q110 550 116 586T139 650T185 694T260 710Q305 710 334 694T380 650T403 586T410 510Q410 472 403 436T378 372T332 327T260 310ZM260 380Q282 380 294 394T313 429T320 472T322 510Q322 527 322 549T316 592T298 626T260 640Q237 640 225 626T206 591T199 548T198 510Q198 495 199 473T206 430T224 395T260 380ZM680 720H752L319 -22H247L680 720ZM740 -12Q697 -12 668 5T622 50T598 114T590 188Q590 228 596 264T619 328T665 372T740 388Q785 388 814 372T860 328T883 264T890 188Q890 150 883 114T858 50T812 5T740 -12ZM740 58Q762 58 774 72T793 107T800 150T802 188Q802 205 802 227T796 270T778 304T740 318Q717 318 705 304T686 269T679 226T678 188Q678 173 679 151T686 108T704 73T740 58Z"  />
<glyph unicode="&amp;" horiz-adv-x="722" d="M648 377Q645 335 638 301T620 238T596 185T568 138L690 0H565L508 68Q470 26 423 8T308 -10Q256 -10 215 4T144 43T99 104T83 183Q83 262 125 310T239 387Q211 421 189 458T167 546Q167 588 181 619T220 670T278 700T349 710Q383 710 414 701T470 673T508 623T522 552Q522 519 509 491T473 440T424 400T369 370L511 208Q531 240 540 278T554 377H648ZM287 328Q267 314 250 301T219 271T197 236T189 190Q189 162 200 139T230 100T274 75T326 66Q350 66 370 72T407 89T435 110T455 131L287 328ZM323 426Q339 433 357 445T391 472T417 507T428 548Q428 596 405 615T345 634Q310 634 286 612T261 544Q261 509 280 480T323 426Z"  />
<glyph unicode="&apos;" horiz-adv-x="278" d="M95 700H183V455H95V700Z"  />
<glyph unicode="(" horiz-adv-x="333" d="M229 -140Q172 -61 139 10T90 139T69 240T65 308Q65 335 69 378T90 478T140 605T229 756H319Q294 715 267 664T218 554T180 433T165 308Q165 245 179 183T216 62T266 -47T319 -140H229Z"  />
<glyph unicode=")" horiz-adv-x="333" d="M104 756Q161 676 194 606T243 477T264 376T268 308Q268 281 264 238T243 138T193 11T104 -140H14Q39 -100 66 -48T115 62T153 183T168 308Q168 371 154 433T117 554T67 663T14 756H104Z"  />
<glyph unicode="*" horiz-adv-x="556" d="M278 448L196 310L122 360L232 483L72 516L100 601L251 539L235 698H326L311 539L457 601L484 516L327 483L434 360L359 310L278 448Z"  />
<glyph unicode="+" horiz-adv-x="600" d="M47 297H256V506H344V297H553V209H344V0H256V209H47V297Z"  />
<glyph unicode="&#x2c;" horiz-adv-x="278" d="M115 112H226L141 -133H52L115 112Z"  />
<glyph unicode="-" horiz-adv-x="333" d="M38 307H295V231H38V307Z"  />
<glyph unicode="." horiz-adv-x="278" d="M83 112H195V0H83V112Z"  />
<glyph unicode="/" horiz-adv-x="278" d="M215 710H303L63 -12H-25L215 710Z"  />
<glyph unicode="0" horiz-adv-x="556" d="M278 710Q299 710 324 705T374 688T422 653T465 595Q491 546 503 481T515 350Q515 318 512 285T503 219T488 158T465 104Q444 65 417 42T364 8T315 -7T278 -10Q264 -10 241 -7T192 7T139 42T91 104Q78 128 69 157T53 219T44 284T41 350Q41 416 53 481T91 595Q110 630 133 652T182 687T232 705T278 710ZM278 628Q257 628 231 615T183 558Q174 538 167 513T156 460T149 404T147 350Q147 325 149 297T155 241T167 187T183 142Q193 120 205 107T230 86T255 75T278 72Q288 72 300 75T325 85T350 106T373 142Q382 161 389 187T400 240T407 296T409 350Q409 375 407 403T401 459T389 512T373 558Q352 601 326 614T278 628Z"  />
<glyph unicode="1" horiz-adv-x="556" d="M269 585L162 492L109 560L280 700H369V0H269V585Z"  />
<glyph unicode="2" horiz-adv-x="556" d="M50 107L181 225Q202 244 218 260T250 292T278 324T307 360Q317 373 329 389T352 425T369 466T376 512Q376 543 365 563T343 594Q320 617 294 622T242 628Q189 628 147 612T82 583L72 669Q124 693 172 701T255 710Q297 710 332 702T400 672Q427 654 443 633T467 591T479 549T482 513Q482 480 474 454T454 405T428 364T400 329Q387 312 378 300T357 275T328 243T282 197Q271 186 247 163T190 111L157 82H492V0H50V107Z"  />
<glyph unicode="3" horiz-adv-x="556" d="M145 405H201Q235 405 270 413T329 436Q351 450 362 470T374 519Q374 548 364 567T338 599Q313 619 284 623T237 628Q192 628 153 617T82 590L76 679Q138 700 182 705T251 710Q302 710 342 698T411 665Q436 646 458 611T480 525Q480 486 468 460T438 416Q420 397 392 383T330 362V360Q362 354 392 339T442 305Q460 286 473 257T486 186Q486 144 472 108T419 42Q395 24 366 14T310 -2T259 -9T223 -10Q188 -10 145 -5T51 17L57 109Q93 92 132 82T210 72Q224 72 241 74T275 79T308 89T336 105Q352 116 366 137T380 193Q380 235 362 260T324 297Q301 311 270 317T206 323H145V405Z"  />
<glyph unicode="4" horiz-adv-x="556" d="M344 618H342L120 241H344V618ZM344 159H19V242L301 700H444V241H532V159H444V0H344V159Z"  />
<glyph unicode="5" horiz-adv-x="556" d="M478 618H188L182 432Q208 437 223 439T257 442Q308 442 350 429T427 384Q439 373 451 359T474 325T491 281T498 226Q498 172 480 131T430 60Q393 26 341 8T227 -10Q194 -10 155 -4T81 13L84 107Q129 84 164 78T224 72Q253 72 288 80T352 117Q392 156 392 211Q392 254 376 282T340 325Q316 344 284 352T217 360Q189 360 156 355T88 334L94 700H478V618Z"  />
<glyph unicode="6" horiz-adv-x="556" d="M465 599Q436 613 404 620T341 628Q315 628 295 623T258 608T229 589T208 568Q193 550 182 527T162 479T150 427T146 375H149Q156 383 168 394T198 415T242 432T301 439Q350 439 388 423T451 382Q472 361 491 322T511 221Q511 159 492 119T450 55Q427 32 388 11T287 -10Q261 -10 234 -5T180 13T131 49T90 108Q78 132 71 160T60 217T54 273T52 324Q52 405 65 468T111 586Q123 607 141 629T186 669T251 698T344 710Q379 710 414 704T479 688L465 599ZM405 219Q405 244 397 268T378 309Q357 340 332 348T288 357Q253 357 231 346T197 322Q181 306 170 281T158 219Q158 191 166 165T189 119Q202 102 224 87T281 72Q319 72 342 88T379 123Q393 144 399 170T405 219Z"  />
<glyph unicode="7" horiz-adv-x="556" d="M491 618L233 0H123L389 618H49V700H491V618Z"  />
<glyph unicode="8" horiz-adv-x="556" d="M186 370Q163 378 136 394T90 435Q73 455 64 483T55 544Q55 575 73 612T138 677Q167 694 203 702T275 710Q324 710 364 699T438 662Q464 642 480 615T497 549Q497 515 487 487T456 436Q439 417 415 401T371 374Q397 365 424 349T470 313Q496 286 507 254T518 190Q518 139 501 104T453 44Q430 25 388 8T281 -10Q218 -10 176 7T107 45Q38 99 38 185Q38 227 55 261T98 319Q117 336 142 348T186 368V370ZM299 403Q350 438 370 468T391 533Q391 558 383 575T353 607Q322 628 273 628Q246 628 225 620T187 599Q167 582 161 564T155 530Q155 509 165 493T189 465Q202 454 225 439T269 416L299 403ZM229 311Q215 302 200 292T173 268T152 235T144 191Q144 160 155 140T184 105Q204 88 232 80T285 72Q312 72 335 80T376 103Q387 114 399 135T412 191Q412 219 403 238T377 270T340 294T296 315L260 331L229 311Z"  />
<glyph unicode="9" horiz-adv-x="556" d="M91 100Q126 82 158 77T210 72Q241 72 265 79T308 97T338 121T360 148Q384 183 397 230T410 325H407Q386 302 365 290T323 270T286 262T257 260Q196 260 158 280T100 323Q77 348 61 387T45 477Q45 528 61 573T113 652Q150 687 191 698T269 710Q289 710 314 707T366 692T416 660T460 602Q473 578 488 525T504 376Q504 349 502 319T495 257T481 194T458 135Q437 92 409 64T350 20T284 -3T217 -10Q187 -10 148 -5T77 12L91 100ZM151 481Q151 456 157 434T179 389Q190 373 211 358T271 342Q297 342 322 352T365 384Q376 397 387 420T398 480Q398 509 389 536T362 586Q326 628 275 628Q243 628 222 616T187 589Q151 548 151 481Z"  />
<glyph unicode=":" horiz-adv-x="278" d="M83 112H195V0H83V112ZM195 398H83V510H195V398Z"  />
<glyph unicode=";" horiz-adv-x="278" d="M195 398H83V510H195V398ZM83 112H195L110 -133H20L83 112Z"  />
<glyph unicode="&lt;" horiz-adv-x="600" d="M554 426L160 253L554 80V-8L46 215V291L554 514V426Z"  />
<glyph unicode="=" horiz-adv-x="600" d="M47 192H553V104H47V192ZM47 402H553V314H47V402Z"  />
<glyph unicode="&gt;" horiz-adv-x="600" d="M554 291V215L46 -8V80L440 253L46 426V514L554 291Z"  />
<glyph unicode="?" horiz-adv-x="500" d="M195 112H307V0H195V112ZM204 215Q204 232 206 251T218 292Q226 311 240 331T266 363L277 376Q290 391 303 407T326 440T343 476T350 519Q350 551 338 571T314 601Q295 617 274 622T229 628Q209 628 170 622T81 585L74 677Q120 697 165 703T240 710Q282 710 320 700T386 669Q416 646 436 609T456 526Q456 499 450 478T432 437T407 401T378 366L353 336Q350 332 344 324T330 305T317 282T306 260Q301 247 300 237T298 212V194H204V215Z"  />
<glyph unicode="@" horiz-adv-x="800" d="M366 217Q394 217 417 232T458 272T484 325T494 380Q494 416 472 440T417 464Q387 464 363 450T321 412T294 362T284 308Q284 268 306 243T366 217ZM548 278Q545 267 543 256T540 236Q541 225 544 218T558 211Q580 211 601 226T640 266T669 326T680 398Q680 456 659 501T602 577T518 624T415 640Q352 640 300 618T210 555T153 462T132 347Q132 276 154 222T215 132T308 77T425 58Q488 58 545 81T642 147H718Q669 72 591 30T421 -12Q344 -12 276 12T158 82T79 196T50 349Q50 431 79 497T158 611T274 684T416 710Q482 710 542 689T649 628T722 534T750 413Q750 342 724 290T660 203T582 152T513 135Q490 135 474 149T455 191H453Q433 170 404 153T344 135Q313 135 286 148T239 182T208 233T196 295Q196 342 211 387T255 467T322 524T411 546Q446 546 474 531T525 480L540 532H615L548 278Z"  />
<glyph unicode="A" horiz-adv-x="722" d="M310 700H415L710 0H601L530 177H188L117 0H12L310 700ZM359 606L220 259H498L359 606Z"  />
<glyph unicode="B" horiz-adv-x="602" d="M94 700H283Q305 700 330 699T379 692T427 677T471 652Q501 629 514 598T528 524Q528 501 522 472T493 417Q473 394 443 379T384 357V355Q419 353 449 340T499 307Q520 287 533 256T546 187Q546 136 529 104T492 55Q470 36 442 25T385 9T329 2T280 0H94V700ZM194 82H269Q285 82 304 83T344 88T382 99T413 121Q424 132 432 150T440 198Q440 232 427 257T380 299Q353 313 322 316T259 319H194V82ZM194 401H249Q265 401 286 401T328 405T368 416T401 436Q420 454 424 475T428 510Q428 536 420 556T392 592Q373 606 348 612T299 618H194V401Z"  />
<glyph unicode="C" horiz-adv-x="625" d="M571 583Q538 603 502 612T427 622Q380 622 336 608T256 566Q214 533 187 478T159 350Q159 286 179 240T225 164Q261 122 313 100T437 78Q463 78 497 84T574 111L580 15Q536 -2 501 -6T434 -10Q399 -10 362 -6T287 10T215 41T149 93Q110 134 82 199T53 351Q53 379 57 414T76 488T115 564T183 634Q238 676 301 693T427 710Q484 710 519 701T579 680L571 583Z"  />
<glyph unicode="D" horiz-adv-x="733" d="M94 700H300Q328 700 361 697T430 683T502 653T571 602Q590 584 608 560T641 504T663 434T672 348Q672 290 657 234T611 135Q580 91 541 65T461 24T378 5T300 0H94V700ZM194 88H299Q327 88 356 91T414 103T468 129T516 174Q522 181 530 195T547 229T560 277T566 340Q566 415 544 465T493 543Q482 554 465 566T426 588T375 605T311 612H194V88Z"  />
<glyph unicode="E" horiz-adv-x="554" d="M94 700H485V612H194V407H459V319H194V88H485V0H94V700Z"  />
<glyph unicode="F" horiz-adv-x="511" d="M94 700H465V612H194V407H453V319H194V0H94V700Z"  />
<glyph unicode="G" horiz-adv-x="722" d="M619 575Q601 587 582 595T540 609Q505 618 477 620T434 622Q375 622 330 607T251 562Q233 547 217 526T188 478T167 419T159 347Q159 287 179 240T231 158Q271 115 321 97T431 78Q437 78 449 79T475 81T501 83T520 86L534 89V301H387V383H634V21Q572 1 520 -4T431 -10Q363 -10 293 8T164 80Q131 109 110 143T76 212T58 284T53 353Q53 400 62 440T87 513T123 572T168 620Q215 662 278 686T426 710Q474 710 509 705T550 698Q570 693 589 688T627 675L619 575Z"  />
<glyph unicode="H" horiz-adv-x="722" d="M94 700H194V407H528V700H628V0H528V319H194V0H94V700Z"  />
<glyph unicode="I" horiz-adv-x="288" d="M94 700H194V0H94V700Z"  />
<glyph unicode="J" horiz-adv-x="389" d="M21 88Q45 81 60 80T84 78Q118 78 139 87T172 110Q190 130 194 159T198 215V700H298V183Q298 169 297 151T290 113T273 72T243 35Q193 -10 99 -10Q69 -10 50 -6T21 2V88Z"  />
<glyph unicode="K" horiz-adv-x="667" d="M94 700H194V392L492 700H625L297 369L651 0H505L194 343V0H94V700Z"  />
<glyph unicode="L" horiz-adv-x="506" d="M94 700H194V88H486V0H94V700Z"  />
<glyph unicode="M" horiz-adv-x="952" d="M94 700H259L478 118L693 700H858V0H758V606H756L525 0H427L196 606H194V0H94V700Z"  />
<glyph unicode="N" horiz-adv-x="722" d="M88 700H224L532 136H534V700H634V0H506L190 576H188V0H88V700Z"  />
<glyph unicode="O" horiz-adv-x="778" d="M389 710Q474 710 535 682T639 604Q678 559 701 495T725 350Q725 268 701 203T639 95Q622 76 599 57T546 23T476 -1T389 -10Q341 -10 302 -1T233 23T179 57T139 95Q101 138 77 203T53 350Q53 431 76 495T139 604Q182 654 243 682T389 710ZM389 622Q327 622 285 598T218 542Q191 507 175 456T159 350Q159 305 172 253T218 158Q244 125 285 102T389 78Q452 78 493 101T560 158Q592 200 605 252T619 350Q619 404 603 455T560 542Q536 573 494 597T389 622Z"  />
<glyph unicode="P" horiz-adv-x="556" d="M183 368H282Q311 368 340 377T388 403Q400 414 411 435T422 489Q422 525 408 547T377 583Q363 593 347 599T316 608T289 611T268 612H183V368ZM83 700H266Q286 700 310 699T360 692T411 676T458 649Q471 639 483 625T506 592T522 549T528 493Q528 445 514 411T481 354Q471 343 455 330T415 306T358 288T281 280H183V0H83V700Z"  />
<glyph unicode="Q" horiz-adv-x="778" d="M445 -6Q440 -7 436 -7T426 -8Q421 -9 418 -9T409 -10H389Q359 -9 327 -5T262 11T198 43T139 95Q101 138 77 202T53 350Q53 431 76 495T139 604Q182 654 243 682T389 710Q473 710 534 682T639 604Q677 559 701 495T725 350Q725 339 724 316T716 261T698 196T664 128Q648 103 630 85T595 54T562 33T537 20L699 -126H575L445 -6ZM389 622Q327 622 285 598T218 542Q191 507 175 456T159 350Q159 305 172 253T218 158Q244 125 285 102T389 78Q452 78 493 101T560 158Q592 200 605 252T619 350Q619 404 603 455T560 542Q536 573 494 597T389 622Z"  />
<glyph unicode="R" horiz-adv-x="611" d="M83 700H254Q278 700 305 699T360 694T414 681T461 656Q486 638 505 605T525 517Q525 445 479 400Q463 384 439 370T381 351V349Q391 345 401 339T419 325Q427 317 435 303T449 279L581 0H467L360 243Q349 268 337 281T314 300Q293 311 243 311H183V0H83V700ZM183 399H268Q291 399 324 404T385 433Q396 442 407 460T419 508Q419 545 404 564T373 593Q354 604 328 608T279 612H183V399Z"  />
<glyph unicode="S" horiz-adv-x="500" d="M406 593Q366 611 333 616T275 622Q264 622 240 620T195 605Q178 595 166 578T153 530Q153 512 158 500T175 475Q198 449 225 437T275 413L301 400Q338 382 369 361T422 307Q433 290 443 263T453 195Q453 148 437 111T385 44Q349 14 306 2T208 -10Q179 -10 141 -4T55 19L65 111Q97 97 136 88T210 78Q235 78 262 84T312 113Q347 145 347 192Q347 218 338 237T310 271Q295 284 273 295T216 324L173 346Q151 357 123 375T75 422Q64 439 56 463T47 521Q47 552 54 576T73 619T97 649T121 669Q153 691 193 700T271 710Q326 710 365 701T420 685L406 593Z"  />
<glyph unicode="T" horiz-adv-x="556" d="M228 612H11V700H545V612H328V0H228V612Z"  />
<glyph unicode="U" horiz-adv-x="722" d="M632 290Q632 247 626 212T610 150T587 101T559 65Q551 56 535 43T495 19T438 -1T361 -10Q317 -10 284 -2T227 18T187 43T163 65Q134 96 112 150T90 290V700H190V303Q190 284 191 263T196 220T207 179T227 140Q241 120 257 108T291 89T326 80T361 78Q377 78 395 80T430 88T464 107T495 140Q507 158 514 178T526 220T531 262T532 303V700H632V290Z"  />
<glyph unicode="V" horiz-adv-x="667" d="M394 0H269L6 700H118L333 88H335L556 700H661L394 0Z"  />
<glyph unicode="W" horiz-adv-x="1000" d="M2 700H112L279 100H281L430 700H572L723 100H725L892 700H998L783 0H654L502 612H500L347 0H213L2 700Z"  />
<glyph unicode="X" horiz-adv-x="667" d="M265 364L31 700H151L337 431L522 700H636L401 366L659 0H533L327 297L128 0H8L265 364Z"  />
<glyph unicode="Y" horiz-adv-x="667" d="M284 293L11 700H128L336 386L539 700H656L384 293V0H284V293Z"  />
<glyph unicode="Z" horiz-adv-x="556" d="M32 90L394 612H44V700H509V610L148 88H515V0H32V90Z"  />
<glyph unicode="[" horiz-adv-x="333" d="M95 756H284V686H183V-70H284V-140H95V756Z"  />
<glyph unicode="\" horiz-adv-x="278" d="M-25 710H63L303 -12H215L-25 710Z"  />
<glyph unicode="]" horiz-adv-x="333" d="M238 -140H49V-70H150V686H49V756H238V-140Z"  />
<glyph unicode="^" horiz-adv-x="600" d="M259 700H341L540 295H450L300 608L150 295H60L259 700Z"  />
<glyph unicode="_" horiz-adv-x="500" d="M0 -75H500V-125H0V-75Z"  />
<glyph unicode="`" horiz-adv-x="278" d="M205 581H138L7 725H116L205 581Z"  />
<glyph unicode="a" horiz-adv-x="556" d="M103 474Q127 489 153 497T202 510T246 516T279 518Q327 518 365 506T429 468Q446 451 455 432T470 393T476 352T477 310V103Q477 94 477 81T477 52T478 23T481 0H393V69H391Q359 26 314 9T224 -8Q189 -8 157 1T102 28Q79 45 63 73T46 144Q46 157 49 174T60 211T84 248T126 280Q135 285 150 291T188 302T243 310T319 314Q333 314 351 314T383 312V340Q383 355 379 375T353 415Q331 434 305 438T260 442Q233 442 194 433T109 392L103 474ZM383 243Q369 244 356 244T329 245Q273 245 239 238T183 217Q160 202 153 184T146 149Q146 126 154 112T173 90Q187 79 206 74T246 68Q275 68 302 78T349 108Q362 122 372 144T383 199V243Z"  />
<glyph unicode="b" horiz-adv-x="611" d="M80 750H174V440H176Q187 455 201 468T235 493Q283 518 340 518Q407 518 448 494T512 439Q540 403 552 357T565 264Q565 220 554 170T516 80Q506 65 491 50T455 21T407 0T346 -8Q314 -8 286 -1T234 19Q215 29 201 41T172 72H170V0H80V750ZM174 254Q174 213 184 182T211 127Q224 108 239 97T269 79T298 70T324 68Q345 68 373 78T427 123Q447 151 456 188T465 263Q465 304 456 334T431 387Q415 410 390 426T325 442Q286 442 260 426T218 392Q195 364 185 327T174 254Z"  />
<glyph unicode="c" horiz-adv-x="444" d="M404 420Q380 431 353 436T302 442Q275 442 247 432T197 403Q170 379 154 340T138 255Q138 222 147 188T177 127Q197 102 231 85T308 68Q341 68 366 77T409 97L416 13Q393 3 366 -2T298 -8Q232 -8 185 16T106 74Q95 86 83 103T61 143T45 195T38 259Q38 310 57 363T126 459Q161 488 205 503T298 518Q313 518 343 515T412 498L404 420Z"  />
<glyph unicode="d" horiz-adv-x="611" d="M531 750V0H441V72H439Q426 55 413 44T380 21Q354 7 328 0T267 -8Q207 -8 168 14T104 67Q46 139 46 261Q46 309 59 359T114 454Q149 492 186 505T266 518Q304 518 329 512T378 491Q395 481 409 469T435 440H437V750H531ZM437 254Q437 289 428 322T400 382Q380 409 353 425T286 442Q257 442 231 431T184 393Q167 371 157 338T146 257Q146 228 152 195T178 132Q203 92 233 80T287 68Q315 68 343 79T394 119Q415 145 426 182T437 254Z"  />
<glyph unicode="e" horiz-adv-x="556" d="M146 234Q147 200 158 171T189 121Q209 98 241 83T317 68Q358 68 400 83T471 119V25L457 20Q446 16 434 12T405 3T364 -5T310 -8Q287 -8 261 -6T210 5T159 27T112 65Q100 77 89 95T68 136T52 190T46 257Q46 297 53 329T71 386T97 429T125 460Q148 481 187 499T285 518Q352 518 392 496T454 446Q483 411 496 361T510 261V234H146ZM410 304Q411 331 403 355T381 396Q369 411 345 426T280 442Q244 442 219 427T178 391Q164 372 156 350T146 304H410Z"  />
<glyph unicode="f" horiz-adv-x="373" d="M128 434H17V510H128V557Q128 576 129 598T134 643T149 685T177 723Q204 749 236 755T296 762Q311 762 326 761T362 756L358 680Q352 682 341 684T313 686Q288 686 272 680T247 664Q229 646 226 618T222 565V510H363V434H222V0H128V434Z"  />
<glyph unicode="g" horiz-adv-x="611" d="M531 22Q531 1 529 -22T520 -69T501 -115T468 -158Q443 -182 396 -202T268 -222Q247 -222 200 -217T85 -187L95 -100Q108 -107 127 -115T169 -130T219 -141T273 -146Q310 -146 343 -135T401 -92Q420 -68 428 -37T437 29V79H435Q424 65 408 49T362 20Q351 15 326 8T264 0Q232 0 207 7T162 24T128 47T105 70Q75 106 61 154T46 251Q46 320 65 366T107 439Q133 471 175 494T281 518Q302 518 319 515T350 507T371 499T381 494Q405 481 419 465T442 434H444V510H531V22ZM288 76Q312 76 343 86T401 132Q420 158 428 190T437 254Q437 289 428 324T399 387Q360 442 290 442Q247 442 222 424T183 387Q181 384 175 375T163 349T151 309T146 256Q146 221 156 187T184 129Q201 106 228 91T288 76Z"  />
<glyph unicode="h" horiz-adv-x="604" d="M80 750H174V437H176Q187 454 203 469T243 496Q265 507 288 512T340 518Q355 518 373 516T411 508T449 491T484 462Q499 444 508 424T523 382T529 341T531 303V0H437V264Q437 329 427 361T405 408Q394 421 374 431T322 442Q290 442 265 430T222 398Q205 379 196 357T181 312T175 269T174 236V0H80V750Z"  />
<glyph unicode="i" horiz-adv-x="254" d="M180 624H74V730H180V624ZM80 510H174V0H80V510Z"  />
<glyph unicode="j" horiz-adv-x="278" d="M192 624H86V730H192V624ZM-13 -137Q3 -140 15 -140H25Q41 -139 53 -133T74 -113Q80 -103 84 -91T89 -68T91 -47T92 -32V510H186V-18Q186 -37 185 -58T181 -99T171 -139T152 -174Q127 -206 94 -214T28 -222Q4 -222 -16 -218L-13 -137Z"  />
<glyph unicode="k" horiz-adv-x="546" d="M80 750H174V303L382 510H504L269 289L533 0H406L174 262V0H80V750Z"  />
<glyph unicode="l" horiz-adv-x="254" d="M80 750H174V0H80V750Z"  />
<glyph unicode="m" horiz-adv-x="884" d="M79 510H167V436H169Q179 453 195 469T237 498Q257 508 282 513T327 518Q379 518 416 494Q432 483 448 465T476 419Q492 448 511 466T550 496Q590 518 643 518Q655 518 671 516T704 509T739 493T770 464Q789 441 800 407T811 327V0H717V304Q717 331 712 360T692 410Q684 421 668 431T623 442Q604 442 578 433T529 393Q517 377 510 359T499 323T494 288T492 257V0H398V304Q398 330 394 358T374 408Q363 423 346 432T304 442Q285 442 270 437T244 425T224 409T210 393Q192 369 183 334T173 257V0H79V510Z"  />
<glyph unicode="n" horiz-adv-x="604" d="M80 510H174V437H176Q187 454 203 469T243 496Q265 507 288 512T340 518Q355 518 373 516T411 508T449 491T484 462Q499 444 508 424T523 382T529 341T531 303V0H437V264Q437 282 436 301T432 340T423 376T405 408Q397 417 377 429T322 442Q290 442 265 430T222 398Q205 379 196 357T181 312T175 269T174 236V0H80V510Z"  />
<glyph unicode="o" horiz-adv-x="610" d="M305 518Q341 518 371 511T425 493T467 467T498 438Q532 400 548 352T564 255Q564 206 548 158T498 72Q485 58 467 44T425 18T371 -1T305 -8Q269 -8 239 -1T185 17T143 43T112 72Q78 110 62 158T46 255Q46 304 62 352T112 438Q125 452 143 466T185 492T239 511T305 518ZM305 442Q267 442 236 425T185 382Q165 356 156 323T146 255Q146 216 156 184T185 128Q200 107 217 95T251 77T282 70T305 68Q314 68 328 69T358 77T392 95T425 128Q443 151 453 183T464 255Q464 294 454 326T425 382Q402 413 370 427T305 442Z"  />
<glyph unicode="p" horiz-adv-x="611" d="M170 510V437H172Q191 464 214 480T261 505T306 515T341 518Q390 518 430 502T503 450Q531 418 548 369T565 259Q565 208 551 157T506 67Q496 54 482 41T447 17T402 -1T346 -8Q317 -8 289 -3T234 17Q214 28 200 40T176 67H174V-210H80V510H170ZM174 254Q174 221 183 186T213 123Q230 100 257 84T322 68Q356 68 379 81T418 111Q439 134 452 172T465 262Q465 292 458 329T423 398Q406 418 382 430T325 442Q301 442 283 437T251 422T228 403T211 382Q190 353 182 321T174 254Z"  />
<glyph unicode="q" horiz-adv-x="611" d="M531 -210H437V67H435Q425 53 411 41T377 17Q351 3 323 -2T265 -8Q234 -8 209 -1T164 17T130 41T105 67Q75 105 61 156T46 259Q46 320 63 369T108 450Q140 486 180 502T270 518Q284 518 305 516T349 505T395 481T439 437H441V510H531V-210ZM437 254Q437 288 429 320T400 382Q393 392 384 402T360 422T328 436T286 442Q254 442 230 430T188 398Q161 367 154 330T146 262Q146 211 159 173T193 111Q208 94 231 81T289 68Q326 68 353 84T398 123Q418 150 427 185T437 254Z"  />
<glyph unicode="r" horiz-adv-x="379" d="M168 510V427H170Q190 469 226 493T306 518Q316 518 332 517T356 513L365 511V427Q351 432 338 434T313 436Q287 436 265 427T223 394Q206 374 197 352T182 307T176 264T174 228V0H80V510H168Z"  />
<glyph unicode="s" horiz-adv-x="406" d="M53 103Q95 80 126 74T172 68Q194 68 214 74T247 93Q255 100 260 111T266 139Q266 156 259 166T241 185Q227 196 207 207T173 225L153 234Q127 245 102 264T62 303Q51 320 48 336T45 365Q45 406 59 432T90 474Q113 494 147 506T225 518Q267 518 299 510T342 498L334 418Q315 429 291 435Q278 438 264 440T236 442Q219 442 203 439T174 429Q157 419 151 406T145 382Q145 364 153 351T175 328T205 311T237 296L252 289Q276 278 301 263T344 224Q354 209 360 189T366 145Q366 108 352 81T314 33Q287 10 255 1T181 -8Q138 -8 106 0T48 20L53 103Z"  />
<glyph unicode="t" horiz-adv-x="375" d="M212 658V510H353V434H212V159Q212 145 216 127T234 93Q242 84 257 76T295 68Q326 68 355 86V6Q315 -8 272 -8Q243 -8 213 0T162 26Q133 50 126 81T118 140V434H7V510H118V628L212 658Z"  />
<glyph unicode="u" horiz-adv-x="604" d="M524 0H430V73H428Q417 56 401 41T361 14Q339 3 316 -2T264 -8Q249 -8 231 -6T193 2T155 19T120 48Q105 66 96 86T81 128T75 169T73 207V510H167V246Q167 228 168 209T172 170T181 133T199 102Q207 93 227 81T282 68Q314 68 339 80T382 112Q399 131 408 153T423 198T429 240T430 274V510H524V0Z"  />
<glyph unicode="v" horiz-adv-x="500" d="M306 0H194L11 510H114L252 94H254L395 510H489L306 0Z"  />
<glyph unicode="w" horiz-adv-x="833" d="M657 0H548L416 428H414L285 0H176L12 510H115L232 88H234L364 510H475L603 88H605L729 510H821L657 0Z"  />
<glyph unicode="x" horiz-adv-x="500" d="M194 267L28 510H145L256 328L369 510H474L310 267L490 0H374L248 200L122 0H10L194 267Z"  />
<glyph unicode="y" horiz-adv-x="488" d="M42 -138Q52 -142 63 -144T83 -146Q100 -146 118 -140T151 -119Q168 -102 178 -78T192 -42L198 -20L186 18L7 510H110L250 91H252L389 510H484L293 -19Q275 -69 260 -103T226 -161Q197 -199 162 -210T95 -222Q74 -222 63 -220T41 -216L36 -215L42 -138Z"  />
<glyph unicode="z" horiz-adv-x="500" d="M43 82L337 434H57V510H446V428L152 76H457V0H43V82Z"  />
<glyph unicode="{" horiz-adv-x="317" d="M209 429Q209 405 202 381T171 335Q158 323 145 317T119 309Q132 307 145 301T171 283Q194 262 201 238T209 189V8Q209 -7 210 -22T226 -52Q235 -62 245 -65T267 -68Q278 -68 290 -65L298 -134Q290 -136 278 -137T253 -138Q217 -138 195 -128T160 -107Q147 -95 140 -81T129 -52T124 -24T123 1V175Q123 266 37 275V343Q123 352 123 443V617Q123 628 124 641T128 669T139 698T160 725Q172 736 194 746T253 756Q266 756 278 755T298 752L290 683Q278 686 267 686Q256 686 246 683T226 670Q212 656 211 641T209 610V429Z"  />
<glyph unicode="|" horiz-adv-x="222" d="M67 750H155V-12H67V750Z"  />
<glyph unicode="}" horiz-adv-x="317" d="M108 610Q108 625 107 640T91 670Q82 680 72 683T50 686Q39 686 27 683L19 752Q27 754 39 755T64 756Q100 756 122 746T157 725Q182 701 188 670T194 617V443Q194 352 280 343V275Q194 266 194 175V1Q194 -21 188 -52T157 -107Q145 -118 123 -128T64 -138Q51 -138 39 -137T19 -134L27 -65Q39 -68 50 -68Q61 -68 71 -65T91 -52Q105 -38 106 -23T108 8V189Q108 213 115 237T146 283Q159 295 172 301T198 309Q185 311 172 317T146 335Q123 356 116 380T108 429V610Z"  />
<glyph unicode="~" horiz-adv-x="600" d="M531 263Q523 247 512 232T486 205T451 186T406 178Q386 178 362 184T295 209L270 220Q247 231 229 238T193 246Q177 246 164 239T139 220T120 196T105 173L69 243Q76 259 87 274T114 301T149 320T194 328Q204 328 214 327T238 322T267 312T305 297L330 286Q353 275 371 268T407 260Q423 260 436 267T461 286T480 310T495 333L531 263Z"  />
<glyph unicode="&#xA0;" horiz-adv-x="233" />
<glyph unicode="&#xA1;" horiz-adv-x="389" d="M251 700V588H139V700H251ZM139 0L155 504H235L251 0H139Z"  />
<glyph unicode="&#xA2;" horiz-adv-x="556" d="M455 424Q431 435 404 440T353 446Q326 446 298 436T248 406Q221 381 205 341T189 255Q189 222 198 186T228 124Q248 98 281 81T359 64Q392 64 417 73T460 93L467 9Q420 -11 369 -12V-106H311V-9Q256 -1 218 22T157 71Q128 103 109 150T89 259Q89 284 93 311T108 365T135 416T177 462Q199 481 232 497T311 520V618H369V521Q392 519 415 515T463 502L455 424Z"  />
<glyph unicode="&#xA3;" horiz-adv-x="556" d="M59 88H150V348H71V406H150V464Q150 485 152 511T164 565T192 620T242 670Q269 690 306 701T392 712Q442 712 471 705T510 693L502 600Q472 613 450 618T402 624Q388 624 362 621T313 602Q291 587 279 568T260 528T252 489T250 457V406H411V348H250V88H497V0H59V88Z"  />
<glyph unicode="&#xA4;" horiz-adv-x="556" d="M80 203Q64 222 47 257T30 349Q30 379 35 403T48 445T64 476T80 497L24 551L75 603L130 548Q172 579 212 588T278 597Q327 597 364 583T428 548L482 603L532 551L478 497Q484 490 492 478T507 447T520 405T526 349Q526 317 517 278T478 203L532 146L482 95L428 152Q420 145 408 137T377 120T334 107T278 101Q247 101 223 106T181 120T151 136T130 152L75 95L24 146L80 203ZM118 349Q118 314 130 284T165 232T216 196T278 183Q312 183 341 196T392 232T426 285T438 349Q438 382 426 412T393 465T342 501T278 515Q245 515 216 502T165 466T131 413T118 349Z"  />
<glyph unicode="&#xA5;" horiz-adv-x="556" d="M229 162H88V220H229V292L221 308H88V366H189L6 698H117L281 385L439 698H550L369 366H470V308H337L329 292V220H470V162H329V0H229V162Z"  />
<glyph unicode="&#xA6;" horiz-adv-x="222" d="M67 750H155V473H67V750ZM67 265H155V-12H67V265Z"  />
<glyph unicode="&#xA7;" horiz-adv-x="556" d="M98 -3Q124 -16 150 -23T198 -33T238 -37T263 -38Q309 -38 343 -16Q366 -2 374 17T382 53Q382 73 371 85T349 104Q334 113 315 119T264 138L202 162Q179 171 155 185T112 224Q94 248 89 271T84 307Q84 329 90 350T110 391Q128 416 157 430Q143 438 132 448T113 469Q102 484 95 504T88 549Q88 559 90 574T101 607T123 642T161 674Q180 686 201 693T241 704T277 709T304 710Q346 710 383 704T442 691L433 600Q388 619 357 623T311 628Q297 628 274 626T228 614Q212 607 203 598T189 580T183 563T182 551Q182 540 186 529T199 509Q212 495 237 484T309 456L340 445Q366 436 396 421T449 381Q468 360 475 337T483 288Q483 280 481 267T472 237T451 204T412 169Q441 149 458 120T476 56Q476 22 461 -12T413 -71Q391 -87 366 -96T318 -111T277 -117T250 -119Q222 -119 180 -115T89 -94L98 -3ZM359 201Q376 216 385 237T395 275Q395 286 391 299T379 322Q369 336 355 344T327 358L286 373Q268 379 257 383T237 391T222 398T209 404Q190 390 181 372T172 335Q172 318 178 303T194 276Q212 256 243 244T314 217L359 201Z"  />
<glyph unicode="&#xA8;" horiz-adv-x="278" d="M174 688H268V588H174V688ZM10 688H104V588H10V688Z"  />
<glyph unicode="&#xA9;" horiz-adv-x="879" d="M539 475Q516 485 494 487T451 490Q423 490 401 480T364 451T342 407T334 354Q334 319 343 293T369 250T407 223T453 214Q473 214 496 218T540 231L545 170Q522 161 499 157T447 152Q395 152 358 170T298 217T264 282T253 354Q253 397 267 433T306 495T365 535T441 550Q471 550 496 546T542 535L539 475ZM145 350Q145 289 168 236T232 142T325 79T440 56Q501 56 554 79T648 142T711 235T734 350Q734 411 711 465T648 559T555 622T440 645Q380 645 326 622T232 559T169 465T145 350ZM80 350Q80 425 108 490T185 604T299 681T440 710Q515 710 580 682T694 605T771 491T799 350Q799 277 771 212T694 97T580 19T440 -10Q365 -10 300 18T186 96T109 211T80 350Z"  />
<glyph unicode="&#xAA;" horiz-adv-x="360" d="M63 689Q85 697 115 703T187 710Q211 710 239 706T291 685Q320 665 327 640T334 583V455L337 396H253V434H251Q239 412 213 400Q186 388 153 388Q147 388 137 388T114 391T88 397T63 409Q46 421 35 441T23 484Q23 490 24 500T31 523T48 547T79 568Q106 581 140 583T215 586Q221 586 230 586T252 585V593Q252 604 248 615T232 637Q218 648 204 650T174 653Q155 653 128 648T66 626L63 689ZM252 534Q239 535 226 535T200 535Q174 535 156 532T125 521Q105 507 105 481Q105 472 109 466T121 455Q132 448 143 447T164 446Q181 446 199 449T231 463Q245 474 248 485T252 506V534Z"  />
<glyph unicode="&#xAB;" horiz-adv-x="556" d="M253 269L396 471H484L354 269L484 67H396L253 269ZM51 269L194 471H282L152 269L282 67H194L51 269Z"  />
<glyph unicode="&#xAC;" horiz-adv-x="600" d="M47 402H553V104H465V314H47V402Z"  />
<glyph unicode="&#xAD;" horiz-adv-x="333" d="M38 307H295V231H38V307Z"  />
<glyph unicode="&#xAE;" horiz-adv-x="879" d="M80 350Q80 425 108 490T185 604T299 681T440 710Q515 710 580 682T694 605T771 491T799 350Q799 277 771 212T694 97T580 19T440 -10Q365 -10 300 18T186 96T109 211T80 350ZM145 350Q145 289 168 236T232 142T325 79T440 56Q501 56 554 79T648 142T711 235T734 350Q734 411 711 465T648 559T555 622T440 645Q380 645 326 622T232 559T169 465T145 350ZM448 547Q468 547 491 543T537 523Q558 508 567 488T576 439Q576 419 570 406T550 378Q541 370 528 362T495 350V348Q515 342 525 329T538 308L604 151H526L467 289Q457 312 444 316T417 320H380V151H307V547H448ZM380 380H425Q439 380 454 382T482 396Q501 412 501 435Q501 447 496 458T482 477Q471 486 458 487T431 489H380V380Z"  />
<glyph unicode="&#xAF;" horiz-adv-x="278" d="M-9 673H287V615H-9V673Z"  />
<glyph unicode="&#xB0;" horiz-adv-x="400" d="M57 567Q57 597 68 623T98 668T144 699T200 710Q230 710 256 699T301 669T332 623T343 567Q343 537 332 511T302 466T256 435T200 424Q170 424 144 435T99 465T68 511T57 567ZM121 567Q121 535 144 512T200 488Q232 488 255 511T279 567Q279 599 256 622T200 646Q168 646 145 623T121 567Z"  />
<glyph unicode="&#xB1;" horiz-adv-x="600" d="M47 88H553V0H47V88ZM47 359H256V506H344V359H553V271H344V124H256V271H47V359Z"  />
<glyph unicode="&#xB2;" horiz-adv-x="361" d="M31 358Q41 366 60 381T102 415T148 456T191 500T222 544T235 585Q235 600 227 610T207 627T181 637T155 640Q129 640 102 633T51 611L45 685Q104 710 170 710Q199 710 226 704T275 683T310 645T323 589Q323 558 300 521T245 450T181 390T131 354V352H330V282H31V358Z"  />
<glyph unicode="&#xB3;" horiz-adv-x="361" d="M93 536H139Q153 536 170 539T202 549T227 567T238 593Q238 607 229 616T207 630T178 638T149 640Q121 640 97 634T52 618L48 690Q71 698 103 704T171 710Q201 710 228 704T278 684T313 649T326 597Q326 576 318 560T295 532T262 513T226 502V500Q271 494 300 468T330 395Q330 357 314 334T271 298T211 281T145 276Q111 276 83 281T32 292L42 368Q46 364 56 360T78 353T106 348T136 346Q150 346 168 348T202 356T230 372T242 399Q242 416 233 428T208 449T176 462T142 466H93V536Z"  />
<glyph unicode="&#xB4;" horiz-adv-x="278" d="M162 725H271L140 581H73L162 725Z"  />
<glyph unicode="&#xB5;" horiz-adv-x="611" d="M531 0H440V81H438Q427 62 411 44T375 14Q332 -12 271 -12Q258 -12 243 -10T210 -1Q190 7 174 23V-210H80V510H174V246Q174 208 176 173T198 109Q213 85 234 75T282 64Q307 64 326 69T359 84T384 103T401 124Q414 143 421 164T431 206T436 244T437 274V510H531V0Z"  />
<glyph unicode="&#xB6;" horiz-adv-x="600" d="M236 333Q189 330 150 343T81 380T36 439T20 512Q20 558 34 590T70 643T119 675T172 692T220 699T256 700H527V-112H439V628H324V-112H236V333Z"  />
<glyph unicode="&#xB7;" horiz-adv-x="277" d="M140 362Q165 362 181 346T198 304Q198 275 179 260T140 244Q116 244 98 262T80 304Q80 324 95 343T140 362Z"  />
<glyph unicode="&#xB8;" horiz-adv-x="285" d="M157 9L152 -31Q171 -32 186 -38T211 -55Q222 -66 228 -82T235 -122Q235 -141 227 -159T204 -190Q196 -197 177 -206T123 -215Q100 -215 83 -208T50 -190L75 -144Q85 -152 96 -156T120 -161Q142 -161 154 -149Q158 -145 162 -139T166 -122Q166 -101 154 -90Q146 -82 136 -80T117 -78Q109 -78 103 -78T88 -80L100 9H157Z"  />
<glyph unicode="&#xB9;" horiz-adv-x="361" d="M154 628L84 573L50 619L161 704H242V282H154V628Z"  />
<glyph unicode="&#xBA;" horiz-adv-x="397" d="M198 388Q162 388 131 400T76 433T39 483T26 549Q26 577 35 605T66 657T119 695T198 710Q237 710 268 698T322 665T357 614T370 549Q370 514 357 485T322 434T267 400T198 388ZM108 549Q108 504 129 475T198 446Q229 446 247 458T274 486T285 520T288 549Q288 577 281 597T260 629T231 646T198 652Q181 652 165 647T137 629T116 597T108 549Z"  />
<glyph unicode="&#xBB;" horiz-adv-x="556" d="M505 269L362 67H274L404 269L274 471H362L505 269ZM303 269L160 67H72L202 269L72 471H160L303 269Z"  />
<glyph unicode="&#xBC;" horiz-adv-x="834" d="M661 83H449V144L633 422H749V153H801V83H749V0H661V83ZM661 352H659L531 153H661V352ZM137 624L67 569L33 615L144 700H225V278H137V624ZM576 720H648L215 -22H143L576 720Z"  />
<glyph unicode="&#xBD;" horiz-adv-x="834" d="M502 76Q512 84 531 99T573 133T619 174T662 218T693 262T706 303Q706 318 698 328T678 345T652 355T626 358Q600 358 573 351T522 329L516 403Q575 428 641 428Q670 428 697 422T746 401T781 363T794 307Q794 276 771 239T716 168T652 108T602 72V70H801V0H502V76ZM137 625L67 570L33 616L144 700H225V279H137V625ZM545 720H617L184 -22H112L545 720Z"  />
<glyph unicode="&#xBE;" horiz-adv-x="834" d="M661 83H449V144L633 422H749V153H801V83H749V0H661V83ZM661 352H659L531 153H661V352ZM93 536H139Q153 536 170 539T202 549T227 567T238 593Q238 607 229 616T207 630T178 638T149 640Q121 640 97 634T52 618L48 690Q71 698 103 704T171 710Q201 710 228 704T278 684T313 649T326 597Q326 576 318 560T295 532T262 513T226 502V500Q271 494 300 468T330 395Q330 357 314 334T271 298T211 281T145 276Q111 276 83 281T32 292L42 368Q46 364 56 360T78 353T106 348T136 346Q150 346 168 348T202 356T230 372T242 399Q242 416 233 428T208 449T176 462T142 466H93V536ZM619 720H691L258 -22H186L619 720Z"  />
<glyph unicode="&#xBF;" horiz-adv-x="500" d="M305 588H193V700H305V588ZM296 485Q296 468 294 449T282 408Q274 389 260 369T234 337L223 324Q210 309 197 293T174 260T157 224T150 181Q150 149 162 129T186 99Q205 83 226 78T271 72Q291 72 330 78T419 115L426 23Q380 3 335 -3T260 -10Q218 -10 180 0T114 31Q84 54 64 91T44 174Q44 201 50 222T68 263T93 299T122 334L147 364Q150 368 156 376T170 395T183 417T194 440Q199 453 200 463T202 488V506H296V485Z"  />
<glyph unicode="&#xC0;" horiz-adv-x="722" d="M447 748H367L245 871H360L447 748ZM359 606L220 259H498L359 606ZM310 700H415L710 0H601L530 177H188L117 0H12L310 700Z"  />
<glyph unicode="&#xC1;" horiz-adv-x="722" d="M462 871L340 748H260L347 871H462ZM359 606L220 259H498L359 606ZM310 700H415L710 0H601L530 177H188L117 0H12L310 700Z"  />
<glyph unicode="&#xC2;" horiz-adv-x="722" d="M415 876L520 748H424L361 829L298 748H202L307 876H415ZM359 606L220 259H498L359 606ZM310 700H415L710 0H601L530 177H188L117 0H12L310 700Z"  />
<glyph unicode="&#xC3;" horiz-adv-x="722" d="M191 748Q194 789 215 821Q232 846 252 853T287 860Q301 860 314 856T340 847L369 835Q388 827 404 821T439 814Q464 814 475 832Q482 844 485 860H531Q529 845 524 826T512 794Q499 770 479 759T436 748Q422 748 408 752T382 761L353 773Q334 781 318 787T283 794Q261 794 249 779Q244 773 242 765T237 748H191ZM359 606L220 259H498L359 606ZM310 700H415L710 0H601L530 177H188L117 0H12L310 700Z"  />
<glyph unicode="&#xC4;" horiz-adv-x="722" d="M523 862V757H415V862H523ZM307 862V757H199V862H307ZM359 606L220 259H498L359 606ZM310 700H415L710 0H601L530 177H188L117 0H12L310 700Z"  />
<glyph unicode="&#xC5;" horiz-adv-x="722" d="M310 700H415L710 0H601L530 177H188L117 0H12L310 700ZM359 606L220 259H498L359 606ZM260 827Q260 848 268 866T290 898T322 920T361 928Q382 928 400 920T432 898T454 866T462 827Q462 806 454 788T432 756T400 734T361 726Q340 726 322 734T290 756T268 788T260 827ZM306 827Q306 803 321 788T361 772Q385 772 400 787T416 827Q416 851 401 866T361 882Q337 882 322 867T306 827Z"  />
<glyph unicode="&#xC6;" horiz-adv-x="944" d="M424 700H863V612H586L599 406H845V318H604L618 88H873V0H526L515 176H218L113 0H2L424 700ZM488 628H486L266 258H510L488 628Z"  />
<glyph unicode="&#xC7;" horiz-adv-x="625" d="M571 583Q538 603 502 612T427 622Q380 622 336 608T256 566Q214 533 187 478T159 350Q159 286 179 240T225 164Q261 122 313 100T437 78Q463 78 497 84T574 111L580 15Q535 -2 498 -6T437 -10L434 -33Q457 -33 472 -41T496 -58Q522 -84 522 -128Q522 -148 513 -167T489 -199Q472 -214 449 -220T404 -226Q389 -226 369 -220T327 -199L354 -151Q366 -161 378 -165T401 -169Q414 -169 422 -165T437 -156Q449 -144 449 -128Q449 -118 446 -109T437 -94Q429 -86 418 -84T398 -82Q390 -82 383 -82T367 -84L378 -7Q306 -2 247 25T149 93Q110 134 82 199T53 351Q53 388 59 426T81 500T121 570T183 633Q242 678 306 694T427 710Q484 710 519 701T579 680L571 583Z"  />
<glyph unicode="&#xC8;" horiz-adv-x="554" d="M363 748H283L161 871H276L363 748ZM94 700H485V612H194V407H459V319H194V88H485V0H94V700Z"  />
<glyph unicode="&#xC9;" horiz-adv-x="554" d="M378 871L256 748H176L263 871H378ZM94 700H485V612H194V407H459V319H194V88H485V0H94V700Z"  />
<glyph unicode="&#xCA;" horiz-adv-x="554" d="M331 876L436 748H340L277 829L214 748H118L223 876H331ZM94 700H485V612H194V407H459V319H194V88H485V0H94V700Z"  />
<glyph unicode="&#xCB;" horiz-adv-x="554" d="M439 862V757H331V862H439ZM223 862V757H115V862H223ZM94 700H485V612H194V407H459V319H194V88H485V0H94V700Z"  />
<glyph unicode="&#xCC;" horiz-adv-x="288" d="M230 748H150L28 871H143L230 748ZM94 700H194V0H94V700Z"  />
<glyph unicode="&#xCD;" horiz-adv-x="288" d="M245 871L123 748H43L130 871H245ZM94 700H194V0H94V700Z"  />
<glyph unicode="&#xCE;" horiz-adv-x="288" d="M198 876L303 748H207L144 829L81 748H-15L90 876H198ZM94 700H194V0H94V700Z"  />
<glyph unicode="&#xCF;" horiz-adv-x="288" d="M306 862V757H198V862H306ZM90 862V757H-18V862H90ZM94 700H194V0H94V700Z"  />
<glyph unicode="&#xD0;" horiz-adv-x="723" d="M183 407H366V343H183V88H288Q417 88 486 152T556 352Q556 408 538 456T485 538T404 592T298 612H183V407ZM83 343H15V407H83V700H289Q367 700 435 677T553 609T633 501T662 356Q662 268 636 202T562 90T445 23T289 0H83V343Z"  />
<glyph unicode="&#xD1;" horiz-adv-x="722" d="M191 748Q194 789 215 821Q232 846 252 853T287 860Q301 860 314 856T340 847L369 835Q388 827 404 821T439 814Q464 814 475 832Q482 844 485 860H531Q529 845 524 826T512 794Q499 770 479 759T436 748Q422 748 408 752T382 761L353 773Q334 781 318 787T283 794Q261 794 249 779Q244 773 242 765T237 748H191ZM88 700H224L532 136H534V700H634V0H506L190 576H188V0H88V700Z"  />
<glyph unicode="&#xD2;" horiz-adv-x="778" d="M475 748H395L273 871H388L475 748ZM389 622Q327 622 285 598T218 542Q191 507 175 456T159 350Q159 305 172 253T218 158Q244 125 285 102T389 78Q452 78 493 101T560 158Q592 200 605 252T619 350Q619 404 603 455T560 542Q536 573 494 597T389 622ZM389 710Q474 710 535 682T639 604Q678 559 701 495T725 350Q725 268 701 203T639 95Q622 76 599 57T546 23T476 -1T389 -10Q341 -10 302 -1T233 23T179 57T139 95Q101 138 77 203T53 350Q53 431 76 495T139 604Q182 654 243 682T389 710Z"  />
<glyph unicode="&#xD3;" horiz-adv-x="778" d="M490 871L368 748H288L375 871H490ZM389 622Q327 622 285 598T218 542Q191 507 175 456T159 350Q159 305 172 253T218 158Q244 125 285 102T389 78Q452 78 493 101T560 158Q592 200 605 252T619 350Q619 404 603 455T560 542Q536 573 494 597T389 622ZM389 710Q474 710 535 682T639 604Q678 559 701 495T725 350Q725 268 701 203T639 95Q622 76 599 57T546 23T476 -1T389 -10Q341 -10 302 -1T233 23T179 57T139 95Q101 138 77 203T53 350Q53 431 76 495T139 604Q182 654 243 682T389 710Z"  />
<glyph unicode="&#xD4;" horiz-adv-x="778" d="M443 876L548 748H452L389 829L326 748H230L335 876H443ZM389 622Q327 622 285 598T218 542Q191 507 175 456T159 350Q159 305 172 253T218 158Q244 125 285 102T389 78Q452 78 493 101T560 158Q592 200 605 252T619 350Q619 404 603 455T560 542Q536 573 494 597T389 622ZM389 710Q474 710 535 682T639 604Q678 559 701 495T725 350Q725 268 701 203T639 95Q622 76 599 57T546 23T476 -1T389 -10Q341 -10 302 -1T233 23T179 57T139 95Q101 138 77 203T53 350Q53 431 76 495T139 604Q182 654 243 682T389 710Z"  />
<glyph unicode="&#xD5;" horiz-adv-x="778" d="M219 748Q222 789 243 821Q260 846 280 853T315 860Q329 860 342 856T368 847L397 835Q416 827 432 821T467 814Q492 814 503 832Q510 844 513 860H559Q557 845 552 826T540 794Q527 770 507 759T464 748Q450 748 436 752T410 761L381 773Q362 781 346 787T311 794Q289 794 277 779Q272 773 270 765T265 748H219ZM389 622Q327 622 285 598T218 542Q191 507 175 456T159 350Q159 305 172 253T218 158Q244 125 285 102T389 78Q452 78 493 101T560 158Q592 200 605 252T619 350Q619 404 603 455T560 542Q536 573 494 597T389 622ZM389 710Q474 710 535 682T639 604Q678 559 701 495T725 350Q725 268 701 203T639 95Q622 76 599 57T546 23T476 -1T389 -10Q341 -10 302 -1T233 23T179 57T139 95Q101 138 77 203T53 350Q53 431 76 495T139 604Q182 654 243 682T389 710Z"  />
<glyph unicode="&#xD6;" horiz-adv-x="778" d="M551 862V757H443V862H551ZM335 862V757H227V862H335ZM389 622Q327 622 285 598T218 542Q191 507 175 456T159 350Q159 305 172 253T218 158Q244 125 285 102T389 78Q452 78 493 101T560 158Q592 200 605 252T619 350Q619 404 603 455T560 542Q536 573 494 597T389 622ZM389 710Q474 710 535 682T639 604Q678 559 701 495T725 350Q725 268 701 203T639 95Q622 76 599 57T546 23T476 -1T389 -10Q341 -10 302 -1T233 23T179 57T139 95Q101 138 77 203T53 350Q53 431 76 495T139 604Q182 654 243 682T389 710Z"  />
<glyph unicode="&#xD7;" horiz-adv-x="600" d="M68 423L130 485L300 314L470 485L532 423L361 253L532 83L470 21L300 192L130 21L68 83L238 253L68 423Z"  />
<glyph unicode="&#xD8;" horiz-adv-x="726" d="M480 574Q453 597 418 611T337 624Q279 624 236 602T165 541T122 454T107 351Q107 299 120 250T162 162L480 574ZM99 81Q51 129 26 197T1 351Q1 429 23 495T89 609T195 684T337 712Q397 712 447 696T539 650L592 719L628 691L574 620Q623 570 648 502T673 351Q673 271 651 205T585 91T480 17T337 -10Q216 -10 134 51L80 -19L42 7L99 81ZM194 128Q220 105 256 92T337 78Q397 78 440 101T512 162T553 250T567 351Q567 404 553 452T511 539L194 128Z"  />
<glyph unicode="&#xD9;" horiz-adv-x="722" d="M447 748H367L245 871H360L447 748ZM632 290Q632 247 626 212T610 150T587 101T559 65Q551 56 535 43T495 19T438 -1T361 -10Q317 -10 284 -2T227 18T187 43T163 65Q134 96 112 150T90 290V700H190V303Q190 284 191 263T196 220T207 179T227 140Q241 120 257 108T291 89T326 80T361 78Q377 78 395 80T430 88T464 107T495 140Q507 158 514 178T526 220T531 262T532 303V700H632V290Z"  />
<glyph unicode="&#xDA;" horiz-adv-x="722" d="M462 871L340 748H260L347 871H462ZM632 290Q632 247 626 212T610 150T587 101T559 65Q551 56 535 43T495 19T438 -1T361 -10Q317 -10 284 -2T227 18T187 43T163 65Q134 96 112 150T90 290V700H190V303Q190 284 191 263T196 220T207 179T227 140Q241 120 257 108T291 89T326 80T361 78Q377 78 395 80T430 88T464 107T495 140Q507 158 514 178T526 220T531 262T532 303V700H632V290Z"  />
<glyph unicode="&#xDB;" horiz-adv-x="722" d="M415 876L520 748H424L361 829L298 748H202L307 876H415ZM632 290Q632 247 626 212T610 150T587 101T559 65Q551 56 535 43T495 19T438 -1T361 -10Q317 -10 284 -2T227 18T187 43T163 65Q134 96 112 150T90 290V700H190V303Q190 284 191 263T196 220T207 179T227 140Q241 120 257 108T291 89T326 80T361 78Q377 78 395 80T430 88T464 107T495 140Q507 158 514 178T526 220T531 262T532 303V700H632V290Z"  />
<glyph unicode="&#xDC;" horiz-adv-x="722" d="M523 862V757H415V862H523ZM307 862V757H199V862H307ZM632 290Q632 247 626 212T610 150T587 101T559 65Q551 56 535 43T495 19T438 -1T361 -10Q317 -10 284 -2T227 18T187 43T163 65Q134 96 112 150T90 290V700H190V303Q190 284 191 263T196 220T207 179T227 140Q241 120 257 108T291 89T326 80T361 78Q377 78 395 80T430 88T464 107T495 140Q507 158 514 178T526 220T531 262T532 303V700H632V290Z"  />
<glyph unicode="&#xDD;" horiz-adv-x="667" d="M434 871L312 748H232L319 871H434ZM284 293L11 700H128L336 386L539 700H656L384 293V0H284V293Z"  />
<glyph unicode="&#xDE;" horiz-adv-x="556" d="M83 700H183V596H266Q320 596 367 586T450 551T507 487T528 387Q528 329 507 289T452 224T373 188T281 177H183V0H83V700ZM183 265H282Q305 265 330 271T375 292T409 329T422 388Q422 421 407 444T368 481T318 501T268 508H183V265Z"  />
<glyph unicode="&#xDF;" horiz-adv-x="611" d="M80 0V474Q80 542 93 595T135 686T210 742T325 762Q361 762 397 750T462 714T510 652T528 566Q528 439 411 403V401Q447 397 474 380T521 338T550 281T560 217Q560 171 546 131T503 60T433 12T339 -6Q314 -6 291 -3T242 8V87Q281 70 321 70Q349 70 374 79T419 107T449 151T460 213Q460 256 446 284T407 328T348 351T272 357V433Q307 433 336 439T385 460T417 500T428 563Q428 587 421 609T399 648T364 676T316 686Q274 686 247 668T203 622T181 558T174 489V0H80Z"  />
<glyph unicode="&#xE0;" horiz-adv-x="556" d="M344 581H277L146 725H255L344 581ZM383 243Q369 244 356 244T329 245Q273 245 239 238T183 217Q160 202 153 184T146 149Q146 126 154 112T173 90Q187 79 206 74T246 68Q275 68 302 78T349 108Q362 122 372 144T383 199V243ZM103 474Q127 489 153 497T202 510T246 516T279 518Q327 518 365 506T429 468Q446 451 455 432T470 393T476 352T477 310V103Q477 94 477 81T477 52T478 23T481 0H393V69H391Q359 26 314 9T224 -8Q189 -8 157 1T102 28Q79 45 63 73T46 144Q46 157 49 174T60 211T84 248T126 280Q135 285 150 291T188 302T243 310T319 314Q333 314 351 314T383 312V340Q383 355 379 375T353 415Q331 434 305 438T260 442Q233 442 194 433T109 392L103 474Z"  />
<glyph unicode="&#xE1;" horiz-adv-x="556" d="M301 725H410L279 581H212L301 725ZM383 243Q369 244 356 244T329 245Q273 245 239 238T183 217Q160 202 153 184T146 149Q146 126 154 112T173 90Q187 79 206 74T246 68Q275 68 302 78T349 108Q362 122 372 144T383 199V243ZM103 474Q127 489 153 497T202 510T246 516T279 518Q327 518 365 506T429 468Q446 451 455 432T470 393T476 352T477 310V103Q477 94 477 81T477 52T478 23T481 0H393V69H391Q359 26 314 9T224 -8Q189 -8 157 1T102 28Q79 45 63 73T46 144Q46 157 49 174T60 211T84 248T126 280Q135 285 150 291T188 302T243 310T319 314Q333 314 351 314T383 312V340Q383 355 379 375T353 415Q331 434 305 438T260 442Q233 442 194 433T109 392L103 474Z"  />
<glyph unicode="&#xE2;" horiz-adv-x="556" d="M232 725H323L423 581H343L277 679L212 581H133L232 725ZM383 243Q369 244 356 244T329 245Q273 245 239 238T183 217Q160 202 153 184T146 149Q146 126 154 112T173 90Q187 79 206 74T246 68Q275 68 302 78T349 108Q362 122 372 144T383 199V243ZM103 474Q127 489 153 497T202 510T246 516T279 518Q327 518 365 506T429 468Q446 451 455 432T470 393T476 352T477 310V103Q477 94 477 81T477 52T478 23T481 0H393V69H391Q359 26 314 9T224 -8Q189 -8 157 1T102 28Q79 45 63 73T46 144Q46 157 49 174T60 211T84 248T126 280Q135 285 150 291T188 302T243 310T319 314Q333 314 351 314T383 312V340Q383 355 379 375T353 415Q331 434 305 438T260 442Q233 442 194 433T109 392L103 474Z"  />
<glyph unicode="&#xE3;" horiz-adv-x="556" d="M116 586Q118 606 123 625T138 659Q153 684 172 691T207 698Q221 698 233 694T257 685L285 673Q298 668 314 660T351 652Q366 652 373 657T385 670Q392 683 395 698H439Q437 682 432 664T420 632Q406 604 386 595T348 586Q334 586 321 590T297 599L269 611Q256 616 240 624T203 632Q189 632 183 628T171 617Q162 604 159 586H116ZM383 243Q369 244 356 244T329 245Q273 245 239 238T183 217Q160 202 153 184T146 149Q146 126 154 112T173 90Q187 79 206 74T246 68Q275 68 302 78T349 108Q362 122 372 144T383 199V243ZM103 474Q127 489 153 497T202 510T246 516T279 518Q327 518 365 506T429 468Q446 451 455 432T470 393T476 352T477 310V103Q477 94 477 81T477 52T478 23T481 0H393V69H391Q359 26 314 9T224 -8Q189 -8 157 1T102 28Q79 45 63 73T46 144Q46 157 49 174T60 211T84 248T126 280Q135 285 150 291T188 302T243 310T319 314Q333 314 351 314T383 312V340Q383 355 379 375T353 415Q331 434 305 438T260 442Q233 442 194 433T109 392L103 474Z"  />
<glyph unicode="&#xE4;" horiz-adv-x="556" d="M313 688H407V588H313V688ZM149 688H243V588H149V688ZM383 243Q369 244 356 244T329 245Q273 245 239 238T183 217Q160 202 153 184T146 149Q146 126 154 112T173 90Q187 79 206 74T246 68Q275 68 302 78T349 108Q362 122 372 144T383 199V243ZM103 474Q127 489 153 497T202 510T246 516T279 518Q327 518 365 506T429 468Q446 451 455 432T470 393T476 352T477 310V103Q477 94 477 81T477 52T478 23T481 0H393V69H391Q359 26 314 9T224 -8Q189 -8 157 1T102 28Q79 45 63 73T46 144Q46 157 49 174T60 211T84 248T126 280Q135 285 150 291T188 302T243 310T319 314Q333 314 351 314T383 312V340Q383 355 379 375T353 415Q331 434 305 438T260 442Q233 442 194 433T109 392L103 474Z"  />
<glyph unicode="&#xE5;" horiz-adv-x="556" d="M103 474Q127 489 153 497T202 510T246 516T279 518Q327 518 365 506T429 468Q446 451 455 432T470 393T476 352T477 310V103Q477 94 477 81T477 52T478 23T481 0H393V69H391Q359 26 314 9T224 -8Q189 -8 157 1T102 28Q79 45 63 73T46 144Q46 157 49 174T60 211T84 248T126 280Q135 285 150 291T188 302T243 310T319 314Q333 314 351 314T383 312V340Q383 355 379 375T353 415Q331 434 305 438T260 442Q233 442 194 433T109 392L103 474ZM383 243Q369 244 356 244T329 245Q273 245 239 238T183 217Q160 202 153 184T146 149Q146 126 154 112T173 90Q187 79 206 74T246 68Q275 68 302 78T349 108Q362 122 372 144T383 199V243ZM176 665Q176 686 184 704T206 737T238 759T278 767Q299 767 317 759T350 737T372 705T380 665Q380 644 372 626T350 593T318 571T278 563Q257 563 239 571T206 593T184 625T176 665ZM216 665Q216 639 234 621T278 603Q304 603 322 621T340 665Q340 691 322 709T278 727Q252 727 234 709T216 665Z"  />
<glyph unicode="&#xE6;" horiz-adv-x="889" d="M102 470Q135 490 178 504T271 518Q296 518 322 513T371 498T414 471T447 430Q474 478 522 498T624 518Q689 518 732 495T801 432T837 341T848 234H487Q487 199 499 169T534 116T587 80T654 67Q692 67 730 82T795 119V26Q762 11 725 2T649 -8Q616 -8 583 -2T519 17T465 53T429 109H427Q419 79 400 57T356 21T300 -1T238 -8Q202 -8 167 2T104 33T59 84T41 153Q41 205 67 236T131 285T211 308T287 314Q328 314 353 311T393 309Q393 346 382 371T351 413T305 436T249 443Q212 443 174 428T107 392L102 470ZM141 150Q141 129 149 114T172 88T204 72T241 67Q275 67 303 81T351 120T382 175T393 242Q382 242 360 243T303 245Q283 245 256 242T203 229T159 200T141 150ZM748 303Q748 328 740 353T715 398T675 430T623 443Q592 443 567 432T524 402T497 358T487 303H748Z"  />
<glyph unicode="&#xE7;" horiz-adv-x="444" d="M404 420Q380 431 353 436T302 442Q275 442 247 432T197 403Q170 379 154 340T138 255Q138 222 147 188T177 127Q197 102 231 85T308 68Q341 68 366 77T409 97L416 13Q393 2 370 -2T316 -8L313 -31Q332 -32 347 -38T372 -55Q383 -66 389 -82T396 -122Q396 -141 388 -159T365 -190Q357 -197 338 -206T284 -215Q261 -215 244 -208T211 -190L236 -144Q246 -152 257 -156T281 -161Q303 -161 315 -149Q319 -145 323 -139T327 -122Q327 -101 315 -90Q307 -82 297 -80T278 -78Q270 -78 264 -78T249 -80L259 -5Q205 3 167 26T106 74Q77 105 58 151T38 259Q38 310 57 363T126 459Q161 488 205 503T298 518Q313 518 343 515T412 498L404 420Z"  />
<glyph unicode="&#xE8;" horiz-adv-x="556" d="M344 581H277L146 725H255L344 581ZM410 304Q411 331 403 355T381 396Q369 411 345 426T280 442Q244 442 219 427T178 391Q164 372 156 350T146 304H410ZM146 234Q147 200 158 171T189 121Q209 98 241 83T317 68Q358 68 400 83T471 119V25L457 20Q446 16 434 12T405 3T364 -5T310 -8Q287 -8 261 -6T210 5T159 27T112 65Q100 77 89 95T68 136T52 190T46 257Q46 297 53 329T71 386T97 429T125 460Q148 481 187 499T285 518Q352 518 392 496T454 446Q483 411 496 361T510 261V234H146Z"  />
<glyph unicode="&#xE9;" horiz-adv-x="556" d="M301 725H410L279 581H212L301 725ZM410 304Q411 331 403 355T381 396Q369 411 345 426T280 442Q244 442 219 427T178 391Q164 372 156 350T146 304H410ZM146 234Q147 200 158 171T189 121Q209 98 241 83T317 68Q358 68 400 83T471 119V25L457 20Q446 16 434 12T405 3T364 -5T310 -8Q287 -8 261 -6T210 5T159 27T112 65Q100 77 89 95T68 136T52 190T46 257Q46 297 53 329T71 386T97 429T125 460Q148 481 187 499T285 518Q352 518 392 496T454 446Q483 411 496 361T510 261V234H146Z"  />
<glyph unicode="&#xEA;" horiz-adv-x="556" d="M232 725H323L423 581H343L277 679L212 581H133L232 725ZM410 304Q411 331 403 355T381 396Q369 411 345 426T280 442Q244 442 219 427T178 391Q164 372 156 350T146 304H410ZM146 234Q147 200 158 171T189 121Q209 98 241 83T317 68Q358 68 400 83T471 119V25L457 20Q446 16 434 12T405 3T364 -5T310 -8Q287 -8 261 -6T210 5T159 27T112 65Q100 77 89 95T68 136T52 190T46 257Q46 297 53 329T71 386T97 429T125 460Q148 481 187 499T285 518Q352 518 392 496T454 446Q483 411 496 361T510 261V234H146Z"  />
<glyph unicode="&#xEB;" horiz-adv-x="556" d="M313 688H407V588H313V688ZM149 688H243V588H149V688ZM410 304Q411 331 403 355T381 396Q369 411 345 426T280 442Q244 442 219 427T178 391Q164 372 156 350T146 304H410ZM146 234Q147 200 158 171T189 121Q209 98 241 83T317 68Q358 68 400 83T471 119V25L457 20Q446 16 434 12T405 3T364 -5T310 -8Q287 -8 261 -6T210 5T159 27T112 65Q100 77 89 95T68 136T52 190T46 257Q46 297 53 329T71 386T97 429T125 460Q148 481 187 499T285 518Q352 518 392 496T454 446Q483 411 496 361T510 261V234H146Z"  />
<glyph unicode="&#xEC;" horiz-adv-x="242" d="M187 581H120L-11 725H98L187 581ZM74 510H168V0H74V510Z"  />
<glyph unicode="&#xED;" horiz-adv-x="242" d="M144 725H253L122 581H55L144 725ZM74 510H168V0H74V510Z"  />
<glyph unicode="&#xEE;" horiz-adv-x="242" d="M75 725H166L266 581H186L120 679L55 581H-24L75 725ZM74 510H168V0H74V510Z"  />
<glyph unicode="&#xEF;" horiz-adv-x="242" d="M156 688H250V588H156V688ZM-8 688H86V588H-8V688ZM74 510H168V0H74V510Z"  />
<glyph unicode="&#xF0;" horiz-adv-x="611" d="M146 255Q146 223 155 190T181 132Q204 100 238 84T308 67Q343 67 374 82T427 127Q445 152 455 187T465 255Q465 289 455 324T420 389Q391 423 360 433T306 443Q263 443 237 427T197 395Q174 370 160 336T146 255ZM218 645Q173 671 141 684T93 702L165 755Q192 745 212 737T248 721T277 706T302 690L424 755L470 702L366 647Q394 627 430 591T498 501Q529 448 547 387T565 263Q565 197 545 151T499 75Q487 61 469 47T428 20T374 0T306 -8Q284 -8 259 -4T207 10T156 38T107 83Q86 109 66 150T46 255Q46 291 52 320T70 374T95 416T124 449Q134 459 150 471T188 493T239 511T306 518Q326 518 346 514T390 497H392Q377 518 352 544T283 603L154 535L108 587L218 645Z"  />
<glyph unicode="&#xF1;" horiz-adv-x="604" d="M140 586Q142 606 147 625T162 659Q177 684 196 691T231 698Q245 698 257 694T281 685L309 673Q322 668 338 660T375 652Q390 652 397 657T409 670Q416 683 419 698H463Q461 682 456 664T444 632Q430 604 410 595T372 586Q358 586 345 590T321 599L293 611Q280 616 264 624T227 632Q213 632 207 628T195 617Q186 604 183 586H140ZM80 510H174V437H176Q187 454 203 469T243 496Q265 507 288 512T340 518Q355 518 373 516T411 508T449 491T484 462Q499 444 508 424T523 382T529 341T531 303V0H437V264Q437 282 436 301T432 340T423 376T405 408Q397 417 377 429T322 442Q290 442 265 430T222 398Q205 379 196 357T181 312T175 269T174 236V0H80V510Z"  />
<glyph unicode="&#xF2;" horiz-adv-x="610" d="M371 581H304L173 725H282L371 581ZM305 442Q267 442 236 425T185 382Q165 356 156 323T146 255Q146 216 156 184T185 128Q200 107 217 95T251 77T282 70T305 68Q314 68 328 69T358 77T392 95T425 128Q443 151 453 183T464 255Q464 294 454 326T425 382Q402 413 370 427T305 442ZM305 518Q341 518 371 511T425 493T467 467T498 438Q532 400 548 352T564 255Q564 206 548 158T498 72Q485 58 467 44T425 18T371 -1T305 -8Q269 -8 239 -1T185 17T143 43T112 72Q78 110 62 158T46 255Q46 304 62 352T112 438Q125 452 143 466T185 492T239 511T305 518Z"  />
<glyph unicode="&#xF3;" horiz-adv-x="610" d="M328 725H437L306 581H239L328 725ZM305 442Q267 442 236 425T185 382Q165 356 156 323T146 255Q146 216 156 184T185 128Q200 107 217 95T251 77T282 70T305 68Q314 68 328 69T358 77T392 95T425 128Q443 151 453 183T464 255Q464 294 454 326T425 382Q402 413 370 427T305 442ZM305 518Q341 518 371 511T425 493T467 467T498 438Q532 400 548 352T564 255Q564 206 548 158T498 72Q485 58 467 44T425 18T371 -1T305 -8Q269 -8 239 -1T185 17T143 43T112 72Q78 110 62 158T46 255Q46 304 62 352T112 438Q125 452 143 466T185 492T239 511T305 518Z"  />
<glyph unicode="&#xF4;" horiz-adv-x="610" d="M259 725H350L450 581H370L304 679L239 581H160L259 725ZM305 442Q267 442 236 425T185 382Q165 356 156 323T146 255Q146 216 156 184T185 128Q200 107 217 95T251 77T282 70T305 68Q314 68 328 69T358 77T392 95T425 128Q443 151 453 183T464 255Q464 294 454 326T425 382Q402 413 370 427T305 442ZM305 518Q341 518 371 511T425 493T467 467T498 438Q532 400 548 352T564 255Q564 206 548 158T498 72Q485 58 467 44T425 18T371 -1T305 -8Q269 -8 239 -1T185 17T143 43T112 72Q78 110 62 158T46 255Q46 304 62 352T112 438Q125 452 143 466T185 492T239 511T305 518Z"  />
<glyph unicode="&#xF5;" horiz-adv-x="610" d="M143 586Q145 606 150 625T165 659Q180 684 199 691T234 698Q248 698 260 694T284 685L312 673Q325 668 341 660T378 652Q393 652 400 657T412 670Q419 683 422 698H466Q464 682 459 664T447 632Q433 604 413 595T375 586Q361 586 348 590T324 599L296 611Q283 616 267 624T230 632Q216 632 210 628T198 617Q189 604 186 586H143ZM305 442Q267 442 236 425T185 382Q165 356 156 323T146 255Q146 216 156 184T185 128Q200 107 217 95T251 77T282 70T305 68Q314 68 328 69T358 77T392 95T425 128Q443 151 453 183T464 255Q464 294 454 326T425 382Q402 413 370 427T305 442ZM305 518Q341 518 371 511T425 493T467 467T498 438Q532 400 548 352T564 255Q564 206 548 158T498 72Q485 58 467 44T425 18T371 -1T305 -8Q269 -8 239 -1T185 17T143 43T112 72Q78 110 62 158T46 255Q46 304 62 352T112 438Q125 452 143 466T185 492T239 511T305 518Z"  />
<glyph unicode="&#xF6;" horiz-adv-x="610" d="M340 688H434V588H340V688ZM176 688H270V588H176V688ZM305 442Q267 442 236 425T185 382Q165 356 156 323T146 255Q146 216 156 184T185 128Q200 107 217 95T251 77T282 70T305 68Q314 68 328 69T358 77T392 95T425 128Q443 151 453 183T464 255Q464 294 454 326T425 382Q402 413 370 427T305 442ZM305 518Q341 518 371 511T425 493T467 467T498 438Q532 400 548 352T564 255Q564 206 548 158T498 72Q485 58 467 44T425 18T371 -1T305 -8Q269 -8 239 -1T185 17T143 43T112 72Q78 110 62 158T46 255Q46 304 62 352T112 438Q125 452 143 466T185 492T239 511T305 518Z"  />
<glyph unicode="&#xF7;" horiz-adv-x="600" d="M224 65Q224 97 247 119T301 141Q316 141 329 135T353 119T370 94T377 65Q377 50 371 37T355 12T331 -5T302 -12Q286 -12 272 -6T248 11T231 36T224 65ZM224 441Q224 472 247 495T301 518Q316 518 329 512T353 495T370 470T377 441Q377 426 371 413T355 389T331 372T302 365Q286 365 272 371T247 388T230 412T224 441ZM47 297H553V209H47V297Z"  />
<glyph unicode="&#xF8;" horiz-adv-x="611" d="M403 406Q364 443 306 443Q268 443 239 427T189 385T157 325T146 255Q146 225 154 194T179 137L403 406ZM204 105Q223 88 248 78T306 67Q347 67 377 84T426 128T455 188T465 255Q465 289 456 320T429 376L204 105ZM121 68Q85 104 66 152T46 255Q46 312 64 360T117 444T199 498T306 518Q351 518 389 507T459 473L512 537L542 512L489 448Q526 413 545 364T565 255Q565 201 546 153T493 70T411 13T306 -8Q260 -8 221 5T151 41L94 -27L64 -2L121 68Z"  />
<glyph unicode="&#xF9;" horiz-adv-x="604" d="M368 581H301L170 725H279L368 581ZM524 0H430V73H428Q417 56 401 41T361 14Q339 3 316 -2T264 -8Q249 -8 231 -6T193 2T155 19T120 48Q105 66 96 86T81 128T75 169T73 207V510H167V246Q167 228 168 209T172 170T181 133T199 102Q207 93 227 81T282 68Q314 68 339 80T382 112Q399 131 408 153T423 198T429 240T430 274V510H524V0Z"  />
<glyph unicode="&#xFA;" horiz-adv-x="604" d="M325 725H434L303 581H236L325 725ZM524 0H430V73H428Q417 56 401 41T361 14Q339 3 316 -2T264 -8Q249 -8 231 -6T193 2T155 19T120 48Q105 66 96 86T81 128T75 169T73 207V510H167V246Q167 228 168 209T172 170T181 133T199 102Q207 93 227 81T282 68Q314 68 339 80T382 112Q399 131 408 153T423 198T429 240T430 274V510H524V0Z"  />
<glyph unicode="&#xFB;" horiz-adv-x="604" d="M256 725H347L447 581H367L301 679L236 581H157L256 725ZM524 0H430V73H428Q417 56 401 41T361 14Q339 3 316 -2T264 -8Q249 -8 231 -6T193 2T155 19T120 48Q105 66 96 86T81 128T75 169T73 207V510H167V246Q167 228 168 209T172 170T181 133T199 102Q207 93 227 81T282 68Q314 68 339 80T382 112Q399 131 408 153T423 198T429 240T430 274V510H524V0Z"  />
<glyph unicode="&#xFC;" horiz-adv-x="604" d="M337 688H431V588H337V688ZM173 688H267V588H173V688ZM524 0H430V73H428Q417 56 401 41T361 14Q339 3 316 -2T264 -8Q249 -8 231 -6T193 2T155 19T120 48Q105 66 96 86T81 128T75 169T73 207V510H167V246Q167 228 168 209T172 170T181 133T199 102Q207 93 227 81T282 68Q314 68 339 80T382 112Q399 131 408 153T423 198T429 240T430 274V510H524V0Z"  />
<glyph unicode="&#xFD;" horiz-adv-x="488" d="M267 725H376L245 581H178L267 725ZM42 -138Q52 -142 63 -144T83 -146Q100 -146 118 -140T151 -119Q168 -102 178 -78T192 -42L198 -20L186 18L7 510H110L250 91H252L389 510H484L293 -19Q275 -69 260 -103T226 -161Q197 -199 162 -210T95 -222Q74 -222 63 -220T41 -216L36 -215L42 -138Z"  />
<glyph unicode="&#xFE;" horiz-adv-x="611" d="M80 743H174V437H176Q198 472 238 495T345 518Q400 518 441 498T510 442T551 361T565 264Q565 212 553 163T514 76T446 15T346 -8Q278 -8 238 15T176 73H174V-203H80V743ZM465 257Q466 291 459 324T434 384T390 426T325 443Q287 443 259 427T211 384T183 323T174 254Q174 222 182 189T209 129T255 85T324 67Q362 67 389 85T433 132T458 194T465 257Z"  />
<glyph unicode="&#xFF;" horiz-adv-x="488" d="M279 688H373V588H279V688ZM115 688H209V588H115V688ZM42 -138Q52 -142 63 -144T83 -146Q100 -146 118 -140T151 -119Q168 -102 178 -78T192 -42L198 -20L186 18L7 510H110L250 91H252L389 510H484L293 -19Q275 -69 260 -103T226 -161Q197 -199 162 -210T95 -222Q74 -222 63 -220T41 -216L36 -215L42 -138Z"  />
<glyph unicode="&#x152;" horiz-adv-x="944" d="M493 610Q478 612 463 614T432 616Q369 616 319 599T233 550T178 469T159 358Q159 292 179 241T235 154T322 101T433 82Q448 82 463 83T493 88V610ZM875 612H593V406H855V318H593V88H882V0H592Q553 0 514 -3T436 -6Q353 -6 283 18T161 89T82 204T53 358Q53 437 81 501T160 610T281 679T438 704Q475 704 511 702T584 700H875V612Z"  />
<glyph unicode="&#x153;" horiz-adv-x="944" d="M850 26Q817 11 780 2T704 -8Q631 -8 576 18T494 101Q480 71 458 51T408 17T352 -2T294 -8Q235 -8 188 12T109 67T59 150T41 255Q41 306 58 353T108 437T188 496T294 518Q364 518 417 494T497 420Q521 470 569 494T679 518Q744 518 787 495T856 432T892 341T903 234H542Q542 199 554 169T589 116T642 80T709 67Q747 67 785 82T850 119V26ZM141 255Q141 219 149 185T176 125T224 83T295 67Q332 67 360 84T408 128T438 188T448 255Q448 286 439 319T411 380T364 425T295 443Q255 443 226 426T178 381T150 320T141 255ZM803 303Q803 328 795 353T770 398T730 430T678 443Q647 443 622 432T579 402T552 358T542 303H803Z"  />
<glyph unicode="&#x160;" horiz-adv-x="500" d="M91 876H187L250 795L313 876H409L304 748H196L91 876ZM406 593Q366 611 333 616T275 622Q264 622 240 620T195 605Q178 595 166 578T153 530Q153 512 158 500T175 475Q198 449 225 437T275 413L301 400Q338 382 369 361T422 307Q433 290 443 263T453 195Q453 148 437 111T385 44Q349 14 306 2T208 -10Q179 -10 141 -4T55 19L65 111Q97 97 136 88T210 78Q235 78 262 84T312 113Q347 145 347 192Q347 218 338 237T310 271Q295 284 273 295T216 324L173 346Q151 357 123 375T75 422Q64 439 56 463T47 521Q47 552 54 576T73 619T97 649T121 669Q153 691 193 700T271 710Q326 710 365 701T420 685L406 593Z"  />
<glyph unicode="&#x161;" horiz-adv-x="406" d="M249 581H158L58 725H138L204 627L269 725H348L249 581ZM53 103Q95 80 126 74T172 68Q194 68 214 74T247 93Q255 100 260 111T266 139Q266 156 259 166T241 185Q227 196 207 207T173 225L153 234Q127 245 102 264T62 303Q51 320 48 336T45 365Q45 406 59 432T90 474Q113 494 147 506T225 518Q267 518 299 510T342 498L334 418Q315 429 291 435Q278 438 264 440T236 442Q219 442 203 439T174 429Q157 419 151 406T145 382Q145 364 153 351T175 328T205 311T237 296L252 289Q276 278 301 263T344 224Q354 209 360 189T366 145Q366 108 352 81T314 33Q287 10 255 1T181 -8Q138 -8 106 0T48 20L53 103Z"  />
<glyph unicode="&#x178;" horiz-adv-x="667" d="M495 862V757H387V862H495ZM279 862V757H171V862H279ZM284 293L11 700H128L336 386L539 700H656L384 293V0H284V293Z"  />
<glyph unicode="&#x17D;" horiz-adv-x="556" d="M119 876H215L278 795L341 876H437L332 748H224L119 876ZM32 90L394 612H44V700H509V610L148 88H515V0H32V90Z"  />
<glyph unicode="&#x17E;" horiz-adv-x="500" d="M296 581H205L105 725H185L251 627L316 725H395L296 581ZM43 82L337 434H57V510H446V428L152 76H457V0H43V82Z"  />
<glyph unicode="&#x192;" horiz-adv-x="556" d="M461 344H335L266 -24Q256 -78 244 -113T214 -171Q187 -204 152 -213T87 -222Q65 -222 53 -221T33 -217L49 -136Q58 -138 66 -139T79 -140Q92 -140 109 -136T140 -112Q149 -98 156 -75T166 -34L237 344H125L138 414H250L271 523Q278 557 291 597T331 666Q354 691 384 700T450 710Q461 710 478 709T505 705L523 702L509 622L501 624Q496 625 486 626T464 628Q452 628 439 626T412 614Q393 600 384 572T370 518L349 414H475L461 344Z"  />
<glyph unicode="&#x2C6;" horiz-adv-x="278" d="M93 725H184L284 581H204L138 679L73 581H-6L93 725Z"  />
<glyph unicode="&#x2C9;" horiz-adv-x="278" d="M-9 673H287V615H-9V673Z"  />
<glyph unicode="&#x2DC;" horiz-adv-x="523" d="M100 586Q102 606 107 625T122 659Q137 684 156 691T191 698Q205 698 217 694T241 685L269 673Q282 668 298 660T335 652Q350 652 357 657T369 670Q376 683 379 698H423Q421 682 416 664T404 632Q390 604 370 595T332 586Q318 586 305 590T281 599L253 611Q240 616 224 624T187 632Q173 632 167 628T155 617Q146 604 143 586H100Z"  />
<glyph unicode="&#x37E;" horiz-adv-x="278" d="M195 398H83V510H195V398ZM83 112H195L110 -133H20L83 112Z"  />
<glyph unicode="&#x3BC;" horiz-adv-x="611" d="M531 0H440V81H438Q427 62 411 44T375 14Q332 -12 271 -12Q258 -12 243 -10T210 -1Q190 7 174 23V-210H80V510H174V246Q174 208 176 173T198 109Q213 85 234 75T282 64Q307 64 326 69T359 84T384 103T401 124Q414 143 421 164T431 206T436 244T437 274V510H531V0Z"  />
<glyph unicode="&#x2013;" horiz-adv-x="650" d="M70 304H580V234H70V304Z"  />
<glyph unicode="&#x2014;" horiz-adv-x="920" d="M70 304H850V234H70V304Z"  />
<glyph unicode="&#x2018;" horiz-adv-x="278" d="M114 700H226L138 454H52L114 700Z"  />
<glyph unicode="&#x2019;" horiz-adv-x="278" d="M114 700H226L138 454H52L114 700Z"  />
<glyph unicode="&#x201A;" horiz-adv-x="278" d="M115 112H226L141 -133H52L115 112Z"  />
<glyph unicode="&#x201C;" horiz-adv-x="556" d="M396 454H286L370 700H460L396 454ZM208 454H96L182 700H270L208 454Z"  />
<glyph unicode="&#x201D;" horiz-adv-x="556" d="M349 700H460L375 454H286L349 700ZM159 700H270L185 454H96L159 700Z"  />
<glyph unicode="&#x201E;" horiz-adv-x="556" d="M349 112H460L375 -133H286L349 112ZM159 112H270L185 -133H96L159 112Z"  />
<glyph unicode="&#x2020;" horiz-adv-x="556" d="M234 453H67V523H234V698H322V523H489V453H322V0H234V453Z"  />
<glyph unicode="&#x2021;" horiz-adv-x="556" d="M322 162V0H234V162H67V232H234V466H67V536H234V698H322V536H489V466H322V232H489V162H322Z"  />
<glyph unicode="&#x2022;" horiz-adv-x="500" d="M76 349Q76 385 89 417T126 472T182 509T250 523Q287 523 319 510T374 473T411 417T425 349Q425 312 412 280T375 225T319 188T250 174Q214 174 182 187T127 224T90 280T76 349Z"  />
<glyph unicode="&#x2026;" horiz-adv-x="1000" d="M777 112H889V0H777V112ZM444 112H556V0H444V112ZM111 112H223V0H111V112Z"  />
<glyph unicode="&#x2030;" horiz-adv-x="1000" d="M153 310Q110 310 81 327T35 372T11 436T3 510Q3 550 9 586T32 650T78 694T153 710Q198 710 227 694T273 650T296 586T303 510Q303 472 296 436T271 372T225 327T153 310ZM153 380Q175 380 187 394T206 429T213 472T215 510Q215 527 215 549T209 592T191 626T153 640Q130 640 118 626T99 591T92 548T91 510Q91 495 92 473T99 430T117 395T153 380ZM511 720H583L150 -22H78L511 720ZM509 -12Q466 -12 437 5T391 50T367 114T359 188Q359 228 365 264T388 328T434 372T509 388Q554 388 583 372T629 328T652 264T659 188Q659 150 652 114T627 50T581 5T509 -12ZM509 58Q531 58 543 72T562 107T569 150T571 188Q571 205 571 227T565 270T547 304T509 318Q486 318 474 304T455 269T448 226T447 188Q447 173 448 151T455 108T473 73T509 58ZM847 -12Q804 -12 775 5T729 50T705 114T697 188Q697 228 703 264T726 328T772 372T847 388Q892 388 921 372T967 328T990 264T997 188Q997 150 990 114T965 50T919 5T847 -12ZM847 58Q869 58 881 72T900 107T907 150T909 188Q909 205 909 227T903 270T885 304T847 318Q824 318 812 304T793 269T786 226T785 188Q785 173 786 151T793 108T811 73T847 58Z"  />
<glyph unicode="&#x2039;" horiz-adv-x="354" d="M51 269L194 471H282L152 269L282 67H194L51 269Z"  />
<glyph unicode="&#x203A;" horiz-adv-x="354" d="M303 269L160 67H72L202 269L72 471H160L303 269Z"  />
<glyph unicode="&#x20AC;" horiz-adv-x="556" d="M0 453H53Q62 491 77 521T108 573T139 610T165 633Q208 668 269 689T399 710Q456 710 493 699T556 674L536 585Q499 608 462 615T399 622Q354 622 313 608T239 566Q220 550 207 533T184 501T170 473T163 453H506L492 395H150Q147 372 147 350Q147 342 147 334T149 317H474L460 259H160Q163 246 173 221T210 164Q251 114 300 96T409 78Q426 78 460 83T539 111L545 15Q519 5 486 -2T399 -10Q364 -10 329 -6T260 10T193 42T132 93Q97 131 78 176T50 259H-14L0 317H42Q41 325 41 334T41 351Q41 372 44 395H-14L0 453Z"  />
<glyph unicode="&#x2122;" horiz-adv-x="990" d="M484 700H602L711 418L818 700H936V283H860V602H858L741 283H679L562 602H560V283H484V700ZM182 630H54V700H386V630H258V283H182V630Z"  />


</font>
</defs>
<text x="40" y="40" font-family="FreeSet W01 Book" font-size="30" fill="#933" >ABCDEFGHIJKLMNOPQRSTUVWXYZ abcdefghijklmnopqrstuvwxyz AÁÀÂÄÅÃÆ CÇ DÐ EÉÈÊË I Í Ì Î Ï NÑ</text>
<text x="40" y="80" font-family="FreeSet W01 Book" font-size="30" fill="#933" >OÓÒÔÖÕØŒ SŠ UÚÙÛÜ YÝŸ ZŽ Þ aáàâäåãæ cç dð eéèêë i ı í ì î ï nñ oóòôöõøœ sšß uúùûü yýÿ zž</text>
<text x="40" y="120" font-family="FreeSet W01 Book" font-size="30" fill="#933" >þ 1234567890 ½ ¼ ¾ % ‰ $¢£¥ƒ€¤ † ‡ § ¶ # ^~µ +×± &lt; = &gt; ÷¬ !¡?¿ &quot; &amp; &apos; * ° . , : ; () [ \ ] {} / |</text>
<text x="40" y="160" font-family="FreeSet W01 Book" font-size="30" fill="#933" >¦ _ ‚ „ … ‹› «» ‘ ’ “ ” • ­ - – — @ © ® ™ ªº ¹²³ ´ ` ˆ ˜ ¨ ¯ · ¸</text>
</svg>
