<?xml version="1.0" standalone="no"?>
<!DOCTYPE svg PUBLIC "-//W3C//DTD SVG 1.1//EN" "http://www.w3.org/Graphics/SVG/1.1/DTD/svg11.dtd" >
<svg xmlns="http://www.w3.org/2000/svg">
<metadata>Generated by IcoMoon</metadata>
<defs>
<font id="JPMC_Logo" horiz-adv-x="512">
<font-face units-per-em="512" ascent="480" descent="-32" />
<missing-glyph horiz-adv-x="512" />
<glyph unicode="&#x20;" d="" horiz-adv-x="256" />
<glyph unicode="&#xe600;" d="M344.971 225.528l-112.389 74.393c-6.429 4.093-7.434 1.226-7.434-6.398v-150.923c0-7.635 1.1-10.522 7.53-6.398l113.901 74.394c6.419 4.072 4.812 10.808-1.608 14.931zM269.425 440.344c-118.448 0-214.816-96.347-214.816-214.816 0-118.438 96.368-214.817 214.816-214.817s214.816 96.379 214.816 214.816c0 118.47-96.368 214.816-214.817 214.816zM269.425 34.124c-95.416 0-191.404 95.977-191.404 191.404s95.977 191.414 191.404 191.414 191.415-95.987 191.415-191.414-95.998-191.404-191.414-191.404z" horiz-adv-x="532" />
<glyph unicode="&#xe601;" d="M452.542-10.74c0-7.267-3.58-10.002-9.699-6.091l-356.286 228.358c-6.144 3.911-5.787 10.32 0.344 14.244l355.757 228.266c6.131 3.911 9.884 1.163 9.884-6.091v-458.686z" horiz-adv-x="532" />
<glyph unicode="&#xe602;" d="M452.542-10.74c0-7.267-3.58-10.002-9.699-6.091l-356.286 228.358c-6.144 3.911-5.787 10.32 0.344 14.244l355.757 228.266c6.131 3.911 9.884 1.163 9.884-6.091v-458.686z" horiz-adv-x="532" />
<glyph unicode="&#xe603;" d="M233.069 91.144c35.754 0 69.73 10.945 98.547 30.846l116.27-116.281c4.146-4.146 14.001-1.005 22.027 7.022s11.167 17.882 7.011 22.017l-114.493 114.504 1.935 1.819c59.706 68.44 57.146 172.634-7.984 237.774-32.93 32.93-76.731 51.077-123.313 51.077-46.593 0-90.383-18.147-123.334-51.077-32.919-32.94-51.077-76.731-51.077-123.323 0-46.572 18.157-90.362 51.077-123.292 32.951-32.94 76.742-51.087 123.334-51.087zM134.279 364.322c26.384 26.363 61.46 40.882 98.79 40.882 37.286 0 72.385-14.519 98.779-40.882 54.439-54.471 54.439-143.087 0-197.558-26.394-26.373-61.482-40.904-98.779-40.904-37.319 0-72.406 14.53-98.79 40.904-26.374 26.373-40.904 61.45-40.904 98.758 0 37.339 14.53 72.406 40.904 98.8z" horiz-adv-x="532" />
<glyph unicode="&#xe604;" d="M469.901 168.921h-390.813c-8.502 0-15.428-7.117-15.428-15.862s6.927-15.862 15.428-15.862h390.813c8.502 0 15.428 7.117 15.428 15.862s-6.926 15.862-15.428 15.862zM469.901 253.519h-390.813c-8.502 0-15.428-7.117-15.428-15.862s6.927-15.862 15.428-15.862h390.813c8.502 0 15.428 7.117 15.428 15.862s-6.926 15.862-15.428 15.862zM469.901 338.118h-390.813c-8.502 0-15.428-7.117-15.428-15.862s6.927-15.862 15.428-15.862h390.813c8.502 0 15.428 7.117 15.428 15.862s-6.926 15.862-15.428 15.862z" horiz-adv-x="532" />
<glyph unicode="&#xe605;" d="M49.865 17.099c0-6.818 2.656-13.213 7.452-18.009 9.593-9.553 26.227-9.632 35.781-0.119l184.425 184.412 184.425-184.413c4.73-4.717 11.033-7.333 17.758-7.333 6.805 0 13.187 2.642 17.983 7.439 4.822 4.796 7.491 11.192 7.491 18.009 0 6.752-2.589 13.067-7.333 17.772l-184.413 184.452 184.425 184.425c4.743 4.704 7.346 11.019 7.346 17.772 0 6.818-2.669 13.213-7.478 18.009-9.592 9.566-26.281 9.606-35.754 0.119l-184.439-184.425-184.425 184.425c-9.526 9.514-26.227 9.394-35.754-0.132-4.822-4.796-7.492-11.191-7.492-17.996 0-6.738 2.59-13.041 7.306-17.772l184.452-184.425-184.452-184.439c-4.704-4.717-7.306-11.019-7.306-17.772z" horiz-adv-x="532" />
<glyph unicode="&#xe606;" d="M202.835 460.057h-26.636l-17.969-69.114-18.725 69.114h-27.726c5.543-16.313 11.336-32.712 16.897-49.042 8.444-24.534 13.73-43.052 16.107-55.675v-71.276h26.353v71.276l31.699 104.717zM273.27 326.507v45.944c0 14.022-2.394 24.268-7.372 30.901-6.582 8.95-15.815 13.438-27.726 13.438-11.834 0-21.101-4.488-27.666-13.438-5.054-6.624-7.448-16.88-7.448-30.901v-45.944c0-13.928 2.394-24.259 7.448-30.841 6.565-8.941 15.833-13.421 27.666-13.421 11.919 0 21.153 4.48 27.726 13.421 4.969 6.582 7.372 16.913 7.372 30.841zM249.491 322.045c0-12.125-3.664-18.201-11.327-18.201s-11.345 6.075-11.345 18.201v55.178c0 12.143 3.681 18.175 11.345 18.175s11.327-6.032 11.327-18.175v-55.178zM361.159 284.065v131.138h-23.779v-100.237c-5.252-7.448-10.255-11.13-15-11.13-3.192 0-5.063 1.88-5.578 5.56-0.292 0.772-0.292 3.673-0.292 9.25v96.556h-23.684v-103.696c0-9.259 0.789-15.541 2.103-19.505 2.368-6.642 7.654-9.757 15.3-9.757 8.675 0 17.695 5.269 27.151 16.124v-14.305h23.779zM373.911 150.901c-7.861 0-11.791-6.007-11.791-18.021v-11.988h23.504v11.997c0 12.005-3.93 18.012-11.714 18.012zM286.648 150.901c-3.861 0-7.783-1.853-11.722-5.724v-79.111c3.939-3.921 7.861-5.784 11.722-5.784 6.788 0 10.221 5.784 10.221 17.505v55.392c0.009 11.714-3.433 17.721-10.221 17.721zM431.405 216.882c-4.771 20.681-21.685 35.939-42.057 38.213-48.261 5.406-97.088 5.415-145.709 5.406-48.621 0.009-97.466 0-145.709-5.406-20.389-2.282-37.303-17.531-42.048-38.213-6.788-29.485-6.865-61.647-6.865-92 0-30.334 0-62.514 6.788-91.983 4.754-20.698 21.659-35.956 42.040-38.23 48.244-5.389 97.088-5.423 145.718-5.389 48.622-0.034 97.44 0 145.709 5.389 20.372 2.274 37.312 17.531 42.048 38.23 6.788 29.468 6.822 61.647 6.822 91.983 0.009 30.352 0.043 62.514-6.736 92zM160.006 190.349h-28.163v-149.657h-26.164v149.657h-27.657v24.534h81.985v-24.534zM231.067 40.692h-23.538v14.168c-9.345-10.726-18.226-15.944-26.868-15.944-7.586 0-12.803 3.080-15.155 9.663-1.287 3.93-2.077 10.108-2.077 19.291v102.615h23.504v-95.552c0-5.509 0-8.375 0.223-9.122 0.549-3.656 2.351-5.517 5.5-5.517 4.72 0 9.662 3.639 14.863 11.010v99.182h23.538v-129.792zM320.389 79.651c0-11.997-0.807-20.647-2.36-26.156-3.149-9.654-9.431-14.579-18.801-14.579-8.358 0-16.433 4.651-24.293 14.382v-12.606h-23.512v174.2h23.512v-56.902c7.594 9.362 15.652 14.099 24.293 14.099 9.38 0 15.652-4.934 18.801-14.657 1.562-5.226 2.36-13.807 2.36-26.087v-51.693zM409.154 101.318h-47.025v-23.015c0-12.022 3.93-18.020 11.997-18.020 5.793 0 9.173 3.149 10.521 9.431 0.206 1.279 0.507 6.513 0.507 15.935h24.010v-3.441c0-7.56-0.292-12.786-0.507-15.137-0.789-5.209-2.643-9.92-5.5-14.108-6.522-9.413-16.159-14.065-28.43-14.065-12.314 0-21.668 4.437-28.464 13.301-4.986 6.471-7.56 16.725-7.56 30.515v45.464c0 13.876 2.274 24.010 7.277 30.575 6.779 8.882 16.159 13.318 28.155 13.318 11.799 0 21.17-4.437 27.743-13.318 4.917-6.573 7.286-16.699 7.286-30.575v-26.86z" horiz-adv-x="487" />
<glyph unicode="&#xe607;" d="M458.248 444.279h-369.906c-17.702 0-32.020-13.916-32.020-31.079v-371.8c0-17.152 14.319-31.090 32.020-31.090h369.896c17.702 0 32.021 13.938 32.021 31.090v371.8c0.010 17.163-14.308 31.079-32.010 31.079zM187.893 81.024h-65.553v195.887h65.553v-195.887zM155.111 303.707h-0.465c-21.953 0-36.23 15.048-36.23 33.882 0 19.194 14.667 33.808 37.096 33.808 22.418 0 36.219-14.614 36.62-33.808 0-18.834-14.202-33.882-37.023-33.882zM424.261 81.024h-65.553v104.817c0 26.331-9.538 44.309-33.226 44.309-18.125 0-28.858-12.129-33.649-23.846-1.724-4.166-2.189-10.004-2.189-15.873v-109.418h-65.479c0 0 0.793 177.562 0 195.887h65.479v-27.759c8.745 13.367 24.269 32.391 59.060 32.391 43.177 0 75.557-27.971 75.557-88.205v-112.305zM289.263 248.539c0.116 0.18 0.275 0.412 0.392 0.613v-0.613h-0.392z" horiz-adv-x="532" />
<glyph unicode="&#xe608;" d="M428.892 240.206c24.385 1.999 40.945 13.102 47.269 28.14-8.788-5.415-36.039-11.294-51.118-5.7-0.74 3.564-1.608 6.937-2.348 9.941-11.505 42.183-50.844 76.159-92.075 72.046 3.341 1.364 6.736 2.612 10.13 3.743 4.483 1.608 31.101 5.943 26.966 15.323-3.563 8.28-36.039-6.239-42.204-8.142 8.048 3.046 21.445 8.28 22.884 17.564-12.362-1.692-24.544-7.561-33.924-16.073 3.394 3.649 5.975 8.111 6.556 12.88-33.057-21.096-52.377-63.597-67.975-104.881-12.235 11.907-23.106 21.245-32.824 26.426-27.368 14.689-60.086 29.948-111.427 49.014-1.544-16.962 8.45-39.56 37.202-54.524-6.271 0.825-17.66-1.047-26.733-3.236 3.691-19.436 15.809-35.468 48.591-43.24-14.942-0.983-22.704-4.399-29.737-11.749 6.842-13.483 23.465-29.44 53.435-26.141-33.29-14.339-13.578-40.967 13.504-37.001-46.233-47.767-119.147-44.255-160.948-4.283 109.311-148.925 346.779-88.056 382.205 55.349 26.5-0.233 42.087 9.19 51.753 19.584-15.249-2.612-37.392 0.084-49.183 4.959z" horiz-adv-x="532" />
<glyph unicode="&#xe609;" d="M270.831 446.89c-119.252 0-216.276-97.002-216.276-216.244 0-119.262 97.024-216.286 216.276-216.286 119.241 0 216.265 97.024 216.265 216.286 0 119.242-97.013 216.244-216.265 216.244zM270.831 35.51c-107.588 0-195.126 87.538-195.126 195.137 0 107.577 87.538 195.094 195.126 195.094 107.588 0 195.115-87.517 195.115-195.094 0-107.588-87.528-195.137-195.115-195.137zM364.249 231.175l-140.084 90.605-3.099 2.686h-8.703l-6.208-10.268 1.586-4.78v-178.735l-1.036-7.329 6.398-10.385h5.066l3.807 2.877 141.744 94.317c3.828 2.454 6.112 6.546 6.112 10.797 0 4.060-2.115 8.005-5.584 10.215zM228.902 147.93v144.896l112.156-72.237-112.156-72.659z" horiz-adv-x="532" />
</font></defs></svg>