<?xml version="1.0" encoding="utf-8"?>
<!-- Generator: Adobe Illustrator 18.1.1, SVG Export Plug-In . SVG Version: 6.00 Build 0)  -->
<!DOCTYPE svg PUBLIC "-//W3C//DTD SVG 1.1//EN" "http://www.w3.org/Graphics/SVG/1.1/DTD/svg11.dtd">
<svg version="1.1" id="Layer_1" xmlns="http://www.w3.org/2000/svg" xmlns:xlink="http://www.w3.org/1999/xlink" x="0px" y="0px"
	 width="612px" height="792px" viewBox="0 0 612 792" enable-background="new 0 0 612 792" xml:space="preserve">
<g>
	<circle fill="#FFFFFF" cx="183.6" cy="241.2" r="22.6"/>
	<circle fill="#FFFFFF" cx="244.8" cy="241.2" r="22.6"/>
	<circle fill="#FFFFFF" cx="244.8" cy="180" r="22.6"/>
	<circle fill="#FFFFFF" cx="306" cy="118.8" r="22.6"/>
	<circle fill="#FFFFFF" cx="306" cy="180" r="22.6"/>
	<circle fill="#FFFFFF" cx="367.2" cy="180" r="22.6"/>
	<circle fill="#FFFFFF" cx="367.2" cy="241.2" r="22.6"/>
	<circle fill="#FFFFFF" cx="306" cy="241.2" r="22.6"/>
	<circle fill="#FFFFFF" cx="306" cy="302.4" r="22.6"/>
	<circle fill="#FFFFFF" cx="244.8" cy="302.4" r="22.6"/>
	<circle fill="#FFFFFF" cx="183.6" cy="302.4" r="22.6"/>
	<circle fill="#FFFFFF" cx="183.6" cy="363" r="22.6"/>
	<circle fill="#FFFFFF" cx="183.6" cy="424.2" r="22.6"/>
	<circle fill="#FFFFFF" cx="183.6" cy="485.4" r="22.6"/>
	<circle fill="#FFFFFF" cx="183.6" cy="546.6" r="22.6"/>
	<circle fill="#FFFFFF" cx="183.6" cy="607.1" r="22.6"/>
	<circle fill="#FFFFFF" cx="183.6" cy="668.3" r="22.6"/>
	<circle fill="#FFFFFF" cx="244.8" cy="668.3" r="22.6"/>
	<circle fill="#FFFFFF" cx="244.8" cy="607.1" r="22.6"/>
	<circle fill="#FFFFFF" cx="244.8" cy="546.6" r="22.6"/>
	<circle fill="#FFFFFF" cx="244.8" cy="485.4" r="22.6"/>
	<circle fill="#FFFFFF" cx="244.8" cy="424.2" r="22.6"/>
	<circle fill="#FFFFFF" cx="244.8" cy="363" r="22.6"/>
	<circle fill="#FFFFFF" cx="306" cy="363" r="22.6"/>
	<circle fill="#FFFFFF" cx="367.2" cy="363" r="22.6"/>
	<circle fill="#FFFFFF" cx="367.2" cy="302.4" r="22.6"/>
	<circle fill="#FFFFFF" cx="428.4" cy="241.2" r="22.6"/>
	<circle fill="#FFFFFF" cx="428.4" cy="302.4" r="22.6"/>
	<circle fill="#FFFFFF" cx="428.4" cy="363" r="22.6"/>
	<circle fill="#FFFFFF" cx="428.4" cy="424.2" r="22.6"/>
	<circle fill="#FFFFFF" cx="428.4" cy="485.4" r="22.6"/>
	<circle fill="#FFFFFF" cx="428.4" cy="546.6" r="22.6"/>
	<circle fill="#FFFFFF" cx="428.4" cy="607.1" r="22.6"/>
	<circle fill="#FFFFFF" cx="428.4" cy="668.3" r="22.6"/>
	<circle fill="#FFFFFF" cx="367.2" cy="668.3" r="22.6"/>
	<circle fill="#FFFFFF" cx="367.2" cy="607.1" r="22.6"/>
	<circle fill="#FFFFFF" cx="367.2" cy="546.6" r="22.6"/>
	<circle fill="#FFFFFF" cx="367.2" cy="485.4" r="22.6"/>
	<circle fill="#FFFFFF" cx="367.2" cy="424.2" r="22.6"/>
	<circle fill="#FFFFFF" cx="306" cy="424.2" r="22.6"/>
	<circle fill="#FFFFFF" cx="306" cy="485.4" r="22.6"/>
	<circle fill="#FFFFFF" cx="306" cy="546.6" r="22.6"/>
</g>
</svg>
