<?xml version="1.0" encoding="utf-8"?>
<!-- Generator: Adobe Illustrator 16.0.1, SVG Export Plug-In . SVG Version: 6.00 Build 0)  -->
<!DOCTYPE svg PUBLIC "-//W3C//DTD SVG 1.1//EN" "http://www.w3.org/Graphics/SVG/1.1/DTD/svg11.dtd">
<svg version="1.1" id="icons" xmlns="http://www.w3.org/2000/svg" xmlns:xlink="http://www.w3.org/1999/xlink" x="0px" y="0px"
	 width="30px" height="24px" viewBox="0 0 30 24" enable-background="new 0 0 30 24" xml:space="preserve">
<g>
	
		<polyline fill="none" stroke="#FB4F14" stroke-width="2.2599" stroke-linecap="round" stroke-linejoin="round" stroke-miterlimit="10" points="
		1.13,20.918 7.667,12.489 11.003,15.439 17.014,8.224 20.266,11.081 27.409,3.32 	"/>
	
		<line fill="none" stroke="#004165" stroke-width="2.1862" stroke-linecap="round" stroke-linejoin="round" stroke-miterlimit="10" x1="1.13" y1="1.093" x2="1.13" y2="16.204"/>
	
		<line fill="none" stroke="#004165" stroke-width="2.1862" stroke-linecap="round" stroke-linejoin="round" stroke-miterlimit="10" x1="26.454" y1="21.093" x2="5.128" y2="21.093"/>
</g>
</svg>
