<?xml version="1.0" encoding="utf-8"?>
<!-- Generator: Adobe Illustrator 16.0.1, SVG Export Plug-In . SVG Version: 6.00 Build 0)  -->
<!DOCTYPE svg PUBLIC "-//W3C//DTD SVG 1.1//EN" "http://www.w3.org/Graphics/SVG/1.1/DTD/svg11.dtd">
<svg version="1.1" id="icons" xmlns="http://www.w3.org/2000/svg" xmlns:xlink="http://www.w3.org/1999/xlink" x="0px" y="0px"
	 width="25px" height="28px" viewBox="0 0 25 28" enable-background="new 0 0 25 28" xml:space="preserve">
<g>
	
		<polyline fill="none" stroke="#FB4F14" stroke-width="1.7413" stroke-linecap="round" stroke-linejoin="round" stroke-miterlimit="10" points="
		18.456,14.755 22.288,22.348 17.594,21.156 15.764,25.544 11.953,18.574 	"/>
	
		<polyline fill="none" stroke="#FB4F14" stroke-width="1.7413" stroke-linecap="round" stroke-linejoin="round" stroke-miterlimit="10" points="
		11.644,19.021 6.781,26 5.601,21.307 0.871,21.775 5.195,15.113 	"/>
	<path fill="none" stroke="#004165" stroke-width="2" stroke-linecap="round" stroke-linejoin="round" stroke-miterlimit="10" d="
		M18.129,7.771c0,3.739-3.029,6.771-6.771,6.771c-3.74,0-6.771-3.032-6.771-6.771c0-3.74,3.25-6.771,6.99-6.771
		C15.316,1,18.129,4.031,18.129,7.771z"/>
</g>
</svg>
