<?xml version="1.0" encoding="UTF-8"?>
<!-- Generator: Adobe Illustrator 16.0.1, SVG Export Plug-In . SVG Version: 6.00 Build 0)  -->
<!DOCTYPE svg PUBLIC "-//W3C//DTD SVG 1.1//EN" "http://www.w3.org/Graphics/SVG/1.1/DTD/svg11.dtd">
<svg version="1.1" id="icons" xmlns="http://www.w3.org/2000/svg" xmlns:xlink="http://www.w3.org/1999/xlink" x="0px" y="0px" width="22px" height="26px" viewBox="0 0 22 26" enable-background="new 0 0 22 26" xml:space="preserve">
<g>
	<g>
		
			<polyline fill="none" stroke="#00A9E0" stroke-width="1.9839" stroke-linecap="round" stroke-linejoin="round" stroke-miterlimit="10" points="    16.594,18.787 10.616,24.766 4.787,18.938   "/>
		
			<line fill="none" stroke="#00A9E0" stroke-width="1.9839" stroke-linecap="round" stroke-linejoin="round" stroke-miterlimit="10" x1="10.616" y1="24.766" x2="10.672" y2="11.885"/>
	</g>
	
		<polyline fill="none" stroke="#00A9E0" stroke-width="1.9839" stroke-linecap="round" stroke-linejoin="round" stroke-miterlimit="10" points="   15.306,15.592 20.33,10.564 11,1.234 1.669,10.565 6.483,15.381  "/>
</g>
</svg>