<?xml version="1.0" encoding="utf-8"?>
<!-- Generator: Adobe Illustrator 16.0.1, SVG Export Plug-In . SVG Version: 6.00 Build 0)  -->
<!DOCTYPE svg PUBLIC "-//W3C//DTD SVG 1.1//EN" "http://www.w3.org/Graphics/SVG/1.1/DTD/svg11.dtd">
<svg version="1.1" id="icons" xmlns="http://www.w3.org/2000/svg" xmlns:xlink="http://www.w3.org/1999/xlink" x="0px" y="0px"
	 width="19px" height="26px" viewBox="-0.47 -0.281 19 26" enable-background="new -0.47 -0.281 19 26" xml:space="preserve">
<g>
	<path fill="#FB4F14" d="M12.812,16.796c-0.318,0-0.626-0.169-0.79-0.468c-0.238-0.437-0.077-0.981,0.357-1.22
		c2.253-1.229,3.653-3.587,3.653-6.15c0-3.862-3.142-7.004-7.004-7.004S2.026,5.095,2.026,8.957c0,2.489,1.319,4.784,3.459,6.042
		h2.621c0.496,0,0.897,0.401,0.897,0.897s-0.401,0.898-0.897,0.898H5.248c-0.149,0-0.298-0.038-0.431-0.11
		c-2.831-1.545-4.588-4.507-4.588-7.729c0-4.854,3.947-8.802,8.801-8.802c4.853,0,8.801,3.948,8.801,8.802
		c0,3.222-1.758,6.183-4.588,7.729C13.105,16.76,12.958,16.796,12.812,16.796z"/>
	
		<path fill="none" stroke="#E66127" stroke-width="6.9006" stroke-linecap="round" stroke-linejoin="round" stroke-miterlimit="10" d="
		M6.858,18.312"/>
	<path fill="#014364" d="M10.956,25.156H7.23c-0.496,0-0.898-0.402-0.898-0.898S6.734,23.36,7.23,23.36h3.726
		c0.496,0,0.898,0.402,0.898,0.898S11.452,25.156,10.956,25.156z"/>
	<path fill="#014364" d="M11.486,22.421H5.55c-0.495,0-0.897-0.402-0.897-0.898c0-0.497,0.402-0.897,0.897-0.897h5.813
		c0.418-0.125,0.692-0.297,0.757-0.479c0.045-0.125,0.014-0.3-0.041-0.46H5.145c-0.496,0-0.898-0.401-0.898-0.897
		c0-0.497,0.402-0.899,0.898-0.899h7.48c0.289,0,0.561,0.139,0.729,0.373c0.092,0.128,0.889,1.285,0.458,2.49
		c-0.285,0.796-0.991,1.347-2.098,1.64C11.641,22.411,11.564,22.421,11.486,22.421z"/>
	<path fill="#FB4F14" d="M8.331,16.796c-0.383,0-0.737-0.247-0.856-0.631l-1.75-5.604c-0.085-0.272-0.036-0.569,0.134-0.8
		c0.169-0.229,0.438-0.366,0.724-0.366h5.115c0.278,0,0.541,0.129,0.711,0.35c0.17,0.22,0.229,0.507,0.158,0.775l-0.995,3.808
		c-0.125,0.479-0.616,0.767-1.096,0.642c-0.48-0.125-0.769-0.616-0.644-1.096l0.701-2.683H7.803l1.385,4.438
		c0.147,0.474-0.116,0.978-0.59,1.125C8.509,16.783,8.419,16.796,8.331,16.796z"/>
</g>
</svg>
