<?xml version="1.0" encoding="utf-8"?>
<!-- Generator: Adobe Illustrator 16.0.1, SVG Export Plug-In . SVG Version: 6.00 Build 0)  -->
<!DOCTYPE svg PUBLIC "-//W3C//DTD SVG 1.1//EN" "http://www.w3.org/Graphics/SVG/1.1/DTD/svg11.dtd">
<svg version="1.1" id="icons" xmlns="http://www.w3.org/2000/svg" xmlns:xlink="http://www.w3.org/1999/xlink" x="0px" y="0px"
	 width="16px" height="25px" viewBox="0 0 16 25" enable-background="new 0 0 16 25" xml:space="preserve">
<g>
	
		<path fill="none" stroke="#004165" stroke-width="1.883" stroke-linecap="round" stroke-linejoin="round" stroke-miterlimit="10" d="
		M7.053,22.941c0,0-13.75-21.132,0-21.995C6.993,0.946,22.078,0.092,7.053,22.941z"/>
	
		<circle fill="none" stroke="#FB4F14" stroke-width="1.883" stroke-linecap="round" stroke-linejoin="round" stroke-miterlimit="10" cx="7.248" cy="7.509" r="2.924"/>
</g>
</svg>
