<?xml version="1.0" standalone="no"?>
<!DOCTYPE svg PUBLIC "-//W3C//DTD SVG 1.1//EN" "http://www.w3.org/Graphics/SVG/1.1/DTD/svg11.dtd" >
<svg xmlns="http://www.w3.org/2000/svg">
<metadata></metadata>
<defs>
<font id="open_sansextrabold" horiz-adv-x="1200" >
<font-face units-per-em="2048" ascent="1638" descent="-410" />
<missing-glyph horiz-adv-x="532" />
<glyph horiz-adv-x="2048" />
<glyph horiz-adv-x="2048" />
<glyph unicode="&#xd;" horiz-adv-x="1044" />
<glyph unicode=" "  horiz-adv-x="532" />
<glyph unicode="&#x09;" horiz-adv-x="532" />
<glyph unicode="&#xa0;" horiz-adv-x="532" />
<glyph unicode="!" horiz-adv-x="594" d="M82 1462h432l-51 -946h-330zM86 166q0 91 54 141.5t157 50.5q102 0 154.5 -50.5t52.5 -141.5q0 -90 -54.5 -140.5t-152.5 -50.5q-99 0 -155 50.5t-56 140.5z" />
<glyph unicode="&#x22;" horiz-adv-x="1073" d="M121 1462h356l-41 -528h-274zM596 1462h356l-41 -528h-274z" />
<glyph unicode="#" horiz-adv-x="1356" d="M37 391v254h274l31 168h-238v260h287l72 389h268l-74 -389h166l72 389h268l-73 -389h229v-260h-277l-30 -168h243v-254h-290l-74 -391h-268l73 391h-168l-71 -391h-267l72 391h-225zM578 645h165l31 168h-166z" />
<glyph unicode="$" d="M80 1044q0 165 106 258t318 115v137h207v-135q199 -11 401 -98l-119 -285q-209 94 -377 94q-80 0 -112.5 -19.5t-32.5 -57.5q0 -33 23.5 -54.5t81.5 -48t161 -61.5q209 -74 300 -168.5t91 -243.5q0 -168 -106.5 -273t-310.5 -130v-193h-207v187q-219 10 -422 98v332 q116 -59 252 -98.5t239 -39.5q85 0 124.5 20.5t39.5 68.5q0 33 -28.5 56t-95 52t-179.5 70q-127 47 -205 105.5t-113.5 131t-35.5 180.5zM613 1462z" />
<glyph unicode="%" horiz-adv-x="1942" d="M37 1026q0 220 98 338.5t275 118.5q175 0 278 -123t103 -334q0 -220 -99 -340.5t-282 -120.5q-172 0 -272.5 124.5t-100.5 336.5zM338 1022q0 -115 19 -166t57 -51t56.5 50t18.5 167q0 115 -18.5 166t-56.5 51q-39 0 -57.5 -52t-18.5 -165zM412 0l811 1462h297 l-811 -1462h-297zM1149 444q0 220 98 338.5t275 118.5q175 0 278 -123t103 -334q0 -219 -99.5 -339.5t-281.5 -120.5q-172 0 -272.5 124.5t-100.5 335.5zM1450 440q0 -115 19 -166t57 -51q43 0 59.5 58.5t16.5 158.5t-16.5 158.5t-59.5 58.5q-39 0 -57.5 -52t-18.5 -165z " />
<glyph unicode="&#x26;" horiz-adv-x="1636" d="M72 406q0 262 272 401q-62 70 -96.5 148.5t-34.5 177.5q0 160 123.5 254t339.5 94q211 0 328.5 -93.5t117.5 -254.5q0 -111 -63.5 -205.5t-200.5 -177.5l199 -189q75 115 104 260h406q-30 -138 -94.5 -276.5t-145.5 -237.5l320 -307h-506l-99 102q-90 -57 -147.5 -78.5 t-129 -32.5t-163.5 -11q-158 0 -279.5 54t-186 151t-64.5 221zM475 434q0 -63 45 -103t119 -40q57 0 100 15t66 34l-248 252q-82 -61 -82 -158zM565 1120q0 -75 88 -155q57 32 87 76.5t30 91.5q0 49 -28.5 70.5t-71.5 21.5q-42 0 -73.5 -25t-31.5 -80z" />
<glyph unicode="'" horiz-adv-x="598" d="M121 1462h356l-41 -528h-274z" />
<glyph unicode="(" horiz-adv-x="735" d="M74 582q0 290 71 523t209 398h326q-126 -175 -194 -412t-68 -507q0 -261 66 -495.5t194 -412.5h-324q-137 158 -208.5 388t-71.5 518zM493 1485z" />
<glyph unicode=")" horiz-adv-x="735" d="M55 1503h326q139 -166 210 -402t71 -519t-71.5 -514.5t-209.5 -391.5h-324q126 172 193 408.5t67 499.5q0 265 -66 501.5t-196 417.5zM247 1485z" />
<glyph unicode="*" horiz-adv-x="1100" d="M45 1014l45 291l348 -101l-39 352h303l-38 -352l356 101l37 -295l-314 -21l207 -278l-260 -138l-143 283l-123 -281l-272 136l206 278z" />
<glyph unicode="+" horiz-adv-x="1159" d="M72 588v268h372v367h269v-367h372v-268h-372v-361h-269v361h-372z" />
<glyph unicode="," horiz-adv-x="633" d="M57 -285q29 138 58.5 309.5t40.5 274.5h342l14 -23q-97 -381 -176 -561h-279z" />
<glyph unicode="-" horiz-adv-x="651" d="M43 393v312h565v-312h-565z" />
<glyph unicode="." horiz-adv-x="592" d="M86 166q0 92 54.5 142t158.5 50q99 0 152 -50t53 -142q0 -90 -54.5 -140.5t-150.5 -50.5q-99 0 -156 50t-57 141z" />
<glyph unicode="/" horiz-adv-x="905" d="M10 -20l545 1503h346l-545 -1503h-346z" />
<glyph unicode="0" d="M72 729q0 390 130 572t398 182q261 0 394.5 -189.5t133.5 -564.5q0 -388 -130 -568.5t-398 -180.5q-262 0 -395 188.5t-133 560.5zM465 729q0 -248 31 -341t104 -93q74 0 104.5 96t30.5 338q0 243 -31 340.5t-104 97.5t-104 -94t-31 -344z" />
<glyph unicode="1" d="M84 1053l502 409h356v-1462h-401v774q0 141 6 258q-37 -45 -92 -94l-166 -137z" />
<glyph unicode="2" d="M45 1249q113 101 190 144.5t167.5 66.5t203.5 23q142 0 253.5 -50t173 -142.5t61.5 -207.5q0 -86 -21.5 -159t-66.5 -143.5t-119.5 -148.5t-317.5 -296v-10h553v-326h-1061v260l357 361q153 160 200 218.5t65.5 100.5t18.5 88q0 57 -37 90t-104 33q-69 0 -139.5 -39.5 t-159.5 -116.5z" />
<glyph unicode="3" d="M70 59v328q96 -49 195.5 -72.5t183.5 -23.5q130 0 189.5 36.5t59.5 114.5q0 60 -31 92.5t-100 49t-180 16.5h-90v297h92q301 0 301 154q0 58 -44.5 86t-119.5 28q-140 0 -290 -94l-164 264q116 80 237.5 114t278.5 34q227 0 356 -90t129 -248q0 -136 -83 -233.5 t-240 -141.5v-6q366 -46 366 -346q0 -204 -161.5 -321t-448.5 -117q-118 0 -218.5 17t-217.5 62z" />
<glyph unicode="4" d="M35 283v290l608 889h365v-884h161v-295h-161v-283h-390v283h-583zM377 578h241v170q0 48 3.5 129.5t5.5 85.5h-11q-34 -77 -77 -144z" />
<glyph unicode="5" d="M94 59v324q87 -40 196.5 -66t188.5 -26q110 0 169 46.5t59 137.5q0 84 -60 131t-182 47q-93 0 -201 -35l-145 72l55 772h834v-329h-498l-18 -193q78 15 111 16.5t61 1.5q126 0 227.5 -58.5t158 -165.5t56.5 -247q0 -245 -147.5 -376t-446.5 -131q-256 0 -418 79z" />
<glyph unicode="6" d="M70 618q0 306 87.5 495.5t258 279.5t420.5 90q89 0 208 -17v-309q-100 19 -217 19q-198 0 -295 -87t-106 -284h12q90 170 289 170q195 0 302.5 -125.5t107.5 -349.5q0 -241 -136 -380.5t-380 -139.5q-259 0 -405 168t-146 470zM463 512q0 -96 41 -157.5t108 -61.5 q63 0 102.5 47.5t39.5 151.5q0 178 -138 178q-68 0 -110.5 -46t-42.5 -112z" />
<glyph unicode="7" d="M78 1133v327h1055v-233l-515 -1227h-409l502 1133h-633z" />
<glyph unicode="8" d="M68 385q0 127 61 216.5t205 162.5q-116 78 -169.5 167.5t-53.5 196.5q0 168 131 261.5t362 93.5t359.5 -93t128.5 -264q0 -116 -60.5 -203.5t-191.5 -152.5q162 -92 228.5 -183.5t66.5 -197.5q0 -195 -141 -302t-394 -107q-258 0 -395 104.5t-137 300.5zM430 401 q0 -62 44 -99.5t122 -37.5q176 0 176 129q0 49 -38.5 96.5t-137.5 106.5q-89 -47 -127.5 -94.5t-38.5 -100.5zM481 1092q0 -86 117 -152q71 41 97 75t26 77q0 48 -35 77t-84 29q-51 0 -86 -29.5t-35 -76.5z" />
<glyph unicode="9" d="M53 958q0 243 138.5 381t379.5 138q268 0 415 -178t147 -506q0 -429 -185 -621t-592 -192q-134 0 -204 10v313q86 -16 172 -16q212 0 327 87.5t125 276.5h-12q-39 -72 -77 -104t-93 -49t-137 -17q-190 0 -297 127t-107 350zM436 963q0 -82 35 -130.5t107 -48.5 q65 0 113 47t48 113q0 89 -44.5 153t-112.5 64q-65 0 -105.5 -47t-40.5 -151z" />
<glyph unicode=":" horiz-adv-x="592" d="M86 166q0 92 54.5 142t158.5 50q99 0 152 -50t53 -142q0 -90 -54.5 -140.5t-150.5 -50.5q-99 0 -156 50t-57 141zM86 956q0 91 55 141t158 50q99 0 152 -50t53 -141q0 -90 -54 -141t-151 -51q-102 0 -157.5 51t-55.5 141z" />
<glyph unicode=";" horiz-adv-x="608" d="M57 -285q29 138 58.5 309.5t40.5 274.5h342l14 -23q-97 -381 -176 -561h-279zM92 956q0 91 53.5 141t157.5 50q100 0 153.5 -50.5t53.5 -140.5t-54 -141t-153 -51q-102 0 -156.5 50.5t-54.5 141.5z" />
<glyph unicode="&#x3c;" horiz-adv-x="1159" d="M72 627v172l1011 506v-297l-620 -283l620 -252v-295z" />
<glyph unicode="=" horiz-adv-x="1159" d="M72 358v271h1015v-271h-1015zM72 815v268h1015v-268h-1015z" />
<glyph unicode="&#x3e;" horiz-adv-x="1159" d="M72 178v295l620 252l-620 283v297l1011 -506v-172z" />
<glyph unicode="?" horiz-adv-x="1034" d="M0 1341q249 142 520 142q223 0 350 -98t127 -267q0 -121 -56.5 -209.5t-180.5 -167.5q-105 -68 -131.5 -99.5t-26.5 -74.5v-51h-307v86q0 98 40 165.5t142 131.5q81 51 116.5 92t35.5 94q0 42 -38 66.5t-99 24.5q-151 0 -353 -107zM252 166q0 92 53.5 142t157.5 50 q100 0 153.5 -50.5t53.5 -141.5t-55.5 -141t-151.5 -50q-99 0 -155 49.5t-56 141.5z" />
<glyph unicode="@" horiz-adv-x="1837" d="M82 610q0 253 114.5 453.5t316 309t456.5 108.5q234 0 413.5 -89t276 -253.5t96.5 -382.5q0 -141 -48.5 -263t-134.5 -191t-196 -69q-79 0 -143 31.5t-100 87.5h-15q-107 -119 -260 -119q-183 0 -281 107t-98 299q0 141 62 249.5t179 167t271 58.5q81 0 178.5 -16.5 t178.5 -44.5l-21 -422l-2 -94q0 -86 49 -86q52 0 84.5 87t32.5 220q0 239 -135 369t-383 130q-190 0 -330.5 -79t-214.5 -226.5t-74 -345.5q0 -255 142.5 -393.5t402.5 -138.5q116 0 250.5 25t263.5 71v-229q-224 -95 -500 -95q-388 0 -609.5 202.5t-221.5 561.5zM760 641 q0 -100 36.5 -145t96.5 -45q77 0 113 62t47 220l10 156q-40 6 -68 6q-108 0 -171.5 -67t-63.5 -187z" />
<glyph unicode="A" horiz-adv-x="1487" d="M0 0l477 1468h527l483 -1468h-432l-72 274h-475l-74 -274h-434zM590 598h311l-63 240q-22 80 -53.5 207t-41.5 182q-9 -51 -35.5 -168t-117.5 -461z" />
<glyph unicode="B" horiz-adv-x="1380" d="M158 0v1462h510q298 0 442.5 -88.5t144.5 -275.5q0 -123 -63 -210t-166 -112v-10q136 -36 197 -120t61 -218q0 -199 -149.5 -313.5t-407.5 -114.5h-569zM553 305h139q185 0 185 156q0 73 -49.5 112t-143.5 39h-131v-307zM553 901h119q85 0 131.5 35t46.5 104 q0 123 -186 123h-111v-262z" />
<glyph unicode="C" horiz-adv-x="1329" d="M104 727q0 227 85.5 399t246 264.5t377.5 92.5q237 0 453 -103l-121 -311q-81 38 -162 64t-174 26q-141 0 -220 -115.5t-79 -318.5q0 -422 321 -422q97 0 188 27t183 65v-334q-183 -81 -414 -81q-331 0 -507.5 192t-176.5 555z" />
<glyph unicode="D" horiz-adv-x="1503" d="M158 0v1462h506q352 0 543.5 -180t191.5 -520q0 -366 -201.5 -564t-566.5 -198h-473zM553 324h88q180 0 264 104.5t84 319.5q0 201 -79.5 298t-241.5 97h-115v-819z" />
<glyph unicode="E" horiz-adv-x="1124" d="M158 0v1462h868v-317h-473v-230h438v-317h-438v-276h473v-322h-868z" />
<glyph unicode="F" horiz-adv-x="1104" d="M158 0v1462h864v-317h-475v-279h438v-317h-438v-549h-389z" />
<glyph unicode="G" horiz-adv-x="1516" d="M104 735q0 354 202 551t566 197q138 0 260.5 -26t213.5 -66l-125 -310q-158 78 -347 78q-173 0 -267.5 -112.5t-94.5 -321.5q0 -205 85.5 -312.5t246.5 -107.5q88 0 162 17v229h-261v305h631v-788q-257 -88 -565 -88q-338 0 -522.5 196t-184.5 559z" />
<glyph unicode="H" horiz-adv-x="1569" d="M158 0v1462h397v-542h459v542h397v-1462h-397v596h-459v-596h-397z" />
<glyph unicode="I" horiz-adv-x="713" d="M158 0v1462h397v-1462h-397z" />
<glyph unicode="J" horiz-adv-x="721" d="M-162 -131q32 -6 68 -13.5t78 -7.5q98 0 140 59t42 202v1353h397v-1319q0 -297 -130 -449.5t-390 -152.5q-108 0 -205 21v307z" />
<glyph unicode="K" horiz-adv-x="1407" d="M158 0v1462h397v-635q30 59 121 187l307 448h432l-461 -655l453 -807h-446l-289 559l-117 -70v-489h-397z" />
<glyph unicode="L" horiz-adv-x="1192" d="M158 0v1462h395v-1143h563v-319h-958z" />
<glyph unicode="M" horiz-adv-x="1980" d="M158 0v1462h526l305 -1038h8l299 1038h528v-1462h-364v641q0 50 1.5 111t13.5 299h-9l-295 -1051h-376l-299 1053h-9q21 -269 21 -418v-635h-350z" />
<glyph unicode="N" horiz-adv-x="1708" d="M158 0v1462h516l532 -1016h6q-14 221 -14 355v661h352v-1462h-518l-534 1030h-9q19 -243 19 -371v-659h-350z" />
<glyph unicode="O" horiz-adv-x="1632" d="M104 735q0 365 182.5 557.5t530.5 192.5q349 0 529 -191t180 -561q0 -369 -181 -561t-530 -192q-344 0 -527.5 193t-183.5 562zM520 733q0 -424 295 -424q150 0 222.5 103t72.5 321q0 219 -73.5 323.5t-219.5 104.5q-297 0 -297 -428z" />
<glyph unicode="P" horiz-adv-x="1294" d="M158 0v1462h506q277 0 416 -121t139 -344q0 -245 -144.5 -378.5t-410.5 -133.5h-111v-485h-395zM553 807h72q89 0 141.5 50t52.5 138q0 148 -164 148h-102v-336z" />
<glyph unicode="Q" horiz-adv-x="1632" d="M104 735q0 365 182.5 557.5t530.5 192.5q349 0 529 -191t180 -561q0 -497 -316 -670l357 -411h-492l-258 325l-1 1v1l-1 1q-344 0 -527.5 193t-183.5 562zM520 733q0 -424 295 -424q150 0 222.5 103t72.5 321q0 219 -73.5 323.5t-219.5 104.5q-297 0 -297 -428z" />
<glyph unicode="R" horiz-adv-x="1386" d="M158 0v1462h479q596 0 596 -432q0 -254 -248 -393l426 -637h-448l-310 532h-100v-532h-395zM553 829h74q207 0 207 183q0 151 -203 151h-78v-334z" />
<glyph unicode="S" horiz-adv-x="1182" d="M90 72v352q113 -58 235 -90.5t224 -32.5q88 0 129 30.5t41 78.5q0 30 -16.5 52.5t-53 45.5t-194.5 94q-143 65 -214.5 126t-106 140t-34.5 187q0 202 147 315t404 113q227 0 463 -105l-121 -305q-205 94 -354 94q-77 0 -112 -27t-35 -67q0 -43 44.5 -77t241.5 -124 q189 -85 262.5 -182.5t73.5 -245.5q0 -136 -69 -241.5t-199 -164t-305 -58.5q-146 0 -245 20.5t-206 71.5z" />
<glyph unicode="T" horiz-adv-x="1210" d="M51 1139v323h1108v-323h-356v-1139h-395v1139h-357z" />
<glyph unicode="U" horiz-adv-x="1550" d="M150 573v889h397v-858q0 -155 58 -225t171 -70q121 0 175.5 69.5t54.5 227.5v856h395v-880q0 -287 -162.5 -444.5t-468.5 -157.5q-299 0 -459.5 153t-160.5 440z" />
<glyph unicode="V" horiz-adv-x="1421" d="M0 1462h444l199 -741q62 -247 68 -344q7 70 28 175t37 165l203 745h442l-479 -1462h-465z" />
<glyph unicode="W" horiz-adv-x="2128" d="M31 1462h381l159 -733q54 -243 74 -387q13 102 46.5 277t62.5 290l129 553h366l125 -553q32 -133 65 -307t44 -260q13 111 71 385l162 735h381l-360 -1462h-467l-140 637q-10 40 -31.5 159t-31.5 199q-8 -65 -26 -161.5t-35.5 -177.5t-145.5 -656h-467z" />
<glyph unicode="X" horiz-adv-x="1481" d="M4 0l485 748l-456 714h438l264 -452l254 452h451l-463 -745l498 -717h-457l-285 457l-282 -457h-447z" />
<glyph unicode="Y" horiz-adv-x="1360" d="M0 1462h430l250 -542l252 542h428l-481 -891v-571h-398v559z" />
<glyph unicode="Z" horiz-adv-x="1251" d="M61 0v244l633 899h-618v319h1108v-243l-633 -900h649v-319h-1139z" />
<glyph unicode="[" horiz-adv-x="664" d="M117 -344v1847h499v-254h-182v-1339h182v-254h-499zM355 1485z" />
<glyph unicode="\" horiz-adv-x="905" d="M6 1483h346l545 -1503h-346z" />
<glyph unicode="]" horiz-adv-x="664" d="M47 -90h182v1339h-182v254h500v-1847h-500v254zM317 1485z" />
<glyph unicode="^" horiz-adv-x="1075" d="M-16 502l440 966h170l508 -966h-295l-289 577l-124 -291l-124 -286h-286z" />
<glyph unicode="_" horiz-adv-x="1024" d="M-4 -133h1032v-246h-1032v246z" />
<glyph unicode="`" horiz-adv-x="1225" d="M264 1548v21h430q52 -70 203 -233l59 -66v-29h-260q-69 44 -203.5 138.5t-228.5 168.5z" />
<glyph unicode="a" horiz-adv-x="1276" d="M74 346q0 181 126 269.5t365 99.5l189 6v16q0 140 -138 140q-124 0 -315 -84l-113 258q198 102 500 102q218 0 337.5 -108t119.5 -302v-743h-271l-75 150h-8q-79 -98 -161 -134t-212 -36q-160 0 -252 96t-92 270zM473 360q0 -104 111 -104q71 0 121.5 45t50.5 117v88 l-90 -4q-193 -7 -193 -142z" />
<glyph unicode="b" horiz-adv-x="1317" d="M135 0v1556h391v-352q0 -63 -14 -217h14q57 88 131.5 127t169.5 39q185 0 293.5 -155t108.5 -429q0 -276 -109.5 -432.5t-304.5 -156.5q-63 0 -112 13.5t-87.5 37.5t-89.5 80h-24l-62 -111h-305zM526 555q0 -139 38 -199.5t124 -60.5q69 0 106 70.5t37 207.5 q0 273 -147 273q-82 0 -120 -57t-38 -179v-55z" />
<glyph unicode="c" horiz-adv-x="1104" d="M86 561q0 282 155 437t441 155q197 0 371 -86l-115 -289q-71 31 -131 49.5t-125 18.5q-95 0 -147 -74t-52 -209q0 -272 201 -272q172 0 330 100v-311q-151 -100 -363 -100q-278 0 -421.5 150t-143.5 431z" />
<glyph unicode="d" horiz-adv-x="1317" d="M86 565q0 276 111 432t305 156q95 0 166.5 -38t130.5 -128h8q-19 133 -19 266v303h394v-1556h-295l-84 143h-15q-101 -163 -301 -163q-121 0 -211.5 69t-140 203t-49.5 313zM481 559q0 -132 43 -201t123 -69q94 0 132.5 59t41.5 182v31q0 150 -43 213.5t-135 63.5 q-77 0 -119.5 -72.5t-42.5 -206.5z" />
<glyph unicode="e" horiz-adv-x="1266" d="M86 559q0 287 145 440.5t414 153.5q256 0 395.5 -133.5t139.5 -384.5v-174h-699q4 -95 69.5 -149t178.5 -54q103 0 189.5 19.5t187.5 66.5v-281q-92 -47 -190 -65t-234 -18q-283 0 -439.5 150.5t-156.5 428.5zM489 707h336q-2 82 -46.5 131t-119.5 49q-69 0 -115.5 -43.5 t-54.5 -136.5z" />
<glyph unicode="f" horiz-adv-x="846" d="M45 840v192l158 96v19q0 224 91.5 322t293.5 98q78 0 147.5 -12t161.5 -42l-84 -253q-72 20 -141 20q-45 0 -65.5 -27.5t-20.5 -89.5v-30h241v-293h-241v-840h-391v840h-150z" />
<glyph unicode="g" horiz-adv-x="1241" d="M20 -180q0 203 252 262q-52 22 -90.5 71t-38.5 97q0 53 29 93.5t121 96.5q-88 39 -138.5 122t-50.5 202q0 185 126 287t360 102q31 0 107 -7t112 -13h395v-189l-155 -57q32 -58 32 -135q0 -183 -128.5 -284t-383.5 -101q-63 0 -100 8q-14 -26 -14 -49q0 -29 47 -44.5 t123 -15.5h188q381 0 381 -321q0 -207 -176.5 -322t-495.5 -115q-241 0 -371.5 80.5t-130.5 231.5zM350 -141q0 -48 52 -77.5t139 -29.5q142 0 227.5 35.5t85.5 91.5q0 45 -52 63.5t-149 18.5h-153q-63 0 -106.5 -29.5t-43.5 -72.5zM473 762q0 -174 121 -174q56 0 86.5 43 t30.5 129q0 176 -117 176q-121 0 -121 -174z" />
<glyph unicode="h" horiz-adv-x="1372" d="M135 0v1556h391v-221q0 -150 -16 -342h18q56 88 133 124t179 36q190 0 295.5 -109.5t105.5 -306.5v-737h-393v618q0 228 -135 228q-96 0 -141.5 -80.5t-45.5 -267.5v-498h-391z" />
<glyph unicode="i" horiz-adv-x="666" d="M127 1415q0 88 49 131t158 43t159 -44t50 -130q0 -172 -209 -172q-207 0 -207 172zM137 0v1133h391v-1133h-391z" />
<glyph unicode="j" horiz-adv-x="664" d="M-104 -162q64 -18 120 -18q119 0 119 170v1143h391v-1225q0 -187 -109.5 -293.5t-310.5 -106.5q-48 0 -110.5 7.5t-99.5 17.5v305zM125 1415q0 88 49 131t158 43t159 -44t50 -130q0 -172 -209 -172q-207 0 -207 172z" />
<glyph unicode="k" horiz-adv-x="1350" d="M135 0v1556h393v-612q0 -157 -22 -307h8q71 113 121 176l254 320h436l-393 -482l418 -651h-447l-248 406l-127 -97v-309h-393z" />
<glyph unicode="l" horiz-adv-x="662" d="M135 0v1556h391v-1556h-391z" />
<glyph unicode="m" horiz-adv-x="2048" d="M135 0v1133h295l49 -140h23q45 78 130.5 119t194.5 41q245 0 344 -149h31q48 70 133.5 109.5t188.5 39.5q201 0 297 -103t96 -313v-737h-391v616q0 115 -31.5 172.5t-99.5 57.5q-90 0 -132 -77t-42 -241v-528h-392v616q0 115 -30 172.5t-97 57.5q-92 0 -134 -82t-42 -268 v-496h-391z" />
<glyph unicode="n" horiz-adv-x="1372" d="M135 0v1133h295l49 -140h23q50 80 138.5 120t203.5 40q188 0 292.5 -109t104.5 -307v-737h-391v618q0 113 -32.5 170.5t-104.5 57.5q-99 0 -143 -79t-44 -271v-496h-391z" />
<glyph unicode="o" horiz-adv-x="1305" d="M86 569q0 277 149.5 430.5t419.5 153.5q167 0 295 -71t197.5 -203.5t69.5 -309.5q0 -278 -149.5 -433.5t-418.5 -155.5q-258 0 -410.5 159t-152.5 430zM483 569q0 -146 39 -222.5t131 -76.5q91 0 128.5 76.5t37.5 222.5q0 145 -38 219t-130 74q-90 0 -129 -73.5 t-39 -219.5z" />
<glyph unicode="p" horiz-adv-x="1317" d="M135 -492v1625h318l55 -144h18q109 164 301 164q188 0 295 -156t107 -428q0 -274 -111.5 -431.5t-302.5 -157.5q-86 0 -154 28.5t-135 102.5h-18q18 -119 18 -148v-455h-391zM526 571q0 -146 39 -211t123 -65q75 0 109 64.5t34 213.5q0 146 -34 209.5t-113 63.5 q-86 0 -120.5 -61.5t-37.5 -182.5v-31z" />
<glyph unicode="q" horiz-adv-x="1317" d="M86 565q0 276 110.5 432t301.5 156q205 0 309 -160h8l29 140h338v-1625h-391v469q0 34 12 166h-12q-96 -163 -299 -163q-190 0 -298 156t-108 429zM483 559q0 -148 41 -212t127 -64q89 0 129.5 55t40.5 186v47q0 150 -41 214.5t-135 64.5q-162 0 -162 -291z" />
<glyph unicode="r" horiz-adv-x="961" d="M135 0v1133h291l61 -181h19q49 90 136.5 145.5t176.5 55.5q51 0 97 -8l22 -4l-35 -369q-48 12 -133 12q-128 0 -186 -58.5t-58 -168.5v-557h-391z" />
<glyph unicode="s" horiz-adv-x="1092" d="M119 819q0 158 122 246t345 88q112 0 210.5 -24.5t204.5 -71.5l-106 -252q-78 35 -165 59.5t-142 24.5q-96 0 -96 -47q0 -29 33.5 -49.5t193.5 -83.5q119 -49 177.5 -96t86 -110.5t27.5 -154.5q0 -182 -124 -275t-356 -93q-126 0 -219 13.5t-190 49.5v313 q91 -40 199.5 -66t193.5 -26q127 0 127 58q0 30 -35.5 53.5t-206.5 91.5q-156 64 -218 145.5t-62 206.5z" />
<glyph unicode="t" horiz-adv-x="942" d="M53 840v159l174 123l101 238h256v-227h278v-293h-278v-441q0 -110 106 -110q79 0 189 39v-285q-79 -34 -150.5 -48.5t-167.5 -14.5q-197 0 -284 96.5t-87 296.5v467h-137z" />
<glyph unicode="u" horiz-adv-x="1372" d="M133 395v738h391v-619q0 -111 31.5 -168t103.5 -57q101 0 144 79.5t43 268.5v496h391v-1133h-295l-49 141h-23q-49 -78 -136.5 -119.5t-205.5 -41.5q-187 0 -291 108.5t-104 306.5z" />
<glyph unicode="v" horiz-adv-x="1251" d="M0 1133h408l192 -670q1 -5 4 -17t6 -28.5t5.5 -35t2.5 -34.5h7q0 52 18 113l201 672h407l-432 -1133h-387z" />
<glyph unicode="w" horiz-adv-x="1864" d="M25 1133h385l92 -435q44 -224 51 -372h6q3 92 55 350l105 457h432l96 -463q46 -221 58 -344h6q6 76 20 189.5t31 182.5l100 435h377l-311 -1133h-418l-128 540l-30 163l-20 131h-6q-49 -280 -66 -353l-115 -481h-411z" />
<glyph unicode="x" horiz-adv-x="1290" d="M10 0l365 578l-346 555h444l172 -318l176 318h445l-355 -555l369 -578h-444l-191 344l-190 -344h-445z" />
<glyph unicode="y" horiz-adv-x="1249" d="M-2 1133h412l192 -650q14 -51 19 -123h8q8 69 24 121l197 652h399l-448 -1205q-86 -230 -211.5 -325t-327.5 -95q-78 0 -160 17v307q53 -12 121 -12q52 0 91 20t68 56.5t62 119.5z" />
<glyph unicode="z" horiz-adv-x="1038" d="M49 0v223l469 611h-442v299h889v-242l-449 -592h471v-299h-938z" />
<glyph unicode="{" horiz-adv-x="887" d="M61 418v301q115 0 180.5 44.5t65.5 125.5v254q0 139 49 208t159.5 100.5t305.5 31.5v-279q-89 -3 -120.5 -13.5t-50.5 -32.5t-19 -60v-271q0 -113 -56.5 -173.5t-183.5 -78.5v-12q128 -20 184 -79t56 -167v-276q0 -39 21 -61t56 -32.5t113 -13.5v-278q-197 0 -307 32 t-158.5 101.5t-48.5 210.5v248q0 80 -67 125t-179 45z" />
<glyph unicode="|" horiz-adv-x="1042" d="M387 -446v2002h268v-2002h-268z" />
<glyph unicode="}" horiz-adv-x="887" d="M66 -66q108 4 149 29.5t41 77.5v276q0 108 56 167t184 79v12q-127 18 -183.5 78.5t-56.5 173.5v271q0 39 -19.5 60.5t-50 32t-120.5 13.5v279q196 0 306 -31.5t159 -100.5t49 -208v-254q0 -81 65 -125.5t180 -44.5v-301q-111 0 -178 -45t-67 -125v-248q0 -140 -49 -210 t-159 -102t-306 -32v278z" />
<glyph unicode="~" horiz-adv-x="1159" d="M72 526v281q104 108 264 108q69 0 130 -13.5t150 -49.5q131 -55 238 -55q50 0 112.5 32t118.5 89v-281q-105 -109 -264 -109q-71 0 -133.5 15t-146.5 49q-131 55 -236 55q-110 0 -233 -121z" />
<glyph unicode="&#xa1;" horiz-adv-x="594" d="M82 -334l51 946h330l51 -946h-432zM92 963q0 90 54 140t153 50q101 0 156 -50.5t55 -139.5q0 -91 -53.5 -142t-157.5 -51q-102 0 -154.5 50.5t-52.5 142.5z" />
<glyph unicode="&#xa2;" d="M129 739q0 240 113 388.5t323 189.5v166h207v-154q171 -9 324 -84l-115 -289q-71 31 -131 49.5t-125 18.5q-95 0 -147 -74t-52 -209q0 -272 201 -272q172 0 330 100v-311q-127 -82 -285 -98v-180h-207v186q-212 31 -324 176t-112 397z" />
<glyph unicode="&#xa3;" d="M102 649v277h166v118q0 215 117 328t338 113q210 0 405 -82l-110 -289q-148 55 -252 55q-58 0 -85.5 -33t-27.5 -104v-106h344v-277h-344v-96q0 -150 -159 -227h671v-326h-1061v313q81 47 109.5 76.5t41.5 67.5t13 94v98h-166z" />
<glyph unicode="&#xa4;" horiz-adv-x="1159" d="M96 1018l180 182l123 -123q84 41 172 41q91 0 177 -45l120 127l185 -174l-127 -125q41 -76 41 -178q0 -94 -41 -176l121 -119l-179 -178l-120 119q-89 -39 -177 -39q-100 0 -176 37l-119 -115l-178 178l123 119q-41 82 -41 174q0 89 41 176zM436 723q0 -56 40.5 -95.5 t94.5 -39.5q58 0 100 38.5t42 96.5t-42 97.5t-100 39.5q-56 0 -95.5 -40.5t-39.5 -96.5z" />
<glyph unicode="&#xa5;" d="M8 1462h400l192 -504l193 504h399l-363 -712h195v-211h-242v-117h242v-209h-242v-213h-364v213h-246v209h246v117h-246v211h190z" />
<glyph unicode="&#xa6;" horiz-adv-x="1042" d="M387 393h268v-839h-268v839zM387 717v839h268v-839h-268z" />
<glyph unicode="&#xa7;" horiz-adv-x="1024" d="M106 803q0 64 43 125t121 108q-141 102 -141 246q0 137 111 216t295 79q191 0 370 -86l-98 -221q-73 40 -146.5 63t-128.5 23q-108 0 -108 -74q0 -43 45.5 -79t128.5 -70q175 -71 252.5 -152t77.5 -178q0 -77 -32 -137.5t-116 -120.5q125 -94 125 -244 q0 -149 -116.5 -237.5t-319.5 -88.5q-204 0 -352 86v244q79 -44 182 -76t172 -32q139 0 139 96q0 42 -31 72.5t-139 78.5q-141 63 -205.5 112t-96.5 108t-32 139zM397 834q0 -51 44 -91t155 -98q41 47 41 107q0 57 -42 100t-140 84q-58 -32 -58 -102z" />
<glyph unicode="&#xa8;" horiz-adv-x="1233" d="M223 1413q0 75 46 116.5t124 41.5q79 0 125.5 -42.5t46.5 -115.5q0 -71 -46.5 -113.5t-125.5 -42.5q-78 0 -124 41t-46 115zM702 1413q0 75 46 116.5t126 41.5t126.5 -43t46.5 -115q0 -71 -46.5 -113.5t-126.5 -42.5q-81 0 -126.5 41.5t-45.5 114.5z" />
<glyph unicode="&#xa9;" horiz-adv-x="1688" d="M92 731q0 200 100 375t275 276t377 101q197 0 370 -97t277 -272t104 -383q0 -204 -100.5 -376.5t-273 -273.5t-377.5 -101q-207 0 -382 103.5t-272.5 276.5t-97.5 371zM256 731q0 -158 79.5 -295.5t215.5 -215t293 -77.5q158 0 294 78.5t215 215t79 294.5 q0 157 -77.5 293t-214 215.5t-296.5 79.5q-158 0 -294.5 -78.5t-215 -215t-78.5 -294.5zM434 735q0 217 113 340t321 123q166 0 322 -78l-92 -205q-106 56 -211 56q-81 0 -126.5 -61t-45.5 -179q0 -128 43.5 -185t134.5 -57q138 0 258 68v-231q-126 -64 -272 -64 q-212 0 -328.5 124t-116.5 349z" />
<glyph unicode="&#xaa;" horiz-adv-x="813" d="M49 967q0 116 77 171t267 64l88 4v6q0 41 -25.5 58.5t-76.5 17.5q-57 0 -107.5 -15t-103.5 -40l-76 166q108 51 180.5 65.5t163.5 14.5q139 0 218 -75.5t79 -213.5v-449h-162l-45 127q-48 -76 -104.5 -107.5t-138.5 -31.5q-109 0 -171.5 63.5t-62.5 174.5zM301 979 q0 -32 18 -50t52 -18q50 0 80 38.5t30 97.5v22l-84 -6q-96 -6 -96 -84z" />
<glyph unicode="&#xab;" horiz-adv-x="1395" d="M74 561v27l389 483l280 -149l-272 -347l272 -348l-280 -147zM649 561v27l387 483l283 -149l-275 -347l275 -348l-283 -147z" />
<glyph unicode="&#xac;" horiz-adv-x="1159" d="M72 588v268h1013v-618h-270v350h-743z" />
<glyph unicode="&#xad;" horiz-adv-x="651" d="M43 393v312h565v-312h-565z" />
<glyph unicode="&#xae;" horiz-adv-x="1688" d="M92 731q0 200 100 375t275 276t377 101q197 0 370 -97t277 -272t104 -383q0 -204 -100.5 -376.5t-273 -273.5t-377.5 -101q-207 0 -382 103.5t-272.5 276.5t-97.5 371zM256 731q0 -158 79.5 -295.5t215.5 -215t293 -77.5q158 0 294 78.5t215 215t79 294.5 q0 157 -77.5 293t-214 215.5t-296.5 79.5q-158 0 -294.5 -78.5t-215 -215t-78.5 -294.5zM506 313v875h291q407 0 407 -270q0 -87 -33 -146.5t-108 -95.5l194 -363h-290l-146 320h-35v-320h-280zM786 809h11q58 0 91.5 21.5t33.5 76.5q0 47 -27.5 66.5t-95.5 19.5h-13v-184z " />
<glyph unicode="&#xaf;" horiz-adv-x="1024" d="M-6 1556v246h1036v-246h-1036z" />
<glyph unicode="&#xb0;" horiz-adv-x="864" d="M63 1114q0 97 49 182.5t135 136t185 50.5t185 -50.5t135 -135.5t49 -183q0 -97 -48.5 -181t-134 -133.5t-186.5 -49.5q-99 0 -185 49t-135 133t-49 182zM301 1114q0 -50 38.5 -88.5t92.5 -38.5t92.5 39t38.5 88q0 52 -37.5 92.5t-93.5 40.5t-93.5 -40.5t-37.5 -92.5z" />
<glyph unicode="&#xb1;" horiz-adv-x="1159" d="M72 0v268h1013v-268h-1013zM72 684v268h372v367h269v-367h372v-268h-372v-360h-269v360h-372z" />
<glyph unicode="&#xb2;" horiz-adv-x="817" d="M61 1350q80 73 167.5 104t203.5 31q142 0 219.5 -63t77.5 -175q0 -46 -13 -87t-40.5 -84.5t-74.5 -91t-198 -173.5h347v-225h-674v207l215 213q84 84 116.5 129t32.5 79q0 58 -65 58q-81 0 -172 -88z" />
<glyph unicode="&#xb3;" horiz-adv-x="817" d="M63 1366q149 115 343 115q146 0 232.5 -57.5t86.5 -157.5q0 -78 -37 -132.5t-125 -86.5v-9q97 -24 144 -76t47 -139q0 -120 -98 -187t-277 -67q-185 0 -309 70v233q117 -81 297 -81q116 0 116 67q0 41 -32.5 56.5t-102.5 15.5h-104v194h80q71 0 105 18.5t34 59.5 q0 25 -21 46.5t-71 21.5t-94 -17t-97 -57z" />
<glyph unicode="&#xb4;" horiz-adv-x="1225" d="M264 1241v29q154 165 195.5 213t68.5 86h428v-21q-80 -64 -220 -163t-212 -144h-260z" />
<glyph unicode="&#xb5;" horiz-adv-x="1376" d="M135 -492v1625h391v-615q0 -115 33.5 -172t112.5 -57q93 0 134.5 83t41.5 265v496h393v-1133h-293l-53 152h-16q-34 -88 -90.5 -130t-122.5 -42q-56 0 -90 20t-62 63q12 -90 12 -235v-320h-391z" />
<glyph unicode="&#xb6;" horiz-adv-x="1317" d="M102 1042q0 256 107.5 385t343.5 129h633v-1816h-191v1587h-157v-1587h-191v819q-54 -18 -125 -18q-216 0 -318 125t-102 376z" />
<glyph unicode="&#xb7;" horiz-adv-x="592" d="M86 723q0 92 54.5 142t158.5 50q99 0 152 -50t53 -142q0 -90 -54.5 -141.5t-150.5 -51.5q-100 0 -156.5 51t-56.5 142z" />
<glyph unicode="&#xb8;" horiz-adv-x="383" d="M-90 -258q83 -27 147 -27q52 0 52 47q0 33 -41 58.5t-107 40.5l72 139h203l-9 -29q96 -39 133 -92.5t37 -130.5q0 -109 -75 -174.5t-199 -65.5q-136 0 -213 29v205z" />
<glyph unicode="&#xb9;" horiz-adv-x="817" d="M57 1188l340 274h219v-876h-282v356q0 35 3.5 118t6.5 99q-9 -19 -31.5 -43t-109.5 -98z" />
<glyph unicode="&#xba;" horiz-adv-x="803" d="M49 1104q0 177 94.5 276t259.5 99q157 0 255 -103t98 -272q0 -174 -95.5 -274.5t-261.5 -100.5q-159 0 -254.5 102.5t-95.5 272.5zM301 1104q0 -87 24 -129.5t76 -42.5q99 0 99 172q0 174 -99 174q-100 0 -100 -174z" />
<glyph unicode="&#xbb;" horiz-adv-x="1395" d="M76 227l272 348l-272 347l282 149l387 -483v-27l-387 -481zM649 227l275 348l-275 347l285 149l387 -483v-27l-387 -481z" />
<glyph unicode="&#xbc;" horiz-adv-x="1919" d="M-12 1188l340 274h219v-876h-282v356q0 35 3.5 118t6.5 99q-9 -19 -31.5 -43t-109.5 -98zM357 0l753 1462h302l-754 -1462h-301zM1028 140v188l350 555h295v-542h125v-201h-125v-139h-275v139h-370zM1241 341h157v166q0 69 7 135q-40 -100 -62 -133z" />
<glyph unicode="&#xbd;" horiz-adv-x="1921" d="M-12 1188l340 274h219v-876h-282v356q0 35 3.5 118t6.5 99q-9 -19 -31.5 -43t-109.5 -98zM381 0l753 1462h302l-754 -1462h-301zM1140 765q80 73 167.5 104t203.5 31q142 0 219.5 -63t77.5 -175q0 -46 -13 -87t-40.5 -84.5t-74.5 -91t-198 -173.5h347v-225h-674v207 l215 213q84 84 116.5 129t32.5 79q0 58 -65 58q-81 0 -172 -88z" />
<glyph unicode="&#xbe;" horiz-adv-x="1921" d="M83 1366q149 115 343 115q146 0 232.5 -57.5t86.5 -157.5q0 -78 -37 -132.5t-125 -86.5v-9q97 -24 144 -76t47 -139q0 -120 -98 -187t-277 -67q-185 0 -309 70v233q117 -81 297 -81q116 0 116 67q0 41 -32.5 56.5t-102.5 15.5h-104v194h80q71 0 105 18.5t34 59.5 q0 25 -21 46.5t-71 21.5t-94 -17t-97 -57zM465 0l753 1462h302l-754 -1462h-301zM1100 140v188l350 555h295v-542h125v-201h-125v-139h-275v139h-370zM1313 341h157v166q0 69 7 135q-40 -100 -62 -133z" />
<glyph unicode="&#xbf;" horiz-adv-x="1034" d="M37 10q0 120 55 208t182 169q100 64 129 97t29 77v51h307v-86q0 -98 -40 -165.5t-142 -131.5q-57 -36 -90 -66t-47 -55.5t-14 -64.5q0 -42 37.5 -66t99.5 -24q148 0 352 106l139 -272q-243 -141 -520 -141q-223 0 -350 98t-127 266zM365 963q0 90 54 140t152 50 q101 0 156 -49.5t55 -140.5q0 -93 -53 -143t-158 -50q-101 0 -153.5 50t-52.5 143z" />
<glyph unicode="&#xc0;" horiz-adv-x="1487" d="M0 0l477 1468h527l483 -1468h-432l-72 274h-475l-74 -274h-434zM272 1886v21h430q52 -70 203 -233l59 -66v-29h-260q-69 44 -203.5 138.5t-228.5 168.5zM590 598h311l-63 240q-22 80 -53.5 207t-41.5 182q-9 -51 -35.5 -168t-117.5 -461z" />
<glyph unicode="&#xc1;" horiz-adv-x="1487" d="M0 0l477 1468h527l483 -1468h-432l-72 274h-475l-74 -274h-434zM532 1579v29q154 165 195.5 213t68.5 86h428v-21q-80 -64 -220 -163t-212 -144h-260zM590 598h311l-63 240q-22 80 -53.5 207t-41.5 182q-9 -51 -35.5 -168t-117.5 -461z" />
<glyph unicode="&#xc2;" horiz-adv-x="1487" d="M0 0l477 1468h527l483 -1468h-432l-72 274h-475l-74 -274h-434zM295 1579v29q69 65 144.5 153t113.5 146h393q94 -137 256 -299v-29h-254q-84 48 -201 150q-125 -107 -194 -150h-258zM590 598h311l-63 240q-22 80 -53.5 207t-41.5 182q-9 -51 -35.5 -168t-117.5 -461z " />
<glyph unicode="&#xc3;" horiz-adv-x="1487" d="M0 0l477 1468h527l483 -1468h-432l-72 274h-475l-74 -274h-434zM330 1575q11 175 72 258.5t180 83.5q38 0 81 -15t87 -33t87 -33t81 -15q29 0 46 25t26 73h182q-11 -167 -74 -254.5t-172 -87.5q-45 0 -90.5 15t-89.5 33t-85.5 33t-78.5 15q-54 0 -72 -98h-180zM590 598 h311l-63 240q-22 80 -53.5 207t-41.5 182q-9 -51 -35.5 -168t-117.5 -461z" />
<glyph unicode="&#xc4;" horiz-adv-x="1487" d="M0 0l477 1468h527l483 -1468h-432l-72 274h-475l-74 -274h-434zM352 1751q0 75 46 116.5t124 41.5q79 0 125.5 -42.5t46.5 -115.5q0 -71 -46.5 -113.5t-125.5 -42.5q-78 0 -124 41t-46 115zM590 598h311l-63 240q-22 80 -53.5 207t-41.5 182q-9 -51 -35.5 -168 t-117.5 -461zM831 1751q0 75 46 116.5t126 41.5t126.5 -43t46.5 -115q0 -71 -46.5 -113.5t-126.5 -42.5q-81 0 -126.5 41.5t-45.5 114.5z" />
<glyph unicode="&#xc5;" horiz-adv-x="1487" d="M0 0l477 1468h527l483 -1468h-432l-72 274h-475l-74 -274h-434zM475 1614q0 116 71.5 185t192.5 69q118 0 195 -70t77 -182q0 -113 -76 -183.5t-196 -70.5q-121 0 -192.5 68.5t-71.5 183.5zM590 598h311l-63 240q-22 80 -53.5 207t-41.5 182q-9 -51 -35.5 -168 t-117.5 -461zM655 1614q0 -37 21 -60.5t63 -23.5q35 0 59.5 23.5t24.5 60.5q0 38 -24.5 61t-59.5 23t-59.5 -23t-24.5 -61z" />
<glyph unicode="&#xc6;" horiz-adv-x="1937" d="M-10 0l628 1462h1221v-317h-473v-230h438v-317h-438v-276h473v-322h-870v274h-437l-100 -274h-442zM653 602h316v526h-111z" />
<glyph unicode="&#xc7;" horiz-adv-x="1329" d="M104 727q0 227 85.5 399t246 264.5t377.5 92.5q237 0 453 -103l-121 -311q-81 38 -162 64t-174 26q-141 0 -220 -115.5t-79 -318.5q0 -422 321 -422q97 0 188 27t183 65v-334q-183 -81 -414 -81q-331 0 -507.5 192t-176.5 555zM477 -258q83 -27 147 -27q52 0 52 47 q0 33 -41 58.5t-107 40.5l72 139h203l-9 -29q96 -39 133 -92.5t37 -130.5q0 -109 -75 -174.5t-199 -65.5q-136 0 -213 29v205z" />
<glyph unicode="&#xc8;" horiz-adv-x="1124" d="M154 1886v21h430q52 -70 203 -233l59 -66v-29h-260q-69 44 -203.5 138.5t-228.5 168.5zM158 0v1462h868v-317h-473v-230h438v-317h-438v-276h473v-322h-868z" />
<glyph unicode="&#xc9;" horiz-adv-x="1124" d="M158 0v1462h868v-317h-473v-230h438v-317h-438v-276h473v-322h-868zM362 1579v29q154 165 195.5 213t68.5 86h428v-21q-80 -64 -220 -163t-212 -144h-260z" />
<glyph unicode="&#xca;" horiz-adv-x="1124" d="M151 1579v29q69 65 144.5 153t113.5 146h393q94 -137 256 -299v-29h-254q-84 48 -201 150q-125 -107 -194 -150h-258zM158 0v1462h868v-317h-473v-230h438v-317h-438v-276h473v-322h-868z" />
<glyph unicode="&#xcb;" horiz-adv-x="1124" d="M158 0v1462h868v-317h-473v-230h438v-317h-438v-276h473v-322h-868zM187 1751q0 75 46 116.5t124 41.5q79 0 125.5 -42.5t46.5 -115.5q0 -71 -46.5 -113.5t-125.5 -42.5q-78 0 -124 41t-46 115zM666 1751q0 75 46 116.5t126 41.5t126.5 -43t46.5 -115q0 -71 -46.5 -113.5 t-126.5 -42.5q-81 0 -126.5 41.5t-45.5 114.5z" />
<glyph unicode="&#xcc;" horiz-adv-x="713" d="M-116 1886v21h430q52 -70 203 -233l59 -66v-29h-260q-69 44 -203.5 138.5t-228.5 168.5zM158 0v1462h397v-1462h-397z" />
<glyph unicode="&#xcd;" horiz-adv-x="713" d="M156 1579v29q154 165 195.5 213t68.5 86h428v-21q-80 -64 -220 -163t-212 -144h-260zM158 0v1462h397v-1462h-397z" />
<glyph unicode="&#xce;" horiz-adv-x="713" d="M-95 1579v29q69 65 144.5 153t113.5 146h393q94 -137 256 -299v-29h-254q-84 48 -201 150q-125 -107 -194 -150h-258zM158 0v1462h397v-1462h-397z" />
<glyph unicode="&#xcf;" horiz-adv-x="713" d="M-55 1751q0 75 46 116.5t124 41.5q79 0 125.5 -42.5t46.5 -115.5q0 -71 -46.5 -113.5t-125.5 -42.5q-78 0 -124 41t-46 115zM158 0v1462h397v-1462h-397zM424 1751q0 75 46 116.5t126 41.5t126.5 -43t46.5 -115q0 -71 -46.5 -113.5t-126.5 -42.5q-81 0 -126.5 41.5 t-45.5 114.5z" />
<glyph unicode="&#xd0;" horiz-adv-x="1503" d="M31 563v320h127v579h506q352 0 543.5 -180t191.5 -520q0 -366 -201.5 -564t-566.5 -198h-473v563h-127zM553 324h88q180 0 264 104.5t84 319.5q0 201 -79.5 298t-241.5 97h-115v-260h211v-320h-211v-239z" />
<glyph unicode="&#xd1;" horiz-adv-x="1708" d="M158 0v1462h516l532 -1016h6q-14 221 -14 355v661h352v-1462h-518l-534 1030h-9q19 -243 19 -371v-659h-350zM434 1575q11 175 72 258.5t180 83.5q38 0 81 -15t87 -33t87 -33t81 -15q29 0 46 25t26 73h182q-11 -167 -74 -254.5t-172 -87.5q-45 0 -90.5 15t-89.5 33 t-85.5 33t-78.5 15q-54 0 -72 -98h-180z" />
<glyph unicode="&#xd2;" horiz-adv-x="1632" d="M104 735q0 365 182.5 557.5t530.5 192.5q349 0 529 -191t180 -561q0 -369 -181 -561t-530 -192q-344 0 -527.5 193t-183.5 562zM397 1886v21h430q52 -70 203 -233l59 -66v-29h-260q-69 44 -203.5 138.5t-228.5 168.5zM520 733q0 -424 295 -424q150 0 222.5 103t72.5 321 q0 219 -73.5 323.5t-219.5 104.5q-297 0 -297 -428z" />
<glyph unicode="&#xd3;" horiz-adv-x="1632" d="M104 735q0 365 182.5 557.5t530.5 192.5q349 0 529 -191t180 -561q0 -369 -181 -561t-530 -192q-344 0 -527.5 193t-183.5 562zM520 733q0 -424 295 -424q150 0 222.5 103t72.5 321q0 219 -73.5 323.5t-219.5 104.5q-297 0 -297 -428zM583 1579v29q154 165 195.5 213 t68.5 86h428v-21q-80 -64 -220 -163t-212 -144h-260z" />
<glyph unicode="&#xd4;" horiz-adv-x="1632" d="M104 735q0 365 182.5 557.5t530.5 192.5q349 0 529 -191t180 -561q0 -369 -181 -561t-530 -192q-344 0 -527.5 193t-183.5 562zM363 1579v29q69 65 144.5 153t113.5 146h393q94 -137 256 -299v-29h-254q-84 48 -201 150q-125 -107 -194 -150h-258zM520 733 q0 -424 295 -424q150 0 222.5 103t72.5 321q0 219 -73.5 323.5t-219.5 104.5q-297 0 -297 -428z" />
<glyph unicode="&#xd5;" horiz-adv-x="1632" d="M104 735q0 365 182.5 557.5t530.5 192.5q349 0 529 -191t180 -561q0 -369 -181 -561t-530 -192q-344 0 -527.5 193t-183.5 562zM401 1575q11 175 72 258.5t180 83.5q38 0 81 -15t87 -33t87 -33t81 -15q29 0 46 25t26 73h182q-11 -167 -74 -254.5t-172 -87.5 q-45 0 -90.5 15t-89.5 33t-85.5 33t-78.5 15q-54 0 -72 -98h-180zM520 733q0 -424 295 -424q150 0 222.5 103t72.5 321q0 219 -73.5 323.5t-219.5 104.5q-297 0 -297 -428z" />
<glyph unicode="&#xd6;" horiz-adv-x="1632" d="M104 735q0 365 182.5 557.5t530.5 192.5q349 0 529 -191t180 -561q0 -369 -181 -561t-530 -192q-344 0 -527.5 193t-183.5 562zM403 1751q0 75 46 116.5t124 41.5q79 0 125.5 -42.5t46.5 -115.5q0 -71 -46.5 -113.5t-125.5 -42.5q-78 0 -124 41t-46 115zM520 733 q0 -424 295 -424q150 0 222.5 103t72.5 321q0 219 -73.5 323.5t-219.5 104.5q-297 0 -297 -428zM882 1751q0 75 46 116.5t126 41.5t126.5 -43t46.5 -115q0 -71 -46.5 -113.5t-126.5 -42.5q-81 0 -126.5 41.5t-45.5 114.5z" />
<glyph unicode="&#xd7;" horiz-adv-x="1159" d="M121 991l182 189l270 -267l275 267l188 -183l-274 -274l270 -272l-184 -185l-275 271l-270 -269l-180 187l264 268z" />
<glyph unicode="&#xd8;" horiz-adv-x="1632" d="M104 735q0 365 182.5 557.5t530.5 192.5q191 0 330 -55l76 118l190 -114l-82 -125q195 -189 195 -576q0 -369 -181 -561t-530 -192q-177 0 -307 43l-84 -132l-193 125l84 125q-211 194 -211 594zM520 733q0 -155 29 -239l403 639q-68 28 -135 28q-297 0 -297 -428z M698 324q54 -15 117 -15q150 0 222.5 103t72.5 321q0 125 -18 211z" />
<glyph unicode="&#xd9;" horiz-adv-x="1550" d="M150 573v889h397v-858q0 -155 58 -225t171 -70q121 0 175.5 69.5t54.5 227.5v856h395v-880q0 -287 -162.5 -444.5t-468.5 -157.5q-299 0 -459.5 153t-160.5 440zM280 1886v21h430q52 -70 203 -233l59 -66v-29h-260q-69 44 -203.5 138.5t-228.5 168.5z" />
<glyph unicode="&#xda;" horiz-adv-x="1550" d="M150 573v889h397v-858q0 -155 58 -225t171 -70q121 0 175.5 69.5t54.5 227.5v856h395v-880q0 -287 -162.5 -444.5t-468.5 -157.5q-299 0 -459.5 153t-160.5 440zM561 1579v29q154 165 195.5 213t68.5 86h428v-21q-80 -64 -220 -163t-212 -144h-260z" />
<glyph unicode="&#xdb;" horiz-adv-x="1550" d="M150 573v889h397v-858q0 -155 58 -225t171 -70q121 0 175.5 69.5t54.5 227.5v856h395v-880q0 -287 -162.5 -444.5t-468.5 -157.5q-299 0 -459.5 153t-160.5 440zM322 1579v29q69 65 144.5 153t113.5 146h393q94 -137 256 -299v-29h-254q-84 48 -201 150 q-125 -107 -194 -150h-258z" />
<glyph unicode="&#xdc;" horiz-adv-x="1550" d="M150 573v889h397v-858q0 -155 58 -225t171 -70q121 0 175.5 69.5t54.5 227.5v856h395v-880q0 -287 -162.5 -444.5t-468.5 -157.5q-299 0 -459.5 153t-160.5 440zM362 1751q0 75 46 116.5t124 41.5q79 0 125.5 -42.5t46.5 -115.5q0 -71 -46.5 -113.5t-125.5 -42.5 q-78 0 -124 41t-46 115zM841 1751q0 75 46 116.5t126 41.5t126.5 -43t46.5 -115q0 -71 -46.5 -113.5t-126.5 -42.5q-81 0 -126.5 41.5t-45.5 114.5z" />
<glyph unicode="&#xdd;" horiz-adv-x="1360" d="M0 1462h430l250 -542l252 542h428l-481 -891v-571h-398v559zM471 1579v29q154 165 195.5 213t68.5 86h428v-21q-80 -64 -220 -163t-212 -144h-260z" />
<glyph unicode="&#xde;" horiz-adv-x="1284" d="M158 0v1462h395v-213h111q277 0 416 -121t139 -344q0 -245 -144.5 -378.5t-410.5 -133.5h-111v-272h-395zM553 594h72q89 0 141.5 50t52.5 138q0 148 -164 148h-102v-336z" />
<glyph unicode="&#xdf;" horiz-adv-x="1536" d="M135 0v1100q0 215 167 341t446 126q276 0 433.5 -99.5t157.5 -277.5q0 -57 -20 -103.5t-49.5 -84t-64.5 -66.5t-64.5 -52t-49.5 -41t-20 -32q0 -23 24.5 -44t93.5 -58q169 -95 228.5 -173t59.5 -202q0 -174 -115 -264t-338 -90q-136 0 -221.5 12.5t-149.5 46.5v291 q49 -30 131.5 -55t147.5 -25q61 0 99 23.5t38 62.5q0 28 -14.5 47t-50.5 42.5t-121 68.5q-126 67 -175 124.5t-49 137.5q0 122 140 218q75 52 107 91.5t32 83.5q0 51 -49.5 85t-140.5 34q-222 0 -222 -209v-1059h-391z" />
<glyph unicode="&#xe0;" horiz-adv-x="1276" d="M74 346q0 181 126 269.5t365 99.5l189 6v16q0 140 -138 140q-124 0 -315 -84l-113 258q198 102 500 102q218 0 337.5 -108t119.5 -302v-743h-271l-75 150h-8q-79 -98 -161 -134t-212 -36q-160 0 -252 96t-92 270zM204 1548v21h430q52 -70 203 -233l59 -66v-29h-260 q-69 44 -203.5 138.5t-228.5 168.5zM473 360q0 -104 111 -104q71 0 121.5 45t50.5 117v88l-90 -4q-193 -7 -193 -142z" />
<glyph unicode="&#xe1;" horiz-adv-x="1276" d="M74 346q0 181 126 269.5t365 99.5l189 6v16q0 140 -138 140q-124 0 -315 -84l-113 258q198 102 500 102q218 0 337.5 -108t119.5 -302v-743h-271l-75 150h-8q-79 -98 -161 -134t-212 -36q-160 0 -252 96t-92 270zM434 1241v29q154 165 195.5 213t68.5 86h428v-21 q-80 -64 -220 -163t-212 -144h-260zM473 360q0 -104 111 -104q71 0 121.5 45t50.5 117v88l-90 -4q-193 -7 -193 -142z" />
<glyph unicode="&#xe2;" horiz-adv-x="1276" d="M74 346q0 181 126 269.5t365 99.5l189 6v16q0 140 -138 140q-124 0 -315 -84l-113 258q198 102 500 102q218 0 337.5 -108t119.5 -302v-743h-271l-75 150h-8q-79 -98 -161 -134t-212 -36q-160 0 -252 96t-92 270zM197 1238v29q69 65 144.5 153t113.5 146h393 q94 -137 256 -299v-29h-254q-84 48 -201 150q-125 -107 -194 -150h-258zM473 360q0 -104 111 -104q71 0 121.5 45t50.5 117v88l-90 -4q-193 -7 -193 -142z" />
<glyph unicode="&#xe3;" horiz-adv-x="1276" d="M74 346q0 181 126 269.5t365 99.5l189 6v16q0 140 -138 140q-124 0 -315 -84l-113 258q198 102 500 102q218 0 337.5 -108t119.5 -302v-743h-271l-75 150h-8q-79 -98 -161 -134t-212 -36q-160 0 -252 96t-92 270zM244 1237q11 175 72 258.5t180 83.5q38 0 81 -15t87 -33 t87 -33t81 -15q29 0 46 25t26 73h182q-11 -167 -74 -254.5t-172 -87.5q-45 0 -90.5 15t-89.5 33t-85.5 33t-78.5 15q-54 0 -72 -98h-180zM473 360q0 -104 111 -104q71 0 121.5 45t50.5 117v88l-90 -4q-193 -7 -193 -142z" />
<glyph unicode="&#xe4;" horiz-adv-x="1276" d="M74 346q0 181 126 269.5t365 99.5l189 6v16q0 140 -138 140q-124 0 -315 -84l-113 258q198 102 500 102q218 0 337.5 -108t119.5 -302v-743h-271l-75 150h-8q-79 -98 -161 -134t-212 -36q-160 0 -252 96t-92 270zM268 1413q0 75 46 116.5t124 41.5q79 0 125.5 -42.5 t46.5 -115.5q0 -71 -46.5 -113.5t-125.5 -42.5q-78 0 -124 41t-46 115zM473 360q0 -104 111 -104q71 0 121.5 45t50.5 117v88l-90 -4q-193 -7 -193 -142zM747 1413q0 75 46 116.5t126 41.5t126.5 -43t46.5 -115q0 -71 -46.5 -113.5t-126.5 -42.5q-81 0 -126.5 41.5 t-45.5 114.5z" />
<glyph unicode="&#xe5;" horiz-adv-x="1276" d="M74 346q0 181 126 269.5t365 99.5l189 6v16q0 140 -138 140q-124 0 -315 -84l-113 258q198 102 500 102q218 0 337.5 -108t119.5 -302v-743h-271l-75 150h-8q-79 -98 -161 -134t-212 -36q-160 0 -252 96t-92 270zM389 1489q0 116 71.5 185t192.5 69q118 0 195 -70 t77 -182q0 -113 -76 -183.5t-196 -70.5q-121 0 -192.5 68.5t-71.5 183.5zM473 360q0 -104 111 -104q71 0 121.5 45t50.5 117v88l-90 -4q-193 -7 -193 -142zM569 1489q0 -37 21 -60.5t63 -23.5q35 0 59.5 23.5t24.5 60.5q0 38 -24.5 61t-59.5 23t-59.5 -23t-24.5 -61z" />
<glyph unicode="&#xe6;" horiz-adv-x="1915" d="M74 352q0 345 497 363l183 6v18q0 138 -136 138q-138 0 -313 -80l-110 256q190 100 454 100q201 0 336 -94q70 49 153 71.5t199 22.5q229 0 360.5 -136.5t131.5 -383.5v-172h-696q4 -90 74 -146.5t186 -56.5q194 0 364 86v-281q-94 -48 -191 -65.5t-225 -17.5 q-280 0 -430 190q-80 -83 -141.5 -120.5t-138.5 -53.5t-197 -16q-162 0 -261 101.5t-99 270.5zM473 356q0 -100 113 -100q69 0 119.5 45t50.5 117v88l-84 -4q-106 -4 -152.5 -38.5t-46.5 -107.5zM1139 707h340q-2 82 -48 131t-116 49q-162 0 -176 -180z" />
<glyph unicode="&#xe7;" horiz-adv-x="1104" d="M86 561q0 282 155 437t441 155q197 0 371 -86l-115 -289q-71 31 -131 49.5t-125 18.5q-95 0 -147 -74t-52 -209q0 -272 201 -272q172 0 330 100v-311q-151 -100 -363 -100q-278 0 -421.5 150t-143.5 431zM361 -258q83 -27 147 -27q52 0 52 47q0 33 -41 58.5t-107 40.5 l72 139h203l-9 -29q96 -39 133 -92.5t37 -130.5q0 -109 -75 -174.5t-199 -65.5q-136 0 -213 29v205z" />
<glyph unicode="&#xe8;" horiz-adv-x="1266" d="M86 559q0 287 145 440.5t414 153.5q256 0 395.5 -133.5t139.5 -384.5v-174h-699q4 -95 69.5 -149t178.5 -54q103 0 189.5 19.5t187.5 66.5v-281q-92 -47 -190 -65t-234 -18q-283 0 -439.5 150.5t-156.5 428.5zM189 1548v21h430q52 -70 203 -233l59 -66v-29h-260 q-69 44 -203.5 138.5t-228.5 168.5zM489 707h336q-2 82 -46.5 131t-119.5 49q-69 0 -115.5 -43.5t-54.5 -136.5z" />
<glyph unicode="&#xe9;" horiz-adv-x="1266" d="M86 559q0 287 145 440.5t414 153.5q256 0 395.5 -133.5t139.5 -384.5v-174h-699q4 -95 69.5 -149t178.5 -54q103 0 189.5 19.5t187.5 66.5v-281q-92 -47 -190 -65t-234 -18q-283 0 -439.5 150.5t-156.5 428.5zM471 1241v29q154 165 195.5 213t68.5 86h428v-21 q-80 -64 -220 -163t-212 -144h-260zM489 707h336q-2 82 -46.5 131t-119.5 49q-69 0 -115.5 -43.5t-54.5 -136.5z" />
<glyph unicode="&#xea;" horiz-adv-x="1266" d="M86 559q0 287 145 440.5t414 153.5q256 0 395.5 -133.5t139.5 -384.5v-174h-699q4 -95 69.5 -149t178.5 -54q103 0 189.5 19.5t187.5 66.5v-281q-92 -47 -190 -65t-234 -18q-283 0 -439.5 150.5t-156.5 428.5zM205 1241v29q69 65 144.5 153t113.5 146h393 q94 -137 256 -299v-29h-254q-84 48 -201 150q-125 -107 -194 -150h-258zM489 707h336q-2 82 -46.5 131t-119.5 49q-69 0 -115.5 -43.5t-54.5 -136.5z" />
<glyph unicode="&#xeb;" horiz-adv-x="1266" d="M86 559q0 287 145 440.5t414 153.5q256 0 395.5 -133.5t139.5 -384.5v-174h-699q4 -95 69.5 -149t178.5 -54q103 0 189.5 19.5t187.5 66.5v-281q-92 -47 -190 -65t-234 -18q-283 0 -439.5 150.5t-156.5 428.5zM252 1413q0 75 46 116.5t124 41.5q79 0 125.5 -42.5 t46.5 -115.5q0 -71 -46.5 -113.5t-125.5 -42.5q-78 0 -124 41t-46 115zM489 707h336q-2 82 -46.5 131t-119.5 49q-69 0 -115.5 -43.5t-54.5 -136.5zM731 1413q0 75 46 116.5t126 41.5t126.5 -43t46.5 -115q0 -71 -46.5 -113.5t-126.5 -42.5q-81 0 -126.5 41.5t-45.5 114.5z " />
<glyph unicode="&#xec;" horiz-adv-x="666" d="M-130 1548v21h430q52 -70 203 -233l59 -66v-29h-260q-69 44 -203.5 138.5t-228.5 168.5zM137 0v1133h391v-1133h-391z" />
<glyph unicode="&#xed;" horiz-adv-x="666" d="M107 1241v29q154 165 195.5 213t68.5 86h428v-21q-80 -64 -220 -163t-212 -144h-260zM137 0v1133h391v-1133h-391z" />
<glyph unicode="&#xee;" horiz-adv-x="666" d="M-120 1241v29q69 65 144.5 153t113.5 146h393q94 -137 256 -299v-29h-254q-84 48 -201 150q-125 -107 -194 -150h-258zM137 0v1133h391v-1133h-391z" />
<glyph unicode="&#xef;" horiz-adv-x="666" d="M-61 1413q0 75 46 116.5t124 41.5q79 0 125.5 -42.5t46.5 -115.5q0 -71 -46.5 -113.5t-125.5 -42.5q-78 0 -124 41t-46 115zM137 0v1133h391v-1133h-391zM418 1413q0 75 46 116.5t126 41.5t126.5 -43t46.5 -115q0 -71 -46.5 -113.5t-126.5 -42.5q-81 0 -126.5 41.5 t-45.5 114.5z" />
<glyph unicode="&#xf0;" horiz-adv-x="1313" d="M88 498q0 239 130.5 377.5t348.5 138.5q192 0 244 -84l8 4q-67 130 -143 207l-182 -119l-117 184l143 92l-149 93l108 182q174 -73 266 -135l209 137l115 -182l-145 -97q159 -157 226 -327.5t67 -388.5q0 -275 -152.5 -437.5t-415.5 -162.5q-259 0 -410 139t-151 379z M489 500q0 -242 164 -242q91 0 127.5 71t36.5 216q0 84 -45 136t-119 52q-92 0 -128 -56t-36 -177z" />
<glyph unicode="&#xf1;" horiz-adv-x="1372" d="M135 0v1133h295l49 -140h23q50 80 138.5 120t203.5 40q188 0 292.5 -109t104.5 -307v-737h-391v618q0 113 -32.5 170.5t-104.5 57.5q-99 0 -143 -79t-44 -271v-496h-391zM274 1237q11 175 72 258.5t180 83.5q38 0 81 -15t87 -33t87 -33t81 -15q29 0 46 25t26 73h182 q-11 -167 -74 -254.5t-172 -87.5q-45 0 -90.5 15t-89.5 33t-85.5 33t-78.5 15q-54 0 -72 -98h-180z" />
<glyph unicode="&#xf2;" horiz-adv-x="1305" d="M86 569q0 277 149.5 430.5t419.5 153.5q167 0 295 -71t197.5 -203.5t69.5 -309.5q0 -278 -149.5 -433.5t-418.5 -155.5q-258 0 -410.5 159t-152.5 430zM175 1548v21h430q52 -70 203 -233l59 -66v-29h-260q-69 44 -203.5 138.5t-228.5 168.5zM483 569q0 -146 39 -222.5 t131 -76.5q91 0 128.5 76.5t37.5 222.5q0 145 -38 219t-130 74q-90 0 -129 -73.5t-39 -219.5z" />
<glyph unicode="&#xf3;" horiz-adv-x="1305" d="M86 569q0 277 149.5 430.5t419.5 153.5q167 0 295 -71t197.5 -203.5t69.5 -309.5q0 -278 -149.5 -433.5t-418.5 -155.5q-258 0 -410.5 159t-152.5 430zM416 1241v29q154 165 195.5 213t68.5 86h428v-21q-80 -64 -220 -163t-212 -144h-260zM483 569q0 -146 39 -222.5 t131 -76.5q91 0 128.5 76.5t37.5 222.5q0 145 -38 219t-130 74q-90 0 -129 -73.5t-39 -219.5z" />
<glyph unicode="&#xf4;" horiz-adv-x="1305" d="M86 569q0 277 149.5 430.5t419.5 153.5q167 0 295 -71t197.5 -203.5t69.5 -309.5q0 -278 -149.5 -433.5t-418.5 -155.5q-258 0 -410.5 159t-152.5 430zM199 1241v29q69 65 144.5 153t113.5 146h393q94 -137 256 -299v-29h-254q-84 48 -201 150q-125 -107 -194 -150h-258z M483 569q0 -146 39 -222.5t131 -76.5q91 0 128.5 76.5t37.5 222.5q0 145 -38 219t-130 74q-90 0 -129 -73.5t-39 -219.5z" />
<glyph unicode="&#xf5;" horiz-adv-x="1305" d="M86 569q0 277 149.5 430.5t419.5 153.5q167 0 295 -71t197.5 -203.5t69.5 -309.5q0 -278 -149.5 -433.5t-418.5 -155.5q-258 0 -410.5 159t-152.5 430zM231 1237q11 175 72 258.5t180 83.5q38 0 81 -15t87 -33t87 -33t81 -15q29 0 46 25t26 73h182q-11 -167 -74 -254.5 t-172 -87.5q-45 0 -90.5 15t-89.5 33t-85.5 33t-78.5 15q-54 0 -72 -98h-180zM483 569q0 -146 39 -222.5t131 -76.5q91 0 128.5 76.5t37.5 222.5q0 145 -38 219t-130 74q-90 0 -129 -73.5t-39 -219.5z" />
<glyph unicode="&#xf6;" horiz-adv-x="1305" d="M86 569q0 277 149.5 430.5t419.5 153.5q167 0 295 -71t197.5 -203.5t69.5 -309.5q0 -278 -149.5 -433.5t-418.5 -155.5q-258 0 -410.5 159t-152.5 430zM239 1413q0 75 46 116.5t124 41.5q79 0 125.5 -42.5t46.5 -115.5q0 -71 -46.5 -113.5t-125.5 -42.5q-78 0 -124 41 t-46 115zM483 569q0 -146 39 -222.5t131 -76.5q91 0 128.5 76.5t37.5 222.5q0 145 -38 219t-130 74q-90 0 -129 -73.5t-39 -219.5zM718 1413q0 75 46 116.5t126 41.5t126.5 -43t46.5 -115q0 -71 -46.5 -113.5t-126.5 -42.5q-81 0 -126.5 41.5t-45.5 114.5z" />
<glyph unicode="&#xf7;" horiz-adv-x="1159" d="M72 588v268h1013v-268h-1013zM422 332q0 82 39.5 126t116.5 44q75 0 116 -43.5t41 -126.5q0 -80 -43.5 -125t-113.5 -45q-71 0 -113.5 44t-42.5 126zM422 1112q0 82 39.5 126t116.5 44q75 0 116 -43.5t41 -126.5q0 -80 -43.5 -125t-113.5 -45q-71 0 -113.5 44t-42.5 126z " />
<glyph unicode="&#xf8;" horiz-adv-x="1362" d="M86 569q0 277 157 430.5t441 153.5q125 0 234 -39l71 111l168 -105l-67 -104q184 -158 184 -447q0 -280 -156.5 -434.5t-439.5 -154.5q-125 0 -229 34l-84 -131l-170 107l79 123q-188 158 -188 456zM461 569q0 -99 12 -147l289 448q-36 13 -82 13q-114 0 -166.5 -74 t-52.5 -240zM606 258q27 -8 76 -8q114 0 165.5 73t51.5 246q0 86 -10 131z" />
<glyph unicode="&#xf9;" horiz-adv-x="1372" d="M133 395v738h391v-619q0 -111 31.5 -168t103.5 -57q101 0 144 79.5t43 268.5v496h391v-1133h-295l-49 141h-23q-49 -78 -136.5 -119.5t-205.5 -41.5q-187 0 -291 108.5t-104 306.5zM175 1548v21h430q52 -70 203 -233l59 -66v-29h-260q-69 44 -203.5 138.5t-228.5 168.5z " />
<glyph unicode="&#xfa;" horiz-adv-x="1372" d="M133 395v738h391v-619q0 -111 31.5 -168t103.5 -57q101 0 144 79.5t43 268.5v496h391v-1133h-295l-49 141h-23q-49 -78 -136.5 -119.5t-205.5 -41.5q-187 0 -291 108.5t-104 306.5zM471 1241v29q154 165 195.5 213t68.5 86h428v-21q-80 -64 -220 -163t-212 -144h-260z " />
<glyph unicode="&#xfb;" horiz-adv-x="1372" d="M133 395v738h391v-619q0 -111 31.5 -168t103.5 -57q101 0 144 79.5t43 268.5v496h391v-1133h-295l-49 141h-23q-49 -78 -136.5 -119.5t-205.5 -41.5q-187 0 -291 108.5t-104 306.5zM230 1241v29q69 65 144.5 153t113.5 146h393q94 -137 256 -299v-29h-254 q-84 48 -201 150q-125 -107 -194 -150h-258z" />
<glyph unicode="&#xfc;" horiz-adv-x="1372" d="M133 395v738h391v-619q0 -111 31.5 -168t103.5 -57q101 0 144 79.5t43 268.5v496h391v-1133h-295l-49 141h-23q-49 -78 -136.5 -119.5t-205.5 -41.5q-187 0 -291 108.5t-104 306.5zM272 1413q0 75 46 116.5t124 41.5q79 0 125.5 -42.5t46.5 -115.5q0 -71 -46.5 -113.5 t-125.5 -42.5q-78 0 -124 41t-46 115zM751 1413q0 75 46 116.5t126 41.5t126.5 -43t46.5 -115q0 -71 -46.5 -113.5t-126.5 -42.5q-81 0 -126.5 41.5t-45.5 114.5z" />
<glyph unicode="&#xfd;" horiz-adv-x="1249" d="M-2 1133h412l192 -650q14 -51 19 -123h8q8 69 24 121l197 652h399l-448 -1205q-86 -230 -211.5 -325t-327.5 -95q-78 0 -160 17v307q53 -12 121 -12q52 0 91 20t68 56.5t62 119.5zM401 1241v29q154 165 195.5 213t68.5 86h428v-21q-80 -64 -220 -163t-212 -144h-260z" />
<glyph unicode="&#xfe;" horiz-adv-x="1317" d="M135 -492v2048h391v-344q0 -106 -18 -225h18q43 78 122 122t179 44q185 0 293.5 -154t108.5 -430q0 -271 -111.5 -430t-304.5 -159q-173 0 -287 129h-14l7 -60l7 -92v-449h-391zM526 571q0 -146 39 -211t123 -65q80 0 111.5 70.5t31.5 207.5q0 134 -33 203.5t-116 69.5 q-85 0 -119 -61.5t-37 -184.5v-29z" />
<glyph unicode="&#xff;" horiz-adv-x="1249" d="M-2 1133h412l192 -650q14 -51 19 -123h8q8 69 24 121l197 652h399l-448 -1205q-86 -230 -211.5 -325t-327.5 -95q-78 0 -160 17v307q53 -12 121 -12q52 0 91 20t68 56.5t62 119.5zM216 1413q0 75 46 116.5t124 41.5q79 0 125.5 -42.5t46.5 -115.5q0 -71 -46.5 -113.5 t-125.5 -42.5q-78 0 -124 41t-46 115zM695 1413q0 75 46 116.5t126 41.5t126.5 -43t46.5 -115q0 -71 -46.5 -113.5t-126.5 -42.5q-81 0 -126.5 41.5t-45.5 114.5z" />
<glyph unicode="&#x152;" horiz-adv-x="1960" d="M104 735q0 359 175 554.5t497 195.5q67 0 143.5 -7t106.5 -16h836v-317h-473v-230h436v-317h-436v-276h473v-322h-844q-34 -8 -110.5 -14t-133.5 -6q-319 0 -494.5 200t-175.5 555zM520 733q0 -205 64.5 -314.5t191.5 -109.5q141 0 217 43v760q-34 23 -93 36t-122 13 q-125 0 -191.5 -109.5t-66.5 -318.5z" />
<glyph unicode="&#x153;" horiz-adv-x="2007" d="M86 569q0 277 149.5 430.5t419.5 153.5q226 0 375 -127q155 127 400 127q227 0 359 -136t132 -384v-172h-696q4 -90 74 -146.5t186 -56.5q194 0 364 86v-281q-92 -47 -187 -65t-228 -18q-238 0 -383 137q-151 -137 -402 -137q-258 0 -410.5 159t-152.5 430zM485 569 q0 -146 38 -222.5t130 -76.5q91 0 128.5 76.5t37.5 222.5q0 145 -38 219t-130 74q-89 0 -127.5 -74t-38.5 -219zM1231 707h340q-2 82 -48 131t-116 49q-162 0 -176 -180z" />
<glyph unicode="&#x2c6;" horiz-adv-x="1237" d="M164 1241v29q69 65 144.5 153t113.5 146h393q94 -137 256 -299v-29h-254q-84 48 -201 150q-125 -107 -194 -150h-258z" />
<glyph unicode="&#x2dc;" horiz-adv-x="1225" d="M176 1237q11 175 72 258.5t180 83.5q38 0 81 -15t87 -33t87 -33t81 -15q29 0 46 25t26 73h182q-11 -167 -74 -254.5t-172 -87.5q-45 0 -90.5 15t-89.5 33t-85.5 33t-78.5 15q-54 0 -72 -98h-180z" />
<glyph unicode="&#x2000;" horiz-adv-x="959" />
<glyph unicode="&#x2001;" horiz-adv-x="1919" />
<glyph unicode="&#x2002;" horiz-adv-x="959" />
<glyph unicode="&#x2003;" horiz-adv-x="1919" />
<glyph unicode="&#x2004;" horiz-adv-x="639" />
<glyph unicode="&#x2005;" horiz-adv-x="479" />
<glyph unicode="&#x2006;" horiz-adv-x="319" />
<glyph unicode="&#x2007;" horiz-adv-x="319" />
<glyph unicode="&#x2008;" horiz-adv-x="239" />
<glyph unicode="&#x2009;" horiz-adv-x="383" />
<glyph unicode="&#x200a;" horiz-adv-x="106" />
<glyph unicode="&#x2010;" horiz-adv-x="651" d="M43 393v312h565v-312h-565z" />
<glyph unicode="&#x2011;" horiz-adv-x="651" d="M43 393v312h565v-312h-565z" />
<glyph unicode="&#x2012;" horiz-adv-x="651" d="M43 393v312h565v-312h-565z" />
<glyph unicode="&#x2013;" horiz-adv-x="1024" d="M74 414v276h876v-276h-876z" />
<glyph unicode="&#x2014;" horiz-adv-x="2048" d="M74 414v276h1896v-276h-1896z" />
<glyph unicode="&#x2018;" horiz-adv-x="512" d="M20 899q100 391 177 561h278q-67 -312 -98 -583h-342z" />
<glyph unicode="&#x2019;" horiz-adv-x="512" d="M37 877q68 317 98 583h342l15 -22q-92 -366 -177 -561h-278z" />
<glyph unicode="&#x201a;" horiz-adv-x="633" d="M57 -285q29 138 58.5 309.5t40.5 274.5h342l14 -23q-97 -381 -176 -561h-279z" />
<glyph unicode="&#x201c;" horiz-adv-x="1022" d="M20 899q100 391 177 561h278q-67 -312 -98 -583h-342zM530 899q100 391 177 561h278q-67 -312 -98 -583h-342z" />
<glyph unicode="&#x201d;" horiz-adv-x="1022" d="M37 877q68 317 98 583h342l15 -22q-92 -366 -177 -561h-278zM547 877q68 317 98 583h342l14 -22q-93 -371 -176 -561h-278z" />
<glyph unicode="&#x201e;" horiz-adv-x="1143" d="M57 -285q29 138 58.5 309.5t40.5 274.5h342l14 -23q-97 -381 -176 -561h-279zM567 -285q29 138 58.5 309.5t40.5 274.5h342l14 -23q-97 -381 -176 -561h-279z" />
<glyph unicode="&#x2022;" horiz-adv-x="803" d="M74 748q0 174 84.5 267t242.5 93t243 -94.5t85 -265.5q0 -172 -87 -266.5t-241 -94.5q-155 0 -241 93t-86 268zM668 1133z" />
<glyph unicode="&#x202f;" horiz-adv-x="383" />
<glyph unicode="&#x2039;" horiz-adv-x="819" d="M74 561v27l389 483l280 -149l-272 -347l272 -348l-280 -147z" />
<glyph unicode="&#x203a;" horiz-adv-x="819" d="M76 227l272 348l-272 347l282 149l387 -483v-27l-387 -481z" />
<glyph unicode="&#x205f;" horiz-adv-x="479" />
<glyph unicode="&#x20ac;" d="M55 467v205h129l-2 21v22l2 43h-129v205h148q51 255 212.5 387.5t413.5 132.5q180 0 349 -76l-119 -299q-120 51 -230 51q-112 0 -171.5 -53.5t-71.5 -142.5h338v-205h-353l-2 -29v-14l2 -44v1h287v-205h-264q33 -164 260 -164q145 0 266 55v-323q-102 -55 -291 -55 q-253 0 -412 126t-206 361h-156z" />
<glyph unicode="&#xe000;" horiz-adv-x="1135" d="M0 0v1135h1135v-1135h-1135z" />
</font>
</defs></svg> 