<?xml version="1.0" encoding="utf-8"?>
<!-- Generator: Adobe Illustrator 18.0.0, SVG Export Plug-In . SVG Version: 6.00 Build 0)  -->
<!DOCTYPE svg PUBLIC "-//W3C//DTD SVG 1.1//EN" "http://www.w3.org/Graphics/SVG/1.1/DTD/svg11.dtd">
<svg version="1.1" id="Isolation_Mode" xmlns="http://www.w3.org/2000/svg" xmlns:xlink="http://www.w3.org/1999/xlink" x="0px"
	 y="0px" viewBox="0 0 612 792" enable-background="new 0 0 612 792" xml:space="preserve">
<path id="Shape_1_" fill="#c4c2ba" d="M236.5,270.7c-9.3-9.1-24.6-8.9-33.7,0.3c-9.1,9.3-8.9,24.6,0.3,33.7l93.7,90.9l-91.9,92.7
	c-9.1,9.3-8.9,24.6,0.3,33.7c4.1,5.1,10.3,7,16.4,7c6.1-0.1,12.2-2.2,17.3-7.3L347,412.4c9.1-9.3,8.9-24.6-0.3-33.7L236.5,270.7z"/>
</svg>
