<?xml version="1.0" encoding="utf-8"?>
<!-- Generator: Adobe Illustrator 16.0.1, SVG Export Plug-In . SVG Version: 6.00 Build 0)  -->
<!DOCTYPE svg PUBLIC "-//W3C//DTD SVG 1.1//EN" "http://www.w3.org/Graphics/SVG/1.1/DTD/svg11.dtd">
<svg version="1.1" id="Layer_1" xmlns="http://www.w3.org/2000/svg" xmlns:xlink="http://www.w3.org/1999/xlink" x="0px" y="0px"
	 width="32px" height="28px" viewBox="0 0 32 28" enable-background="new 0 0 32 28" xml:space="preserve">
<g id="bg" display="none">
	<g display="inline">
		<g>
			<rect x="-122.359" y="-72.301" fill="#D3D3D3" width="766.999" height="240"/>
		</g>
	</g>
</g>
<g id="icons">
	<g>
		
			<polygon opacity="0.5" fill="none" stroke="#FDFEFF" stroke-width="1.8169" stroke-linecap="round" stroke-linejoin="round" stroke-miterlimit="10" enable-background="new    " points="
			1.302,9.559 15.152,0.908 29.001,9.559 		"/>
		
			<line fill="none" stroke="#FFFFFF" stroke-width="2.1146" stroke-linecap="round" stroke-linejoin="round" stroke-miterlimit="10" x1="5.352" y1="12.561" x2="5.352" y2="19.25"/>
		
			<line fill="none" stroke="#FFFFFF" stroke-width="2.1146" stroke-linecap="round" stroke-linejoin="round" stroke-miterlimit="10" x1="10.11" y1="12.561" x2="10.11" y2="19.25"/>
		
			<line fill="none" stroke="#FFFFFF" stroke-width="2.1146" stroke-linecap="round" stroke-linejoin="round" stroke-miterlimit="10" x1="20.418" y1="12.561" x2="20.418" y2="19.25"/>
		
			<line fill="none" stroke="#FFFFFF" stroke-width="2.1146" stroke-linecap="round" stroke-linejoin="round" stroke-miterlimit="10" x1="15.194" y1="15.48" x2="15.194" y2="21.905"/>
		
			<line fill="none" stroke="#FFFFFF" stroke-width="2.1146" stroke-linecap="round" stroke-linejoin="round" stroke-miterlimit="10" x1="24.648" y1="12.561" x2="24.648" y2="19.25"/>
		
			<line fill="none" stroke="#FFFFFF" stroke-width="2.1146" stroke-linecap="round" stroke-linejoin="round" stroke-miterlimit="10" x1="27.82" y1="22.209" x2="3.106" y2="22.209"/>
		
			<line fill="none" stroke="#FFFFFF" stroke-width="2.1146" stroke-linecap="round" stroke-linejoin="round" stroke-miterlimit="10" x1="29.594" y1="25.909" x2="1.057" y2="25.909"/>
	</g>
</g>
</svg>
