<?xml version="1.0" encoding="utf-8"?>
<!-- Generator: Adobe Illustrator 16.0.1, SVG Export Plug-In . SVG Version: 6.00 Build 0)  -->
<!DOCTYPE svg PUBLIC "-//W3C//DTD SVG 1.1//EN" "http://www.w3.org/Graphics/SVG/1.1/DTD/svg11.dtd">
<svg version="1.1" id="Layer_1" xmlns="http://www.w3.org/2000/svg" xmlns:xlink="http://www.w3.org/1999/xlink" x="0px" y="0px"
	 width="22px" height="21px" viewBox="0 0 22 21" enable-background="new 0 0 22 21" xml:space="preserve">
<g id="bg" display="none">
	<g display="inline">
		<g>
			<rect x="-174.938" y="-21.132" fill="#D3D3D3" width="767" height="240"/>
		</g>
	</g>
</g>
<g id="icons">
	<g>
		
			<polyline fill="none" stroke="#FDFEFF" stroke-width="1.8169" stroke-linecap="round" stroke-linejoin="round" stroke-miterlimit="10" points="
			10.044,0.908 19.251,0.908 19.251,9.88 		"/>
		
			<line fill="none" stroke="#FDFEFF" stroke-width="1.8169" stroke-linecap="round" stroke-linejoin="round" stroke-miterlimit="10" x1="19.251" y1="0.908" x2="9.472" y2="10.96"/>
		
			<polyline fill="none" stroke="#FDFEFF" stroke-width="2.0332" stroke-linecap="round" stroke-linejoin="round" stroke-miterlimit="10" points="
			15.386,11.494 15.386,18.908 1.017,18.908 1.017,4.54 8.757,4.54 		"/>
	</g>
</g>
</svg>
