<?xml version="1.0" encoding="utf-8"?>
<!-- Generator: Adobe Illustrator 16.0.1, SVG Export Plug-In . SVG Version: 6.00 Build 0)  -->
<!DOCTYPE svg PUBLIC "-//W3C//DTD SVG 1.1//EN" "http://www.w3.org/Graphics/SVG/1.1/DTD/svg11.dtd">
<svg version="1.1" id="Layer_1" xmlns="http://www.w3.org/2000/svg" xmlns:xlink="http://www.w3.org/1999/xlink" x="0px" y="0px"
	 width="18px" height="26px" viewBox="-0.185 -0.3 18 26" enable-background="new -0.185 -0.3 18 26" xml:space="preserve">
<g id="bg" display="none">
	<g display="inline">
		<g>
			<rect x="-306.566" y="-73.009" fill="#D3D3D3" width="767" height="240"/>
		</g>
	</g>
</g>
<g id="icons">
	<g>
		<path fill="#FFFFFF" d="M16.661,17.93c-0.443,0-0.804-0.359-0.804-0.804V6.762c0-0.443,0.358-0.804,0.804-0.804
			c0.443,0,0.803,0.359,0.803,0.804v10.364C17.461,17.57,17.103,17.93,16.661,17.93z"/>
		<path fill="#FFFFFF" d="M13.624,25.206H1.891c-0.893,0-1.619-0.679-1.619-1.515V1.721c0-0.836,0.726-1.516,1.619-1.516h11.73
			c0.894,0,1.619,0.68,1.619,1.516v21.971C15.243,24.527,14.515,25.206,13.624,25.206z M1.878,23.6c0.004,0,0.009,0.001,0.013,0.001
			h11.73c0.006,0,0.01-0.001,0.015-0.001V1.812c-0.005,0-0.009-0.001-0.015-0.001H1.891c-0.004,0-0.009,0.001-0.013,0.001V23.6z"/>
		<path fill="#FFFFFF" d="M14.439,11.342H1.075c-0.443,0-0.803-0.358-0.803-0.803V2.84c0-0.442,0.359-0.803,0.803-0.803
			c0.444,0,0.802,0.359,0.802,0.803v6.896h12.562c0.442,0,0.804,0.359,0.804,0.803C15.243,10.983,14.881,11.342,14.439,11.342z"/>
		<circle opacity="0.5" fill="#FFFFFF" enable-background="new    " cx="4.423" cy="14.454" r="0.938"/>
		<circle opacity="0.5" fill="#FFFFFF" enable-background="new    " cx="7.852" cy="14.454" r="0.938"/>
		<circle opacity="0.5" fill="#FFFFFF" enable-background="new    " cx="11.282" cy="14.454" r="0.938"/>
		<circle opacity="0.5" fill="#FFFFFF" enable-background="new    " cx="4.423" cy="17.596" r="0.938"/>
		<circle opacity="0.5" fill="#FFFFFF" enable-background="new    " cx="7.852" cy="17.596" r="0.938"/>
		<circle opacity="0.5" fill="#FFFFFF" enable-background="new    " cx="4.423" cy="20.736" r="0.938"/>
		<circle opacity="0.5" fill="#FFFFFF" enable-background="new    " cx="7.852" cy="20.736" r="0.938"/>
		<path opacity="0.5" fill="#FFFFFF" enable-background="new    " d="M11.282,21.539c-0.443,0-0.804-0.358-0.804-0.803v-3.141
			c0-0.443,0.358-0.804,0.804-0.804c0.443,0,0.803,0.359,0.803,0.804v3.141C12.084,21.18,11.725,21.539,11.282,21.539z"/>
		<path fill="#FFFFFF" d="M11.883,8.908H3.62c-0.443,0-0.803-0.359-0.803-0.803V3.467c0-0.442,0.359-0.803,0.803-0.803h8.263
			c0.443,0,0.803,0.359,0.803,0.803v4.64C12.686,8.549,12.327,8.908,11.883,8.908z M4.423,7.303h6.658V4.27H4.423V7.303z"/>
	</g>
</g>
</svg>
