<?xml version="1.0" standalone="no"?>
<!DOCTYPE svg PUBLIC "-//W3C//DTD SVG 1.1//EN" "http://www.w3.org/Graphics/SVG/1.1/DTD/svg11.dtd" >
<svg xmlns="http://www.w3.org/2000/svg">
<metadata></metadata>
<defs>
<font id="proxima_n_w01_boldregular" horiz-adv-x="524" >
<font-face units-per-em="2048" ascent="1518" descent="-530" />
<missing-glyph horiz-adv-x="500" />
<glyph horiz-adv-x="2048" />
<glyph horiz-adv-x="2048" />
<glyph unicode="&#xd;" horiz-adv-x="0" />
<glyph unicode=" " />
<glyph unicode="!" d="M98 143q0 68 48.5 117t115.5 49q68 0 117 -49t49 -117q0 -33 -13.5 -62.5t-36 -52t-53 -35.5t-63.5 -13q-35 0 -64.5 13t-51 35.5t-35 52.5t-13.5 62zM104 1366h314l-41 -922h-230z" />
<glyph unicode="&#x22;" horiz-adv-x="831" d="M90 1245q0 59 41 100t100 41q57 0 99.5 -40.5t42.5 -100.5q0 -8 -4 -32.5t-10.5 -59.5t-13.5 -77t-15 -85q-18 -100 -41 -223h-115q-25 123 -43 223q-8 43 -15 85t-13.5 77t-9.5 59.5t-3 32.5zM461 1245q0 59 41 100t100 41t99 -40.5t40 -100.5q0 -8 -4 -32.5t-10 -59.5 t-13 -77t-16 -85q-18 -100 -41 -223h-112q-25 123 -43 223q-8 43 -15.5 85t-13.5 77t-9 59.5t-3 32.5z" />
<glyph unicode="#" horiz-adv-x="1265" d="M35 346l53 166h201l110 340h-200l51 164h207l114 350h193l-115 -350h193l114 350h195l-119 -350h199l-49 -164h-205l-113 -340h207l-51 -166h-211l-115 -346h-194l118 346h-194l-117 -346h-192l116 346h-196zM481 512h191l112 340h-192z" />
<glyph unicode="$" horiz-adv-x="1257" d="M61 193l158 221q57 -59 139 -108.5t187 -67.5v323q-80 20 -158 47t-141.5 73t-102.5 115.5t-39 174.5q0 78 30 147.5t87.5 124.5t138 92t185.5 47v191h194v-195q125 -14 228.5 -60t187.5 -122l-162 -213q-55 51 -119.5 84t-134.5 49v-289q80 -20 159 -47.5t143.5 -74 t104.5 -117t40 -174.5q0 -86 -28 -160t-83 -130t-139 -93t-197 -49v-187h-194v185q-162 14 -281 70t-203 143zM401 995q0 -45 39 -71.5t105 -44.5v249q-70 -10 -107 -45t-37 -88zM739 238q76 16 114 56t38 87q0 51 -43 79.5t-109 51.5v-274z" />
<glyph unicode="%" horiz-adv-x="1550" d="M53 1042q0 72 24.5 135.5t70 109.5t110 72.5t141.5 26.5q80 0 143.5 -26.5t109.5 -72.5t71 -109.5t25 -135.5t-25 -133t-71 -106t-109.5 -70.5t-143.5 -25.5q-78 0 -142 25.5t-109.5 70.5t-70 106.5t-24.5 132.5zM238 1042q0 -80 45.5 -128t115.5 -48q72 0 117 48.5 t45 127.5q0 86 -45 134.5t-117 48.5q-70 0 -115.5 -48.5t-45.5 -134.5zM266 0l873 1366h155l-874 -1366h-154zM805 313q0 72 24.5 135.5t69.5 109.5t109.5 72.5t142.5 26.5t142.5 -26.5t110.5 -72.5t70.5 -109.5t24.5 -135.5t-24.5 -133t-70.5 -107t-110.5 -72t-142.5 -26 t-142.5 26t-109.5 72t-69.5 107.5t-24.5 132.5zM989 313q0 -84 45 -131t117 -47t118 47t46 131q0 86 -46 134.5t-118 48.5t-117 -48.5t-45 -134.5z" />
<glyph unicode="&#x26;" horiz-adv-x="1323" d="M49 371q0 78 23.5 138t64.5 107.5t93.5 83t111.5 64.5q-41 76 -65.5 150.5t-24.5 144.5t28.5 129t81 103t124 69.5t157.5 25.5q72 0 137.5 -19t114.5 -56t77.5 -91.5t28.5 -121.5q0 -78 -28.5 -135.5t-75.5 -101.5t-107.5 -76.5t-123.5 -61.5q31 -41 61.5 -79t56.5 -69 q29 -37 57.5 -70.5t57.5 -68.5q43 66 75 135.5t50 128.5l209 -96q-37 -82 -84 -167t-107 -163q61 -66 127 -134t138 -140h-332q-43 41 -103 102q-78 -59 -170 -93t-202 -34q-94 0 -176 25t-143.5 74t-96.5 123.5t-35 173.5zM326 395q0 -49 17 -89t46 -67.5t67 -43t81 -15.5 q53 0 102 18.5t94 51.5q-47 51 -87 97t-64 77q-35 41 -69 87t-69 93q-53 -39 -85.5 -88t-32.5 -121zM512 1053q0 -41 16.5 -88t42.5 -97q86 41 145.5 90.5t59.5 124.5q0 53 -34.5 84t-86.5 31q-59 0 -101 -41t-42 -104z" />
<glyph unicode="'" horiz-adv-x="460" d="M90 1245q0 59 41 100t100 41q57 0 99.5 -40.5t42.5 -100.5q0 -8 -4 -32.5t-10.5 -59.5t-13.5 -77t-15 -85q-18 -100 -41 -223h-115q-25 123 -43 223q-8 43 -15 85t-13.5 77t-9.5 59.5t-3 32.5z" />
<glyph unicode="(" horiz-adv-x="608" d="M84 498q0 123 22.5 248.5t64.5 243.5t102.5 223.5t134.5 189.5l163 -123q-51 -94 -90 -184t-64.5 -185.5t-38.5 -197t-13 -215.5q0 -115 13 -216.5t38.5 -195.5t64.5 -184t90 -183l-163 -127q-74 84 -134.5 189.5t-102.5 223.5t-64.5 244t-22.5 249z" />
<glyph unicode=")" horiz-adv-x="608" d="M35 -281q53 92 92 182.5t65.5 184.5t39 195.5t12.5 216.5t-12.5 216t-39 196.5t-65.5 185.5t-92 184l164 123q76 -84 136 -189.5t103 -223.5t65.5 -243.5t22.5 -248.5t-22.5 -249t-65.5 -244t-103.5 -223.5t-135.5 -189.5z" />
<glyph unicode="*" horiz-adv-x="718" d="M51 965l199 102l-199 102l64 113l190 -121l-10 225h129l-10 -225l188 121l66 -113l-199 -102l199 -102l-66 -111l-188 121l10 -225h-129l10 225l-190 -121z" />
<glyph unicode="+" horiz-adv-x="1032" d="M59 610v162h369v399h178v-399h367v-162h-367v-415h-178v415h-369z" />
<glyph unicode="," d="M96 145q0 68 47 116t113 48q37 0 69.5 -14t58.5 -41t41 -66t15 -88q0 -117 -58 -215t-153 -166l-112 93q25 12 50.5 33.5t47 48t37.5 55t22 55.5q-4 -2 -16 -4t-22 -2q-59 0 -99.5 41t-40.5 106z" />
<glyph unicode="-" horiz-adv-x="614" d="M61 385v221h492v-221h-492z" />
<glyph unicode="." d="M96 143q0 68 49.5 117t116.5 49q68 0 117 -49t49 -117t-49 -117t-117 -49t-117 49.5t-49 116.5z" />
<glyph unicode="/" horiz-adv-x="673" d="M0 -41l485 1448h189l-486 -1448h-188z" />
<glyph unicode="0" horiz-adv-x="1269" d="M70 682q0 131 33.5 258t102 226.5t175 159.5t254.5 60q145 0 251.5 -60t176.5 -159.5t103.5 -226.5t33.5 -258q0 -133 -33.5 -259t-103.5 -226.5t-176.5 -161t-251.5 -60.5q-147 0 -254 60.5t-175.5 161t-102 226.5t-33.5 259zM365 682q0 -94 14 -176t47 -142.5t84 -95.5 t125 -35t124 35t82.5 95.5t47 142.5t14.5 176t-14.5 176t-47 141.5t-82.5 94t-124 34.5t-125 -34.5t-84 -94t-47 -141.5t-14 -176z" />
<glyph unicode="1" horiz-adv-x="841" d="M23 934l430 432h254v-1366h-291v991l-228 -231z" />
<glyph unicode="2" horiz-adv-x="1228" d="M66 1163q100 117 241.5 170t284.5 53q109 0 204 -29.5t165.5 -86t111.5 -137t41 -183.5q0 -88 -36 -171t-104.5 -167t-171 -172t-235.5 -184h557v-256h-1028v227q209 156 348.5 264.5t222.5 189.5t117.5 143.5t34.5 125.5q0 45 -18.5 78t-49 55.5t-70.5 33.5t-83 11 q-117 0 -207 -43t-160 -114z" />
<glyph unicode="3" horiz-adv-x="1202" d="M41 195l152 194q72 -74 174 -115t202 -41q125 0 191.5 48.5t66.5 126.5q0 82 -65.5 119.5t-208.5 37.5h-48.5t-50 -1t-44 -2t-27.5 -1v262q8 0 29.5 -1t46 -1h50.5h44q115 0 183.5 35t68.5 111q0 82 -73 121.5t-181 39.5q-199 0 -346 -141l-146 182q84 94 213 155.5 t310 61.5q119 0 215 -25.5t162.5 -73.5t102.5 -116.5t36 -154.5q0 -66 -25.5 -118t-67.5 -92t-95.5 -65.5t-110.5 -35.5q51 -6 108.5 -29t103.5 -64t76.5 -100t30.5 -135q0 -88 -38 -162t-108.5 -127t-169.5 -83t-222 -30q-190 0 -326.5 63.5t-212.5 156.5z" />
<glyph unicode="4" horiz-adv-x="1222" d="M51 283v229l543 854h401v-827h176v-256h-176v-283h-290v283h-654zM336 539h369v569z" />
<glyph unicode="5" horiz-adv-x="1245" d="M100 180l162 203q70 -72 162 -111t201 -39q123 0 188.5 59.5t65.5 143.5q0 92 -64.5 147.5t-181.5 55.5q-86 0 -155.5 -25.5t-131.5 -85.5l-203 54v784h938v-256h-647v-334q49 49 128 82t173 33q86 0 166 -31t140.5 -87t96.5 -138t36 -186q0 -109 -39 -197t-111 -149.5 t-173 -94.5t-224 -33q-180 0 -309.5 54.5t-217.5 150.5z" />
<glyph unicode="6" horiz-adv-x="1245" d="M70 680q0 156 43 285t123.5 223t199.5 146t271 52q125 0 227 -38.5t176 -102.5l-131 -223q-55 53 -117.5 79.5t-154.5 26.5q-76 0 -138.5 -29.5t-107.5 -81.5t-70.5 -123t-25.5 -153q0 -18 2 -28q25 35 60.5 66.5t81.5 56t99.5 39t108.5 14.5q92 0 176 -29t148.5 -85 t102.5 -139t38 -192q0 -100 -38 -186t-106.5 -148.5t-165 -98.5t-213.5 -36q-156 0 -267 56.5t-183 152t-105.5 223.5t-33.5 273zM367 510q4 -49 21.5 -98.5t50 -89t82.5 -64.5t122 -25q59 0 104.5 17.5t76 46.5t47 64.5t16.5 72.5q0 53 -21.5 92t-56.5 63.5t-81 37 t-95 12.5q-78 0 -147.5 -34t-118.5 -95z" />
<glyph unicode="7" horiz-adv-x="1116" d="M49 1110v256h1026v-203l-508 -1163h-319l489 1110h-688z" />
<glyph unicode="8" horiz-adv-x="1241" d="M72 354q0 61 22.5 116.5t62.5 99.5t93 78t115 57q-57 20 -106.5 48.5t-86.5 67.5t-57.5 90.5t-20.5 114.5q0 96 46 165t122 112t169 63t190 20q94 0 188 -20t169 -63t122 -112t47 -165q0 -63 -21.5 -114.5t-58.5 -90.5t-86 -67.5t-107 -48.5q61 -23 114.5 -57t93.5 -78 t63.5 -99t23.5 -117q0 -96 -45 -166.5t-121.5 -117.5t-176 -71t-205.5 -24q-109 0 -207.5 24t-175 71t-121.5 117.5t-45 166.5zM367 391q0 -76 72.5 -121t181.5 -45q51 0 98 12.5t81 34t54 52t20 67.5q0 43 -27.5 75t-67.5 54.5t-84 35.5t-74 17q-33 -4 -76 -17t-83 -35.5 t-67.5 -54.5t-27.5 -75zM389 981q0 -39 24.5 -66.5t59.5 -48t76 -32t72 -15.5q31 4 70.5 15.5t75.5 32t59.5 48t23.5 66.5q0 74 -64.5 115t-164.5 41q-102 0 -167 -41t-65 -115z" />
<glyph unicode="9" horiz-adv-x="1245" d="M61 920q0 100 38 185t107.5 148.5t166 99.5t213.5 36q156 0 266.5 -56.5t182 -153t105.5 -224.5t34 -273q0 -154 -42 -284t-124 -223t-199.5 -145.5t-269.5 -52.5q-125 0 -227.5 38t-174.5 104l129 223q55 -53 117.5 -79.5t155.5 -26.5q84 0 148.5 32.5t107.5 86 t64.5 123t21.5 143.5v30q-25 -35 -62 -66.5t-83 -56t-99 -39t-109 -14.5q-92 0 -177 28.5t-149.5 85t-102.5 139.5t-38 192zM358 930q0 -53 21.5 -92t56.5 -63.5t81 -37t93 -12.5q78 0 148.5 34t120.5 93q-4 49 -21.5 98t-50.5 89t-84 65.5t-123 25.5q-59 0 -104 -18 t-76 -47t-46.5 -64.5t-15.5 -70.5z" />
<glyph unicode=":" horiz-adv-x="514" d="M96 143q0 68 49.5 117t116.5 49q68 0 117 -49t49 -117t-49 -117t-117 -49t-117 49.5t-49 116.5zM96 838q0 68 49.5 117t116.5 49q68 0 117 -49.5t49 -116.5q0 -68 -49 -117t-117 -49t-117 49t-49 117z" />
<glyph unicode=";" d="M96 152q0 68 47 114.5t113 46.5q37 0 69.5 -14t58.5 -41t41 -66t15 -88q0 -117 -58 -215t-153 -165l-112 92q25 14 50.5 35.5t47 48t37.5 55.5t22 55q-4 -2 -16 -5t-22 -3q-59 0 -99.5 42t-40.5 108zM96 838q0 68 49.5 117t116.5 49q68 0 117 -49.5t49 -116.5 q0 -33 -13.5 -63t-36 -53.5t-53 -36.5t-63.5 -13q-35 0 -64.5 13t-52 36.5t-36 53.5t-13.5 63z" />
<glyph unicode="&#x3c;" horiz-adv-x="1032" d="M59 592v186l914 410v-193l-727 -311l727 -307v-193z" />
<glyph unicode="=" horiz-adv-x="1032" d="M59 412v159h914v-159h-914zM59 795v163h914v-163h-914z" />
<glyph unicode="&#x3e;" horiz-adv-x="1032" d="M59 184v193l727 307l-727 311v193l914 -410v-186z" />
<glyph unicode="?" horiz-adv-x="933" d="M18 1188q82 96 199 147t250 51q98 0 177 -23.5t134.5 -66.5t85 -102t29.5 -131q0 -76 -25.5 -129t-63.5 -93t-82 -72t-82 -61.5t-63.5 -62.5t-25.5 -76q0 -25 10 -48t27 -38l-223 -65q-68 74 -68 180q0 61 22.5 105.5t55.5 79t71.5 61t71.5 52.5t55.5 53.5t22.5 62.5 q0 47 -37 81.5t-123 34.5q-78 0 -141.5 -34.5t-110.5 -92.5zM297 143q0 68 49 117t117 49t117 -49t49 -117t-49 -117t-117 -49t-117 49.5t-49 116.5z" />
<glyph unicode="@" horiz-adv-x="1603" d="M72 500q0 164 67.5 310t179 257t259 175.5t307.5 64.5q147 0 266 -50.5t203 -136.5t130 -199.5t46 -240.5q0 -129 -38 -224.5t-97.5 -157.5t-131 -93t-139.5 -31q-92 0 -140 46t-58 106l-2 12q-53 -76 -132 -120t-163 -44q-74 0 -133.5 25.5t-100.5 71.5t-62.5 109.5 t-21.5 137.5q0 102 39 193.5t103.5 160t147.5 108.5t173 40q92 0 157.5 -39t98.5 -98l23 108h231l-104 -499q-2 -10 -4 -24.5t-2 -25.5q0 -47 21.5 -69.5t53.5 -22.5q31 0 65 18.5t62.5 58.5t47 102.5t18.5 150.5q0 121 -40 221t-114 173t-178 113t-233 40 q-145 0 -276.5 -59.5t-232 -159t-158.5 -230.5t-58 -274q0 -121 44 -224.5t120.5 -180t182 -121t230.5 -44.5q104 0 197.5 30t177.5 83l43 -61q-96 -61 -203.5 -95t-222.5 -34q-139 0 -258 49t-206 136t-136 205t-49 253zM549 539q0 -80 46 -130.5t124 -50.5q82 0 137 43 t90 91l51 239q-16 35 -57 70t-109 35q-61 0 -113 -26t-89 -67t-58.5 -95t-21.5 -109z" />
<glyph unicode="A" horiz-adv-x="1400" d="M-10 0l528 1366h365l526 -1366h-332l-84 231h-585l-86 -231h-332zM487 487h426l-213 588z" />
<glyph unicode="B" horiz-adv-x="1357" d="M135 0v1366h719q98 0 172 -28.5t123 -77t73.5 -112t24.5 -130.5q0 -66 -18.5 -119t-51 -93t-74.5 -65.5t-91 -35.5q55 -8 102 -38t83 -74t56.5 -102.5t20.5 -121.5q0 -78 -25.5 -144.5t-76 -117t-124 -79t-171.5 -28.5h-742zM426 252h375q84 0 130 42t46 116 q0 66 -45 112.5t-131 46.5h-375v-317zM426 819h365q74 0 116.5 41t42.5 107t-43 107.5t-116 41.5h-365v-297z" />
<glyph unicode="C" horiz-adv-x="1406" d="M70 682q0 158 56 288t153.5 223t230.5 144.5t287 51.5q113 0 203 -29t159.5 -75t120.5 -106.5t88 -123.5l-250 -123q-43 84 -129 141t-192 57q-92 0 -171 -33.5t-136.5 -94t-89 -142.5t-31.5 -178t31.5 -179t89 -142.5t136.5 -93.5t171 -34q106 0 192 56.5t129 142.5 l250 -121q-37 -63 -88 -123.5t-120.5 -107.5t-159.5 -76t-203 -29q-154 0 -287 51.5t-230.5 144.5t-153.5 223t-56 288z" />
<glyph unicode="D" horiz-adv-x="1470" d="M135 0v1366h539q160 0 294 -49t229 -138t148.5 -216t53.5 -281t-53.5 -280t-148.5 -215t-229 -138t-294 -49h-539zM426 256h248q100 0 180 34t135 92t84 136t29 164q0 90 -27.5 169t-81 136t-134.5 90t-185 33h-248v-854z" />
<glyph unicode="E" horiz-adv-x="1193" d="M135 0v1366h967v-256h-676v-289h661v-256h-661v-309h676v-256h-967z" />
<glyph unicode="F" horiz-adv-x="1169" d="M135 0v1366h967v-256h-676v-289h661v-256h-661v-565h-291z" />
<glyph unicode="G" horiz-adv-x="1474" d="M70 682q0 162 57 293t156.5 223t231.5 141.5t282 49.5q106 0 193 -25t157 -67t123 -97t92 -117l-242 -131q-47 72 -130 125t-193 53q-92 0 -171 -33.5t-136.5 -94t-89 -142.5t-31.5 -178t31.5 -179t89 -142.5t136.5 -93.5t171 -34t171 33t119 72v164h-360v254h651v-525 q-104 -117 -249.5 -187.5t-331.5 -70.5q-150 0 -282 50.5t-231.5 142.5t-156.5 223t-57 293z" />
<glyph unicode="H" horiz-adv-x="1497" d="M135 0v1366h291v-537h645v537h293v-1366h-293v573h-645v-573h-291z" />
<glyph unicode="I" horiz-adv-x="561" d="M135 0v1366h291v-1366h-291z" />
<glyph unicode="J" horiz-adv-x="995" d="M12 109l127 223q41 -39 93.5 -69t123.5 -30q98 0 155.5 59.5t57.5 160.5v913h291v-917q0 -121 -36 -210t-99 -147.5t-152.5 -87.5t-193.5 -29t-198.5 31t-168.5 103z" />
<glyph unicode="K" horiz-adv-x="1302" d="M135 0v1366h291v-610l483 610h359l-543 -641l580 -725h-359l-414 547l-106 -127v-420h-291z" />
<glyph unicode="L" horiz-adv-x="1071" d="M135 0v1366h291v-1110h578v-256h-869z" />
<glyph unicode="M" horiz-adv-x="1751" d="M135 0v1366h408l331 -825l332 825h410v-1366h-293v956l-385 -956h-127l-385 956v-956h-291z" />
<glyph unicode="N" horiz-adv-x="1492" d="M135 0v1366h299l633 -858v858h291v-1366h-281l-651 891v-891h-291z" />
<glyph unicode="O" horiz-adv-x="1566" d="M70 682q0 154 53 284t148.5 224t226.5 146.5t284 52.5q156 0 287 -52.5t226.5 -146.5t148.5 -224t53 -284t-53 -284t-148.5 -224t-226.5 -146.5t-287 -52.5q-154 0 -284.5 52.5t-226 146.5t-148.5 224t-53 284zM369 682q0 -96 29.5 -178t83 -141.5t130 -94.5t170.5 -35 t171 35t131.5 94.5t84 141.5t29.5 178t-29.5 178t-84 142.5t-131 94t-171.5 33.5q-94 0 -170.5 -33.5t-130 -94t-83 -142.5t-29.5 -178z" />
<glyph unicode="P" horiz-adv-x="1277" d="M135 0v1366h639q111 0 197 -35t144.5 -95t88 -140t29.5 -170t-31 -170t-89 -139.5t-143 -95.5t-196 -36h-348v-485h-291zM426 741h309q86 0 143.5 49.5t57.5 135.5t-57.5 135t-143.5 49h-309v-369z" />
<glyph unicode="Q" horiz-adv-x="1566" d="M70 682q0 154 53 284t148.5 224t226.5 146.5t284 52.5q156 0 287 -52.5t226.5 -146.5t148.5 -224t53 -284q0 -145 -46 -268t-132 -215l100 -117l-202 -166l-111 127q-72 -33 -153 -50.5t-171 -17.5q-154 0 -284.5 52.5t-226 146.5t-148.5 224t-53 284zM369 682 q0 -96 29.5 -178t83 -141.5t130 -94.5t170.5 -35q72 0 144 23l-150 176l201 166l151 -178q70 115 70 262q0 96 -29.5 178t-84 142.5t-131 94t-171.5 33.5q-94 0 -170.5 -33.5t-130 -94t-83 -142.5t-29.5 -178z" />
<glyph unicode="R" horiz-adv-x="1316" d="M135 0v1366h639q106 0 191.5 -33t144.5 -92t91 -140t32 -175q0 -90 -25.5 -160t-68.5 -120t-96.5 -82t-108.5 -44l307 -520h-334l-268 485h-213v-485h-291zM426 741h305q88 0 146.5 49.5t58.5 135.5t-58.5 135t-146.5 49h-305v-369z" />
<glyph unicode="S" horiz-adv-x="1228" d="M43 193l158 221q72 -76 182.5 -130.5t251.5 -54.5q121 0 179 46.5t58 105.5t-58 91t-145 54.5t-189.5 47t-189.5 69.5t-145.5 122t-58.5 206q0 86 36 160.5t102.5 132t162.5 90t217 32.5q326 0 533 -190l-162 -213q-84 78 -188.5 114t-208.5 36q-94 0 -144.5 -38 t-50.5 -100q0 -53 58.5 -82.5t145.5 -51t188.5 -47.5t188.5 -72t145 -123.5t58 -204.5q0 -94 -33.5 -174t-101 -138.5t-171 -92.5t-240.5 -34q-199 0 -340.5 59.5t-237.5 158.5z" />
<glyph unicode="T" horiz-adv-x="1191" d="M51 1110v256h1090v-256h-398v-1110h-292v1110h-400z" />
<glyph unicode="U" horiz-adv-x="1501" d="M135 545v821h295v-811q0 -143 81 -232.5t241 -89.5t239.5 89.5t79.5 232.5v811h297v-819q0 -127 -38 -232.5t-114.5 -181.5t-192 -117t-271.5 -41t-271.5 42t-192.5 117t-115 179.5t-38 231.5z" />
<glyph unicode="V" horiz-adv-x="1400" d="M-10 1366h332l378 -1051l377 1051h332l-526 -1366h-365z" />
<glyph unicode="W" horiz-adv-x="1880" d="M2 1366h326l239 -987l260 987h228l258 -987l237 987h328l-389 -1366h-309l-240 938l-238 -938h-309z" />
<glyph unicode="X" horiz-adv-x="1368" d="M-6 0l495 700l-464 666h346l313 -467l309 467h350l-464 -664l495 -702h-348l-342 500l-344 -500h-346z" />
<glyph unicode="Y" horiz-adv-x="1320" d="M-10 1366h332l340 -549l335 549h332l-522 -807v-559h-291v559z" />
<glyph unicode="Z" horiz-adv-x="1212" d="M86 0v236l645 874h-645v256h1026v-233l-645 -877h659v-256h-1040z" />
<glyph unicode="[" horiz-adv-x="573" d="M96 -389v1778h443v-175h-256v-1429h256v-174h-443z" />
<glyph unicode="\" horiz-adv-x="673" d="M0 1407h188l486 -1448h-189z" />
<glyph unicode="]" horiz-adv-x="573" d="M35 -215h256v1429h-256v175h442v-1778h-442v174z" />
<glyph unicode="^" horiz-adv-x="903" d="M39 682l319 684h191l315 -684h-192l-221 506l-220 -506h-192z" />
<glyph unicode="_" horiz-adv-x="1155" d="M-6 -82h1167v-174h-1167v174z" />
<glyph unicode="`" horiz-adv-x="514" d="M0 1434h238l276 -295h-182z" />
<glyph unicode="a" horiz-adv-x="1112" d="M66 303q0 86 31.5 147.5t80.5 99.5t110.5 55.5t121.5 17.5q98 0 181 -31t132 -90v133q0 76 -59.5 121t-157.5 45q-164 0 -289 -117l-98 174q92 80 203.5 118t228.5 38q84 0 162 -18.5t138 -62.5t96 -116t36 -178v-639h-260v102q-51 -59 -133 -93t-180 -34 q-59 0 -121 20.5t-111 60.5t-80.5 101.5t-31.5 145.5zM328 297q0 -70 54 -107.5t132 -37.5q63 0 119.5 21.5t89.5 64.5v122q-33 43 -89 64.5t-120 21.5q-78 0 -132 -38.5t-54 -110.5z" />
<glyph unicode="b" horiz-adv-x="1200" d="M129 0v1366h260v-504q59 76 138 114t167 38q94 0 175 -36t139.5 -103.5t91.5 -164t33 -216.5q0 -123 -34 -220.5t-92.5 -163t-138.5 -100.5t-174 -35q-90 0 -167.5 39t-137.5 113v-127h-260zM389 317q33 -47 96.5 -78.5t126.5 -31.5q115 0 183.5 79t68.5 208t-68.5 208.5 t-183.5 79.5q-63 0 -126.5 -32.5t-96.5 -81.5v-351z" />
<glyph unicode="c" horiz-adv-x="1021" d="M66 496q0 113 38.5 208t108.5 164.5t166 107.5t211 38q152 0 247 -55.5t144 -122.5l-170 -160q-72 106 -209 106q-119 0 -193.5 -78.5t-74.5 -207.5t74.5 -209t193.5 -80q68 0 121 28.5t88 77.5l170 -157q-49 -70 -144 -125.5t-247 -55.5q-115 0 -211 38t-166 107.5 t-108.5 165t-38.5 210.5z" />
<glyph unicode="d" horiz-adv-x="1200" d="M66 494q0 121 32.5 217t91 163.5t139.5 103.5t175 36q88 0 167 -38t138 -114v504h262v-1366h-262v127q-59 -74 -137 -113t-168 -39q-94 0 -174 35t-138.5 100.5t-92 163t-33.5 220.5zM334 494q0 -63 18.5 -116.5t51 -91.5t79 -58.5t101.5 -20.5q66 0 129 31.5t96 80.5 v351q-33 49 -96.5 80.5t-128.5 31.5q-111 0 -180.5 -79.5t-69.5 -208.5z" />
<glyph unicode="e" horiz-adv-x="1132" d="M66 496q0 106 37.5 201.5t105 165t162 110.5t207.5 41q111 0 201.5 -40t156 -111.5t101.5 -172t36 -221.5v-57h-735q12 -94 85 -162t200 -68q31 0 67.5 7.5t72.5 19.5t67.5 30.5t56.5 41.5l114 -168q-74 -68 -182 -103t-225 -35q-113 0 -210 37t-168 104.5t-110.5 164 t-39.5 215.5zM334 588h487q-2 35 -16 73.5t-43 70.5t-75 53.5t-109 21.5q-61 0 -105.5 -20.5t-73 -52.5t-45 -70.5t-20.5 -75.5z" />
<glyph unicode="f" horiz-adv-x="669" d="M23 762v227h163v53q0 160 92.5 252t241.5 92q72 0 141.5 -20t116.5 -72l-98 -153q-41 41 -109 41q-53 0 -87.5 -35t-34.5 -105v-53h200v-227h-200v-762h-263v762h-163z" />
<glyph unicode="g" horiz-adv-x="1198" d="M66 510q0 121 32.5 215t91 158.5t138.5 97.5t174 33q90 0 168 -38t137 -114v127h262v-921q0 -141 -49 -232.5t-127 -143.5t-172 -72.5t-186 -20.5q-129 0 -230.5 32.5t-195.5 114.5l116 188q59 -66 137 -94t173 -28q47 0 95 11t88 39.5t64.5 77t24.5 121.5v101 q-59 -74 -136 -115t-169 -41t-172 33t-138.5 96.5t-92 157.5t-33.5 217zM334 510q0 -129 69.5 -200.5t180.5 -71.5q66 0 128 32.5t95 79.5v320q-33 49 -95.5 80.5t-127.5 31.5q-111 0 -180.5 -71.5t-69.5 -200.5z" />
<glyph unicode="h" horiz-adv-x="1187" d="M129 0v1366h260v-506q47 57 136 105.5t212 48.5q164 0 243 -83t79 -229v-702h-260v602q0 102 -50.5 141t-134.5 39q-76 0 -133 -35.5t-92 -80.5v-666h-260z" />
<glyph unicode="i" horiz-adv-x="518" d="M102 1251q0 66 46.5 110t109.5 44q66 0 111 -44t45 -110t-45 -110.5t-111 -44.5q-63 0 -109.5 45t-46.5 110zM129 0v989h260v-989h-260z" />
<glyph unicode="j" horiz-adv-x="518" d="M-211 -332l72 195q29 -25 58.5 -38t74.5 -13q59 0 97 38.5t38 122.5v1016h260v-1016q0 -170 -87 -272t-265 -102q-47 0 -82 4t-62.5 12t-52 21.5t-51.5 31.5zM102 1251q0 66 46.5 110t109.5 44q66 0 111 -44t45 -110t-45 -110.5t-111 -44.5q-63 0 -109.5 45t-46.5 110z " />
<glyph unicode="k" horiz-adv-x="1095" d="M129 0v1366h260v-817l375 440h319l-391 -448l404 -541h-326l-262 381l-119 -127v-254h-260z" />
<glyph unicode="l" horiz-adv-x="518" d="M129 0v1366h260v-1366h-260z" />
<glyph unicode="m" horiz-adv-x="1744" d="M129 0v989h260v-129q14 23 46 49.5t75 50t94 39t109 15.5q111 0 178 -47t96 -133q20 33 55 65.5t79 58t96.5 41t109.5 15.5q137 0 214 -73t77 -226v-715h-262v625q0 70 -34 113.5t-114 43.5q-70 0 -123 -36.5t-81 -77.5v-668h-263v625q0 70 -33.5 113.5t-113.5 43.5 q-68 0 -122 -37.5t-83 -78.5v-666h-260z" />
<glyph unicode="n" horiz-adv-x="1185" d="M129 0v989h260v-129q47 57 135 105.5t211 48.5q164 0 243 -85t79 -231v-698h-260v598q0 104 -49.5 144t-133.5 40q-78 0 -135 -35.5t-90 -80.5v-666h-260z" />
<glyph unicode="o" horiz-adv-x="1175" d="M66 496q0 104 35.5 198t103 165t164 113t219.5 42t220 -42t164.5 -113t103.5 -165t36 -198q0 -106 -36 -200.5t-103.5 -165.5t-164.5 -113t-220 -42t-219.5 42t-164 113t-103 165t-35.5 201zM336 496q0 -59 16.5 -111.5t49 -91.5t79 -62.5t107.5 -23.5t108 23.5t79 62.5 t49.5 91t17.5 112q0 57 -17.5 109t-49.5 91t-79 62.5t-108 23.5t-107.5 -23.5t-79 -62.5t-49 -91t-16.5 -109z" />
<glyph unicode="p" horiz-adv-x="1193" d="M129 -377v1366h260v-125q57 72 135 111t170 39q94 0 175 -35t139.5 -100.5t91.5 -163t33 -219.5q0 -123 -33 -220.5t-91.5 -164t-139.5 -101.5t-175 -35q-88 0 -166.5 37t-138.5 115v-504h-260zM389 319q33 -47 96.5 -79.5t126.5 -32.5q113 0 181.5 80t68.5 209 t-68.5 207.5t-181.5 78.5q-63 0 -126.5 -32.5t-96.5 -79.5v-351z" />
<glyph unicode="q" horiz-adv-x="1193" d="M61 496q0 123 33 220t91.5 162.5t138 100.5t176.5 35q92 0 170 -39t135 -111v125h262v-1366h-262v504q-59 -78 -138 -115t-167 -37q-96 0 -176 35t-138.5 101.5t-91.5 164t-33 220.5zM332 496q0 -129 69.5 -209t180.5 -80q63 0 126.5 32.5t96.5 79.5v351 q-33 47 -96.5 79.5t-126.5 32.5q-55 0 -101.5 -20.5t-79 -58t-51 -91t-18.5 -116.5z" />
<glyph unicode="r" horiz-adv-x="737" d="M129 0v989h260v-135q53 66 138 113t178 47v-254q-29 6 -72 6q-33 0 -69 -8t-69.5 -23.5t-61 -36t-44.5 -45.5v-653h-260z" />
<glyph unicode="s" horiz-adv-x="976" d="M43 129l113 182q27 -25 66.5 -49t85.5 -43.5t94.5 -31t95.5 -11.5q86 0 126 30t40 77q0 41 -44.5 61.5t-109 33.5t-141 29.5t-141 49t-108.5 90t-44 155.5q0 61 26.5 118t78.5 100t127 68.5t173 25.5q127 0 226.5 -38t173.5 -97l-105 -179q-45 47 -123 81t-170 34 q-72 0 -113.5 -28.5t-41.5 -69.5q0 -37 43 -55.5t108.5 -32t141 -30.5t141 -52t108.5 -94.5t43 -159.5q0 -68 -28.5 -126t-82.5 -100t-134.5 -67t-182.5 -25q-129 0 -246.5 41t-195.5 113z" />
<glyph unicode="t" horiz-adv-x="692" d="M16 762v227h164v271h262v-271h201v-227h-201v-447q0 -47 23.5 -77.5t66.5 -30.5q29 0 54.5 9t36.5 20l55 -197q-29 -27 -82 -45.5t-135 -18.5q-137 0 -209 69t-72 202v516h-164z" />
<glyph unicode="u" horiz-adv-x="1185" d="M129 287v702h260v-600q0 -102 49 -142t133 -40q76 0 133.5 34.5t92.5 77.5v670h260v-989h-260v125q-51 -57 -138.5 -103.5t-209.5 -46.5q-164 0 -242 83t-78 229z" />
<glyph unicode="v" horiz-adv-x="1050" d="M-12 989h278l258 -688l258 688h281l-397 -989h-281z" />
<glyph unicode="w" horiz-adv-x="1574" d="M0 989h270l185 -665l217 665h231l217 -665l185 665h270l-301 -989h-277l-209 674l-208 -674h-279z" />
<glyph unicode="x" horiz-adv-x="1032" d="M0 0l350 508l-330 481h291l205 -305l203 305h291l-332 -481l354 -508h-291l-225 334l-227 -334h-289z" />
<glyph unicode="y" horiz-adv-x="1050" d="M-12 989h278l258 -688l258 688h281l-465 -1151q-55 -139 -151.5 -188t-223.5 -51q-23 0 -63.5 4t-65.5 10l39 233q16 -8 40 -12t42 -4q51 0 85 15.5t52 56.5l37 84z" />
<glyph unicode="z" horiz-adv-x="980" d="M86 0v195l446 567h-446v227h799v-188l-453 -574h461v-227h-807z" />
<glyph unicode="{" horiz-adv-x="589" d="M6 426v147q53 0 80 40t27 98v350q0 76 26.5 136t70.5 103t101.5 66t118.5 23h125v-175h-125q-53 0 -90 -40.5t-37 -110.5v-379q0 -66 -21.5 -114t-72.5 -70q51 -23 72.5 -71t21.5 -114v-376q0 -70 37 -112t90 -42h125v-174h-125q-61 0 -118.5 22.5t-101.5 64.5 t-70.5 102.5t-26.5 136.5v352q0 57 -27 97t-80 40z" />
<glyph unicode="|" horiz-adv-x="442" d="M135 -41v1448h174v-1448h-174z" />
<glyph unicode="}" horiz-adv-x="589" d="M35 -215h125q53 0 91 42t38 112v376q0 66 21.5 114t72.5 71q-51 23 -72.5 70.5t-21.5 113.5v379q0 70 -38 110.5t-91 40.5h-125v175h125q61 0 118.5 -23t101.5 -66t70.5 -103t26.5 -136v-350q0 -57 26.5 -97.5t80.5 -40.5v-147q-53 0 -80 -40t-27 -97v-352 q0 -76 -26.5 -136.5t-70.5 -102.5t-101.5 -64.5t-118.5 -22.5h-125v174z" />
<glyph unicode="~" horiz-adv-x="1044" d="M53 864q8 92 24.5 181.5t50.5 160t89 114.5t141 44q66 0 108 -26.5t68.5 -67.5t42 -87t30 -87t31.5 -68t48 -27t53.5 32t38 83t23.5 116.5t14 133.5l176 -20q-8 -92 -23.5 -182.5t-49 -161t-90 -114.5t-142.5 -44q-68 0 -108.5 26.5t-67.5 66.5t-42 87t-29.5 87t-32 66.5 t-48.5 26.5t-52 -31.5t-36.5 -83t-23.5 -116t-15 -129.5z" />
<glyph unicode="&#xa0;" />
<glyph unicode="&#xa1;" d="M96 848q0 33 13.5 62.5t35 52t51 36t64.5 13.5q33 0 63.5 -13.5t53 -36t36 -52t13.5 -62.5q0 -68 -49 -118t-117 -50t-116 50t-48 118zM104 -377l41 920h232l43 -920h-316z" />
<glyph unicode="&#xa2;" horiz-adv-x="1021" d="M66 496q0 100 30.5 187t88 153.5t135 110.5t174.5 59v151h188v-149q111 -16 184.5 -65.5t114.5 -106.5l-170 -160q-51 74 -129 94v-553q41 12 72.5 37t56.5 59l170 -157q-41 -59 -114.5 -108.5t-184.5 -65.5v-187h-188v189q-96 14 -174 58t-135.5 110.5t-88 153.5 t-30.5 190zM334 496q0 -98 43 -168t117 -101v535q-74 -31 -117 -99.5t-43 -166.5z" />
<glyph unicode="&#xa3;" horiz-adv-x="1126" d="M47 551v166h139q-39 53 -66.5 111.5t-27.5 134.5q0 98 43 176t113.5 133t160 84.5t181.5 29.5q170 0 289.5 -60t185.5 -187l-231 -135q-27 66 -82.5 105.5t-126.5 39.5q-92 0 -153.5 -52.5t-61.5 -140.5q0 -78 32.5 -131t67.5 -108h295v-166h-232q0 -10 1 -19.5t1 -19.5 q0 -72 -37.5 -132.5t-93.5 -94.5q23 8 50.5 11t50.5 3q45 0 77.5 -10t61.5 -23.5t58.5 -24t68.5 -10.5q66 0 111 24t65 52l115 -231q-41 -43 -115 -73t-186 -30q-68 0 -116 14.5t-89 31t-80 30.5t-86 14q-53 0 -114.5 -21.5t-122.5 -55.5l-99 198q96 47 159.5 112.5 t63.5 143.5q0 29 -7 56.5t-17 54.5h-246z" />
<glyph unicode="&#xa4;" horiz-adv-x="1275" d="M47 1120l156 152l155 -156q57 33 127 51.5t152 18.5t150.5 -18.5t127.5 -51.5l156 156l156 -154l-150 -149q41 -61 62.5 -135t21.5 -152q0 -162 -86 -289l152 -145l-156 -152l-153 150q-121 -70 -281 -70q-84 0 -153.5 18.5t-129.5 53.5l-149 -152l-156 152l150 149 q-82 127 -82 285t82 285zM377 682q0 -55 17.5 -104.5t50 -87t82 -59t110.5 -21.5q63 0 112.5 21.5t82 59t50 87t17.5 104.5t-17.5 104.5t-50 86t-82 58t-112.5 21.5q-61 0 -110.5 -21.5t-82 -58t-50 -86t-17.5 -104.5z" />
<glyph unicode="&#xa5;" horiz-adv-x="1320" d="M-10 1366h332l340 -549l335 549h332l-418 -645h365v-162h-469v-164h469v-159h-469v-236h-291v236h-467v159h467v164h-467v162h361z" />
<glyph unicode="&#xa6;" horiz-adv-x="442" d="M135 -41v647h174v-647h-174zM135 760v647h174v-647h-174z" />
<glyph unicode="&#xa7;" horiz-adv-x="991" d="M47 -4l109 164q25 -25 60.5 -51.5t78.5 -47t91 -34t99 -13.5q80 0 129.5 30t49.5 89q0 49 -44.5 73.5t-109 42t-141 35t-141 51.5t-108.5 89t-44 151q0 51 18.5 93.5t47 75t64.5 54t70 33.5q-98 37 -149 101.5t-51 157.5q0 63 29.5 117.5t83 94t128 62t164.5 22.5 q152 0 247 -43t151 -96l-103 -153q-53 53 -130 81.5t-154 28.5q-76 0 -120 -28.5t-44 -81.5q0 -43 43 -64.5t108.5 -37t141 -32t141 -49t108.5 -90t43 -153.5q0 -86 -43 -154t-127 -108q74 -33 122 -91.5t48 -160.5q0 -76 -31.5 -135.5t-89 -100.5t-136 -62.5t-171.5 -21.5 q-154 0 -260 48t-178 114zM328 614q0 -37 18.5 -60.5t48 -40.5t67.5 -27.5t77 -18.5q59 27 88.5 62.5t29.5 88.5q0 33 -14 57.5t-37.5 42t-54.5 29t-64 19.5q-94 -23 -126.5 -60.5t-32.5 -91.5z" />
<glyph unicode="&#xa8;" horiz-adv-x="604" d="M-53 1251q0 57 40 97.5t99 40.5q57 0 97 -40.5t40 -97.5q0 -59 -40 -99t-97 -40q-59 0 -99 40t-40 99zM379 1251q0 57 41 97.5t98 40.5t98 -40.5t41 -97.5q0 -59 -41 -99t-98 -40t-98 40t-41 99z" />
<glyph unicode="&#xa9;" horiz-adv-x="1593" d="M90 684q0 147 55.5 275t151.5 224.5t225 152t275 55.5q147 0 275 -55.5t224.5 -152t151.5 -224.5t55 -275q0 -145 -55 -274t-151.5 -225.5t-224.5 -152t-275 -55.5q-145 0 -274.5 55.5t-225.5 152t-151.5 225.5t-55.5 274zM164 684q0 -129 50 -244.5t136 -201.5 t202 -136.5t245 -50.5q131 0 245.5 50.5t200.5 136.5t136.5 201.5t50.5 244.5q0 131 -50.5 245.5t-136.5 201t-200.5 136.5t-245.5 50q-129 0 -245 -50t-202 -136.5t-136 -201t-50 -245.5zM381 686q0 94 34 173t91 136.5t135 89t166 31.5q96 0 173 -36t130 -99l-63 -63 q-41 53 -104.5 84.5t-135.5 31.5q-68 0 -128.5 -25.5t-105.5 -71.5t-71.5 -109.5t-26.5 -141.5q0 -76 26.5 -140.5t71.5 -111.5t105.5 -73.5t128.5 -26.5q74 0 137.5 32.5t104.5 86.5l63 -62q-55 -66 -132 -102.5t-173 -36.5q-88 0 -166 32.5t-135 91t-91 137.5t-34 173z " />
<glyph unicode="&#xaa;" horiz-adv-x="788" d="M63 864q0 53 19.5 92t52.5 65t73 38t81 12q78 0 129 -23.5t80 -54.5v82q0 51 -39 81t-103 30q-47 0 -97 -21.5t-91 -62.5l-72 123q61 53 138 77.5t155 24.5q57 0 110.5 -12t94.5 -41t66.5 -79t25.5 -124v-403h-188v65q-29 -31 -80 -56.5t-129 -25.5q-41 0 -81 13.5 t-73 40t-52.5 66.5t-19.5 93zM250 864q0 -47 35 -71.5t82 -24.5q39 0 74.5 15.5t56.5 43.5v74q-20 27 -56 41t-75 14q-47 0 -82 -23.5t-35 -68.5z" />
<glyph unicode="&#xab;" horiz-adv-x="1079" d="M61 498l328 362h240l-328 -362l328 -369h-240zM451 498l327 362h240l-328 -362l328 -369h-240z" />
<glyph unicode="&#xac;" horiz-adv-x="1054" d="M59 795v163h914v-546h-166v383h-748z" />
<glyph unicode="&#xad;" horiz-adv-x="614" d="M61 385v221h492v-221h-492z" />
<glyph unicode="&#xae;" horiz-adv-x="1011" d="M72 952q0 90 33.5 170t93 138.5t138.5 92t169 33.5t170 -33.5t138 -92t92 -138.5t34 -170t-34 -168.5t-92 -138t-138 -93.5t-170 -34t-169 34t-138.5 93.5t-93 138t-33.5 168.5zM137 952q0 -76 29 -143.5t79 -117.5t116.5 -78.5t144.5 -28.5q76 0 143.5 28.5t117.5 78.5 t78.5 117.5t28.5 143.5t-28.5 143.5t-78.5 118t-117.5 79t-143.5 28.5q-78 0 -144.5 -28.5t-116.5 -79t-79 -118t-29 -143.5zM340 702v498h203q63 0 112.5 -41t49.5 -110q0 -41 -15.5 -70t-37 -46.5t-43 -24.5t-31.5 -7l133 -199h-86l-129 197h-86v-197h-70zM410 963h133 q33 0 61.5 23.5t28.5 62.5q0 41 -29 65.5t-61 24.5h-133v-176z" />
<glyph unicode="&#xaf;" horiz-adv-x="743" d="M0 1151v147h743v-147h-743z" />
<glyph unicode="&#xb0;" horiz-adv-x="636" d="M41 1108q0 57 21.5 108.5t59.5 89t88 59t107 21.5t107.5 -21.5t88.5 -59t59.5 -89t21.5 -108.5t-21.5 -107.5t-59.5 -87t-88 -58t-108 -21.5q-57 0 -107 21.5t-88 58t-59.5 87t-21.5 107.5zM184 1108q0 -55 38 -94t95 -39q55 0 95.5 39t40.5 94q0 57 -40 97t-96 40 q-57 0 -95 -40t-38 -97z" />
<glyph unicode="&#xb1;" horiz-adv-x="1032" d="M59 0v160h914v-160h-914zM59 668v159h369v404h178v-404h367v-159h-367v-418h-178v418h-369z" />
<glyph unicode="&#xb2;" horiz-adv-x="813" d="M72 1558q66 72 154.5 103.5t174.5 31.5q70 0 130.5 -16t105.5 -49t69.5 -81t24.5 -110q0 -100 -87 -196t-265 -221h358v-158h-643v143q133 92 219 157t135.5 112t69 80.5t19.5 68.5q0 57 -40 85t-100 28q-72 0 -132 -32t-91 -71z" />
<glyph unicode="&#xb3;" horiz-adv-x="813" d="M66 977l96 129q47 -51 111.5 -76t123.5 -25q72 0 111 27t39 70q0 59 -51.5 79.5t-128.5 20.5h-55.5t-37.5 -2v156q14 -2 40 -2h51q82 0 124.5 19t42.5 73q0 47 -41.5 68.5t-107.5 21.5q-125 0 -215 -90l-92 116q53 57 133 94t194 37q158 0 242 -61t84 -162 q0 -76 -55.5 -125t-126.5 -61q31 -2 65.5 -15.5t64.5 -38t48 -60.5t18 -81q0 -109 -93 -175t-247 -66q-119 0 -204.5 36.5t-132.5 92.5z" />
<glyph unicode="&#xb4;" horiz-adv-x="514" d="M0 1139l274 295h240l-332 -295h-182z" />
<glyph unicode="&#xb5;" horiz-adv-x="1214" d="M129 -377v1366h260v-600q0 -100 49 -142t135 -42q74 0 131.5 35.5t92.5 78.5v670h260v-692q0 -43 22.5 -66.5t59.5 -23.5q18 0 39 4l18 -221q-23 -6 -56.5 -10.5t-64.5 -4.5q-213 0 -266 177q-43 -76 -114.5 -126.5t-162.5 -50.5q-55 0 -90.5 17.5t-52.5 40.5v-410h-260z " />
<glyph unicode="&#xb6;" horiz-adv-x="919" d="M55 1014q0 74 28 137t76 111.5t111.5 76t137.5 27.5h417v-1571h-129v1444h-159v-1444h-129v867q-74 0 -137.5 27.5t-111.5 75.5t-76 111.5t-28 137.5z" />
<glyph unicode="&#xb7;" d="M96 500q0 68 49.5 117t116.5 49q68 0 117 -49t49 -117q0 -33 -13.5 -62.5t-36 -52.5t-53 -36t-63.5 -13q-35 0 -64.5 13t-52 36t-36 52.5t-13.5 62.5z" />
<glyph unicode="&#xb8;" horiz-adv-x="452" d="M0 -336l51 105q78 -59 166 -60q41 0 74 16.5t33 51.5q0 53 -60 53q-20 0 -36.5 -8t-28.5 -21l-95 54l62 168h129l-53 -127q35 20 73 20q57 0 97.5 -39t40.5 -104q0 -82 -68 -128t-160 -46q-74 0 -133 19.5t-92 45.5z" />
<glyph unicode="&#xb9;" horiz-adv-x="585" d="M14 1407l279 274h170v-819h-199v567l-139 -141z" />
<glyph unicode="&#xba;" horiz-adv-x="829" d="M61 989q0 68 25 129.5t71 107.5t110.5 73.5t146.5 27.5t148.5 -27.5t111.5 -73.5t69.5 -107.5t24.5 -129.5t-24.5 -129t-69.5 -107t-111.5 -74t-148.5 -28t-146.5 28t-110.5 74t-71 107.5t-25 128.5zM256 989q0 -86 41 -136t117 -50t117.5 50t41.5 136t-42 134t-117 48 q-76 0 -117 -48t-41 -134z" />
<glyph unicode="&#xbb;" horiz-adv-x="1079" d="M61 129l328 369l-328 362h240l328 -362l-328 -369h-240zM451 129l327 369l-327 362h239l328 -362l-328 -369h-239z" />
<glyph unicode="&#xbc;" horiz-adv-x="1705" d="M14 1092l279 274h170v-819h-199v567l-139 -141zM283 0l872 1366h158l-875 -1366h-155zM950 176v133l324 510h272v-489h109v-154h-109v-176h-194v176h-402zM1145 330h207v323z" />
<glyph unicode="&#xbd;" horiz-adv-x="1775" d="M14 1092l279 274h170v-819h-199v567l-139 -141zM283 0l872 1366h158l-875 -1366h-155zM1033 696q66 72 154.5 103.5t174.5 31.5q70 0 130.5 -16t105.5 -49t69.5 -81t24.5 -110q0 -100 -87 -196t-265 -221h358v-158h-643v143q133 92 219 157t135.5 112t69 80.5t19.5 68.5 q0 57 -40 85t-100 28q-72 0 -132 -32t-91 -71z" />
<glyph unicode="&#xbe;" horiz-adv-x="1886" d="M66 662l96 129q47 -51 111.5 -76t123.5 -25q72 0 111 27t39 70q0 59 -51.5 79.5t-128.5 20.5h-55.5t-37.5 -2v156q14 -2 40 -2h51q82 0 124.5 19t42.5 73q0 47 -41.5 68.5t-107.5 21.5q-125 0 -215 -90l-92 116q53 57 133 94t194 37q158 0 242 -61t84 -162 q0 -76 -55.5 -125t-126.5 -61q31 -2 65.5 -15.5t64.5 -38t48 -60.5t18 -81q0 -109 -93 -175t-247 -66q-119 0 -204.5 36.5t-132.5 92.5zM461 0l872 1366h158l-875 -1366h-155zM1130 176v133l324 510h272v-489h109v-154h-109v-176h-194v176h-402zM1325 330h207v323z" />
<glyph unicode="&#xbf;" horiz-adv-x="815" d="M39 -76q0 74 25.5 128t63.5 94t83 72t83 61.5t63.5 62.5t25.5 76q0 25 -11.5 48t-27.5 38l223 63q70 -70 70 -180q0 -59 -22.5 -104t-55.5 -79t-73 -61.5t-72.5 -53.5t-55 -53.5t-22.5 -62.5q0 -47 38 -80.5t124 -33.5q78 0 141 33.5t111 91.5l165 -187 q-84 -96 -199.5 -146t-250.5 -50q-98 0 -177 23.5t-134.5 66.5t-85 102.5t-29.5 130.5zM305 846q0 68 49 117t117 49t117 -49.5t49 -116.5q0 -68 -49 -117t-117 -49t-117 49t-49 117z" />
<glyph unicode="&#xc0;" horiz-adv-x="1400" d="M-10 0l528 1366h365l526 -1366h-332l-84 231h-585l-86 -231h-332zM317 1776h238l276 -295h-182zM487 487h426l-213 588z" />
<glyph unicode="&#xc1;" horiz-adv-x="1400" d="M-10 0l528 1366h365l526 -1366h-332l-84 231h-585l-86 -231h-332zM487 487h426l-213 588zM571 1481l274 295h240l-332 -295h-182z" />
<glyph unicode="&#xc2;" horiz-adv-x="1400" d="M-10 0l528 1366h365l526 -1366h-332l-84 231h-585l-86 -231h-332zM395 1481l188 295h234l192 -295h-159l-150 182l-145 -182h-160zM487 487h426l-213 588z" />
<glyph unicode="&#xc3;" horiz-adv-x="1400" d="M-10 0l528 1366h365l526 -1366h-332l-84 231h-585l-86 -231h-332zM367 1489q0 131 56.5 202.5t164.5 71.5q51 0 83 -21.5t56.5 -47t47 -47t51.5 -21.5q31 0 52 29.5t21 95.5h138q0 -131 -55 -202.5t-164 -71.5q-53 0 -86 21.5t-57.5 48t-46 48t-50.5 21.5 q-31 0 -52.5 -31t-21.5 -96h-137zM487 487h426l-213 588z" />
<glyph unicode="&#xc4;" horiz-adv-x="1400" d="M-10 0l528 1366h365l526 -1366h-332l-84 231h-585l-86 -231h-332zM346 1593q0 57 40 97.5t99 40.5q57 0 97 -40.5t40 -97.5q0 -59 -40 -99t-97 -40q-59 0 -99 40t-40 99zM487 487h426l-213 588zM778 1593q0 57 41 97.5t98 40.5t98 -40.5t41 -97.5q0 -59 -41 -99t-98 -40 t-98 40t-41 99z" />
<glyph unicode="&#xc5;" horiz-adv-x="1400" d="M-10 0l528 1366h365l526 -1366h-332l-84 231h-585l-86 -231h-332zM487 487h426l-213 588zM487 1625q0 43 17.5 82.5t46 69.5t68.5 47.5t83 17.5q45 0 84 -17.5t67.5 -47.5t45 -69.5t16.5 -82.5q0 -45 -16.5 -84t-45 -69t-67.5 -46.5t-84 -16.5q-43 0 -83 16.5t-68.5 46.5 t-46 68.5t-17.5 84.5zM606 1625q0 -39 28.5 -68t67.5 -29q41 0 67.5 29t26.5 68q0 41 -26.5 68.5t-67.5 27.5q-39 0 -67.5 -28t-28.5 -68z" />
<glyph unicode="&#xc6;" horiz-adv-x="1982" d="M-18 0l831 1366h1083v-256h-673v-289h659v-256h-659v-309h673v-256h-966v231h-481l-136 -231h-331zM588 487h342v588z" />
<glyph unicode="&#xc7;" horiz-adv-x="1406" d="M70 682q0 158 56 288t153.5 223t230.5 144.5t287 51.5q113 0 203 -29t159.5 -75t120.5 -106.5t88 -123.5l-250 -123q-43 84 -129 141t-192 57q-92 0 -171 -33.5t-136.5 -94t-89 -142.5t-31.5 -178t31.5 -179t89 -142.5t136.5 -93.5t171 -34q106 0 192 56.5t129 142.5 l250 -121q-35 -61 -84 -119.5t-114.5 -104.5t-149.5 -75.5t-189 -34.5l-30 -73q35 20 73 20q57 0 97.5 -39t40.5 -104q0 -82 -68 -128t-160 -46q-74 0 -133 19.5t-92 45.5l51 105q78 -59 166 -60q41 0 74 16.5t33 51.5q0 53 -60 53q-37 0 -65 -28l-94 53l43 119 q-137 14 -254 70.5t-202 147.5t-133 214t-48 268z" />
<glyph unicode="&#xc8;" horiz-adv-x="1193" d="M135 0v1366h967v-256h-676v-289h661v-256h-661v-309h676v-256h-967zM231 1776h238l276 -295h-182z" />
<glyph unicode="&#xc9;" horiz-adv-x="1193" d="M135 0v1366h967v-256h-676v-289h661v-256h-661v-309h676v-256h-967zM487 1481l274 295h240l-332 -295h-182z" />
<glyph unicode="&#xca;" horiz-adv-x="1193" d="M135 0v1366h967v-256h-676v-289h661v-256h-661v-309h676v-256h-967zM311 1481l188 295h234l192 -295h-159l-150 182l-145 -182h-160z" />
<glyph unicode="&#xcb;" horiz-adv-x="1193" d="M135 0v1366h967v-256h-676v-289h661v-256h-661v-309h676v-256h-967zM264 1593q0 57 40 97.5t99 40.5q57 0 97 -40.5t40 -97.5q0 -59 -40 -99t-97 -40q-59 0 -99 40t-40 99zM696 1593q0 57 41 97.5t98 40.5t98 -40.5t41 -97.5q0 -59 -41 -99t-98 -40t-98 40t-41 99z" />
<glyph unicode="&#xcc;" horiz-adv-x="561" d="M-98 1776h238l276 -295h-182zM135 0v1366h291v-1366h-291z" />
<glyph unicode="&#xcd;" horiz-adv-x="561" d="M135 0v1366h291v-1366h-291zM154 1481l274 295h240l-332 -295h-182z" />
<glyph unicode="&#xce;" horiz-adv-x="561" d="M-23 1481l188 295h234l192 -295h-159l-150 182l-145 -182h-160zM135 0v1366h291v-1366h-291z" />
<glyph unicode="&#xcf;" horiz-adv-x="561" d="M-69 1593q0 57 40 97.5t99 40.5q57 0 97 -40.5t40 -97.5q0 -59 -40 -99t-97 -40q-59 0 -99 40t-40 99zM135 0v1366h291v-1366h-291zM363 1593q0 57 41 97.5t98 40.5t98 -40.5t41 -97.5q0 -59 -41 -99t-98 -40t-98 40t-41 99z" />
<glyph unicode="&#xd0;" horiz-adv-x="1519" d="M16 567v215h170v584h539q160 0 294 -49t229 -138t148.5 -216t53.5 -281t-53.5 -280t-148.5 -215t-229 -138t-294 -49h-539v567h-170zM477 256h248q100 0 180 34t135.5 92t84 136t28.5 164q0 90 -27.5 169t-81 136t-134.5 90t-185 33h-248v-328h305v-215h-305v-311z" />
<glyph unicode="&#xd1;" horiz-adv-x="1492" d="M135 0v1366h299l633 -858v858h291v-1366h-281l-651 891v-891h-291zM410 1489q0 131 56.5 202.5t164.5 71.5q51 0 83 -21.5t56.5 -47t47 -47t51.5 -21.5q31 0 52 29.5t21 95.5h138q0 -131 -55 -202.5t-164 -71.5q-53 0 -86 21.5t-57.5 48t-46 48t-50.5 21.5 q-31 0 -52.5 -31t-21.5 -96h-137z" />
<glyph unicode="&#xd2;" horiz-adv-x="1566" d="M70 682q0 154 53 284t148.5 224t226.5 146.5t284 52.5q156 0 287 -52.5t226.5 -146.5t148.5 -224t53 -284t-53 -284t-148.5 -224t-226.5 -146.5t-287 -52.5q-154 0 -284.5 52.5t-226 146.5t-148.5 224t-53 284zM369 682q0 -96 29.5 -178t83 -141.5t130 -94.5t170.5 -35 t171 35t131.5 94.5t84 141.5t29.5 178t-29.5 178t-84 142.5t-131 94t-171.5 33.5q-94 0 -170.5 -33.5t-130 -94t-83 -142.5t-29.5 -178zM401 1776h238l276 -295h-182z" />
<glyph unicode="&#xd3;" horiz-adv-x="1566" d="M70 682q0 154 53 284t148.5 224t226.5 146.5t284 52.5q156 0 287 -52.5t226.5 -146.5t148.5 -224t53 -284t-53 -284t-148.5 -224t-226.5 -146.5t-287 -52.5q-154 0 -284.5 52.5t-226 146.5t-148.5 224t-53 284zM369 682q0 -96 29.5 -178t83 -141.5t130 -94.5t170.5 -35 t171 35t131.5 94.5t84 141.5t29.5 178t-29.5 178t-84 142.5t-131 94t-171.5 33.5q-94 0 -170.5 -33.5t-130 -94t-83 -142.5t-29.5 -178zM653 1481l274 295h240l-332 -295h-182z" />
<glyph unicode="&#xd4;" horiz-adv-x="1566" d="M70 682q0 154 53 284t148.5 224t226.5 146.5t284 52.5q156 0 287 -52.5t226.5 -146.5t148.5 -224t53 -284t-53 -284t-148.5 -224t-226.5 -146.5t-287 -52.5q-154 0 -284.5 52.5t-226 146.5t-148.5 224t-53 284zM369 682q0 -96 29.5 -178t83 -141.5t130 -94.5t170.5 -35 t171 35t131.5 94.5t84 141.5t29.5 178t-29.5 178t-84 142.5t-131 94t-171.5 33.5q-94 0 -170.5 -33.5t-130 -94t-83 -142.5t-29.5 -178zM481 1481l188 295h234l192 -295h-159l-150 182l-145 -182h-160z" />
<glyph unicode="&#xd5;" horiz-adv-x="1566" d="M70 682q0 154 53 284t148.5 224t226.5 146.5t284 52.5q156 0 287 -52.5t226.5 -146.5t148.5 -224t53 -284t-53 -284t-148.5 -224t-226.5 -146.5t-287 -52.5q-154 0 -284.5 52.5t-226 146.5t-148.5 224t-53 284zM369 682q0 -96 29.5 -178t83 -141.5t130 -94.5t170.5 -35 t171 35t131.5 94.5t84 141.5t29.5 178t-29.5 178t-84 142.5t-131 94t-171.5 33.5q-94 0 -170.5 -33.5t-130 -94t-83 -142.5t-29.5 -178zM449 1489q0 131 56.5 202.5t164.5 71.5q51 0 83 -21.5t56.5 -47t47 -47t51.5 -21.5q31 0 52 29.5t21 95.5h138q0 -131 -55 -202.5 t-164 -71.5q-53 0 -86 21.5t-57.5 48t-46 48t-50.5 21.5q-31 0 -52.5 -31t-21.5 -96h-137z" />
<glyph unicode="&#xd6;" horiz-adv-x="1566" d="M70 682q0 154 53 284t148.5 224t226.5 146.5t284 52.5q156 0 287 -52.5t226.5 -146.5t148.5 -224t53 -284t-53 -284t-148.5 -224t-226.5 -146.5t-287 -52.5q-154 0 -284.5 52.5t-226 146.5t-148.5 224t-53 284zM369 682q0 -96 29.5 -178t83 -141.5t130 -94.5t170.5 -35 t171 35t131.5 94.5t84 141.5t29.5 178t-29.5 178t-84 142.5t-131 94t-171.5 33.5q-94 0 -170.5 -33.5t-130 -94t-83 -142.5t-29.5 -178zM430 1593q0 57 40 97.5t99 40.5q57 0 97 -40.5t40 -97.5q0 -59 -40 -99t-97 -40q-59 0 -99 40t-40 99zM862 1593q0 57 41 97.5t98 40.5 t98 -40.5t41 -97.5q0 -59 -41 -99t-98 -40t-98 40t-41 99z" />
<glyph unicode="&#xd7;" horiz-adv-x="1032" d="M113 393l288 291l-288 289l116 114l287 -290l289 290l115 -114l-289 -289l289 -291l-115 -112l-289 288l-287 -288z" />
<glyph unicode="&#xd8;" horiz-adv-x="1566" d="M70 682q0 154 53 284t148.5 224t226.5 146.5t284 52.5q98 0 187.5 -21.5t167.5 -62.5l47 61h209l-119 -156q104 -96 163.5 -230t59.5 -298q0 -154 -53 -284t-148.5 -224t-226.5 -146.5t-287 -52.5q-106 0 -201.5 25t-174.5 72l-56 -72h-209l131 172q-96 94 -149 224 t-53 286zM369 682q0 -82 20.5 -152.5t59.5 -128.5l522 686q-41 20 -88 31.5t-101 11.5q-94 0 -170.5 -33.5t-130 -94t-83 -142.5t-29.5 -178zM569 289q45 -27 98.5 -41.5t114.5 -14.5q94 0 171 35t131.5 94.5t84 141.5t29.5 178q0 180 -98 301z" />
<glyph unicode="&#xd9;" horiz-adv-x="1501" d="M135 545v821h295v-811q0 -143 81 -232.5t241 -89.5t239.5 89.5t79.5 232.5v811h297v-819q0 -127 -38 -232.5t-114.5 -181.5t-192 -117t-271.5 -41t-271.5 42t-192.5 117t-115 179.5t-38 231.5zM369 1776h238l276 -295h-182z" />
<glyph unicode="&#xda;" horiz-adv-x="1501" d="M135 545v821h295v-811q0 -143 81 -232.5t241 -89.5t239.5 89.5t79.5 232.5v811h297v-819q0 -127 -38 -232.5t-114.5 -181.5t-192 -117t-271.5 -41t-271.5 42t-192.5 117t-115 179.5t-38 231.5zM623 1481l274 295h240l-332 -295h-182z" />
<glyph unicode="&#xdb;" horiz-adv-x="1501" d="M135 545v821h295v-811q0 -143 81 -232.5t241 -89.5t239.5 89.5t79.5 232.5v811h297v-819q0 -127 -38 -232.5t-114.5 -181.5t-192 -117t-271.5 -41t-271.5 42t-192.5 117t-115 179.5t-38 231.5zM453 1481l188 295h234l192 -295h-159l-150 182l-145 -182h-160z" />
<glyph unicode="&#xdc;" horiz-adv-x="1501" d="M135 545v821h295v-811q0 -143 81 -232.5t241 -89.5t239.5 89.5t79.5 232.5v811h297v-819q0 -127 -38 -232.5t-114.5 -181.5t-192 -117t-271.5 -41t-271.5 42t-192.5 117t-115 179.5t-38 231.5zM402 1593q0 57 40 97.5t99 40.5q57 0 97 -40.5t40 -97.5q0 -59 -40 -99 t-97 -40q-59 0 -99 40t-40 99zM834 1593q0 57 41 97.5t98 40.5t98 -40.5t41 -97.5q0 -59 -41 -99t-98 -40t-98 40t-41 99z" />
<glyph unicode="&#xdd;" horiz-adv-x="1320" d="M-10 1366h332l340 -549l335 549h332l-522 -807v-559h-291v559zM530 1481l274 295h240l-332 -295h-182z" />
<glyph unicode="&#xde;" horiz-adv-x="1277" d="M135 0v1366h291v-221h348q111 0 197 -36t144.5 -96.5t88 -140t29.5 -170.5q0 -90 -31 -168.5t-89 -138t-143 -94.5t-196 -35h-348v-266h-291zM426 522h305q88 0 146.5 48t58.5 135q0 86 -58.5 135t-146.5 49h-305v-367z" />
<glyph unicode="&#xdf;" horiz-adv-x="1316" d="M129 0v973q0 84 32 159.5t91 132t147 89t199 32.5q82 0 157.5 -20t134 -59t94.5 -93.5t36 -123.5q0 -86 -42 -138.5t-93 -90.5t-93 -70.5t-42 -77.5q0 -37 39.5 -53.5t99 -30t128 -29.5t128 -51t99.5 -94.5t40 -159.5q0 -70 -28.5 -128t-83 -101t-130 -67t-170.5 -24 q-74 0 -132 12.5t-106 33t-88 49t-77 61.5l111 180q41 -53 121.5 -93t170.5 -40q82 0 122 33t40 74t-40 61.5t-99 35.5t-128 32.5t-128 51.5t-99 89t-40 150q0 80 39 131t87 88t87 65.5t39 63.5q0 51 -49.5 76.5t-108.5 25.5q-86 0 -145.5 -48t-59.5 -134v-973h-260z" />
<glyph unicode="&#xe0;" horiz-adv-x="1112" d="M66 303q0 86 31.5 147.5t80.5 99.5t110.5 55.5t121.5 17.5q98 0 181 -31t132 -90v133q0 76 -59.5 121t-157.5 45q-164 0 -289 -117l-98 174q92 80 203.5 118t228.5 38q84 0 162 -18.5t138 -62.5t96 -116t36 -178v-639h-260v102q-51 -59 -133 -93t-180 -34 q-59 0 -121 20.5t-111 60.5t-80.5 101.5t-31.5 145.5zM166 1434h238l276 -295h-182zM328 297q0 -70 54 -107.5t132 -37.5q63 0 119.5 21.5t89.5 64.5v122q-33 43 -89 64.5t-120 21.5q-78 0 -132 -38.5t-54 -110.5z" />
<glyph unicode="&#xe1;" horiz-adv-x="1112" d="M66 303q0 86 31.5 147.5t80.5 99.5t110.5 55.5t121.5 17.5q98 0 181 -31t132 -90v133q0 76 -59.5 121t-157.5 45q-164 0 -289 -117l-98 174q92 80 203.5 118t228.5 38q84 0 162 -18.5t138 -62.5t96 -116t36 -178v-639h-260v102q-51 -59 -133 -93t-180 -34 q-59 0 -121 20.5t-111 60.5t-80.5 101.5t-31.5 145.5zM328 297q0 -70 54 -107.5t132 -37.5q63 0 119.5 21.5t89.5 64.5v122q-33 43 -89 64.5t-120 21.5q-78 0 -132 -38.5t-54 -110.5zM420 1139l274 295h240l-332 -295h-182z" />
<glyph unicode="&#xe2;" horiz-adv-x="1112" d="M66 303q0 86 31.5 147.5t80.5 99.5t110.5 55.5t121.5 17.5q98 0 181 -31t132 -90v133q0 76 -59.5 121t-157.5 45q-164 0 -289 -117l-98 174q92 80 203.5 118t228.5 38q84 0 162 -18.5t138 -62.5t96 -116t36 -178v-639h-260v102q-51 -59 -133 -93t-180 -34 q-59 0 -121 20.5t-111 60.5t-80.5 101.5t-31.5 145.5zM248 1139l188 295h234l192 -295h-159l-150 182l-145 -182h-160zM328 297q0 -70 54 -107.5t132 -37.5q63 0 119.5 21.5t89.5 64.5v122q-33 43 -89 64.5t-120 21.5q-78 0 -132 -38.5t-54 -110.5z" />
<glyph unicode="&#xe3;" horiz-adv-x="1112" d="M66 303q0 86 31.5 147.5t80.5 99.5t110.5 55.5t121.5 17.5q98 0 181 -31t132 -90v133q0 76 -59.5 121t-157.5 45q-164 0 -289 -117l-98 174q92 80 203.5 118t228.5 38q84 0 162 -18.5t138 -62.5t96 -116t36 -178v-639h-260v102q-51 -59 -133 -93t-180 -34 q-59 0 -121 20.5t-111 60.5t-80.5 101.5t-31.5 145.5zM217 1147q0 131 56.5 202.5t164.5 71.5q51 0 83 -21.5t56.5 -47t47 -47t51.5 -21.5q31 0 52 29.5t21 95.5h138q0 -131 -55 -202.5t-164 -71.5q-53 0 -86 21.5t-57.5 48t-46 48t-50.5 21.5q-31 0 -52.5 -31t-21.5 -96 h-137zM328 297q0 -70 54 -107.5t132 -37.5q63 0 119.5 21.5t89.5 64.5v122q-33 43 -89 64.5t-120 21.5q-78 0 -132 -38.5t-54 -110.5z" />
<glyph unicode="&#xe4;" horiz-adv-x="1112" d="M66 303q0 86 31.5 147.5t80.5 99.5t110.5 55.5t121.5 17.5q98 0 181 -31t132 -90v133q0 76 -59.5 121t-157.5 45q-164 0 -289 -117l-98 174q92 80 203.5 118t228.5 38q84 0 162 -18.5t138 -62.5t96 -116t36 -178v-639h-260v102q-51 -59 -133 -93t-180 -34 q-59 0 -121 20.5t-111 60.5t-80.5 101.5t-31.5 145.5zM197 1251q0 57 40 97.5t99 40.5q57 0 97 -40.5t40 -97.5q0 -59 -40 -99t-97 -40q-59 0 -99 40t-40 99zM328 297q0 -70 54 -107.5t132 -37.5q63 0 119.5 21.5t89.5 64.5v122q-33 43 -89 64.5t-120 21.5q-78 0 -132 -38.5 t-54 -110.5zM629 1251q0 57 41 97.5t98 40.5t98 -40.5t41 -97.5q0 -59 -41 -99t-98 -40t-98 40t-41 99z" />
<glyph unicode="&#xe5;" horiz-adv-x="1112" d="M66 303q0 86 31.5 147.5t80.5 99.5t110.5 55.5t121.5 17.5q98 0 181 -31t132 -90v133q0 76 -59.5 121t-157.5 45q-164 0 -289 -117l-98 174q92 80 203.5 118t228.5 38q84 0 162 -18.5t138 -62.5t96 -116t36 -178v-639h-260v102q-51 -59 -133 -93t-180 -34 q-59 0 -121 20.5t-111 60.5t-80.5 101.5t-31.5 145.5zM328 297q0 -70 54 -107.5t132 -37.5q63 0 119.5 21.5t89.5 64.5v122q-33 43 -89 64.5t-120 21.5q-78 0 -132 -38.5t-54 -110.5zM340 1303q0 43 17.5 82.5t46 69.5t68.5 47.5t83 17.5q45 0 84 -17.5t67.5 -47.5t45 -69.5 t16.5 -82.5q0 -45 -16.5 -84t-45 -69t-67.5 -46.5t-84 -16.5q-43 0 -83 16.5t-68.5 46.5t-46 68.5t-17.5 84.5zM459 1303q0 -39 28.5 -68t67.5 -29q41 0 67.5 29t26.5 68q0 41 -26.5 68.5t-67.5 27.5q-39 0 -67.5 -28t-28.5 -68z" />
<glyph unicode="&#xe6;" horiz-adv-x="1781" d="M66 299q0 82 28.5 142.5t77.5 100.5t114.5 60.5t137.5 20.5q102 0 191.5 -30t146.5 -89v133q0 74 -64.5 119t-171.5 45q-172 0 -309 -117l-98 174q92 80 205.5 118t232.5 38q131 0 218 -44t128 -126q27 35 59.5 65.5t75.5 54t98.5 37t125.5 13.5q102 0 187 -40 t145.5 -111.5t94 -172t33.5 -221.5v-57h-698q6 -45 26.5 -86t54.5 -72t80 -48.5t105 -17.5q66 0 132.5 25t111.5 72l117 -172q-74 -68 -179.5 -103t-199.5 -35q-121 0 -217.5 41t-163.5 140q-61 -78 -170 -129.5t-242 -51.5q-82 0 -156.5 19.5t-132 59.5t-91 100.5 t-33.5 144.5zM328 313q0 -68 58 -100.5t138 -32.5q49 0 92 15.5t76 39t51.5 53t18.5 58.5v12q-37 41 -99.5 64.5t-132.5 23.5q-86 0 -144 -33.5t-58 -99.5zM1020 588h450q-2 35 -14 73.5t-39.5 70.5t-69.5 53.5t-102 21.5q-55 0 -96 -20.5t-68.5 -52.5t-42 -70.5 t-18.5 -75.5z" />
<glyph unicode="&#xe7;" horiz-adv-x="1021" d="M66 496q0 113 38.5 208t108.5 164.5t166 107.5t211 38q152 0 247 -55.5t144 -122.5l-170 -160q-72 106 -209 106q-119 0 -193.5 -78.5t-74.5 -207.5t74.5 -209t193.5 -80q68 0 121 28.5t88 77.5l170 -157q-45 -63 -126 -115.5t-210 -63.5l-33 -77q35 20 74 20 q57 0 97 -39t40 -104q0 -82 -67.5 -128t-159.5 -46q-74 0 -133.5 19.5t-91.5 45.5l51 105q78 -59 166 -60q41 0 73.5 16.5t32.5 51.5q0 53 -59 53q-37 0 -66 -29l-94 54l43 121q-100 10 -183 52t-143.5 109.5t-93 157.5t-32.5 197z" />
<glyph unicode="&#xe8;" horiz-adv-x="1132" d="M66 496q0 106 37.5 201.5t105 165t162 110.5t207.5 41q111 0 201.5 -40t156 -111.5t101.5 -172t36 -221.5v-57h-735q12 -94 85 -162t200 -68q31 0 67.5 7.5t72.5 19.5t67.5 30.5t56.5 41.5l114 -168q-74 -68 -182 -103t-225 -35q-113 0 -210 37t-168 104.5t-110.5 164 t-39.5 215.5zM195 1434h238l276 -295h-182zM334 588h487q-2 35 -16 73.5t-43 70.5t-75 53.5t-109 21.5q-61 0 -105.5 -20.5t-73 -52.5t-45 -70.5t-20.5 -75.5z" />
<glyph unicode="&#xe9;" horiz-adv-x="1132" d="M66 496q0 106 37.5 201.5t105 165t162 110.5t207.5 41q111 0 201.5 -40t156 -111.5t101.5 -172t36 -221.5v-57h-735q12 -94 85 -162t200 -68q31 0 67.5 7.5t72.5 19.5t67.5 30.5t56.5 41.5l114 -168q-74 -68 -182 -103t-225 -35q-113 0 -210 37t-168 104.5t-110.5 164 t-39.5 215.5zM334 588h487q-2 35 -16 73.5t-43 70.5t-75 53.5t-109 21.5q-61 0 -105.5 -20.5t-73 -52.5t-45 -70.5t-20.5 -75.5zM449 1139l274 295h240l-332 -295h-182z" />
<glyph unicode="&#xea;" horiz-adv-x="1132" d="M66 496q0 106 37.5 201.5t105 165t162 110.5t207.5 41q111 0 201.5 -40t156 -111.5t101.5 -172t36 -221.5v-57h-735q12 -94 85 -162t200 -68q31 0 67.5 7.5t72.5 19.5t67.5 30.5t56.5 41.5l114 -168q-74 -68 -182 -103t-225 -35q-113 0 -210 37t-168 104.5t-110.5 164 t-39.5 215.5zM272 1139l188 295h234l192 -295h-159l-150 182l-145 -182h-160zM334 588h487q-2 35 -16 73.5t-43 70.5t-75 53.5t-109 21.5q-61 0 -105.5 -20.5t-73 -52.5t-45 -70.5t-20.5 -75.5z" />
<glyph unicode="&#xeb;" horiz-adv-x="1132" d="M66 496q0 106 37.5 201.5t105 165t162 110.5t207.5 41q111 0 201.5 -40t156 -111.5t101.5 -172t36 -221.5v-57h-735q12 -94 85 -162t200 -68q31 0 67.5 7.5t72.5 19.5t67.5 30.5t56.5 41.5l114 -168q-74 -68 -182 -103t-225 -35q-113 0 -210 37t-168 104.5t-110.5 164 t-39.5 215.5zM226 1251q0 57 40 97.5t99 40.5q57 0 97 -40.5t40 -97.5q0 -59 -40 -99t-97 -40q-59 0 -99 40t-40 99zM334 588h487q-2 35 -16 73.5t-43 70.5t-75 53.5t-109 21.5q-61 0 -105.5 -20.5t-73 -52.5t-45 -70.5t-20.5 -75.5zM658 1251q0 57 41 97.5t98 40.5 t98 -40.5t41 -97.5q0 -59 -41 -99t-98 -40t-98 40t-41 99z" />
<glyph unicode="&#xec;" horiz-adv-x="518" d="M-121 1434h238l276 -295h-182zM129 0v989h260v-989h-260z" />
<glyph unicode="&#xed;" horiz-adv-x="518" d="M129 0v989h260v-989h-260zM129 1139l274 295h240l-332 -295h-182z" />
<glyph unicode="&#xee;" horiz-adv-x="518" d="M-45 1139l188 295h234l192 -295h-159l-150 182l-145 -182h-160zM129 0v989h260v-989h-260z" />
<glyph unicode="&#xef;" horiz-adv-x="518" d="M-92 1251q0 57 40 97.5t99 40.5q57 0 97 -40.5t40 -97.5q0 -59 -40 -99t-97 -40q-59 0 -99 40t-40 99zM129 0v989h260v-989h-260zM340 1251q0 57 41 97.5t98 40.5t98 -40.5t41 -97.5q0 -59 -41 -99t-98 -40t-98 40t-41 99z" />
<glyph unicode="&#xf0;" horiz-adv-x="1175" d="M66 459q0 106 33.5 194t92 152.5t139.5 100.5t173 36q207 0 327 -190q-41 94 -127 179t-194 161l-299 -131l-51 122l219 97q-31 20 -62.5 38.5t-62.5 36.5l141 211q68 -41 131.5 -83t120.5 -87l211 93l51 -119l-149 -66q166 -147 259 -315t93 -373q0 -121 -36 -220 t-103.5 -170t-164.5 -111t-220 -40q-119 0 -215.5 36t-165 100.5t-105 153.5t-36.5 194zM336 459q0 -51 16.5 -97.5t49 -80t79 -54t107.5 -20.5t108 20.5t79 54t49.5 80t17.5 97.5t-17.5 97t-49.5 80t-79 54.5t-108 20.5t-107.5 -20.5t-79 -54.5t-49 -80t-16.5 -97z" />
<glyph unicode="&#xf1;" horiz-adv-x="1185" d="M129 0v989h260v-129q47 57 135 105.5t211 48.5q164 0 243 -85t79 -231v-698h-260v598q0 104 -49.5 144t-133.5 40q-78 0 -135 -35.5t-90 -80.5v-666h-260zM260 1147q0 131 56.5 202.5t164.5 71.5q51 0 83 -21.5t56.5 -47t47 -47t51.5 -21.5q31 0 52 29.5t21 95.5h138 q0 -131 -55 -202.5t-164 -71.5q-53 0 -86 21.5t-57.5 48t-46 48t-50.5 21.5q-31 0 -52.5 -31t-21.5 -96h-137z" />
<glyph unicode="&#xf2;" horiz-adv-x="1175" d="M66 496q0 104 35.5 198t103 165t164 113t219.5 42t220 -42t164.5 -113t103.5 -165t36 -198q0 -106 -36 -200.5t-103.5 -165.5t-164.5 -113t-220 -42t-219.5 42t-164 113t-103 165t-35.5 201zM205 1434h238l276 -295h-182zM336 496q0 -59 16.5 -111.5t49 -91.5t79 -62.5 t107.5 -23.5t108 23.5t79 62.5t49.5 91t17.5 112q0 57 -17.5 109t-49.5 91t-79 62.5t-108 23.5t-107.5 -23.5t-79 -62.5t-49 -91t-16.5 -109z" />
<glyph unicode="&#xf3;" horiz-adv-x="1175" d="M66 496q0 104 35.5 198t103 165t164 113t219.5 42t220 -42t164.5 -113t103.5 -165t36 -198q0 -106 -36 -200.5t-103.5 -165.5t-164.5 -113t-220 -42t-219.5 42t-164 113t-103 165t-35.5 201zM336 496q0 -59 16.5 -111.5t49 -91.5t79 -62.5t107.5 -23.5t108 23.5t79 62.5 t49.5 91t17.5 112q0 57 -17.5 109t-49.5 91t-79 62.5t-108 23.5t-107.5 -23.5t-79 -62.5t-49 -91t-16.5 -109zM459 1139l274 295h240l-332 -295h-182z" />
<glyph unicode="&#xf4;" horiz-adv-x="1175" d="M66 496q0 104 35.5 198t103 165t164 113t219.5 42t220 -42t164.5 -113t103.5 -165t36 -198q0 -106 -36 -200.5t-103.5 -165.5t-164.5 -113t-220 -42t-219.5 42t-164 113t-103 165t-35.5 201zM281 1139l188 295h234l192 -295h-159l-150 182l-145 -182h-160zM336 496 q0 -59 16.5 -111.5t49 -91.5t79 -62.5t107.5 -23.5t108 23.5t79 62.5t49.5 91t17.5 112q0 57 -17.5 109t-49.5 91t-79 62.5t-108 23.5t-107.5 -23.5t-79 -62.5t-49 -91t-16.5 -109z" />
<glyph unicode="&#xf5;" horiz-adv-x="1175" d="M66 496q0 104 35.5 198t103 165t164 113t219.5 42t220 -42t164.5 -113t103.5 -165t36 -198q0 -106 -36 -200.5t-103.5 -165.5t-164.5 -113t-220 -42t-219.5 42t-164 113t-103 165t-35.5 201zM254 1147q0 131 56.5 202.5t164.5 71.5q51 0 83 -21.5t56.5 -47t47 -47 t51.5 -21.5q31 0 52 29.5t21 95.5h138q0 -131 -55 -202.5t-164 -71.5q-53 0 -86 21.5t-57.5 48t-46 48t-50.5 21.5q-31 0 -52.5 -31t-21.5 -96h-137zM336 496q0 -59 16.5 -111.5t49 -91.5t79 -62.5t107.5 -23.5t108 23.5t79 62.5t49.5 91t17.5 112q0 57 -17.5 109t-49.5 91 t-79 62.5t-108 23.5t-107.5 -23.5t-79 -62.5t-49 -91t-16.5 -109z" />
<glyph unicode="&#xf6;" horiz-adv-x="1175" d="M66 496q0 104 35.5 198t103 165t164 113t219.5 42t220 -42t164.5 -113t103.5 -165t36 -198q0 -106 -36 -200.5t-103.5 -165.5t-164.5 -113t-220 -42t-219.5 42t-164 113t-103 165t-35.5 201zM234 1251q0 57 40 97.5t99 40.5q57 0 97 -40.5t40 -97.5q0 -59 -40 -99 t-97 -40q-59 0 -99 40t-40 99zM336 496q0 -59 16.5 -111.5t49 -91.5t79 -62.5t107.5 -23.5t108 23.5t79 62.5t49.5 91t17.5 112q0 57 -17.5 109t-49.5 91t-79 62.5t-108 23.5t-107.5 -23.5t-79 -62.5t-49 -91t-16.5 -109zM666 1251q0 57 41 97.5t98 40.5t98 -40.5t41 -97.5 q0 -59 -41 -99t-98 -40t-98 40t-41 99z" />
<glyph unicode="&#xf7;" horiz-adv-x="1046" d="M59 610v162h928v-162h-928zM397 322q0 51 36 87.5t89 36.5t89 -36.5t36 -87.5q0 -53 -36 -89t-89 -36t-89 35.5t-36 89.5zM397 1057q0 51 36 87t89 36t89 -36t36 -87q0 -53 -36 -90t-89 -37t-89 37t-36 90z" />
<glyph unicode="&#xf8;" horiz-adv-x="1175" d="M66 496q0 104 35.5 198t103 165t164 113t219.5 42q86 0 157.5 -20.5t131.5 -57.5l45 53h163l-112 -131q68 -72 103.5 -165t35.5 -197q0 -106 -36 -200.5t-103.5 -165.5t-164.5 -113t-220 -42q-174 0 -297 82l-49 -57h-160l117 137q-133 145 -133 359zM336 496 q0 -86 35 -156l346 408q-57 35 -129 34q-61 0 -107.5 -23.5t-79 -62.5t-49 -91t-16.5 -109zM451 246q53 -39 137 -39q61 0 108 23.5t79 62.5t49.5 91t17.5 112q0 90 -41 161z" />
<glyph unicode="&#xf9;" horiz-adv-x="1185" d="M129 287v702h260v-600q0 -102 49 -142t133 -40q76 0 133.5 34.5t92.5 77.5v670h260v-989h-260v125q-51 -57 -138.5 -103.5t-209.5 -46.5q-164 0 -242 83t-78 229zM209 1434h238l276 -295h-182z" />
<glyph unicode="&#xfa;" horiz-adv-x="1185" d="M129 287v702h260v-600q0 -102 49 -142t133 -40q76 0 133.5 34.5t92.5 77.5v670h260v-989h-260v125q-51 -57 -138.5 -103.5t-209.5 -46.5q-164 0 -242 83t-78 229zM461 1139l274 295h240l-332 -295h-182z" />
<glyph unicode="&#xfb;" horiz-adv-x="1185" d="M129 287v702h260v-600q0 -102 49 -142t133 -40q76 0 133.5 34.5t92.5 77.5v670h260v-989h-260v125q-51 -57 -138.5 -103.5t-209.5 -46.5q-164 0 -242 83t-78 229zM287 1139l188 295h234l192 -295h-159l-150 182l-145 -182h-160z" />
<glyph unicode="&#xfc;" horiz-adv-x="1185" d="M129 287v702h260v-600q0 -102 49 -142t133 -40q76 0 133.5 34.5t92.5 77.5v670h260v-989h-260v125q-51 -57 -138.5 -103.5t-209.5 -46.5q-164 0 -242 83t-78 229zM238 1251q0 57 40 97.5t99 40.5q57 0 97 -40.5t40 -97.5q0 -59 -40 -99t-97 -40q-59 0 -99 40t-40 99z M670 1251q0 57 41 97.5t98 40.5t98 -40.5t41 -97.5q0 -59 -41 -99t-98 -40t-98 40t-41 99z" />
<glyph unicode="&#xfd;" horiz-adv-x="1050" d="M-12 989h278l258 -688l258 688h281l-465 -1151q-55 -139 -151.5 -188t-223.5 -51q-23 0 -63.5 4t-65.5 10l39 233q16 -8 40 -12t42 -4q51 0 85 15.5t52 56.5l37 84zM393 1139l274 295h240l-332 -295h-182z" />
<glyph unicode="&#xfe;" horiz-adv-x="1193" d="M129 -377v1743h260v-502q57 72 135 111t170 39q94 0 175 -35t139.5 -100.5t91.5 -163t33 -219.5q0 -123 -33 -220.5t-91.5 -164t-139.5 -101.5t-175 -35q-88 0 -166.5 37t-138.5 115v-504h-260zM389 319q33 -47 96.5 -79.5t126.5 -32.5q113 0 181.5 80t68.5 209 t-68.5 207.5t-181.5 78.5q-63 0 -126.5 -32.5t-96.5 -79.5v-351z" />
<glyph unicode="&#xff;" horiz-adv-x="1050" d="M-12 989h278l258 -688l258 688h281l-465 -1151q-55 -139 -151.5 -188t-223.5 -51q-23 0 -63.5 4t-65.5 10l39 233q16 -8 40 -12t42 -4q51 0 85 15.5t52 56.5l37 84zM170 1251q0 57 40 97.5t99 40.5q57 0 97 -40.5t40 -97.5q0 -59 -40 -99t-97 -40q-59 0 -99 40t-40 99z M602 1251q0 57 41 97.5t98 40.5t98 -40.5t41 -97.5q0 -59 -41 -99t-98 -40t-98 40t-41 99z" />
<glyph unicode="&#x152;" horiz-adv-x="2220" d="M70 682q0 156 51 285t142 222t216 145t275 52q113 0 227.5 -45t183.5 -137v162h967v-256h-674v-289h660v-256h-660v-309h674v-256h-967v160q-70 -92 -184.5 -138.5t-226.5 -46.5q-150 0 -275 52.5t-216 145.5t-142 223t-51 286zM369 682q0 -96 29.5 -178t85 -141.5 t134 -94.5t177.5 -35q125 0 223 61.5t147 176.5v422q-49 117 -147 176t-223 59q-98 0 -177 -33.5t-134.5 -93t-85 -141.5t-29.5 -178z" />
<glyph unicode="&#x153;" horiz-adv-x="1906" d="M66 496q0 104 35.5 198t103 165t164 113t219.5 42q78 0 138 -21.5t107.5 -54.5t82 -72t59.5 -73q23 37 56.5 75.5t79.5 70.5t106.5 53.5t136.5 21.5q111 0 202 -40t155.5 -111.5t100 -172t35.5 -221.5v-57h-733q6 -45 27.5 -87t57.5 -74t86 -50.5t114 -18.5 q70 0 141.5 25.5t120.5 71.5l117 -166q-76 -68 -184.5 -103t-223.5 -35q-82 0 -145.5 20.5t-110.5 52.5t-82 71t-59 76q-25 -35 -58.5 -74t-81 -72t-107.5 -53.5t-138 -20.5q-123 0 -219.5 42t-164 113t-103 165t-35.5 201zM336 496q0 -129 68.5 -210t183.5 -81 q117 0 185.5 81t68.5 210q0 127 -68.5 206.5t-185.5 79.5q-115 0 -183.5 -79.5t-68.5 -206.5zM1110 588h487q-2 35 -16 73.5t-44 70.5t-76 53.5t-109 21.5q-59 0 -103.5 -20.5t-74 -52.5t-45 -70.5t-19.5 -75.5z" />
<glyph unicode="&#x178;" horiz-adv-x="1320" d="M-10 1366h332l340 -549l335 549h332l-522 -807v-559h-291v559zM307 1593q0 57 40 97.5t99 40.5q57 0 97 -40.5t40 -97.5q0 -59 -40 -99t-97 -40q-59 0 -99 40t-40 99zM739 1593q0 57 41 97.5t98 40.5t98 -40.5t41 -97.5q0 -59 -41 -99t-98 -40t-98 40t-41 99z" />
<glyph unicode="&#x2c6;" horiz-adv-x="614" d="M0 1139l188 295h234l192 -295h-159l-150 182l-145 -182h-160z" />
<glyph unicode="&#x2dc;" horiz-adv-x="669" d="M0 1147q0 131 56.5 202.5t164.5 71.5q51 0 83 -21.5t56.5 -47t47 -47t51.5 -21.5q31 0 52 29.5t21 95.5h138q0 -131 -55 -202.5t-164 -71.5q-53 0 -86 21.5t-57.5 48t-46 48t-50.5 21.5q-31 0 -52.5 -31t-21.5 -96h-137z" />
<glyph unicode="&#x2000;" horiz-adv-x="921" />
<glyph unicode="&#x2001;" horiz-adv-x="1842" />
<glyph unicode="&#x2002;" horiz-adv-x="921" />
<glyph unicode="&#x2003;" horiz-adv-x="1842" />
<glyph unicode="&#x2004;" horiz-adv-x="614" />
<glyph unicode="&#x2005;" horiz-adv-x="460" />
<glyph unicode="&#x2006;" horiz-adv-x="307" />
<glyph unicode="&#x2007;" horiz-adv-x="307" />
<glyph unicode="&#x2008;" horiz-adv-x="230" />
<glyph unicode="&#x2009;" horiz-adv-x="368" />
<glyph unicode="&#x200a;" horiz-adv-x="102" />
<glyph unicode="&#x2010;" horiz-adv-x="614" d="M61 385v221h492v-221h-492z" />
<glyph unicode="&#x2011;" horiz-adv-x="614" d="M61 385v221h492v-221h-492z" />
<glyph unicode="&#x2012;" horiz-adv-x="614" d="M61 385v221h492v-221h-492z" />
<glyph unicode="&#x2013;" horiz-adv-x="1214" d="M61 385v221h1092v-221h-1092z" />
<glyph unicode="&#x2014;" horiz-adv-x="1705" d="M61 385v221h1584v-221h-1584z" />
<glyph unicode="&#x2018;" horiz-adv-x="522" d="M78 1008q0 117 58.5 215t154.5 163l112 -90q-49 -27 -97 -83t-62 -111q4 4 16 5t25 1q59 0 99 -41t40 -106q0 -66 -48 -114t-114 -48q-37 0 -69.5 14t-58 41t-41 66t-15.5 88z" />
<glyph unicode="&#x2019;" horiz-adv-x="522" d="M96 1223q0 68 47 115.5t113 47.5q37 0 69.5 -14t58.5 -40.5t41 -65.5t15 -88q0 -117 -58 -215.5t-153 -165.5l-112 92q25 12 50.5 34.5t47 48t37.5 54.5t22 57q-12 -8 -38 -8q-59 0 -99.5 41t-40.5 107z" />
<glyph unicode="&#x201a;" d="M96 145q0 68 47 116t113 48q37 0 69.5 -14t58.5 -41t41 -66t15 -88q0 -117 -58 -215t-153 -166l-112 93q25 12 50.5 33.5t47 48t37.5 55t22 55.5q-4 -2 -16 -4t-22 -2q-59 0 -99.5 41t-40.5 106z" />
<glyph unicode="&#x201c;" horiz-adv-x="940" d="M82 1008q0 117 57.5 215t153.5 163l113 -90q-49 -27 -97.5 -83t-62.5 -111q4 4 16 5t25 1q59 0 99 -41t40 -106q0 -66 -48 -114t-114 -48q-72 0 -127 54.5t-55 154.5zM500 1008q0 117 56 215t153 163l114 -90q-25 -12 -50 -34.5t-48 -48t-39 -55.5t-22 -56q4 4 16 5t25 1 q57 0 97 -41t40 -106q0 -66 -47 -114t-115 -48q-72 0 -126 54.5t-54 154.5z" />
<glyph unicode="&#x201d;" horiz-adv-x="940" d="M96 1223q0 68 47 115.5t113 47.5q37 0 69.5 -14t58.5 -40.5t41 -65.5t15 -88q0 -117 -58 -215.5t-153 -165.5l-112 92q25 12 50.5 34.5t47 48t37.5 54.5t22 57q-12 -8 -38 -8q-59 0 -99.5 41t-40.5 107zM512 1223q0 68 48 115.5t114 47.5q72 0 127 -54t55 -154 q0 -117 -57.5 -215.5t-153.5 -165.5l-113 92q49 27 97.5 83t62.5 111q-16 -8 -41 -8q-59 0 -99 41t-40 107z" />
<glyph unicode="&#x201e;" horiz-adv-x="940" d="M96 145q0 68 47 116t113 48q37 0 69.5 -14t58.5 -41t41 -66t15 -88q0 -117 -58 -215t-153 -166l-112 93q25 12 50.5 33.5t47 48t37.5 55t22 55.5q-4 -2 -16 -4t-22 -2q-59 0 -99.5 41t-40.5 106zM512 145q0 68 48 116t114 48q72 0 127 -54.5t55 -154.5q0 -117 -57.5 -215 t-153.5 -166l-113 93q25 12 50.5 33.5t47 48t39 55t23.5 55.5q-6 -2 -17 -4t-24 -2q-59 0 -99 41t-40 106z" />
<glyph unicode="&#x2022;" horiz-adv-x="733" d="M125 496q0 51 19.5 95t52 76.5t76.5 52t96 19.5q51 0 95 -19.5t76.5 -52t52 -76.5t19.5 -95q0 -49 -19.5 -93.5t-52 -77t-76.5 -52t-95 -19.5t-95.5 19.5t-77 52t-52 76.5t-19.5 94z" />
<glyph unicode="&#x2026;" horiz-adv-x="1572" d="M96 143q0 68 48.5 117t115.5 49q68 0 117 -49t49 -117q0 -33 -13.5 -62.5t-36 -52t-53 -35.5t-63.5 -13q-35 0 -64.5 13t-51 35.5t-35 52.5t-13.5 62zM621 143q0 68 48 117t115 49q68 0 117 -49t49 -117q0 -33 -13 -62.5t-35.5 -52t-53.5 -35.5t-64 -13q-35 0 -64.5 13 t-51 35.5t-34.5 52.5t-13 62zM1145 143q0 68 48 117t116 49t117 -49t49 -117q0 -33 -13.5 -62.5t-36 -52t-53.5 -35.5t-63 -13q-35 0 -65 13t-51.5 35.5t-34.5 52.5t-13 62z" />
<glyph unicode="&#x202f;" horiz-adv-x="368" />
<glyph unicode="&#x2039;" horiz-adv-x="690" d="M61 498l328 362h240l-328 -362l328 -369h-240z" />
<glyph unicode="&#x203a;" horiz-adv-x="690" d="M61 129l328 369l-328 362h240l328 -362l-328 -369h-240z" />
<glyph unicode="&#x205f;" horiz-adv-x="460" />
<glyph unicode="&#x20ac;" horiz-adv-x="1452" d="M43 463v155h76q-2 16 -2 32v32v34.5t2 35.5h-76v153h107q33 111 99 200t156.5 152.5t202 97.5t236.5 34q113 0 203 -29t159.5 -75t120.5 -106.5t88 -123.5l-250 -123q-43 84 -129 141t-192 57q-127 0 -225.5 -60t-151.5 -165h502v-153h-549q-4 -16 -4 -35v-35t1 -31.5 t3 -32.5h549v-155h-504q53 -104 151.5 -167t227.5 -63q106 0 192 56.5t129 142.5l250 -121q-37 -63 -88 -123.5t-120.5 -107.5t-159.5 -76t-203 -29q-125 0 -236.5 35t-203 98.5t-158 153.5t-99.5 201h-104z" />
<glyph unicode="&#x2122;" horiz-adv-x="929" d="M35 1313v53h311v-53h-127v-398h-57v398h-127zM420 915v451h88l131 -328l131 328h88v-451h-57v373l-154 -373h-16l-154 373v-373h-57z" />
<glyph unicode="&#xe000;" horiz-adv-x="993" d="M0 0v993h993v-993h-993z" />
</font>
</defs></svg> 