<?xml  version="1.0" encoding="UTF-8"?>
<!DOCTYPE svg PUBLIC "-//W3C//DTD SVG 1.0//EN" "http://www.w3.org/TR/2001/REC-SVG-20010904/DTD/svg10.dtd" >
<svg xmlns="http://www.w3.org/2000/svg" >
<metadata>
<version>1.0</version>
<id><![CDATA[DIN 1451 W01 Mittelschrift]]></id>
<vendor>Monotype Imaging Inc.</vendor>
<credits>
<name>Fonts.com WebFonts</name>
<URL>http://webfonts.fonts.com</URL>
<role>Home of the Web fonts</role>
</credits>
<license>
<URL>http://webfonts.fonts.com/Legal</URL>
</license>
<copyright><![CDATA[Part of the digitally encoded machine readable outline data for producing the Typefaces provided is copyrighted © 2008 Linotype GmbH, www.linotype.com. All rights reserved. This software is the property of Linotype GmbH, and may not be reproduced, used, displayed, modified, disclosed or transferred without the express written approval of Linotype GmbH.  The digitally encoded machine readable software for producing the Typefaces licensed to you is copyrighted (c) 1990, 1992 Adobe Systems. All Rights Reserved. This software is the property of Adobe Systems Incorporated and its licensors, and may not be reproduced, used, displayed, modified, disclosed or transferred without the express written approval of Adobe. This typeface is original artwork of Linotype Design Studio. The design may be protected in certain jurisdictions.]]></copyright>
<trademark><![CDATA[Please refer to the Copyright section for the font trademark attribution notices.]]></trademark>
<licensee>
<name></name>
</licensee>
</metadata>
<defs >
<font horiz-adv-x="479" id="f8eacca5-c56e-4ca0-8b62-e9c7cd78def7">
<font-face font-family="DIN 1451 W01 Mittelschrift" panose-1="2 11 5 3 2 2 2 4 2 3" ascent="938" descent="-250" units-per-em="1000" alphabetic="0">
</font-face>
<missing-glyph horiz-adv-x="512" d="M222 117V184H278V117H222ZM225 234L223 251Q223 307 236 332Q243 345 254 359T283 390Q314 421 323 438T332 474Q332 510 310 534T256 559Q225 559 203 537T174 464L124 472Q131 544 168 576T259 609Q313 609 348 574T383 478Q383 446 371 420T320 358Q283 325 277 306Q271 286 271 234H225ZM462 50V667H50V50H462ZM512 718V0H0V718H512Z"  />

<glyph unicode="&#xA;" />
<glyph unicode="&#xD;" horiz-adv-x="0" />
<glyph unicode=" " horiz-adv-x="240" />
<glyph unicode="!" horiz-adv-x="258" d="M65 712H193L154 176H103L65 712ZM78 102H180V0H78V102Z"  />
<glyph unicode="&quot;" horiz-adv-x="333" d="M62 712H140V536H62V712ZM193 712H271V536H193V712Z"  />
<glyph unicode="#" horiz-adv-x="480" d="M300 428H202L180 284H278L300 428ZM271 218H173L142 0H64L95 218H3V284H102L124 428H32V494H131L162 712H240L209 494H307L338 712H416L385 494H477V428H378L356 284H448V218H349L318 0H240L271 218Z"  />
<glyph unicode="$" horiz-adv-x="480" d="M78 163Q104 134 135 115T214 90V313Q120 335 80 385T40 513Q40 601 86 654T214 718V788H265V718Q315 717 354 701T434 651L376 575Q353 596 324 608T265 622V409Q361 390 404 335T448 203Q448 161 435 126T398 63T340 18T265 -6V-114H214V-6H211Q154 -6 101 21T8 89L78 163ZM214 622Q185 617 164 592T142 515Q142 480 157 458T214 421V622ZM265 90Q311 101 328 130T346 204Q346 238 330 265T265 301V90Z"  />
<glyph unicode="%" horiz-adv-x="519" d="M337 100Q337 51 374 51Q411 51 411 100V154Q411 203 374 203Q337 203 337 154V100ZM280 161Q280 187 288 206T309 237T339 254T374 260Q392 260 409 255T439 237T460 206T468 161V93Q468 67 460 48T439 17T409 0T374 -6Q356 -6 339 -1T309 17T288 48T280 93V161ZM51 619Q51 645 59 664T80 695T110 712T145 718Q163 718 180 713T210 695T231 664T239 619V551Q239 525 231 506T210 475T180 458T145 452Q127 452 110 457T80 475T59 506T51 551V619ZM108 558Q108 509 145 509Q182 509 182 558V612Q182 661 145 661Q108 661 108 612V558ZM395 712H461L124 0H58L395 712Z"  />
<glyph unicode="&amp;" horiz-adv-x="648" d="M206 560Q206 538 221 514T259 469Q309 488 327 510T346 560Q346 588 326 608T276 628Q246 628 226 608T206 560ZM463 72Q418 39 370 17T264 -6Q214 -6 173 12T102 60T56 129T39 213Q39 276 74 331T175 421Q149 450 133 485T116 556Q116 588 127 617T160 669T210 705T276 718Q312 718 341 705T392 670T424 618T436 556Q436 506 409 467T317 397L469 214Q491 242 505 271T531 333L622 297Q606 258 583 217T529 143L649 0H529L463 72ZM232 353Q178 324 154 288T129 214Q129 186 139 162T168 121T210 94T261 84Q294 84 331 98T404 147L232 353Z"  />
<glyph unicode="&apos;" horiz-adv-x="240" d="M81 712H159V536H81V712Z"  />
<glyph unicode="(" horiz-adv-x="278" d="M218 -102Q179 -58 149 -9T100 93T70 200T60 305Q60 356 70 409T99 515T149 618T218 712H258Q213 617 188 516T162 305Q162 196 187 95T258 -102H218Z"  />
<glyph unicode=")" horiz-adv-x="278" d="M60 712Q99 668 129 618T178 516T208 410T218 305Q218 254 208 200T179 94T129 -8T60 -102H20Q65 -7 90 94T116 305Q116 414 91 515T20 712H60Z"  />
<glyph unicode="*" horiz-adv-x="352" d="M146 513L66 467L36 513L119 564L36 615L66 661L146 615V712H206V615L286 661L316 615L233 564L316 513L286 467L206 513V416H146V513Z"  />
<glyph unicode="+" horiz-adv-x="600" d="M261 506H339V292H553V214H339V0H261V214H47V292H261V506Z"  />
<glyph unicode="&#x2c;" horiz-adv-x="240" d="M69 102H171V0L69 -74V102Z"  />
<glyph unicode="-" horiz-adv-x="407" d="M53 328H354V226H53V328Z"  />
<glyph unicode="." horiz-adv-x="240" d="M69 102H171V0H69V102Z"  />
<glyph unicode="/" horiz-adv-x="333" d="M247 718H325L86 -6H8L247 718Z"  />
<glyph unicode="0" horiz-adv-x="480" d="M340 507Q340 559 313 587T240 616Q195 616 168 588T140 507V205Q140 153 167 125T240 96Q285 96 312 124T340 205V507ZM38 513Q38 562 55 600T100 664T164 704T240 718Q279 718 315 705T380 665T425 600T442 513V199Q442 150 425 112T380 48T316 8T240 -6Q201 -6 165 7T100 47T55 112T38 199V513Z"  />
<glyph unicode="1" horiz-adv-x="480" d="M194 604L93 530V638L194 712H296V0H194V604Z"  />
<glyph unicode="2" horiz-adv-x="480" d="M32 96L310 444Q327 465 331 482T336 515Q336 534 330 552T310 584T279 607T238 616Q196 616 167 589T134 513H32Q32 556 48 593T91 659T154 702T230 718Q275 718 313 702T378 659T422 594T438 514Q438 479 428 448T395 389L166 102H438V0H32V96Z"  />
<glyph unicode="3" horiz-adv-x="480" d="M176 412H211Q262 412 291 440T321 513Q321 535 313 553T291 586T257 608T217 616Q185 616 156 595T119 530H17Q20 568 37 602T80 662T141 703T213 718Q261 718 299 701T365 656T408 591T423 515Q423 474 408 436T347 368Q392 339 411 298T431 212Q431 162 415 122T369 54T300 10T215 -6Q179 -6 146 6T85 41T39 98T13 177H115Q129 140 153 118T221 96Q242 96 261 104T296 126T320 162T329 209Q329 263 297 292T219 322H176V412Z"  />
<glyph unicode="4" horiz-adv-x="480" d="M12 202L250 712H364L123 202H309V407H411V202H468V106H411V0H309V106H12V202Z"  />
<glyph unicode="5" horiz-adv-x="480" d="M50 712H429V610H146V449Q195 488 260 488Q301 488 334 473T387 436Q402 420 412 405T429 367T439 315T443 241Q443 205 441 180T433 135T419 100T399 70Q377 42 338 18T245 -6Q210 -6 176 4T112 36T63 94T37 179H139Q147 141 172 119T241 96Q278 96 298 110T328 147T339 197T341 249Q341 279 337 304T321 347T290 375T238 386Q209 386 187 373T146 327H50V712Z"  />
<glyph unicode="6" horiz-adv-x="480" d="M254 712H368L218 411H220Q231 416 246 418T274 420Q308 420 338 409T392 373T430 312T444 222Q444 161 426 118T379 47T312 7T234 -6Q197 -6 162 9T98 52T53 120T36 211Q36 276 63 330L254 712ZM240 330Q198 330 168 302T138 213Q138 153 165 125T240 96Q258 96 276 102T308 123T332 159T342 213Q342 273 312 301T240 330Z"  />
<glyph unicode="7" horiz-adv-x="480" d="M51 712H456V610L215 0H101L342 610H153V507H51V712Z"  />
<glyph unicode="8" horiz-adv-x="480" d="M138 514Q138 489 146 470T169 438T202 419T240 412Q259 412 277 418T310 438T333 470T342 514Q342 539 334 558T311 590T278 609T240 616Q220 616 202 610T170 590T147 558T138 514ZM23 208Q23 259 44 300T107 368Q75 397 56 431T36 512Q36 555 51 592T94 658T159 702T240 718Q283 718 320 702T385 658T428 593T444 512Q444 465 425 431T373 368Q414 341 435 300T457 208Q457 161 440 122T393 54T324 10T240 -6Q196 -6 157 9T88 53T41 121T23 208ZM125 209Q125 185 134 164T159 128T196 105T240 96Q263 96 284 104T320 128T345 164T355 209Q355 233 346 254T321 290T284 313T240 322Q217 322 196 314T160 290T135 254T125 209Z"  />
<glyph unicode="9" horiz-adv-x="480" d="M226 0H112L262 301H260Q249 296 234 294T206 292Q172 292 142 303T88 339T50 400T36 490Q36 551 54 594T101 665T168 705T246 718Q283 718 318 703T382 660T427 592T444 501Q444 436 417 382L226 0ZM240 382Q282 382 312 410T342 499Q342 559 315 587T240 616Q222 616 204 610T172 589T148 553T138 499Q138 439 168 411T240 382Z"  />
<glyph unicode=":" horiz-adv-x="240" d="M69 329H171V227H69V329ZM69 102H171V0H69V102Z"  />
<glyph unicode=";" horiz-adv-x="240" d="M69 102H171V0L69 -74V102ZM69 329H171V227H69V329Z"  />
<glyph unicode="&lt;" horiz-adv-x="600" d="M47 289L553 514V430L137 253L553 76V-8L47 217V289Z"  />
<glyph unicode="=" horiz-adv-x="600" d="M47 392H553V314H47V392ZM47 192H553V114H47V192Z"  />
<glyph unicode="&gt;" horiz-adv-x="600" d="M47 76L463 253L47 430V514L553 289V217L47 -8V76Z"  />
<glyph unicode="?" horiz-adv-x="463" d="M169 241Q169 270 173 292T195 337L284 461Q309 495 309 527Q309 548 301 564T281 592T253 610T223 616Q185 616 158 592T131 507H29V527Q29 567 44 602T86 662T146 703T218 718Q255 718 290 705T352 666T395 606T411 526Q411 494 403 468T379 421L288 296Q277 282 274 268T271 233V176H169V241ZM169 102H271V0H169V102Z"  />
<glyph unicode="@" horiz-adv-x="800" d="M262 298Q262 257 286 231T348 205Q381 205 409 226T459 278T492 345T504 410Q504 427 498 443T481 471T456 491T423 499Q388 499 359 479T308 429T274 364T262 298ZM550 538H616L536 279Q531 265 529 252T526 228Q526 215 531 207T549 199Q570 199 594 219T638 270T671 340T684 414Q684 463 665 504T610 576T525 623T417 640Q346 640 290 617T196 555T137 465T116 358Q116 298 137 246T199 155T295 94T422 72Q512 72 571 96T674 165H740Q689 84 603 39T410 -6Q330 -6 262 21T145 96T67 212T38 360Q38 439 66 504T145 617T264 691T412 718Q484 718 547 696T659 634T734 540T762 419Q762 356 739 305T680 217T606 160T534 139Q464 139 454 203H452Q442 191 431 180T405 159T371 145T326 139Q295 139 269 151T224 184T195 232T184 291Q184 340 201 389T249 477T325 540T423 565Q458 565 488 547T536 487H538L550 538Z"  />
<glyph unicode="A" horiz-adv-x="610" d="M409 255L306 566H304L201 255H409ZM440 159H170L115 0H1L260 712H350L609 0H495L440 159Z"  />
<glyph unicode="B" horiz-adv-x="610" d="M75 712H351Q403 712 442 698T508 659T548 598T562 521Q562 499 558 478T541 437T509 400T457 368V366Q486 359 508 343T544 305T566 256T573 202Q573 156 557 119T514 55T451 15T375 0H75V712ZM183 316V102H349Q379 102 401 111T437 134T458 168T465 209Q465 230 458 249T437 283T401 307T349 316H183ZM183 616V412H339Q398 412 426 442T454 514Q454 535 447 553T426 586T390 608T339 616H183Z"  />
<glyph unicode="C" horiz-adv-x="556" d="M555 199Q544 149 521 111T465 47T392 8T305 -6Q263 -6 228 5T164 35T116 76T82 122Q73 138 68 152T58 191T53 253T51 356Q51 420 52 458T58 521T67 559T82 590Q95 613 115 636T164 677T227 706T305 718Q356 718 398 702T472 656T526 589T555 507H441Q435 528 423 546T393 579T353 601T305 610Q267 610 240 595T195 558Q184 544 178 532T167 498T161 444T159 356Q159 301 160 268T166 214T177 180T195 154Q212 133 239 118T305 102Q396 102 441 199H555Z"  />
<glyph unicode="D" horiz-adv-x="630" d="M75 712H324Q395 712 450 682T541 592Q554 569 561 551T573 508T578 448T579 356Q579 296 577 259T571 196T559 154T539 118Q507 68 452 34T317 0H75V712ZM183 102H312Q402 102 444 164Q453 177 458 189T466 221T470 271T471 352Q471 400 470 431T466 484T457 520T439 550Q414 584 385 597T312 610H183V102Z"  />
<glyph unicode="E" horiz-adv-x="556" d="M75 712H530V610H183V407H479V311H183V102H530V0H75V712Z"  />
<glyph unicode="F" horiz-adv-x="537" d="M75 712H530V610H183V400H479V304H183V0H75V712Z"  />
<glyph unicode="G" horiz-adv-x="610" d="M306 392H559V247Q559 194 540 148T486 68T405 14T305 -6Q263 -6 228 5T164 35T116 76T82 122Q73 138 68 152T58 191T53 253T51 356Q51 420 52 458T58 521T67 559T82 590Q95 613 115 636T164 677T227 706T305 718Q356 718 398 702T472 656T526 589T555 507H441Q435 528 423 546T393 579T353 601T305 610Q267 610 240 595T195 558Q184 544 178 532T167 498T161 444T159 356Q159 301 160 268T166 214T177 180T195 154Q212 133 239 118T305 102Q336 102 362 113T408 144T439 192T451 253V290H306V392Z"  />
<glyph unicode="H" horiz-adv-x="648" d="M465 311H183V0H75V712H183V407H465V712H573V0H465V311Z"  />
<glyph unicode="I" horiz-adv-x="258" d="M75 712H183V0H75V712Z"  />
<glyph unicode="J" horiz-adv-x="481" d="M88 150Q102 130 126 116T183 102Q203 102 225 108T265 130T294 171T306 232V712H414V221Q414 168 395 126T343 54T270 10T186 -6Q124 -6 78 19T1 87L88 150Z"  />
<glyph unicode="K" horiz-adv-x="630" d="M75 712H183V345H185L478 712H606L378 431L630 0H502L308 348L183 217V0H75V712Z"  />
<glyph unicode="L" horiz-adv-x="556" d="M75 712H183V102H530V0H75V712Z"  />
<glyph unicode="M" horiz-adv-x="758" d="M75 712H177L381 248L581 712H683V0H575V444H573L424 102H334L185 444H183V0H75V712Z"  />
<glyph unicode="N" horiz-adv-x="684" d="M75 712H177L499 206H501V712H609V0H507L185 506H183V0H75V712Z"  />
<glyph unicode="O" horiz-adv-x="610" d="M51 356Q51 420 52 458T58 521T67 559T82 590Q95 613 115 636T164 677T227 706T305 718Q347 718 382 707T446 677T494 636T528 590Q537 574 542 560T552 521T557 459T559 356Q559 292 558 254T552 191T543 153T528 122Q515 99 495 76T446 35T383 6T305 -6Q263 -6 228 5T164 35T116 76T82 122Q73 138 68 152T58 191T53 253T51 356ZM159 356Q159 301 160 268T166 214T177 180T195 154Q212 133 239 118T305 102Q343 102 370 117T415 154Q425 167 432 180T443 214T449 268T451 356Q451 411 450 444T444 498T432 531T415 558Q398 579 371 594T305 610Q267 610 240 595T195 558Q184 544 178 532T167 498T161 444T159 356Z"  />
<glyph unicode="P" horiz-adv-x="593" d="M183 380H343Q373 380 395 390T432 416T454 453T462 495Q462 531 449 553T416 590Q398 602 380 606T339 610H183V380ZM75 712H333Q375 712 413 703T493 662Q525 637 547 594T570 492Q570 454 556 416T513 347T444 297T347 278H183V0H75V712Z"  />
<glyph unicode="Q" horiz-adv-x="610" d="M294 199L358 273L441 207Q447 227 449 261T451 356Q451 411 450 444T444 498T432 531T415 558Q398 579 371 594T305 610Q267 610 240 595T195 558Q184 544 178 532T167 498T161 444T159 356Q159 301 160 268T166 214T177 180T195 154Q212 133 239 118T305 102Q330 102 350 109T385 127L294 199ZM473 56Q441 29 400 12T305 -6Q263 -6 228 5T164 35T116 76T82 122Q73 138 68 152T58 191T53 253T51 356Q51 420 52 458T58 521T67 559T82 590Q95 613 115 636T164 677T227 706T305 718Q347 718 382 707T446 677T494 636T528 590Q537 574 542 560T552 521T557 459T559 356Q559 298 558 262T553 201T545 162T533 133L627 58L563 -16L473 56Z"  />
<glyph unicode="R" horiz-adv-x="610" d="M183 400H346Q376 400 399 409T437 434T459 470T467 513Q467 541 458 561T431 594Q416 605 398 610T352 616H183V400ZM75 712H353Q398 712 433 701T498 665Q528 639 548 600T569 513Q569 444 533 392T431 316L596 0H468L321 304H183V0H75V712Z"  />
<glyph unicode="S" horiz-adv-x="574" d="M84 173Q125 141 177 122T286 102Q352 102 389 129T427 201Q427 239 405 265T334 297L240 310Q147 323 99 377T51 510Q51 556 66 594T112 659T185 702T283 718Q349 718 407 697T514 644L454 555Q415 580 371 595T278 610Q228 610 194 585T159 508Q159 478 182 452T260 417Q274 415 294 412T340 406Q390 400 426 381T487 334T523 272T535 201Q535 102 468 48T285 -6Q206 -6 138 18T13 92L84 173Z"  />
<glyph unicode="T" horiz-adv-x="500" d="M196 616H1V712H499V616H304V0H196V616Z"  />
<glyph unicode="U" horiz-adv-x="630" d="M62 712H170V253Q170 216 181 188T211 141T257 112T315 102Q346 102 372 112T418 141T449 188T460 253V712H568V241Q568 185 549 140T495 62T414 12T315 -6Q262 -6 216 12T136 62T82 139T62 241V712Z"  />
<glyph unicode="V" horiz-adv-x="556" d="M1 712H115L277 170H279L441 712H555L320 0H236L1 712Z"  />
<glyph unicode="W" horiz-adv-x="832" d="M11 712H125L237 206H239L377 712H455L593 206H595L707 712H821L643 0H553L417 513H415L279 0H189L11 712Z"  />
<glyph unicode="X" horiz-adv-x="536" d="M268 265L112 0H-10L208 365L4 712H126L268 465L410 712H532L328 365L546 0H424L268 265Z"  />
<glyph unicode="Y" horiz-adv-x="500" d="M199 293L-15 712H99L250 396L401 712H515L301 293V0H199V293Z"  />
<glyph unicode="Z" horiz-adv-x="519" d="M32 90L355 616H45V712H487V631L163 102H487V0H32V90Z"  />
<glyph unicode="[" horiz-adv-x="278" d="M72 712H257V646H162V-36H257V-102H72V712Z"  />
<glyph unicode="\" horiz-adv-x="333" d="M8 718H86L325 -6H247L8 718Z"  />
<glyph unicode="]" horiz-adv-x="278" d="M116 646H21V712H206V-102H21V-36H116V646Z"  />
<glyph unicode="^" horiz-adv-x="600" d="M267 712H333L550 283H466L300 628L134 283H50L267 712Z"  />
<glyph unicode="_" horiz-adv-x="500" d="M0 -75H500V-125H0V-75Z"  />
<glyph unicode="`" horiz-adv-x="240" d="M-29 718H105L197 572H113L-29 718Z"  />
<glyph unicode="a" horiz-adv-x="500" d="M332 45H330Q314 19 286 7T205 -6Q163 -6 130 6T73 38T38 87T26 149Q26 179 36 206T67 254T119 287T191 299H332V352Q332 388 308 402T228 417Q188 417 167 409T132 378L52 439Q81 480 123 496T223 513Q270 513 309 505T375 477T418 425T434 346V0H332V45ZM332 215H210Q165 215 144 199T122 154Q122 128 144 109T218 90Q250 90 271 92T306 104T326 130T332 178V215Z"  />
<glyph unicode="b" horiz-adv-x="519" d="M66 712H168V453Q197 480 228 496T299 513Q346 513 379 495T435 447Q445 433 452 419T463 384T469 331T471 254Q471 207 470 176T464 124T452 88T435 60Q413 31 380 13T299 -6Q260 -6 226 10T168 53V0H66V712ZM268 411Q232 411 212 397T183 360T171 309T168 254Q168 226 170 198T182 148T212 111T268 96Q304 96 324 109T354 145T366 196T369 254Q369 283 367 311T355 362T325 397T268 411Z"  />
<glyph unicode="c" horiz-adv-x="444" d="M439 82Q406 44 361 19T257 -6Q213 -6 172 8T98 54T47 134T27 253Q27 323 46 372T98 452T171 498T257 513Q315 513 360 488T439 425L364 358Q345 381 319 396T261 411Q198 411 164 374T129 253Q129 170 163 133T261 96Q293 96 319 111T364 149L439 82Z"  />
<glyph unicode="d" horiz-adv-x="519" d="M369 53Q345 27 311 11T238 -6Q191 -6 158 12T102 60Q91 73 85 87T74 123T68 176T66 254Q66 300 67 331T73 383T84 419T102 447Q124 476 157 494T238 513Q277 513 308 497T369 453V712H471V0H369V53ZM269 411Q233 411 213 398T183 362T171 312T168 254Q168 224 170 196T182 146T212 110T269 96Q305 96 325 110T354 147T366 198T369 254Q369 281 367 309T355 359T325 396T269 411Z"  />
<glyph unicode="e" horiz-adv-x="500" d="M143 215Q143 152 177 121T264 90Q293 90 322 103T375 139L449 76Q411 32 364 13T266 -6Q227 -6 187 5T115 45T62 124T41 252Q41 326 60 376T109 456T176 500T250 513Q292 513 330 498T396 455T442 388T459 299V215H143ZM357 299Q355 357 325 387T250 417Q205 417 175 387T143 299H357Z"  />
<glyph unicode="f" horiz-adv-x="278" d="M82 429H31V507H82V574Q82 610 92 636T121 679T165 704T220 712H286V616H228Q203 616 194 607T184 574V507H286V429H184V0H82V429Z"  />
<glyph unicode="g" horiz-adv-x="519" d="M351 53Q327 27 293 11T220 -6Q170 -6 137 14T86 56Q75 70 68 83T57 116T50 168T48 253Q48 306 50 338T56 390T68 424T86 451Q103 473 136 493T220 513Q259 513 290 498T351 453V507H453V12Q453 -45 435 -87T387 -156T316 -197T233 -211Q184 -211 138 -188T57 -126L136 -63Q155 -82 180 -95T235 -109Q286 -109 318 -81T351 1V53ZM150 253Q150 223 150 204T153 173T159 152T170 135Q181 121 200 109T251 96Q281 96 300 108T331 135Q338 144 342 152T348 172T350 204T351 253Q351 284 351 303T348 334T342 355T331 372Q320 386 301 398T251 411Q220 411 201 399T170 372Q163 363 159 355T153 335T151 303T150 253Z"  />
<glyph unicode="h" horiz-adv-x="537" d="M66 712H168V453H170Q194 483 227 498T302 513Q332 513 362 502T416 468T455 413T471 337V0H369V302Q369 354 341 382T269 411Q225 411 197 383T168 302V0H66V712Z"  />
<glyph unicode="i" horiz-adv-x="240" d="M69 507H171V0H69V507ZM69 712H171V610H69V712Z"  />
<glyph unicode="j" horiz-adv-x="258" d="M79 507H181V-63Q181 -95 170 -121T140 -166T93 -195T33 -205H-7V-109H22Q48 -109 63 -97T79 -55V507ZM79 712H181V610H79V712Z"  />
<glyph unicode="k" horiz-adv-x="519" d="M66 712H168V269H170L365 507H487L312 309L511 0H383L248 237L168 146V0H66V712Z"  />
<glyph unicode="l" horiz-adv-x="258" d="M66 712H168V131Q168 96 206 96H241V0H196Q168 0 145 6T104 27T76 65T66 123V712Z"  />
<glyph unicode="m" horiz-adv-x="852" d="M72 507H174V453H176Q200 483 233 498T308 513Q361 513 392 494T451 447Q483 482 521 497T611 513Q641 513 671 502T725 468T764 413T780 337V0H678V302Q678 354 650 382T578 411Q534 411 506 383T477 302V0H375V302Q375 354 347 382T275 411Q231 411 203 383T174 302V0H72V507Z"  />
<glyph unicode="n" horiz-adv-x="537" d="M66 507H168V453H170Q194 483 227 498T302 513Q332 513 362 502T416 468T455 413T471 337V0H369V302Q369 354 341 382T269 411Q225 411 197 383T168 302V0H66V507Z"  />
<glyph unicode="o" horiz-adv-x="500" d="M41 254Q41 295 44 324T54 376T71 415T96 448Q106 460 120 471T154 492T196 507T250 513Q280 513 303 507T346 492T379 472T404 448Q419 432 429 415T446 376T456 325T459 254Q459 213 456 184T446 132T429 92T404 59Q393 47 379 36T346 15T304 0T250 -6Q220 -6 197 0T154 15T121 35T96 59Q81 75 71 92T54 131T44 183T41 254ZM357 253Q357 281 356 299T352 331T344 354T332 374Q321 390 299 400T250 411Q224 411 202 401T168 374Q161 364 156 354T148 331T144 300T143 254Q143 226 144 208T148 176T156 153T168 133Q179 117 201 107T250 96Q276 96 298 106T332 133Q339 143 344 153T352 176T356 207T357 253Z"  />
<glyph unicode="p" horiz-adv-x="519" d="M66 507H168V454Q192 480 226 496T299 513Q346 513 379 495T435 447Q445 433 452 419T463 384T469 331T471 253Q471 206 470 176T464 124T452 88T435 60Q413 31 380 13T299 -6Q260 -6 229 10T168 54V-205H66V507ZM268 96Q304 96 324 109T354 145T366 195T369 253Q369 283 367 311T355 361T325 397T268 411Q232 411 212 397T183 360T171 309T168 253Q168 226 170 198T182 148T212 111T268 96Z"  />
<glyph unicode="q" horiz-adv-x="519" d="M351 54Q322 27 291 11T220 -6Q173 -6 140 12T84 60Q73 73 67 87T56 123T50 175T48 253Q48 300 49 331T55 383T66 419T84 447Q106 476 139 494T220 513Q259 513 293 497T351 454V507H453V-205H351V54ZM251 96Q287 96 307 110T336 147T348 198T351 253Q351 281 349 309T337 359T307 396T251 411Q215 411 195 398T165 362T153 311T150 253Q150 224 152 196T164 145T194 110T251 96Z"  />
<glyph unicode="r" horiz-adv-x="389" d="M66 507H168V453H170Q194 483 227 498T302 513Q333 513 359 503T408 474L334 386Q316 400 302 405T267 411Q248 411 231 405T199 386T177 353T168 305V0H66V507Z"  />
<glyph unicode="s" horiz-adv-x="480" d="M81 155Q114 123 152 107T241 90Q285 90 313 106T341 155Q341 182 323 192T279 205L189 213Q126 218 85 254T43 357Q43 396 57 425T97 473T157 503T232 513Q299 513 346 495T431 444L368 370Q338 391 306 404T232 417Q183 417 164 400T145 356Q145 339 159 325T212 308L296 302Q335 299 363 287T409 254T435 207T443 150Q443 113 427 84T383 35T316 5T233 -6Q171 -6 115 16T10 85L81 155Z"  />
<glyph unicode="t" horiz-adv-x="278" d="M72 661H174V507H248V429H174V134Q174 113 182 105T210 96H248V0H195Q141 0 107 32T72 125V429H21V507H72V661Z"  />
<glyph unicode="u" horiz-adv-x="537" d="M66 507H168V205Q168 153 196 125T269 96Q312 96 340 124T369 205V507H471V0H369V54H367Q343 24 310 9T236 -6Q206 -6 176 5T121 39T82 94T66 170V507Z"  />
<glyph unicode="v" horiz-adv-x="444" d="M-6 507H102L221 152H223L342 507H450L264 0H180L-6 507Z"  />
<glyph unicode="w" horiz-adv-x="722" d="M362 355H360L254 0H164L2 507H110L207 152H209L324 507H398L513 152H515L612 507H720L558 0H468L362 355Z"  />
<glyph unicode="x" horiz-adv-x="480" d="M17 507H139L240 343L341 507H463L297 259L470 0H348L240 169L132 0H10L183 259L17 507Z"  />
<glyph unicode="y" horiz-adv-x="444" d="M-7 507H101L221 152H223L343 507H451L233 -105Q222 -134 208 -153T175 -184T135 -200T90 -205H56V-109H86Q106 -109 122 -99T147 -65L175 20L-7 507Z"  />
<glyph unicode="z" horiz-adv-x="444" d="M33 81L287 417H47V507H411V426L157 96H411V0H33V81Z"  />
<glyph unicode="{" horiz-adv-x="278" d="M14 338Q33 338 47 347T72 373T87 412T92 458V601Q92 654 121 683T190 712H275V646H226Q202 646 192 621T182 563V434Q182 401 172 378T149 339T123 316T104 306V304Q110 302 123 295T149 272T172 233T182 175V47Q182 15 192 -10T226 -36H275V-102H190Q150 -102 121 -73T92 9V150Q92 201 72 236T14 272V338Z"  />
<glyph unicode="|" horiz-adv-x="222" d="M72 750H150V-250H72V750Z"  />
<glyph unicode="}" horiz-adv-x="278" d="M3 -36H52Q76 -36 86 -11T96 47V176Q96 209 106 232T129 271T155 294T174 304V306Q168 308 155 315T129 338T106 376T96 435V563Q96 595 86 620T52 646H3V712H88Q128 712 157 683T186 601V460Q186 409 206 374T264 338V272Q245 272 231 263T206 237T191 198T186 152V9Q186 -44 157 -73T88 -102H3V-36Z"  />
<glyph unicode="~" horiz-adv-x="600" d="M69 239Q77 255 88 270T115 298T149 318T194 326Q220 326 249 316T310 291Q336 279 361 268T407 257Q422 257 434 263T457 280T477 303T495 329L531 266Q523 250 512 235T485 207T451 187T406 179Q380 179 352 189T295 212Q267 224 240 236T193 248Q178 248 166 242T143 225T123 203T105 177L69 239Z"  />
<glyph unicode="&#xA0;" horiz-adv-x="240" />
<glyph unicode="&#xA1;" horiz-adv-x="258" d="M104 331H155L193 -205H65L104 331ZM78 507H180V405H78V507Z"  />
<glyph unicode="&#xA2;" horiz-adv-x="480" d="M243 411Q192 403 164 366T136 253Q136 178 164 141T243 96V411ZM243 -6Q202 -3 165 13T98 61T52 140T34 253Q34 319 51 366T98 445T164 493T243 513V604H283V513Q337 507 377 484T446 425L371 358Q355 378 334 391T283 411V96Q312 102 333 115T371 149L446 82Q417 47 377 24T283 -6V-97H243V-6Z"  />
<glyph unicode="&#xA3;" horiz-adv-x="480" d="M29 366H84Q64 408 57 443T49 516Q49 563 63 600T102 664T161 704T235 718Q285 718 322 703T384 661T421 596T433 513H331Q329 567 306 594T242 622Q201 622 176 594T151 514Q151 476 161 436T186 366H347V300H211Q218 277 223 255T229 212Q229 184 221 158T198 104Q208 103 222 101T252 96T283 92T310 90Q332 90 358 97T407 123L470 44Q435 15 397 5T325 -6Q311 -6 285 -3T231 4T175 11T130 14Q110 14 88 10T42 -6V90Q59 100 77 104T115 110Q123 130 128 153T133 195Q133 215 126 243T109 300H29V366Z"  />
<glyph unicode="&#xA4;" horiz-adv-x="480" d="M64 233Q47 253 37 286T26 356Q26 393 36 425T64 480L15 529L68 581L117 532Q138 549 171 560T241 571Q278 571 309 561T364 533L413 581L465 529L417 480Q434 458 445 426T456 356Q456 318 445 286T417 232L465 183L413 131L364 180Q341 163 310 152T241 141Q204 141 171 152T117 180L68 131L15 183L64 233ZM104 356Q104 290 141 252T241 213Q303 213 340 251T378 356Q378 422 341 460T241 499Q179 499 142 461T104 356Z"  />
<glyph unicode="&#xA5;" horiz-adv-x="480" d="M192 160H42V226H192V293L178 320H42V386H146L-14 712H94L240 396L386 712H494L334 386H438V320H302L288 293V226H438V160H288V0H192V160Z"  />
<glyph unicode="&#xA6;" horiz-adv-x="222" d="M72 175H150V-175H72V175ZM72 675H150V325H72V675Z"  />
<glyph unicode="&#xA7;" horiz-adv-x="480" d="M156 -10Q158 -48 179 -72T242 -96Q276 -96 298 -76T321 -18Q321 1 317 13T302 34T272 52T220 72L182 85Q141 99 115 115T73 153T52 202T46 269Q46 303 50 328T64 373T94 408T144 437Q106 458 92 486T78 556Q78 591 90 620T125 671T176 705T240 717Q273 717 303 707T356 675T392 622T406 545H316Q316 580 297 603T240 627Q202 627 185 607T168 564Q168 547 173 536T190 516T222 499T271 482Q312 469 342 455T393 419T424 364T434 281Q434 251 431 228T418 185T390 149T340 116Q385 97 401 64T417 -12Q417 -53 403 -86T363 -143T305 -179T235 -192Q201 -192 171 -180T117 -144T80 -86T66 -10H156ZM240 163Q269 163 287 174T315 199Q326 214 329 231T332 277Q332 312 328 328T311 359Q302 370 284 379T240 389Q215 389 197 380T169 359Q157 344 153 328T148 277Q148 249 151 232T165 199Q174 186 192 175T240 163Z"  />
<glyph unicode="&#xA8;" horiz-adv-x="240" d="M154 694H262V586H154V694ZM-22 694H86V586H-22V694Z"  />
<glyph unicode="&#xA9;" horiz-adv-x="800" d="M596 293Q582 213 533 169T413 125Q362 125 321 142T252 191T208 264T193 356Q193 407 207 449T249 522T317 570T410 587Q483 587 534 547T596 424H524Q516 464 485 489T411 515Q378 515 352 503T308 469T281 419T271 358Q271 327 281 298T309 247T354 211T413 197Q456 197 486 224T524 293H596ZM38 356Q38 431 66 497T144 612T259 689T400 718Q475 718 541 690T656 612T733 497T762 356Q762 281 734 215T656 100T541 23T400 -6Q325 -6 259 22T144 100T67 215T38 356ZM116 356Q116 293 137 240T197 148T287 88T400 66Q461 66 513 87T603 147T662 239T684 356Q684 419 663 472T603 564T513 624T400 646Q339 646 287 625T197 565T138 473T116 356Z"  />
<glyph unicode="&#xAA;" horiz-adv-x="325" d="M221 439H219Q199 406 139 406Q103 406 78 413T37 433T14 462T6 496Q6 538 33 566T109 595H221V613Q221 627 215 635T199 646T177 651T153 652Q134 652 122 651T102 647T88 640T79 629L27 673Q47 700 76 709T150 718Q220 718 259 696T299 618V410H221V439ZM221 535H141Q115 535 100 528T84 502Q84 485 104 479T146 472Q170 472 185 474T208 481T218 495T221 517V535Z"  />
<glyph unicode="&#xAB;" horiz-adv-x="480" d="M251 479V377L149 277L251 177V75L47 277L251 479ZM433 479V377L331 277L433 177V75L229 277L433 479Z"  />
<glyph unicode="&#xAC;" horiz-adv-x="600" d="M30 372H550V144H454V278H30V372Z"  />
<glyph unicode="&#xAD;" horiz-adv-x="407" d="M53 328H354V226H53V328Z"  />
<glyph unicode="&#xAE;" horiz-adv-x="800" d="M335 392H385Q407 392 427 393T462 401T487 418T496 451Q496 469 488 481T467 499T436 508T401 511H335V392ZM263 577H423Q496 577 532 547T568 451Q568 419 560 397T536 361T502 339T460 328L581 155H497L376 326H335V155H263V577ZM38 356Q38 431 66 497T144 612T259 689T400 718Q475 718 541 690T656 612T733 497T762 356Q762 281 734 215T656 100T541 23T400 -6Q325 -6 259 22T144 100T67 215T38 356ZM116 356Q116 293 137 240T197 148T287 88T400 66Q461 66 513 87T603 147T662 239T684 356Q684 419 663 472T603 564T513 624T400 646Q339 646 287 625T197 565T138 473T116 356Z"  />
<glyph unicode="&#xAF;" horiz-adv-x="240" d="M-24 673H264V607H-24V673Z"  />
<glyph unicode="&#xB0;" horiz-adv-x="400" d="M57 575Q57 605 68 631T98 676T144 707T200 718Q230 718 256 707T301 677T332 631T343 575Q343 545 332 519T302 474T256 443T200 432Q170 432 144 443T99 473T68 519T57 575ZM108 575Q108 536 134 510T200 483Q239 483 265 509T292 575Q292 614 266 640T200 667Q161 667 135 641T108 575Z"  />
<glyph unicode="&#xB1;" horiz-adv-x="600" d="M261 283H47V361H261V506H339V361H553V283H339V138H261V283ZM47 78H553V0H47V78Z"  />
<glyph unicode="&#xB2;" horiz-adv-x="360" d="M39 473L215 661Q226 672 231 683T237 709Q237 732 223 746T182 760Q156 760 142 744T126 698H42Q42 728 52 752T81 795T125 822T179 832Q210 832 236 823T281 796T310 757T321 709Q321 688 315 669T289 629L141 473H321V401H39V473Z"  />
<glyph unicode="&#xB3;" horiz-adv-x="360" d="M138 654H170Q203 654 222 668T242 709Q242 730 225 745T183 760Q160 760 141 747T116 708H32Q36 762 75 797T174 832Q211 832 239 822T286 794T316 755T326 710Q326 686 316 663T275 622Q306 605 318 580T331 528Q331 468 289 433T176 397Q117 397 78 426T29 517H113Q121 495 138 482T181 469Q210 469 228 484T247 526Q247 554 226 571T175 588H138V654Z"  />
<glyph unicode="&#xB4;" horiz-adv-x="240" d="M135 718H269L127 572H43L135 718Z"  />
<glyph unicode="&#xB5;" horiz-adv-x="561" d="M66 507H168V200Q168 148 196 122T269 96Q312 96 340 124T369 205V507H471V131Q471 96 509 96H544V0H487Q452 0 422 15T380 62H378Q348 25 311 10T236 -6Q199 -6 168 11V-205H66V507Z"  />
<glyph unicode="&#xB6;" horiz-adv-x="600" d="M258 334Q212 334 174 348T107 388T64 447T48 520Q48 617 109 664T276 712H486V-185H408V646H336V-185H258V334Z"  />
<glyph unicode="&#xB7;" horiz-adv-x="240" d="M53 292Q53 320 72 339T120 359Q148 359 167 340T187 292Q187 264 168 245T120 225Q92 225 73 244T53 292Z"  />
<glyph unicode="&#xB8;" horiz-adv-x="240" d="M156 0L112 -60H114Q123 -56 141 -56Q183 -56 206 -78T229 -132Q229 -156 219 -173T192 -203T153 -220T106 -226Q83 -226 57 -219T5 -202L23 -160Q40 -166 57 -170T93 -175Q119 -175 135 -166T151 -133Q151 -114 137 -105T102 -96Q83 -96 64 -107L42 -88L105 0H156Z"  />
<glyph unicode="&#xB9;" horiz-adv-x="360" d="M141 744L75 700V784L141 828H225V401H141V744Z"  />
<glyph unicode="&#xBA;" horiz-adv-x="325" d="M15 562Q15 585 16 601T21 630T31 653T47 674Q67 697 97 707T163 718Q198 718 228 708T278 674Q288 663 294 653T303 631T308 602T310 562Q310 539 309 523T304 494T294 471T278 450Q258 427 228 417T162 406Q127 406 97 416T47 450Q37 460 31 470T22 493T17 522T15 562ZM93 562Q93 535 95 522T108 496Q127 472 162 472Q198 472 217 496Q228 509 230 522T232 562Q232 589 230 602T217 628Q198 652 163 652Q127 652 108 628Q97 615 95 602T93 562Z"  />
<glyph unicode="&#xBB;" horiz-adv-x="480" d="M229 177L331 277L229 377V479L433 277L229 75V177ZM47 177L149 277L47 377V479L251 277L47 75V177Z"  />
<glyph unicode="&#xBC;" horiz-adv-x="800" d="M141 628L75 584V668L141 712H225V285H141V628ZM563 729H629L198 -17H132L563 729ZM463 136L618 427H702L550 136H659V246H743V136H776V64H743V0H659V64H463V136Z"  />
<glyph unicode="&#xBD;" horiz-adv-x="800" d="M141 628L75 584V668L141 712H225V285H141V628ZM563 729H629L198 -17H132L563 729ZM470 72L646 260Q657 271 662 282T668 308Q668 331 654 345T613 359Q587 359 573 343T557 297H473Q473 327 483 351T512 394T556 421T610 431Q641 431 667 422T712 395T741 356T752 308Q752 287 746 268T720 228L572 72H752V0H470V72Z"  />
<glyph unicode="&#xBE;" horiz-adv-x="800" d="M138 538H170Q203 538 222 552T242 593Q242 614 225 629T183 644Q160 644 141 631T116 592H32Q36 646 75 681T174 716Q211 716 239 706T286 678T316 639T326 594Q326 570 316 547T275 506Q306 489 318 464T331 412Q331 352 289 317T176 281Q117 281 78 310T29 401H113Q121 379 138 366T181 353Q210 353 228 368T247 410Q247 438 226 455T175 472H138V538ZM603 729H669L238 -17H172L603 729ZM463 136L618 427H702L550 136H659V246H743V136H776V64H743V0H659V64H463V136Z"  />
<glyph unicode="&#xBF;" horiz-adv-x="463" d="M192 331H294V266Q294 237 290 215T268 170L179 46Q154 12 154 -20Q154 -41 162 -57T182 -85T210 -103T240 -109Q278 -109 305 -85T332 0H434V-20Q434 -60 419 -95T377 -155T317 -196T245 -211Q208 -211 173 -198T111 -159T68 -99T52 -19Q52 13 60 39T84 86L175 211Q186 225 189 239T192 274V331ZM192 507H294V405H192V507Z"  />
<glyph unicode="&#xC0;" horiz-adv-x="610" d="M409 255L306 566H304L201 255H409ZM440 159H170L115 0H1L260 712H350L609 0H495L440 159ZM156 893H290L382 747H298L156 893Z"  />
<glyph unicode="&#xC1;" horiz-adv-x="610" d="M409 255L306 566H304L201 255H409ZM440 159H170L115 0H1L260 712H350L609 0H495L440 159ZM320 893H454L312 747H228L320 893Z"  />
<glyph unicode="&#xC2;" horiz-adv-x="610" d="M409 255L306 566H304L201 255H409ZM440 159H170L115 0H1L260 712H350L609 0H495L440 159ZM305 833L238 747H142L248 893H362L468 747H372L305 833Z"  />
<glyph unicode="&#xC3;" horiz-adv-x="610" d="M409 255L306 566H304L201 255H409ZM440 159H170L115 0H1L260 712H350L609 0H495L440 159ZM127 757Q134 809 164 841T240 873Q259 873 276 867T311 854T344 841T376 835Q390 835 404 843T423 879H483Q479 856 471 836T450 799T417 773T373 763Q354 763 335 769T297 781T261 794T229 800Q223 800 216 798T203 791T192 778T187 757H127Z"  />
<glyph unicode="&#xC4;" horiz-adv-x="610" d="M409 255L306 566H304L201 255H409ZM440 159H170L115 0H1L260 712H350L609 0H495L440 159ZM339 869H447V761H339V869ZM163 869H271V761H163V869Z"  />
<glyph unicode="&#xC5;" horiz-adv-x="610" d="M409 255L306 566H304L201 255H409ZM440 159H170L115 0H1L260 712H350L609 0H495L440 159ZM202 835Q202 856 210 875T232 908T265 930T305 938Q326 938 345 930T378 908T400 875T408 835Q408 814 400 795T378 762T345 740T305 732Q284 732 265 740T232 762T210 795T202 835ZM242 835Q242 809 260 791T305 772Q331 772 349 790T368 835Q368 861 350 879T305 898Q279 898 261 880T242 835Z"  />
<glyph unicode="&#xC6;" horiz-adv-x="907" d="M426 159H189L103 0H-11L376 712H881V610H534V407H830V311H534V102H881V0H426V159ZM426 255V616H424L240 255H426Z"  />
<glyph unicode="&#xC7;" horiz-adv-x="556" d="M290 -6Q251 -4 219 8T160 38T114 78T82 122Q73 138 68 152T58 191T53 253T51 356Q51 420 52 458T58 521T67 559T82 590Q95 613 115 636T164 677T227 706T305 718Q356 718 398 702T472 656T526 589T555 507H441Q435 528 423 546T393 579T353 601T305 610Q267 610 240 595T195 558Q184 544 178 532T167 498T161 444T159 356Q159 302 160 269T166 214T177 180T195 154Q212 133 239 118T305 102Q396 102 441 199H555Q536 108 480 58T342 -4L300 -60H302Q311 -56 329 -56Q371 -56 394 -78T417 -132Q417 -156 407 -173T380 -203T341 -220T294 -226Q271 -226 245 -219T193 -202L211 -160Q228 -166 245 -170T281 -175Q307 -175 323 -166T339 -133Q339 -114 325 -105T290 -96Q271 -96 252 -107L230 -88L290 -6Z"  />
<glyph unicode="&#xC8;" horiz-adv-x="556" d="M75 712H530V610H183V407H479V311H183V102H530V0H75V712ZM159 893H293L385 747H301L159 893Z"  />
<glyph unicode="&#xC9;" horiz-adv-x="556" d="M75 712H530V610H183V407H479V311H183V102H530V0H75V712ZM323 893H457L315 747H231L323 893Z"  />
<glyph unicode="&#xCA;" horiz-adv-x="556" d="M75 712H530V610H183V407H479V311H183V102H530V0H75V712ZM308 833L241 747H145L251 893H365L471 747H375L308 833Z"  />
<glyph unicode="&#xCB;" horiz-adv-x="556" d="M75 712H530V610H183V407H479V311H183V102H530V0H75V712ZM342 869H450V761H342V869ZM166 869H274V761H166V869Z"  />
<glyph unicode="&#xCC;" horiz-adv-x="258" d="M75 712H183V0H75V712ZM-20 893H114L206 747H122L-20 893Z"  />
<glyph unicode="&#xCD;" horiz-adv-x="258" d="M75 712H183V0H75V712ZM144 893H278L136 747H52L144 893Z"  />
<glyph unicode="&#xCE;" horiz-adv-x="258" d="M75 712H183V0H75V712ZM129 833L62 747H-34L72 893H186L292 747H196L129 833Z"  />
<glyph unicode="&#xCF;" horiz-adv-x="258" d="M75 712H183V0H75V712ZM163 869H271V761H163V869ZM-13 869H95V761H-13V869Z"  />
<glyph unicode="&#xD0;" horiz-adv-x="630" d="M75 311H0V407H75V712H324Q395 712 450 682T541 592Q554 569 561 551T573 508T578 448T579 356Q579 296 577 259T571 196T559 154T539 118Q507 68 452 34T317 0H75V311ZM319 407V311H183V102H312Q402 102 444 164Q453 177 458 189T466 221T470 271T471 352Q471 400 470 431T466 484T457 520T439 550Q414 584 385 597T312 610H183V407H319Z"  />
<glyph unicode="&#xD1;" horiz-adv-x="684" d="M75 712H177L499 206H501V712H609V0H507L185 506H183V0H75V712ZM164 757Q171 809 201 841T277 873Q296 873 313 867T348 854T381 841T413 835Q427 835 441 843T460 879H520Q516 856 508 836T487 799T454 773T410 763Q391 763 372 769T334 781T298 794T266 800Q260 800 253 798T240 791T229 778T224 757H164Z"  />
<glyph unicode="&#xD2;" horiz-adv-x="610" d="M51 356Q51 420 52 458T58 521T67 559T82 590Q95 613 115 636T164 677T227 706T305 718Q347 718 382 707T446 677T494 636T528 590Q537 574 542 560T552 521T557 459T559 356Q559 292 558 254T552 191T543 153T528 122Q515 99 495 76T446 35T383 6T305 -6Q263 -6 228 5T164 35T116 76T82 122Q73 138 68 152T58 191T53 253T51 356ZM159 356Q159 301 160 268T166 214T177 180T195 154Q212 133 239 118T305 102Q343 102 370 117T415 154Q425 167 432 180T443 214T449 268T451 356Q451 411 450 444T444 498T432 531T415 558Q398 579 371 594T305 610Q267 610 240 595T195 558Q184 544 178 532T167 498T161 444T159 356ZM156 893H290L382 747H298L156 893Z"  />
<glyph unicode="&#xD3;" horiz-adv-x="610" d="M51 356Q51 420 52 458T58 521T67 559T82 590Q95 613 115 636T164 677T227 706T305 718Q347 718 382 707T446 677T494 636T528 590Q537 574 542 560T552 521T557 459T559 356Q559 292 558 254T552 191T543 153T528 122Q515 99 495 76T446 35T383 6T305 -6Q263 -6 228 5T164 35T116 76T82 122Q73 138 68 152T58 191T53 253T51 356ZM159 356Q159 301 160 268T166 214T177 180T195 154Q212 133 239 118T305 102Q343 102 370 117T415 154Q425 167 432 180T443 214T449 268T451 356Q451 411 450 444T444 498T432 531T415 558Q398 579 371 594T305 610Q267 610 240 595T195 558Q184 544 178 532T167 498T161 444T159 356ZM320 893H454L312 747H228L320 893Z"  />
<glyph unicode="&#xD4;" horiz-adv-x="610" d="M51 356Q51 420 52 458T58 521T67 559T82 590Q95 613 115 636T164 677T227 706T305 718Q347 718 382 707T446 677T494 636T528 590Q537 574 542 560T552 521T557 459T559 356Q559 292 558 254T552 191T543 153T528 122Q515 99 495 76T446 35T383 6T305 -6Q263 -6 228 5T164 35T116 76T82 122Q73 138 68 152T58 191T53 253T51 356ZM159 356Q159 301 160 268T166 214T177 180T195 154Q212 133 239 118T305 102Q343 102 370 117T415 154Q425 167 432 180T443 214T449 268T451 356Q451 411 450 444T444 498T432 531T415 558Q398 579 371 594T305 610Q267 610 240 595T195 558Q184 544 178 532T167 498T161 444T159 356ZM305 833L238 747H142L248 893H362L468 747H372L305 833Z"  />
<glyph unicode="&#xD5;" horiz-adv-x="610" d="M51 356Q51 420 52 458T58 521T67 559T82 590Q95 613 115 636T164 677T227 706T305 718Q347 718 382 707T446 677T494 636T528 590Q537 574 542 560T552 521T557 459T559 356Q559 292 558 254T552 191T543 153T528 122Q515 99 495 76T446 35T383 6T305 -6Q263 -6 228 5T164 35T116 76T82 122Q73 138 68 152T58 191T53 253T51 356ZM159 356Q159 301 160 268T166 214T177 180T195 154Q212 133 239 118T305 102Q343 102 370 117T415 154Q425 167 432 180T443 214T449 268T451 356Q451 411 450 444T444 498T432 531T415 558Q398 579 371 594T305 610Q267 610 240 595T195 558Q184 544 178 532T167 498T161 444T159 356ZM127 757Q134 809 164 841T240 873Q259 873 276 867T311 854T344 841T376 835Q390 835 404 843T423 879H483Q479 856 471 836T450 799T417 773T373 763Q354 763 335 769T297 781T261 794T229 800Q223 800 216 798T203 791T192 778T187 757H127Z"  />
<glyph unicode="&#xD6;" horiz-adv-x="610" d="M51 356Q51 420 52 458T58 521T67 559T82 590Q95 613 115 636T164 677T227 706T305 718Q347 718 382 707T446 677T494 636T528 590Q537 574 542 560T552 521T557 459T559 356Q559 292 558 254T552 191T543 153T528 122Q515 99 495 76T446 35T383 6T305 -6Q263 -6 228 5T164 35T116 76T82 122Q73 138 68 152T58 191T53 253T51 356ZM159 356Q159 301 160 268T166 214T177 180T195 154Q212 133 239 118T305 102Q343 102 370 117T415 154Q425 167 432 180T443 214T449 268T451 356Q451 411 450 444T444 498T432 531T415 558Q398 579 371 594T305 610Q267 610 240 595T195 558Q184 544 178 532T167 498T161 444T159 356ZM339 869H447V761H339V869ZM163 869H271V761H163V869Z"  />
<glyph unicode="&#xD7;" horiz-adv-x="600" d="M246 253L67 431L122 487L300 308L477 487L533 431L354 253L533 76L477 21L300 200L122 21L67 76L246 253Z"  />
<glyph unicode="&#xD8;" horiz-adv-x="610" d="M117 74Q106 87 98 99T82 122Q73 138 68 152T58 191T53 253T51 356Q51 420 52 458T58 521T67 559T82 590Q95 613 115 636T164 677T227 706T305 718Q349 718 385 706T451 674L500 762L546 737L492 639Q513 616 528 590Q537 574 542 560T552 521T557 459T559 356Q559 292 558 254T552 191T543 153T528 122Q515 99 495 76T446 35T383 6T305 -6Q260 -6 224 6T158 40L108 -50L62 -25L117 74ZM397 577Q380 592 357 601T305 610Q267 610 240 595T195 558Q184 544 178 532T167 498T161 444T159 356Q159 316 160 288T163 239T168 206T177 182L397 577ZM212 137Q229 121 252 112T305 102Q343 102 370 117T415 154Q425 167 432 180T443 214T449 268T451 356Q451 397 450 426T447 475T442 508T432 532L212 137Z"  />
<glyph unicode="&#xD9;" horiz-adv-x="630" d="M62 712H170V253Q170 216 181 188T211 141T257 112T315 102Q346 102 372 112T418 141T449 188T460 253V712H568V241Q568 185 549 140T495 62T414 12T315 -6Q262 -6 216 12T136 62T82 139T62 241V712ZM166 893H300L392 747H308L166 893Z"  />
<glyph unicode="&#xDA;" horiz-adv-x="630" d="M62 712H170V253Q170 216 181 188T211 141T257 112T315 102Q346 102 372 112T418 141T449 188T460 253V712H568V241Q568 185 549 140T495 62T414 12T315 -6Q262 -6 216 12T136 62T82 139T62 241V712ZM330 893H464L322 747H238L330 893Z"  />
<glyph unicode="&#xDB;" horiz-adv-x="630" d="M62 712H170V253Q170 216 181 188T211 141T257 112T315 102Q346 102 372 112T418 141T449 188T460 253V712H568V241Q568 185 549 140T495 62T414 12T315 -6Q262 -6 216 12T136 62T82 139T62 241V712ZM315 833L248 747H152L258 893H372L478 747H382L315 833Z"  />
<glyph unicode="&#xDC;" horiz-adv-x="630" d="M62 712H170V253Q170 216 181 188T211 141T257 112T315 102Q346 102 372 112T418 141T449 188T460 253V712H568V241Q568 185 549 140T495 62T414 12T315 -6Q262 -6 216 12T136 62T82 139T62 241V712ZM349 869H457V761H349V869ZM173 869H281V761H173V869Z"  />
<glyph unicode="&#xDD;" horiz-adv-x="500" d="M199 293L-15 712H99L250 396L401 712H515L301 293V0H199V293ZM265 893H399L257 747H173L265 893Z"  />
<glyph unicode="&#xDE;" horiz-adv-x="593" d="M183 256H345Q372 256 394 266T431 293T454 330T462 371Q462 391 454 411T431 448T394 475T344 486H183V256ZM75 712H183V588H347Q402 588 443 569T513 519T555 449T570 371Q570 332 556 293T513 224T444 174T347 154H183V0H75V712Z"  />
<glyph unicode="&#xDF;" horiz-adv-x="537" d="M256 482H317Q342 482 356 495T371 541Q371 561 368 573T355 595Q344 604 320 610T270 616Q214 616 190 599T166 552V0H64V552Q64 594 80 625T124 677T192 708T277 718Q320 718 356 706T418 672T458 619T473 549Q473 467 400 436Q473 407 473 325V144Q473 114 463 88T435 43T390 12T332 0H269V96H305Q342 96 356 107T371 149V327Q371 356 358 371T315 386H256V482Z"  />
<glyph unicode="&#xE0;" horiz-adv-x="500" d="M332 45H330Q314 19 286 7T205 -6Q163 -6 130 6T73 38T38 87T26 149Q26 179 36 206T67 254T119 287T191 299H332V352Q332 388 308 402T228 417Q188 417 167 409T132 378L52 439Q81 480 123 496T223 513Q270 513 309 505T375 477T418 425T434 346V0H332V45ZM332 215H210Q165 215 144 199T122 154Q122 128 144 109T218 90Q250 90 271 92T306 104T326 130T332 178V215ZM101 718H235L327 572H243L101 718Z"  />
<glyph unicode="&#xE1;" horiz-adv-x="500" d="M332 45H330Q314 19 286 7T205 -6Q163 -6 130 6T73 38T38 87T26 149Q26 179 36 206T67 254T119 287T191 299H332V352Q332 388 308 402T228 417Q188 417 167 409T132 378L52 439Q81 480 123 496T223 513Q270 513 309 505T375 477T418 425T434 346V0H332V45ZM332 215H210Q165 215 144 199T122 154Q122 128 144 109T218 90Q250 90 271 92T306 104T326 130T332 178V215ZM265 718H399L257 572H173L265 718Z"  />
<glyph unicode="&#xE2;" horiz-adv-x="500" d="M332 45H330Q314 19 286 7T205 -6Q163 -6 130 6T73 38T38 87T26 149Q26 179 36 206T67 254T119 287T191 299H332V352Q332 388 308 402T228 417Q188 417 167 409T132 378L52 439Q81 480 123 496T223 513Q270 513 309 505T375 477T418 425T434 346V0H332V45ZM332 215H210Q165 215 144 199T122 154Q122 128 144 109T218 90Q250 90 271 92T306 104T326 130T332 178V215ZM250 658L183 572H87L193 718H307L413 572H317L250 658Z"  />
<glyph unicode="&#xE3;" horiz-adv-x="500" d="M332 45H330Q314 19 286 7T205 -6Q163 -6 130 6T73 38T38 87T26 149Q26 179 36 206T67 254T119 287T191 299H332V352Q332 388 308 402T228 417Q188 417 167 409T132 378L52 439Q81 480 123 496T223 513Q270 513 309 505T375 477T418 425T434 346V0H332V45ZM332 215H210Q165 215 144 199T122 154Q122 128 144 109T218 90Q250 90 271 92T306 104T326 130T332 178V215ZM72 582Q79 634 109 666T185 698Q204 698 221 692T256 679T289 666T321 660Q335 660 349 668T368 704H428Q424 681 416 661T395 624T362 598T318 588Q299 588 280 594T242 606T206 619T174 625Q168 625 161 623T148 616T137 603T132 582H72Z"  />
<glyph unicode="&#xE4;" horiz-adv-x="500" d="M332 45H330Q314 19 286 7T205 -6Q163 -6 130 6T73 38T38 87T26 149Q26 179 36 206T67 254T119 287T191 299H332V352Q332 388 308 402T228 417Q188 417 167 409T132 378L52 439Q81 480 123 496T223 513Q270 513 309 505T375 477T418 425T434 346V0H332V45ZM332 215H210Q165 215 144 199T122 154Q122 128 144 109T218 90Q250 90 271 92T306 104T326 130T332 178V215ZM284 694H392V586H284V694ZM108 694H216V586H108V694Z"  />
<glyph unicode="&#xE5;" horiz-adv-x="500" d="M332 45H330Q314 19 286 7T205 -6Q163 -6 130 6T73 38T38 87T26 149Q26 179 36 206T67 254T119 287T191 299H332V352Q332 388 308 402T228 417Q188 417 167 409T132 378L52 439Q81 480 123 496T223 513Q270 513 309 505T375 477T418 425T434 346V0H332V45ZM332 215H210Q165 215 144 199T122 154Q122 128 144 109T218 90Q250 90 271 92T306 104T326 130T332 178V215ZM147 660Q147 681 155 700T177 733T210 755T250 763Q271 763 290 755T323 733T345 700T353 660Q353 639 345 620T323 587T290 565T250 557Q229 557 210 565T177 587T155 620T147 660ZM187 660Q187 634 205 616T250 597Q276 597 294 615T313 660Q313 686 295 704T250 723Q224 723 206 705T187 660Z"  />
<glyph unicode="&#xE6;" horiz-adv-x="778" d="M45 439Q74 480 116 496T216 513Q276 513 317 499T381 449Q403 479 444 496T528 513Q570 513 608 498T674 455T720 388T737 299V215H421Q421 152 455 121T542 90Q571 90 600 103T653 139L727 76Q689 32 642 13T544 -6Q489 -6 446 10T367 72Q338 28 294 11T206 -6Q166 -6 132 4T72 33T33 82T19 149Q19 177 29 204T58 252T105 286T171 299H325V352Q325 388 301 402T221 417Q181 417 160 409T125 378L45 439ZM203 215Q158 215 137 199T115 154Q115 128 137 109T211 90Q243 90 264 92T299 104T319 130T325 178V215H203ZM635 299Q633 357 603 387T528 417Q483 417 453 387T421 299H635Z"  />
<glyph unicode="&#xE7;" horiz-adv-x="444" d="M239 -6Q198 -3 160 13T92 60T45 139T27 253Q27 323 46 372T98 452T171 498T257 513Q315 513 360 488T439 425L364 358Q345 381 319 396T261 411Q198 411 164 374T129 253Q129 169 163 133T261 96Q293 96 319 111T364 149L439 82Q411 50 374 27T291 -5L249 -60H251Q260 -56 278 -56Q320 -56 343 -78T366 -132Q366 -156 356 -173T329 -203T290 -220T243 -226Q220 -226 194 -219T142 -202L160 -160Q177 -166 194 -170T230 -175Q256 -175 272 -166T288 -133Q288 -114 274 -105T239 -96Q220 -96 201 -107L179 -88L239 -6Z"  />
<glyph unicode="&#xE8;" horiz-adv-x="500" d="M143 215Q143 152 177 121T264 90Q293 90 322 103T375 139L449 76Q411 32 364 13T266 -6Q227 -6 187 5T115 45T62 124T41 252Q41 326 60 376T109 456T176 500T250 513Q292 513 330 498T396 455T442 388T459 299V215H143ZM357 299Q355 357 325 387T250 417Q205 417 175 387T143 299H357ZM101 718H235L327 572H243L101 718Z"  />
<glyph unicode="&#xE9;" horiz-adv-x="500" d="M143 215Q143 152 177 121T264 90Q293 90 322 103T375 139L449 76Q411 32 364 13T266 -6Q227 -6 187 5T115 45T62 124T41 252Q41 326 60 376T109 456T176 500T250 513Q292 513 330 498T396 455T442 388T459 299V215H143ZM357 299Q355 357 325 387T250 417Q205 417 175 387T143 299H357ZM265 718H399L257 572H173L265 718Z"  />
<glyph unicode="&#xEA;" horiz-adv-x="500" d="M143 215Q143 152 177 121T264 90Q293 90 322 103T375 139L449 76Q411 32 364 13T266 -6Q227 -6 187 5T115 45T62 124T41 252Q41 326 60 376T109 456T176 500T250 513Q292 513 330 498T396 455T442 388T459 299V215H143ZM357 299Q355 357 325 387T250 417Q205 417 175 387T143 299H357ZM250 658L183 572H87L193 718H307L413 572H317L250 658Z"  />
<glyph unicode="&#xEB;" horiz-adv-x="500" d="M143 215Q143 152 177 121T264 90Q293 90 322 103T375 139L449 76Q411 32 364 13T266 -6Q227 -6 187 5T115 45T62 124T41 252Q41 326 60 376T109 456T176 500T250 513Q292 513 330 498T396 455T442 388T459 299V215H143ZM357 299Q355 357 325 387T250 417Q205 417 175 387T143 299H357ZM284 694H392V586H284V694ZM108 694H216V586H108V694Z"  />
<glyph unicode="&#xEC;" horiz-adv-x="240" d="M69 507H171V0H69V507ZM-29 718H105L197 572H113L-29 718Z"  />
<glyph unicode="&#xED;" horiz-adv-x="240" d="M69 507H171V0H69V507ZM135 718H269L127 572H43L135 718Z"  />
<glyph unicode="&#xEE;" horiz-adv-x="240" d="M69 507H171V0H69V507ZM120 658L53 572H-43L63 718H177L283 572H187L120 658Z"  />
<glyph unicode="&#xEF;" horiz-adv-x="240" d="M69 507H171V0H69V507ZM154 694H262V586H154V694ZM-22 694H86V586H-22V694Z"  />
<glyph unicode="&#xF0;" horiz-adv-x="500" d="M357 253Q357 281 356 299T352 331T344 354T332 374Q321 390 299 400T250 411Q224 411 202 401T168 374Q161 364 156 354T148 331T144 300T143 254Q143 226 144 208T148 176T156 153T168 133Q179 117 201 107T250 96Q276 96 298 106T332 133Q339 143 344 153T352 176T356 207T357 253ZM150 595L233 638Q198 661 144 679L176 754Q221 740 257 723T322 684L426 738L464 683L374 636Q403 600 420 568T445 495T456 401T459 270Q459 223 457 192T450 138T433 97T404 59Q393 47 379 36T346 15T304 0T250 -6Q220 -6 197 0T154 15T121 35T96 59Q81 75 71 92T54 131T44 183T41 254Q41 295 44 324T54 376T71 415T96 448Q117 471 152 492T241 513Q271 513 299 504T350 468L352 470Q344 508 328 538T289 592L188 540L150 595Z"  />
<glyph unicode="&#xF1;" horiz-adv-x="537" d="M66 507H168V453H170Q194 483 227 498T302 513Q332 513 362 502T416 468T455 413T471 337V0H369V302Q369 354 341 382T269 411Q225 411 197 383T168 302V0H66V507ZM91 582Q98 634 128 666T204 698Q223 698 240 692T275 679T308 666T340 660Q354 660 368 668T387 704H447Q443 681 435 661T414 624T381 598T337 588Q318 588 299 594T261 606T225 619T193 625Q187 625 180 623T167 616T156 603T151 582H91Z"  />
<glyph unicode="&#xF2;" horiz-adv-x="500" d="M41 254Q41 295 44 324T54 376T71 415T96 448Q106 460 120 471T154 492T196 507T250 513Q280 513 303 507T346 492T379 472T404 448Q419 432 429 415T446 376T456 325T459 254Q459 213 456 184T446 132T429 92T404 59Q393 47 379 36T346 15T304 0T250 -6Q220 -6 197 0T154 15T121 35T96 59Q81 75 71 92T54 131T44 183T41 254ZM357 253Q357 281 356 299T352 331T344 354T332 374Q321 390 299 400T250 411Q224 411 202 401T168 374Q161 364 156 354T148 331T144 300T143 254Q143 226 144 208T148 176T156 153T168 133Q179 117 201 107T250 96Q276 96 298 106T332 133Q339 143 344 153T352 176T356 207T357 253ZM101 718H235L327 572H243L101 718Z"  />
<glyph unicode="&#xF3;" horiz-adv-x="500" d="M41 254Q41 295 44 324T54 376T71 415T96 448Q106 460 120 471T154 492T196 507T250 513Q280 513 303 507T346 492T379 472T404 448Q419 432 429 415T446 376T456 325T459 254Q459 213 456 184T446 132T429 92T404 59Q393 47 379 36T346 15T304 0T250 -6Q220 -6 197 0T154 15T121 35T96 59Q81 75 71 92T54 131T44 183T41 254ZM357 253Q357 281 356 299T352 331T344 354T332 374Q321 390 299 400T250 411Q224 411 202 401T168 374Q161 364 156 354T148 331T144 300T143 254Q143 226 144 208T148 176T156 153T168 133Q179 117 201 107T250 96Q276 96 298 106T332 133Q339 143 344 153T352 176T356 207T357 253ZM265 718H399L257 572H173L265 718Z"  />
<glyph unicode="&#xF4;" horiz-adv-x="500" d="M41 254Q41 295 44 324T54 376T71 415T96 448Q106 460 120 471T154 492T196 507T250 513Q280 513 303 507T346 492T379 472T404 448Q419 432 429 415T446 376T456 325T459 254Q459 213 456 184T446 132T429 92T404 59Q393 47 379 36T346 15T304 0T250 -6Q220 -6 197 0T154 15T121 35T96 59Q81 75 71 92T54 131T44 183T41 254ZM357 253Q357 281 356 299T352 331T344 354T332 374Q321 390 299 400T250 411Q224 411 202 401T168 374Q161 364 156 354T148 331T144 300T143 254Q143 226 144 208T148 176T156 153T168 133Q179 117 201 107T250 96Q276 96 298 106T332 133Q339 143 344 153T352 176T356 207T357 253ZM250 658L183 572H87L193 718H307L413 572H317L250 658Z"  />
<glyph unicode="&#xF5;" horiz-adv-x="500" d="M41 254Q41 295 44 324T54 376T71 415T96 448Q106 460 120 471T154 492T196 507T250 513Q280 513 303 507T346 492T379 472T404 448Q419 432 429 415T446 376T456 325T459 254Q459 213 456 184T446 132T429 92T404 59Q393 47 379 36T346 15T304 0T250 -6Q220 -6 197 0T154 15T121 35T96 59Q81 75 71 92T54 131T44 183T41 254ZM357 253Q357 281 356 299T352 331T344 354T332 374Q321 390 299 400T250 411Q224 411 202 401T168 374Q161 364 156 354T148 331T144 300T143 254Q143 226 144 208T148 176T156 153T168 133Q179 117 201 107T250 96Q276 96 298 106T332 133Q339 143 344 153T352 176T356 207T357 253ZM72 582Q79 634 109 666T185 698Q204 698 221 692T256 679T289 666T321 660Q335 660 349 668T368 704H428Q424 681 416 661T395 624T362 598T318 588Q299 588 280 594T242 606T206 619T174 625Q168 625 161 623T148 616T137 603T132 582H72Z"  />
<glyph unicode="&#xF6;" horiz-adv-x="500" d="M41 254Q41 295 44 324T54 376T71 415T96 448Q106 460 120 471T154 492T196 507T250 513Q280 513 303 507T346 492T379 472T404 448Q419 432 429 415T446 376T456 325T459 254Q459 213 456 184T446 132T429 92T404 59Q393 47 379 36T346 15T304 0T250 -6Q220 -6 197 0T154 15T121 35T96 59Q81 75 71 92T54 131T44 183T41 254ZM357 253Q357 281 356 299T352 331T344 354T332 374Q321 390 299 400T250 411Q224 411 202 401T168 374Q161 364 156 354T148 331T144 300T143 254Q143 226 144 208T148 176T156 153T168 133Q179 117 201 107T250 96Q276 96 298 106T332 133Q339 143 344 153T352 176T356 207T357 253ZM284 694H392V586H284V694ZM108 694H216V586H108V694Z"  />
<glyph unicode="&#xF7;" horiz-adv-x="600" d="M47 292H553V214H47V292ZM233 460Q233 488 252 507T300 527Q328 527 347 508T367 460Q367 432 348 413T300 393Q272 393 253 412T233 460ZM233 46Q233 74 252 93T300 113Q328 113 347 94T367 46Q367 18 348 -1T300 -21Q272 -21 253 -2T233 46Z"  />
<glyph unicode="&#xF8;" horiz-adv-x="500" d="M303 398Q279 411 250 411Q224 411 202 401T168 374Q161 364 156 354T148 331T144 300T143 254Q143 208 146 186T159 148L303 398ZM104 52Q84 70 72 90T53 135T44 189T41 254Q41 295 44 324T54 376T71 415T96 448Q106 460 120 471T154 492T196 507T250 513Q283 513 309 506T355 487L399 563L443 537L396 456Q413 439 425 422T444 381T455 328T459 254Q459 213 456 184T446 132T429 92T404 59Q393 47 379 36T346 15T304 0T250 -6Q217 -6 192 1T146 21L101 -56L57 -30L104 52ZM197 110Q220 96 250 96Q276 96 298 106T332 133Q339 143 344 153T352 176T356 207T357 253Q357 299 354 321T341 360L197 110Z"  />
<glyph unicode="&#xF9;" horiz-adv-x="537" d="M66 507H168V205Q168 153 196 125T269 96Q312 96 340 124T369 205V507H471V0H369V54H367Q343 24 310 9T236 -6Q206 -6 176 5T121 39T82 94T66 170V507ZM114 718H248L340 572H256L114 718Z"  />
<glyph unicode="&#xFA;" horiz-adv-x="537" d="M66 507H168V205Q168 153 196 125T269 96Q312 96 340 124T369 205V507H471V0H369V54H367Q343 24 310 9T236 -6Q206 -6 176 5T121 39T82 94T66 170V507ZM278 718H412L270 572H186L278 718Z"  />
<glyph unicode="&#xFB;" horiz-adv-x="537" d="M66 507H168V205Q168 153 196 125T269 96Q312 96 340 124T369 205V507H471V0H369V54H367Q343 24 310 9T236 -6Q206 -6 176 5T121 39T82 94T66 170V507ZM263 658L196 572H100L206 718H320L426 572H330L263 658Z"  />
<glyph unicode="&#xFC;" horiz-adv-x="537" d="M66 507H168V205Q168 153 196 125T269 96Q312 96 340 124T369 205V507H471V0H369V54H367Q343 24 310 9T236 -6Q206 -6 176 5T121 39T82 94T66 170V507ZM297 694H405V586H297V694ZM121 694H229V586H121V694Z"  />
<glyph unicode="&#xFD;" horiz-adv-x="444" d="M-7 507H101L221 152H223L343 507H451L233 -105Q222 -134 208 -153T175 -184T135 -200T90 -205H56V-109H86Q106 -109 122 -99T147 -65L175 20L-7 507ZM237 718H371L229 572H145L237 718Z"  />
<glyph unicode="&#xFE;" horiz-adv-x="519" d="M66 712H168V454Q192 480 226 496T299 513Q346 513 379 495T435 447Q445 433 452 419T463 384T469 331T471 253Q471 206 470 176T464 124T452 88T435 60Q413 31 380 13T299 -6Q260 -6 229 10T168 54V-205H66V712ZM268 96Q304 96 324 109T354 145T366 195T369 253Q369 283 367 311T355 361T325 397T268 411Q232 411 212 397T183 360T171 309T168 253Q168 226 170 198T182 148T212 111T268 96Z"  />
<glyph unicode="&#xFF;" horiz-adv-x="444" d="M-7 507H101L221 152H223L343 507H451L233 -105Q222 -134 208 -153T175 -184T135 -200T90 -205H56V-109H86Q106 -109 122 -99T147 -65L175 20L-7 507ZM256 694H364V586H256V694ZM80 694H188V586H80V694Z"  />
<glyph unicode="&#x131;" horiz-adv-x="240" d="M69 507H171V0H69V507Z"  />
<glyph unicode="&#x152;" horiz-adv-x="926" d="M159 356Q159 301 160 268T166 214T177 180T195 154Q212 133 239 118T305 102Q343 102 370 117T415 154Q425 167 432 180T443 214T449 268T451 356Q451 411 450 444T444 498T432 531T415 558Q398 579 371 594T305 610Q267 610 240 595T195 558Q184 544 178 532T167 498T161 444T159 356ZM451 56Q426 27 385 11T305 -6Q263 -6 228 5T164 35T116 76T82 122Q73 138 68 152T58 191T53 253T51 356Q51 420 52 458T58 521T67 559T82 590Q95 613 115 636T164 677T227 706T305 718Q346 718 384 704T451 657V712H898V610H559V407H847V311H559V102H900V0H451V56Z"  />
<glyph unicode="&#x153;" horiz-adv-x="816" d="M775 215H459Q459 152 493 121T580 90Q609 90 638 103T691 139L765 76Q727 32 680 13T582 -6Q521 -6 477 17T409 75Q382 37 342 16T250 -6Q220 -6 197 0T154 15T121 35T96 59Q81 75 71 92T54 131T44 183T41 254Q41 295 44 324T54 376T71 415T96 448Q106 460 120 471T154 492T196 507T250 513Q298 513 337 493T409 434Q441 472 479 492T566 513Q608 513 646 498T712 455T758 388T775 299V215ZM357 253Q357 283 356 303T352 336T344 360T332 380Q321 396 299 406T250 417Q224 417 202 407T168 380Q161 370 156 360T148 337T144 304T143 254Q143 224 144 204T148 171T156 147T168 127Q179 111 201 101T250 90Q276 90 298 100T332 127Q339 137 344 147T352 170T356 203T357 253ZM673 299Q671 357 641 387T566 417Q521 417 491 387T459 299H673Z"  />
<glyph unicode="&#x160;" horiz-adv-x="574" d="M84 173Q125 141 177 122T286 102Q352 102 389 129T427 201Q427 239 405 265T334 297L240 310Q147 323 99 377T51 510Q51 556 66 594T112 659T185 702T283 718Q349 718 407 697T514 644L454 555Q415 580 371 595T278 610Q228 610 194 585T159 508Q159 478 182 452T260 417Q274 415 294 412T340 406Q390 400 426 381T487 334T523 272T535 201Q535 102 468 48T285 -6Q206 -6 138 18T13 92L84 173ZM124 893H220L287 807L354 893H450L344 747H230L124 893Z"  />
<glyph unicode="&#x161;" horiz-adv-x="480" d="M81 155Q114 123 152 107T241 90Q285 90 313 106T341 155Q341 182 323 192T279 205L189 213Q126 218 85 254T43 357Q43 396 57 425T97 473T157 503T232 513Q299 513 346 495T431 444L368 370Q338 391 306 404T232 417Q183 417 164 400T145 356Q145 339 159 325T212 308L296 302Q335 299 363 287T409 254T435 207T443 150Q443 113 427 84T383 35T316 5T233 -6Q171 -6 115 16T10 85L81 155ZM77 718H173L240 632L307 718H403L297 572H183L77 718Z"  />
<glyph unicode="&#x178;" horiz-adv-x="500" d="M199 293L-15 712H99L250 396L401 712H515L301 293V0H199V293ZM284 869H392V761H284V869ZM108 869H216V761H108V869Z"  />
<glyph unicode="&#x17D;" horiz-adv-x="519" d="M32 90L355 616H45V712H487V631L163 102H487V0H32V90ZM97 893H193L260 807L327 893H423L317 747H203L97 893Z"  />
<glyph unicode="&#x17E;" horiz-adv-x="444" d="M33 81L287 417H47V507H411V426L157 96H411V0H33V81ZM59 718H155L222 632L289 718H385L279 572H165L59 718Z"  />
<glyph unicode="&#x192;" horiz-adv-x="480" d="M183 374H97L109 452H197L224 604Q230 638 246 660T284 695T333 713T387 718Q410 718 433 712L418 617Q407 619 397 620T375 622Q352 622 338 611T320 575L299 452H389L377 374H285L214 -41Q203 -108 169 -142T62 -176Q48 -176 32 -174T2 -167L19 -75Q27 -77 39 -78T65 -80Q106 -80 112 -42L183 374Z"  />
<glyph unicode="&#x237;" horiz-adv-x="258" d="M79 507H181V-63Q181 -95 170 -121T140 -166T93 -195T33 -205H-7V-109H22Q48 -109 63 -97T79 -55V507Z"  />
<glyph unicode="&#x2C6;" horiz-adv-x="240" d="M120 658L53 572H-43L63 718H177L283 572H187L120 658Z"  />
<glyph unicode="&#x2DC;" horiz-adv-x="240" d="M-58 582Q-51 634 -21 666T55 698Q74 698 91 692T126 679T159 666T191 660Q205 660 219 668T238 704H298Q294 681 286 661T265 624T232 598T188 588Q169 588 150 594T112 606T76 619T44 625Q38 625 31 623T18 616T7 603T2 582H-58Z"  />
<glyph unicode="&#x2013;" horiz-adv-x="500" d="M0 325H500V229H0V325Z"  />
<glyph unicode="&#x2014;" horiz-adv-x="1000" d="M0 325H1000V229H0V325Z"  />
<glyph unicode="&#x2018;" horiz-adv-x="240" d="M69 638L171 712V536H69V638Z"  />
<glyph unicode="&#x2019;" horiz-adv-x="240" d="M69 712H171V610L69 536V712Z"  />
<glyph unicode="&#x201A;" horiz-adv-x="240" d="M69 102H171V0L69 -74V102Z"  />
<glyph unicode="&#x201C;" horiz-adv-x="333" d="M193 638L295 712V536H193V638ZM38 638L140 712V536H38V638Z"  />
<glyph unicode="&#x201D;" horiz-adv-x="333" d="M38 712H140V610L38 536V712ZM193 712H295V610L193 536V712Z"  />
<glyph unicode="&#x201E;" horiz-adv-x="333" d="M38 102H140V0L38 -74V102ZM193 102H295V0L193 -74V102Z"  />
<glyph unicode="&#x2020;" horiz-adv-x="480" d="M192 390H22V468H192V712H288V468H458V390H288V-185H192V390Z"  />
<glyph unicode="&#x2021;" horiz-adv-x="480" d="M192 420H22V498H192V712H288V498H458V420H288V107H458V29H288V-185H192V29H22V107H192V420Z"  />
<glyph unicode="&#x2022;" horiz-adv-x="500" d="M72 356Q72 393 86 425T124 482T180 520T250 534Q287 534 319 520T376 482T414 426T428 356Q428 319 414 287T376 230T320 192T250 178Q213 178 181 192T124 230T86 286T72 356Z"  />
<glyph unicode="&#x2026;" horiz-adv-x="1000" d="M116 102H218V0H116V102ZM449 102H551V0H449V102ZM782 102H884V0H782V102Z"  />
<glyph unicode="&#x2030;" horiz-adv-x="759" d="M522 161Q522 187 530 206T551 237T581 254T616 260Q634 260 651 255T681 237T702 206T710 161V93Q710 67 702 48T681 17T651 0T616 -6Q598 -6 581 -1T551 17T530 48T522 93V161ZM579 100Q579 51 616 51Q653 51 653 100V154Q653 203 616 203Q579 203 579 154V100ZM335 100Q335 51 372 51Q409 51 409 100V154Q409 203 372 203Q335 203 335 154V100ZM278 161Q278 187 286 206T307 237T337 254T372 260Q390 260 407 255T437 237T458 206T466 161V93Q466 67 458 48T437 17T407 0T372 -6Q354 -6 337 -1T307 17T286 48T278 93V161ZM49 619Q49 645 57 664T78 695T108 712T143 718Q161 718 178 713T208 695T229 664T237 619V551Q237 525 229 506T208 475T178 458T143 452Q125 452 108 457T78 475T57 506T49 551V619ZM106 558Q106 509 143 509Q180 509 180 558V612Q180 661 143 661Q106 661 106 612V558ZM393 712H459L122 0H56L393 712Z"  />
<glyph unicode="&#x2039;" horiz-adv-x="296" d="M46 277L250 479V377L148 277L250 177V75L46 277Z"  />
<glyph unicode="&#x203A;" horiz-adv-x="296" d="M46 177L148 277L46 377V479L250 277L46 75V177Z"  />
<glyph unicode="&#x20AC;" horiz-adv-x="480" d="M442 586Q426 601 398 612T326 624Q264 624 232 584T192 469H410L386 391H184Q183 383 183 375T183 358Q183 349 183 340T184 324H364L340 245H192Q200 164 234 126T326 87Q369 87 397 97T442 124V24Q428 13 395 4T310 -5Q219 -5 163 54T90 245H20L44 324H82Q81 331 81 340T81 358Q81 366 81 374T82 391H20L44 469H88Q102 587 156 652T310 717Q358 717 392 706T442 684V586Z"  />
<glyph unicode="&#x2122;" horiz-adv-x="990" d="M164 640H40V712H366V640H242V300H164V640ZM836 634H834L702 300H651L520 634H518V300H440V712H562L677 408L792 712H914V300H836V634Z"  />

<hkern u1="!" u2="@" k="100" />
<hkern u1="!" u2="S" k="-30" />
<hkern u1="&amp;" u2="@" k="100" />
<hkern u1="&amp;" u2="S" k="-30" />
<hkern u1=")" u2="@" k="70" />
<hkern u1=")" u2="S" k="-30" />
<hkern u1="@" u2="B" k="18" />
<hkern u1="@" u2="F" k="18" />
<hkern u1="@" u2="N" k="18" />
<hkern u1="@" u2="P" k="18" />
<hkern u1="@" u2="S" k="74" />
<hkern u1="@" u2="T" k="18" />
<hkern u1="@" u2="U" k="55" />
<hkern u1="@" u2="V" k="37" />
<hkern u1="@" u2="X" k="74" />
<hkern u1="@" u2="t" k="18" />
<hkern u1="@" u2="u" k="18" />
<hkern u1="@" u2="v" k="18" />
<hkern u1="@" u2="x" k="18" />
<hkern u1="C" u2="@" k="18" />
<hkern u1="C" u2="U" k="12" />
<hkern u1="C" u2="X" k="24" />
<hkern u1="E" u2="+" k="129" />
<hkern u1="E" u2="-" k="129" />
<hkern u1="E" u2="@" k="55" />
<hkern u1="E" u2="`" k="24" />
<hkern u1="E" u2="d" k="18" />
<hkern u1="E" u2="n" k="18" />
<hkern u1="E" u2="q" k="18" />
<hkern u1="E" u2="&#xd2;" k="18" />
<hkern u1="E" u2="&#xda;" k="14" />
<hkern u1="I" u2="+" k="18" />
<hkern u1="I" u2="-" k="18" />
<hkern u1="I" u2="`" k="6" />
<hkern u1="I" u2="t" k="12" />
<hkern u1="J" u2="N" k="24" />
<hkern u1="J" u2="n" k="12" />
<hkern u1="J" u2="t" k="18" />
<hkern u1="J" u2="x" k="12" />
<hkern u1="K" u2="S" k="111" />
<hkern u1="K" u2="U" k="111" />
<hkern u1="K" u2="V" k="74" />
<hkern u1="K" u2="X" k="129" />
<hkern u1="K" u2="x" k="55" />
<hkern u1="N" u2="+" k="25" />
<hkern u1="N" u2="-" k="25" />
<hkern u1="N" u2="@" k="18" />
<hkern u1="N" u2="S" k="18" />
<hkern u1="N" u2="U" k="25" />
<hkern u1="N" u2="V" k="18" />
<hkern u1="N" u2="W" k="12" />
<hkern u1="N" u2="X" k="25" />
<hkern u1="O" u2="+" k="129" />
<hkern u1="O" u2="-" k="129" />
<hkern u1="O" u2="@" k="74" />
<hkern u1="O" u2="`" k="25" />
<hkern u1="O" u2="d" k="18" />
<hkern u1="O" u2="n" k="18" />
<hkern u1="O" u2="&#xd2;" k="13" />
<hkern u1="P" u2="T" k="6" />
<hkern u1="Q" u2="S" k="18" />
<hkern u1="Q" u2="U" k="18" />
<hkern u1="Q" u2="V" k="18" />
<hkern u1="Q" u2="X" k="30" />
<hkern u1="R" u2="I" k="20" />
<hkern u1="S" u2="+" k="100" />
<hkern u1="S" u2="&#x2c;" k="129" />
<hkern u1="S" u2="-" k="111" />
<hkern u1="S" u2="9" k="100" />
<hkern u1="S" u2=":" k="100" />
<hkern u1="S" u2="@" k="74" />
<hkern u1="S" u2="N" k="18" />
<hkern u1="S" u2="`" k="100" />
<hkern u1="S" u2="d" k="100" />
<hkern u1="S" u2="g" k="18" />
<hkern u1="S" u2="h" k="18" />
<hkern u1="S" u2="n" k="100" />
<hkern u1="S" u2="q" k="92" />
<hkern u1="S" u2="t" k="92" />
<hkern u1="S" u2="v" k="111" />
<hkern u1="S" u2="x" k="111" />
<hkern u1="S" u2="&#xd2;" k="25" />
<hkern u1="S" u2="&#xd4;" k="50" />
<hkern u1="S" u2="&#xd5;" k="50" />
<hkern u1="S" u2="&#xda;" k="50" />
<hkern u1="S" u2="&#xdc;" k="75" />
<hkern u1="S" u2="&#xdf;" k="9" />
<hkern u1="S" u2="&#xe3;" k="50" />
<hkern u1="S" u2="&#xea;" k="46" />
<hkern u1="S" u2="&#xef;" k="48" />
<hkern u1="S" u2="&#xd7;" k="50" />
<hkern u1="S" u2="&#xde;" k="-48" />
<hkern u1="T" u2="+" k="25" />
<hkern u1="T" u2="-" k="25" />
<hkern u1="T" u2="@" k="25" />
<hkern u1="U" u2="+" k="129" />
<hkern u1="U" u2="&#x2c;" k="55" />
<hkern u1="U" u2="-" k="129" />
<hkern u1="U" u2="9" k="74" />
<hkern u1="U" u2=":" k="74" />
<hkern u1="U" u2="@" k="55" />
<hkern u1="U" u2="F" k="18" />
<hkern u1="U" u2="N" k="18" />
<hkern u1="U" u2="`" k="55" />
<hkern u1="U" u2="d" k="55" />
<hkern u1="U" u2="h" k="18" />
<hkern u1="U" u2="n" k="55" />
<hkern u1="U" u2="t" k="37" />
<hkern u1="U" u2="&#xd2;" k="28" />
<hkern u1="U" u2="&#xda;" k="28" />
<hkern u1="U" u2="&#xe3;" k="28" />
<hkern u1="U" u2="&#xe5;" k="41" />
<hkern u1="U" u2="&#xde;" k="-4" />
<hkern u1="V" u2="+" k="74" />
<hkern u1="V" u2="&#x2c;" k="18" />
<hkern u1="V" u2="-" k="74" />
<hkern u1="V" u2="9" k="18" />
<hkern u1="V" u2=":" k="18" />
<hkern u1="V" u2="@" k="37" />
<hkern u1="V" u2="`" k="37" />
<hkern u1="V" u2="d" k="25" />
<hkern u1="V" u2="g" k="18" />
<hkern u1="V" u2="n" k="25" />
<hkern u1="V" u2="t" k="25" />
<hkern u1="V" u2="&#xd2;" k="28" />
<hkern u1="V" u2="&#xda;" k="19" />
<hkern u1="V" u2="&#xe3;" k="19" />
<hkern u1="V" u2="&#xea;" k="19" />
<hkern u1="X" u2="+" k="111" />
<hkern u1="X" u2="&#x2c;" k="111" />
<hkern u1="X" u2="-" k="111" />
<hkern u1="X" u2="9" k="92" />
<hkern u1="X" u2=":" k="92" />
<hkern u1="X" u2="@" k="74" />
<hkern u1="X" u2="N" k="25" />
<hkern u1="X" u2="`" k="92" />
<hkern u1="X" u2="d" k="80" />
<hkern u1="X" u2="h" k="37" />
<hkern u1="X" u2="n" k="80" />
<hkern u1="X" u2="t" k="74" />
<hkern u1="X" u2="&#xe3;" k="60" />
<hkern u1="X" u2="&#xea;" k="56" />
<hkern u1="`" u2="x" k="6" />
<hkern u1="d" u2="u" k="6" />
<hkern u1="e" u2="e" k="18" />
<hkern u1="j" u2="d" k="12" />
<hkern u1="j" u2="n" k="12" />
<hkern u1="q" u2="+" k="92" />
<hkern u1="q" u2="&#x2c;" k="55" />
<hkern u1="q" u2="-" k="92" />
<hkern u1="q" u2="`" k="18" />
<hkern u1="q" u2="b" k="18" />
<hkern u1="q" u2="c" k="18" />
<hkern u1="q" u2="d" k="18" />
<hkern u1="q" u2="m" k="24" />
<hkern u1="q" u2="n" k="18" />
<hkern u1="q" u2="p" k="18" />
<hkern u1="q" u2="t" k="12" />
<hkern u1="r" u2="v" k="6" />
<hkern u1="u" u2="+" k="74" />
<hkern u1="u" u2="-" k="74" />
<hkern u1="u" u2="d" k="6" />
<hkern u1="v" u2="+" k="55" />
<hkern u1="v" u2="-" k="55" />
<hkern u1="x" u2="n" k="6" />
<hkern u1="&#xff;" u2="@" k="70" />
<hkern u1="&#xff;" u2="S" k="-30" />
<hkern u1="&#xff;" u2="&#xff;" k="85" />

</font>
</defs>
<text x="40" y="40" font-family="DIN 1451 W01 Mittelschrift" font-size="30" fill="#933" >ABCDEFGHIJKLMNOPQRSTUVWXYZ abcdefghijklmnopqrstuvwxyz AÁÀÂÄÅÃÆ CÇ DÐ EÉÈÊË I Í Ì Î Ï NÑ</text>
<text x="40" y="80" font-family="DIN 1451 W01 Mittelschrift" font-size="30" fill="#933" >OÓÒÔÖÕØŒ SŠ UÚÙÛÜ YÝŸ ZŽ Þ aáàâäåãæ cç dð eéèêë i ı í ì î ï nñ oóòôöõøœ sšß uúùûü yýÿ zž</text>
<text x="40" y="120" font-family="DIN 1451 W01 Mittelschrift" font-size="30" fill="#933" >þ 1234567890 ½ ¼ ¾ % ‰ $¢£¥ƒ€¤ † ‡ § ¶ # ^~µ +×± &lt; = &gt; ÷¬ !¡?¿ &quot; &amp; &apos; * ° . , : ; () [ \ ] {} / |</text>
<text x="40" y="160" font-family="DIN 1451 W01 Mittelschrift" font-size="30" fill="#933" >¦ _ ‚ „ … ‹› «» ‘ ’ “ ” • ­ - – — @ © ® ™ ªº ¹²³ ´ ` ˆ ˜ ¨ ¯ · ¸</text>
</svg>
