<?xml version="1.0" standalone="no"?> <!DOCTYPE svg PUBLIC "-//W3C//DTD SVG 1.0//EN" "http://www.w3.org/TR/2001/REC-SVG-20010904/DTD/svg10.dtd" > 
<svg xmlns="http://www.w3.org/2000/svg" width="100%" height="100%">
<metadata version="1.0"><uniqueid id="com.myfonts.marksimonson.proxima-nova.acond-bold.wfkit2.dttj"/><vendor name="MyFonts" url="http://www.myfonts.com/"/><credits><credit name="Mark Simonson" url="http://www.myfonts.com/person/simonson/mark/"/></credits><description><text lang="en">This is a Webfont from MyFonts. Full information about this font:
http://www.myfonts.com/fonts/marksimonson/proxima-nova/
</text></description><copyright><text lang="en">Copyright (c) Mark Simonson, 2005. All rights reserved.</text></copyright><trademark><text lang="en">Proxima Nova is a trademark of Mark Simonson.</text></trademark></metadata>
<defs >
<font id="wf" horiz-adv-x="397" ><font-face
    font-family="Proxima Nova Alt Cn Rg"
    units-per-em="1000"
    panose-1="2 0 5 6 3 0 0 2 0 4"
    ascent="777"
    descent="-223"
    alphabetic="0" />
<missing-glyph horiz-adv-x="469" d="M410 -90H59V752H410V-90ZM378 -60V722H90V-60H378Z" />
<glyph unicode=" " glyph-name="space" horiz-adv-x="209" />
<glyph unicode="!" glyph-name="exclam" horiz-adv-x="252" d="M179 213H74L53 667H199L179 213ZM157 -11T126 -11T72 12T49 66Q49 98 72 121T126 144T180 121T203 66Q203 35 180 12Z" />
<glyph unicode="&quot;" glyph-name="quotedbl" horiz-adv-x="398" d="M137 380H84Q45 593 45 611Q45 639 64 658T111 677T157 658T177 611L137 380ZM313 380H261Q222 593 222 611Q222 639 241 658T287 677T333 658T352 611L313 380Z" />
<glyph unicode="#" glyph-name="numbersign" horiz-adv-x="537" d="M302 0H213L262 171H183L135 0H45L94 171H16L38 248H116L164 418H85L105 495H186L234 667H324L275 495H354L402 667H491L442 495H521L501 418H421L372 248H455L434 171H350L302 0ZM283 248L332
418H253L206 248H283Z" />
<glyph unicode="$" glyph-name="dollar" horiz-adv-x="504" d="M214 -100V-10Q94 0 22 75L87 179Q135 123 214 109V282Q184 294 164 303T119 330T78 367T53 417T42 483Q42 554 88 607T214 674V768H304V675Q400 665 465 604L402 502Q358 543 304 554V396Q342 380
366 366T419 329T462 271T477 192Q477 114 432 60T304 -7V-100H214ZM341 181Q341 220 289 249V112Q341 129 341 181ZM179 491Q179 456 229 429V555Q179 540 179 491Z" />
<glyph unicode="%" glyph-name="percent" horiz-adv-x="672" d="M172 345Q106 345 65 392T23 510Q23 582 64 629T172 677Q240 677 281 630T322 510Q322 439 281 392T172 345ZM192 0H129L482 667H545L192 0ZM499 -12Q433 -12 392 35T350 153Q350 225 391 272T499
320Q566 320 607 273T649 153Q649 82 608 35T499 -12ZM172 419Q202 419 221 444T240 510Q240 552 221 577T172 603T124 578T106 510Q106 469 124 444T172 419ZM469 62T499 62T548 87T567 153Q567 195 548 220T499 246T451 221T432 153Q432 112 450 87Z" />
<glyph unicode="&amp;" glyph-name="ampersand" horiz-adv-x="550" d="M547 0H407Q400 8 387 25T368 48Q298 -12 212 -12Q130 -12 78 38T25 178Q25 246 58 290T149 372Q108 456 108 514Q108 584 154 630T271 677Q335 677 379 637T424 535Q424 500 413 472T379
422T337 385T284 351Q306 316 330 281Q365 230 376 216Q404 274 422 340L518 296Q483 196 440 131L547 0ZM233 83Q272 83 311 120Q266 180 248 207Q222 245 195 289Q148 245 148 187Q148 141 173 112T233 83ZM221 513Q221 479 243 428Q320 475 320 530Q320 558
307 574T274 590Q250 590 236 570T221 513Z" />
<glyph unicode="&apos;" glyph-name="quotesingle" horiz-adv-x="222" d="M137 380H84Q45 593 45 611Q45 639 64 658T111 677T157 658T177 611L137 380Z" />
<glyph unicode="(" glyph-name="parenleft" horiz-adv-x="278" d="M259 -150L177 -199Q44 -3 44 243T177 685L259 637Q175 451 175 243T259 -150Z" />
<glyph unicode=")" glyph-name="parenright" horiz-adv-x="278" d="M101 -199L19 -150Q103 35 103 243T19 637L101 685Q234 489 234 243T101 -199Z" />
<glyph unicode="*" glyph-name="asterisk" horiz-adv-x="337" d="M199 369H138L143 480L50 420L20 473L118 523L20 574L50 626L143 566L138 677H199L193 566L286 626L317 574L218 523L317 473L286 420L193 480L199 369Z" />
<glyph unicode="+" glyph-name="plus" horiz-adv-x="444" d="M415 300H263V125H181V300H29V375H181V542H263V375H415V300Z" />
<glyph unicode="," glyph-name="comma" horiz-adv-x="253" d="M209 45Q209 -8 182 -55T109 -135L57 -93Q82 -79 104 -51T132 2Q128 -1 114 -1Q86 -1 68 18T49 68Q49 99 71 121T124 144Q159 144 184 117T209 45Z" />
<glyph unicode="-" glyph-name="hyphen" horiz-adv-x="271" d="M241 191H30V293H241V191Z" />
<glyph unicode="." glyph-name="period" horiz-adv-x="252" d="M126 -11Q95 -11 72 12T49 67Q49 98 72 121T126 144T180 121T204 67T181 13T126 -11Z" />
<glyph unicode="/" glyph-name="slash" horiz-adv-x="278" d="M86 -20H0L192 687H278L86 -20Z" />
<glyph unicode="0" glyph-name="zero" horiz-adv-x="540" d="M349 -12T270 -12T136 39T57 166T33 333T56 499T135 625T270 677T404 626T483 499T507 333T484 167T405 40ZM169 107T270 107T371 333Q371 558 270 558T169 333Q169 107 270 107Z" />
<glyph unicode="1" glyph-name="one" horiz-adv-x="379" d="M320 0H186V494L86 390L8 471L204 667H320V0Z" />
<glyph unicode="2" glyph-name="two" horiz-adv-x="524" d="M481 0H44V109Q235 292 288 355T341 473Q341 512 316 535T251 558Q165 558 109 483L28 567Q111 677 254 677Q352 677 414 622T477 475Q477 401 425 326T241 118H481V0Z" />
<glyph unicode="3" glyph-name="three" horiz-adv-x="515" d="M250 -12Q173 -12 113 18T20 96L101 180Q127 146 165 127T244 107Q295 107 321 131T347 196Q347 280 238 280Q187 280 177 279V399Q187 398 235 398T310 417T338 476Q338 516 312 537T240 558Q160
558 105 492L29 570Q106 677 250 677Q351 677 410 630T470 496Q470 440 434 398T344 344Q398 336 439 292T480 184Q480 96 417 42T250 -12Z" />
<glyph unicode="4" glyph-name="four" horiz-adv-x="516" d="M427 0H293V142H21V255L256 667H427V260H495V142H427V0ZM293 260V530L141 260H293Z" />
<glyph unicode="5" glyph-name="five" horiz-adv-x="530" d="M264 -12Q117 -12 39 93L120 179Q175 107 259 107Q306 107 333 137T361 212Q361 262 336 289T265 317Q199 317 154 262L57 288V667H459V549H191V378Q236 433 314 433Q393 433 445 375T498 216Q498 114
434 51T264 -12Z" />
<glyph unicode="6" glyph-name="six" horiz-adv-x="528" d="M280 -12Q195 -12 138 36T57 160T33 332Q33 486 103 581T301 677Q408 677 472 605L407 506Q364 558 302 558Q242 558 205 500T168 359V347Q189 384 227 408T312 432Q391 432 445 375T499 215Q499 117
438 53T280 -12ZM272 107Q315 107 339 138T363 210Q363 265 336 291T269 317Q208 317 169 249Q173 191 197 149T272 107Z" />
<glyph unicode="7" glyph-name="seven" horiz-adv-x="470" d="M241 0H96L300 549H21V667H451V574L241 0Z" />
<glyph unicode="8" glyph-name="eight" horiz-adv-x="526" d="M263 -12Q159 -12 96 36T32 171Q32 229 69 276T161 344Q109 363 75 404T41 503Q41 589 106 633T263 677T419 633T485 503Q485 445 451 404T364 344Q419 323 456 276T494 171Q494 85 430 37T263 -12ZM263
392Q293 399 321 420T350 479T327 537T263 558T199 537T175 479Q175 453 193 433T228 405T263 392ZM263 107Q304 107 331 129T359 190Q359 231 326 258T263 290Q233 285 200 259T167 190Q167 151 194 129T263 107Z" />
<glyph unicode="9" glyph-name="nine" horiz-adv-x="528" d="M227 -11Q120 -11 56 61L121 160Q164 108 226 108Q287 108 323 165T360 306Q360 314 359 319Q339 283 300 259T216 234Q136 234 83 291T29 451Q29 549 90 613T248 678Q333 678 390 630T471 506T495
334Q495 180 425 85T227 -11ZM258 349Q320 349 359 417Q355 476 332 517T257 559Q213 559 189 528T165 456Q165 402 192 376T258 349Z" />
<glyph unicode=":" glyph-name="colon" horiz-adv-x="247" d="M126 335Q95 335 72 358T49 413Q49 444 71 467T126 490T181 467T204 413T181 359T126 335ZM126 -11Q95 -11 72 12T49 67Q49 98 72 121T126 144T180 121T204 67T181 13T126 -11Z" />
<glyph unicode=";" glyph-name="semicolon" horiz-adv-x="252" d="M126 335Q95 335 72 358T49 413Q49 444 71 467T126 490T181 467T204 413T181 359T126 335ZM209 48Q209 -5 182 -52T109 -132L57 -89Q82 -75 104 -48T132 5Q123 2 114 2Q86 2 68 21T49 71Q49 102
71 124T124 147Q159 147 184 120T209 48Z" />
<glyph unicode="&lt;" glyph-name="less" horiz-adv-x="444" d="M415 122L29 292V378L415 548V458L116 334L415 212V122Z" />
<glyph unicode="=" glyph-name="equal" horiz-adv-x="444" d="M415 202H29V277H415V202ZM415 391H29V466H415V391Z" />
<glyph unicode="&gt;" glyph-name="greater" horiz-adv-x="444" d="M415 292L29 122V212L327 334L29 458V548L415 378V292Z" />
<glyph unicode="?" glyph-name="question" horiz-adv-x="392" d="M149 202Q120 234 120 290Q120 328 139 360T180 409T221 451T240 501T223 543T173 560Q119 560 83 513L17 597Q86 677 196 677Q278 677 326 635T375 526Q375 490 361 459T325 407T283 367T248 325T233
280Q233 254 251 236L149 202ZM196 -11Q164 -11 141 12T118 67T141 121T196 144T250 121T273 67Q273 35 250 12T196 -11Z" />
<glyph unicode="@" glyph-name="at" horiz-adv-x="712" d="M312 -70Q187 -70 111 13T35 229Q35 392 147 515T410 638Q528 638 602 561T676 364Q676 243 621 164T494 85Q456 85 432 105T402 156L401 163Q348 85 271 85Q216 85 181 123T146 233Q146 336 208 417T355
498Q428 498 454 432L465 484H572L519 235Q517 225 517 211Q517 167 550 167Q579 167 607 220T635 363Q635 472 573 536T407 600Q319 600 242 547T120 409T75 231Q75 116 140 42T317 -33Q399 -33 483 23L503 -7Q412 -70 312 -70ZM319 170Q371 170 412 235L439 361Q422
413 377 413Q325 413 291 360T257 247Q257 212 273 191T319 170Z" />
<glyph unicode="A" glyph-name="A" horiz-adv-x="557" d="M558 0H413L382 118H175L143 0H-2L198 667H359L558 0ZM356 236L278 526L201 236H356Z" />
<glyph unicode="B" glyph-name="B" horiz-adv-x="559" d="M345 0H59V667H336Q422 667 467 619T513 497Q513 437 483 397T405 344Q456 336 490 290T524 181Q524 100 479 50T345 0ZM304 398Q339 398 357 418T376 474Q376 508 358 528T304 549H193V398H304ZM309 118Q347
118 367 139T387 199Q387 235 367 258T309 281H193V118H309Z" />
<glyph unicode="C" glyph-name="C" horiz-adv-x="560" d="M317 -12Q187 -12 110 84T33 333Q33 487 110 582T317 678Q469 678 540 518L429 469Q413 510 385 534T317 559Q249 559 210 497T170 333Q170 233 209 170T317 107Q357 107 386 133T430 204L541 156Q471
-12 317 -12Z" />
<glyph unicode="D" glyph-name="D" horiz-adv-x="599" d="M275 0H59V667H274Q411 667 489 575T567 333T490 92T275 0ZM274 118Q348 118 388 176T429 333Q429 434 390 491T275 549H193V118H274Z" />
<glyph unicode="E" glyph-name="E" horiz-adv-x="482" d="M442 0H59V667H442V549H193V398H435V281H193V118H442V0Z" />
<glyph unicode="F" glyph-name="F" horiz-adv-x="474" d="M193 0H59V667H442V549H193V398H435V281H193V0Z" />
<glyph unicode="G" glyph-name="G" horiz-adv-x="589" d="M309 -12Q186 -12 110 83T33 333Q33 489 110 583T317 678Q398 678 454 636T540 524L431 474Q393 559 317 559Q251 559 211 499T170 333T210 167T317 107Q370 107 401 147T441 249H291V366H577Q577 185
510 87T309 -12Z" />
<glyph unicode="H" glyph-name="H" horiz-adv-x="610" d="M551 0H417V284H193V0H59V667H193V402H417V667H551V0Z" />
<glyph unicode="I" glyph-name="I" horiz-adv-x="252" d="M193 0H59V667H193V0Z" />
<glyph unicode="J" glyph-name="J" horiz-adv-x="419" d="M152 -12Q62 -12 7 39L55 145Q91 107 138 107Q179 107 202 131T226 198V667H360V194Q360 91 304 40T152 -12Z" />
<glyph unicode="K" glyph-name="K" horiz-adv-x="555" d="M554 0H395L241 260L193 186V0H59V667H193V364L382 667H538L324 353L554 0Z" />
<glyph unicode="L" glyph-name="L" horiz-adv-x="441" d="M415 0H56V667H190V118H415V0Z" />
<glyph unicode="M" glyph-name="M" horiz-adv-x="737" d="M678 0H545V449L394 0H343L193 449V0H59V667H238L368 275L500 667H678V0Z" />
<glyph unicode="N" glyph-name="N" horiz-adv-x="609" d="M550 0H422L193 407V0H59V667H195L416 275V667H550V0Z" />
<glyph unicode="O" glyph-name="O" horiz-adv-x="625" d="M442 -12T313 -12T109 84T33 333T108 582T313 678T517 582T593 333T518 85ZM313 107Q379 107 417 170T455 333Q455 433 418 496T313 559Q245 559 208 496T170 333T207 170T313 107Z" />
<glyph unicode="P" glyph-name="P" horiz-adv-x="535" d="M193 0H59V667H305Q404 667 458 606T513 454Q513 364 459 303T305 242H193V0ZM289 359Q328 359 352 385T376 454T352 523T289 549H193V359H289Z" />
<glyph unicode="Q" glyph-name="Q" horiz-adv-x="625" d="M313 -12Q184 -12 109 84T33 333T108 582T313 678T517 582T593 333Q593 159 498 62L525 19L432 -37L406 4Q361 -12 313 -12ZM313 107Q326 107 340 110L275 215L368 272L423 182Q455 241 455 333Q455 433
418 496T313 559Q245 559 208 496T170 333T207 170T313 107Z" />
<glyph unicode="R" glyph-name="R" horiz-adv-x="553" d="M518 0H369L266 241H193V0H59V667H308Q400 667 456 608T513 456Q513 377 479 329T395 265L518 0ZM289 359Q328 359 352 385T376 454T352 523T289 549H193V359H289Z" />
<glyph unicode="S" glyph-name="S" horiz-adv-x="500" d="M245 -12Q102 -12 17 75L82 179Q145 107 244 107Q288 107 312 128T336 181T305 235T230 274T143 312T68 377T37 483Q37 565 97 621T257 678Q380 678 460 604L397 502Q339 559 254 559Q218 559 196 540T174
491Q174 463 204 442T279 404T367 365T441 298T472 192Q472 102 413 45T245 -12Z" />
<glyph unicode="T" glyph-name="T" horiz-adv-x="476" d="M305 0H171V549H22V667H454V549H305V0Z" />
<glyph unicode="U" glyph-name="U" horiz-adv-x="611" d="M419 -12T305 -12T125 52T59 231V667H194V230Q194 170 223 138T305 106T387 138T417 230V667H552V231Q552 116 486 52Z" />
<glyph unicode="V" glyph-name="V" horiz-adv-x="557" d="M359 0H198L-2 667H143L278 159L413 667H558L359 0Z" />
<glyph unicode="W" glyph-name="W" horiz-adv-x="770" d="M611 0H472L385 443L298 0H159L6 667H149L236 205L333 667H438L534 205L621 667H764L611 0Z" />
<glyph unicode="X" glyph-name="X" horiz-adv-x="558" d="M559 0H405L279 236L152 0H-2L195 341L10 667H164L279 444L393 667H548L362 342L559 0Z" />
<glyph unicode="Y" glyph-name="Y" horiz-adv-x="541" d="M338 0H204V275L-4 667H144L271 399L397 667H545L338 275V0Z" />
<glyph unicode="Z" glyph-name="Z" horiz-adv-x="486" d="M451 0H36V111L280 549H36V667H444V559L197 118H451V0Z" />
<glyph unicode="[" glyph-name="bracketleft" horiz-adv-x="242" d="M224 -190H41V678H224V598H128V-110H224V-190Z" />
<glyph unicode="\" glyph-name="backslash" horiz-adv-x="278" d="M192 -20L0 687H86L278 -20H192Z" />
<glyph unicode="]" glyph-name="bracketright" horiz-adv-x="242" d="M201 -190H18V-110H114V598H18V678H201V-190Z" />
<glyph unicode="^" glyph-name="asciicircum" horiz-adv-x="389" d="M370 333H282L194 578L107 333H19L151 667H239L370 333Z" />
<glyph unicode="_" glyph-name="underscore" horiz-adv-x="422" d="M425 -120H-3V-40H425V-120Z" />
<glyph unicode="`" glyph-name="grave" horiz-adv-x="215" d="M215 556H135L0 700H107L215 556Z" />
<glyph unicode="a" glyph-name="a" horiz-adv-x="507" d="M452 0H332V61Q286 -12 209 -12Q127 -12 78 56T29 242Q29 357 78 426T209 495Q290 495 332 421V483H452V0ZM248 94Q272 94 296 110T332 151V332Q320 356 296 372T248 388Q202 388 178 348T153 242Q153
176 177 135T248 94Z" />
<glyph unicode="b" glyph-name="b" horiz-adv-x="507" d="M174 150Q187 126 210 110T259 94Q304 94 328 134T353 242Q353 307 329 348T259 389Q234 389 211 373T174 332V150ZM174 0H54V667H174V421Q218 495 298 495Q380 495 428 427T477 242Q477 124 429 56T298
-12Q220 -12 174 61V0Z" />
<glyph unicode="c" glyph-name="c" horiz-adv-x="424" d="M251 -12Q152 -12 91 59T29 242Q29 353 90 424T251 495Q353 495 405 430L347 347Q314 389 265 389Q214 389 184 348T153 242T183 136T265 94Q313 94 347 137L405 53Q355 -12 251 -12Z" />
<glyph unicode="d" glyph-name="d" horiz-adv-x="507" d="M452 0H332V61Q286 -12 209 -12Q127 -12 78 56T29 242Q29 357 78 426T209 495Q290 495 332 421V667H452V0ZM248 94Q272 94 296 110T332 151V333Q320 357 296 373T248 389Q202 389 178 349T153 242T177
135T248 94Z" />
<glyph unicode="e" glyph-name="e" horiz-adv-x="482" d="M256 -12Q153 -12 91 58T29 242Q29 350 88 422T247 495Q345 495 400 424T455 237V202H150Q155 151 185 119T268 86Q332 86 374 134L430 60Q364 -12 256 -12ZM340 286Q339 330 316 363T245 397Q198 397
175 364T150 286H340Z" />
<glyph unicode="f" glyph-name="f" horiz-adv-x="287" d="M196 0H76V378H14V483H76V516Q76 593 114 635T217 677Q264 677 298 660L276 567Q263 575 245 575Q223 575 210 560T196 516V483H275V378H196V0Z" />
<glyph unicode="g" glyph-name="g" horiz-adv-x="506" d="M229 -196Q120 -196 50 -133L97 -41Q148 -94 223 -94Q269 -94 300 -67T332 16V79Q285 4 209 4Q126 4 78 68T29 249Q29 364 77 429T209 495Q288 495 332 421V483H452V16Q452 -44 433 -87T381 -153T310 -186T229
-196ZM248 110Q272 110 296 126T332 166V333Q320 357 296 373T248 389Q202 389 178 352T153 249T177 147T248 110Z" />
<glyph unicode="h" glyph-name="h" horiz-adv-x="501" d="M447 0H327V319Q327 389 263 389Q236 389 212 371T175 329V0H54V667H175V420Q195 451 234 473T317 495Q447 495 447 364V0Z" />
<glyph unicode="i" glyph-name="i" horiz-adv-x="228" d="M114 537Q85 537 64 558T42 609T63 660T114 682Q144 682 165 661T187 609T166 558T114 537ZM174 0H54V483H174V0Z" />
<glyph unicode="j" glyph-name="j" horiz-adv-x="228" d="M114 537Q85 537 64 558T42 609T63 660T114 682Q144 682 165 661T187 609T166 558T114 537ZM19 -196Q-35 -196 -70 -167L-41 -75Q-22 -94 4 -94Q54 -94 54 -27V483H174V-27Q174 -196 19 -196Z" />
<glyph unicode="k" glyph-name="k" horiz-adv-x="471" d="M468 0H327L226 190L174 118V0H54V667H174V265L323 483H463L309 266L468 0Z" />
<glyph unicode="l" glyph-name="l" horiz-adv-x="266" d="M177 -12Q54 -12 54 116V667H174V144Q174 94 210 94Q234 94 245 108L270 16Q238 -12 177 -12Z" />
<glyph unicode="m" glyph-name="m" horiz-adv-x="746" d="M692 0H572V324Q572 389 516 389Q490 389 468 371T433 329V0H313V324Q313 389 257 389Q231 389 209 371T174 329V0H54V483H174V420Q190 447 229 471T311 495Q408 495 428 411Q446 444 485 469T569 495Q627
495 659 464T692 367V0Z" />
<glyph unicode="n" glyph-name="n" horiz-adv-x="501" d="M447 0H327V317Q327 389 263 389Q209 389 174 329V0H54V483H174V420Q195 451 234 473T317 495Q447 495 447 362V0Z" />
<glyph unicode="o" glyph-name="o" horiz-adv-x="498" d="M249 -12Q146 -12 88 61T29 242T87 422T249 495Q353 495 411 423T469 242T411 61T249 -12ZM249 94Q296 94 320 136T344 242T320 347T249 389Q203 389 179 347T154 242Q154 178 178 136T249 94Z" />
<glyph unicode="p" glyph-name="p" horiz-adv-x="505" d="M298 -12Q218 -12 174 62V-184H54V483H174V422Q220 495 298 495Q380 495 428 428T477 242Q477 125 429 57T298 -12ZM259 94Q304 94 328 135T353 242T329 348T259 389Q234 389 211 373T174 333V151Q186
127 210 111T259 94Z" />
<glyph unicode="q" glyph-name="q" horiz-adv-x="505" d="M247 94Q271 94 295 110T331 151V333Q319 357 296 373T247 389Q202 389 177 349T152 242T177 135T247 94ZM208 -12Q125 -12 77 56T29 242T77 427T208 495Q287 495 331 422V483H451V-184H331V62Q287 -12 208 -12Z" />
<glyph unicode="r" glyph-name="r" horiz-adv-x="320" d="M174 0H54V483H174V417Q195 450 232 472T306 495V377Q290 381 278 381Q249 381 219 364T174 322V0Z" />
<glyph unicode="s" glyph-name="s" horiz-adv-x="413" d="M204 -12Q84 -12 17 57L68 142Q92 117 129 100T201 83T254 96T273 134Q273 156 249 169T189 193T119 218T59 266T34 350Q34 411 81 453T210 495Q309 495 379 433L331 350Q285 400 212 400Q183 400 165
387T147 354Q147 335 172 322T232 299T303 273T364 223T389 138Q389 72 339 30T204 -12Z" />
<glyph unicode="t" glyph-name="t" horiz-adv-x="297" d="M198 -12Q74 -12 74 116V378H12V483H74V615H195V483H274V378H195V144Q195 94 230 94Q254 94 266 108L290 16Q258 -12 198 -12Z" />
<glyph unicode="u" glyph-name="u" horiz-adv-x="501" d="M447 0H326V61Q305 31 267 10T184 -12Q54 -12 54 119V483H174V164Q174 94 238 94Q266 94 289 111T326 152V483H447V0Z" />
<glyph unicode="v" glyph-name="v" horiz-adv-x="450" d="M289 0H160L-2 483H126L224 144L324 483H452L289 0Z" />
<glyph unicode="w" glyph-name="w" horiz-adv-x="692" d="M559 0H432L346 328L259 0H133L3 483H127L204 156L289 483H399L487 156L564 483H689L559 0Z" />
<glyph unicode="x" glyph-name="x" horiz-adv-x="440" d="M439 0H308L220 161L132 0H2L145 246L9 483H140L220 331L300 483H430L295 246L439 0Z" />
<glyph unicode="y" glyph-name="y" horiz-adv-x="501" d="M229 -196Q119 -196 53 -133L100 -41Q146 -94 223 -94Q272 -94 299 -65T326 16V80Q305 49 267 28T184 7Q54 7 54 138V483H174V183Q174 113 238 113Q266 113 289 130T326 171V483H447V16Q447 -84 389 -140T229
-196Z" />
<glyph unicode="z" glyph-name="z" horiz-adv-x="409" d="M375 0H35V90L218 378H35V483H371V397L186 105H375V0Z" />
<glyph unicode="{" glyph-name="braceleft" horiz-adv-x="253" d="M236 -190H192Q137 -190 97 -152T56 -52V143Q56 172 43 191T4 210V278Q29 278 42 297T56 345V540Q56 600 96 639T192 678H236V598H192Q171 598 157 582T143 540V333Q143 264 97 244Q143 224 143
155V-52Q143 -77 157 -93T192 -110H236V-190Z" />
<glyph unicode="|" glyph-name="bar" horiz-adv-x="198" d="M139 -20H59V687H139V-20Z" />
<glyph unicode="}" glyph-name="braceright" horiz-adv-x="253" d="M17 -190V-110H61Q82 -110 96 -94T110 -52V155Q110 224 156 244Q110 264 110 333V540Q110 565 96 581T61 598H17V678H61Q116 678 156 639T197 540V345Q197 316 210 297T249 278V210Q224 210 211
191T197 143V-52Q197 -113 157 -151T61 -190H17Z" />
<glyph unicode="~" glyph-name="asciitilde" horiz-adv-x="464" d="M356 667L438 659Q435 610 429 574T409 497T368 436T303 414Q263 414 239 442T208 503T190 564T162 592Q138 592 127 549T109 413L26 421Q29 459 33 489T46 554T70 612T107 650T162 666Q195 666
216 648T248 603T264 550T280 506T303 487Q327 487 338 530T356 667Z" />
<glyph unicode="&#xa0;" glyph-name="uni00A0" horiz-adv-x="209" />
<glyph unicode="&#xa1;" glyph-name="exclamdown" horiz-adv-x="252" d="M53 -184L73 270H178L199 -184H53ZM48 386T48 417T71 471T126 494T180 471T203 417Q203 385 180 362T126 339Q94 339 71 362Z" />
<glyph unicode="&#xa2;" glyph-name="cent" horiz-adv-x="424" d="M286 -100H199V-6Q121 12 75 79T29 242Q29 337 75 404T199 489V565H286V493Q362 482 405 430L347 347Q320 380 286 387V96Q319 103 347 137L405 53Q365 1 286 -10V-100ZM153 242Q153 148 209 111V372Q153
335 153 242Z" />
<glyph unicode="&#xa3;" glyph-name="sterling" horiz-adv-x="488" d="M26 273V350H85Q46 415 46 474Q46 561 111 619T262 677Q336 677 388 645T461 550L354 496Q334 568 274 568Q239 568 215 542T191 472Q191 456 193 443T200 414T208 394T221 370T232 350H340V273H257Q259
257 259 248Q259 214 242 181T199 128Q218 136 242 136Q268 136 301 122T356 107Q409 107 434 140L478 34Q437 -12 348 -12Q305 -12 259 9T188 30Q145 30 87 -7L46 85Q89 109 114 143T140 214Q140 242 128 273H26Z" />
<glyph unicode="&#xa5;" glyph-name="yen" horiz-adv-x="541" d="M338 0H204V116H24V191H204V275H24V350H164L-4 667H144L271 399L397 667H545L377 350H516V275H338V191H516V116H338V0Z" />
<glyph unicode="&#xa6;" glyph-name="brokenbar" horiz-adv-x="198" d="M139 -20H59V296H139V-20ZM139 371H59V687H139V371Z" />
<glyph unicode="&#xa7;" glyph-name="section" horiz-adv-x="417" d="M389 320Q389 237 310 196Q389 150 389 70Q389 3 337 -39T204 -81Q89 -81 18 -10L68 68Q90 44 125 25T199 6Q233 6 253 22T273 64Q273 89 249 105T189 133T119 160T59 208T34 288Q34 331 59
363T123 408Q34 452 34 539Q34 599 82 638T206 677Q316 677 378 613L330 542Q282 592 215 592Q184 592 166 578T147 540Q147 517 172 502T232 476T303 449T364 401T389 320ZM276 295Q276 350 210 375Q144 360 144 307Q144 278 165 261T227 228Q276 250 276 295Z"
/>
<glyph unicode="&#xa8;" glyph-name="dieresis" horiz-adv-x="286" d="M302 637T302 610T283 564T237 545Q211 545 192 564T172 610T191 656T237 675Q264 675 283 656ZM113 637T113 610T95 564T49 545T3 564T-16 610T3 656T49 675T94 656Z" />
<glyph unicode="&#xa9;" glyph-name="copyright" horiz-adv-x="778" d="M734 477T734 334T633 90T389 -11T145 90T44 334Q44 477 145 578T389 679T633 578ZM698 206T698 334T607 552T389 643T171 553T80 334T171 116T389 25T607 115ZM512 220L543 191Q485 123
394 123Q307 123 247 183T186 335T246 486T394 546Q484 546 541 479L511 449Q468 507 394 507Q326 507 278 459T230 335Q230 261 278 212T394 162Q469 162 512 220Z" />
<glyph unicode="&#xaa;" glyph-name="ordfeminine" horiz-adv-x="344" d="M300 326H213V358Q184 318 126 318Q84 318 55 345T25 421Q25 470 54 496T126 523Q185 523 213 486V526Q213 552 197 567T153 582Q108 582 73 543L40 600Q89 648 169 648Q228 648 264 620T300
530V326ZM160 374Q197 374 213 403V442Q197 471 160 471Q139 471 126 458T112 423Q112 400 125 387T160 374Z" />
<glyph unicode="&#xab;" glyph-name="guillemotleft" horiz-adv-x="455" d="M257 63H155L30 243L155 420H257L132 243L257 63ZM425 63H323L198 243L323 420H425L300 243L425 63Z" />
<glyph unicode="&#xac;" glyph-name="logicalnot" horiz-adv-x="449" d="M415 466V202H337V391H29V466H415Z" />
<glyph unicode="&#xae;" glyph-name="registered" horiz-adv-x="494" d="M459 465Q459 377 397 315T247 253T97 315T35 465T97 615T247 677Q336 677 397 616T459 465ZM428 465Q428 541 375 593T247 646T119 594T66 465Q66 391 119 338T247 284T375 337T428 465ZM347
343H305L242 439H200V343H166V586H265Q297 586 320 566T344 512Q344 477 322 459T282 440L347 343ZM309 512Q309 531 296 544T265 557H200V469H265Q282 469 295 481T309 512Z" />
<glyph unicode="&#xaf;" glyph-name="overscore" horiz-adv-x="311" d="M311 591H0V660H311V591Z" />
<glyph unicode="&#xb0;" glyph-name="degree" horiz-adv-x="308" d="M287 598T287 543T248 449T153 410T60 449T21 543Q21 599 59 638T153 677T247 638ZM221 515T221 543T201 591T153 611Q126 611 107 591T87 543T106 496T153 477Q181 477 201 496Z" />
<glyph unicode="&#xb1;" glyph-name="plusminus" horiz-adv-x="444" d="M415 12H29V87H415V12ZM415 313H263V138H181V313H29V388H181V555H263V388H415V313Z" />
<glyph unicode="&#xb2;" glyph-name="twosuperior" horiz-adv-x="347" d="M320 421H37V488Q155 588 191 628T227 701Q227 726 211 740T168 754Q111 754 78 705L27 761Q80 827 172 827Q237 827 277 795T317 706Q317 662 282 616T160 494H320V421Z" />
<glyph unicode="&#xb3;" glyph-name="threesuperior" horiz-adv-x="347" d="M321 532Q321 479 280 447T172 414Q71 414 24 478L75 535Q111 487 168 487Q231 487 231 538T159 589Q128 589 122 588V660Q129 659 157 659Q225 659 225 707Q225 754 165 754Q111 754
77 711L28 763Q81 827 172 827Q238 827 276 798T314 718Q314 684 291 659T234 627Q268 623 294 597T321 532Z" />
<glyph unicode="&#xb4;" glyph-name="acute" horiz-adv-x="215" d="M215 700L80 556H0L108 700H215Z" />
<glyph unicode="&#xb5;" glyph-name="mu" horiz-adv-x="501" d="M174 -184H54V483H174V164Q174 94 238 94Q266 94 289 111T326 152V483H447V0H326V61Q305 31 267 10T184 -12H174V-184Z" />
<glyph unicode="&#xb6;" glyph-name="paragraph" horiz-adv-x="449" d="M399 -100H339V607H259V-100H199V323Q128 323 78 373T27 495T77 616T199 667H399V-100Z" />
<glyph unicode="&#xb7;" glyph-name="middot" horiz-adv-x="252" d="M203 244Q203 213 180 190T126 167T72 190T49 244Q49 276 72 299T126 322T180 299T203 244Z" />
<glyph unicode="&#xb8;" glyph-name="cedilla" horiz-adv-x="202" d="M98 -195Q40 -195 0 -163L24 -115Q58 -143 95 -143Q115 -143 128 -134T141 -109Q141 -82 115 -82Q98 -82 86 -96L42 -71L72 11H132L107 -52Q120 -42 139 -42Q166 -42 184 -61T202 -111Q202
-149 173 -172T98 -195Z" />
<glyph unicode="&#xb9;" glyph-name="onesuperior" horiz-adv-x="264" d="M213 421H121V705L60 641L8 696L134 821H213V421Z" />
<glyph unicode="&#xba;" glyph-name="ordmasculine" horiz-adv-x="358" d="M179 318Q109 318 68 366T27 483T68 600T179 648Q250 648 290 600T331 483T291 366T179 318ZM179 388Q241 388 241 483Q241 576 179 576T117 483Q117 439 132 414T179 388Z" />
<glyph unicode="&#xbb;" glyph-name="guillemotright" horiz-adv-x="455" d="M425 243L300 63H198L323 243L198 420H300L425 243ZM257 243L132 63H30L155 243L30 420H132L257 243Z" />
<glyph unicode="&#xbc;" glyph-name="onequarter" horiz-adv-x="742" d="M565 667L211 0H149L502 667H565ZM723 88H680V0H589V88H416V154L562 400H680V159H723V88ZM589 159V312L500 159H589ZM213 267H121V551L60 487L8 542L134 667H213V267Z" />
<glyph unicode="&#xbd;" glyph-name="onehalf" horiz-adv-x="777" d="M213 267H121V551L60 487L8 542L134 667H213V267ZM565 667L211 0H149L502 667H565ZM750 0H467V67Q585 167 621 207T657 280Q657 305 641 319T598 333Q541 333 508 284L457 340Q510 406 602
406Q667 406 707 374T747 285Q747 241 712 195T590 73H750V0Z" />
<glyph unicode="&#xbe;" glyph-name="threequarters" horiz-adv-x="805" d="M628 667L274 0H212L565 667H628ZM786 88H743V0H652V88H479V154L625 400H743V159H786V88ZM652 159V312L563 159H652ZM321 378Q321 325 280 293T172 260Q71 260 24 324L75 381Q111 333
168 333Q231 333 231 384T159 435Q128 435 122 434V506Q129 505 157 505Q225 505 225 553Q225 600 165 600Q111 600 77 557L28 609Q81 673 172 673Q238 673 276 644T314 564Q314 530 291 505T234 473Q268 469 294 443T321 378Z" />
<glyph unicode="&#xbf;" glyph-name="questiondown" horiz-adv-x="344" d="M243 280Q272 247 272 192Q272 154 253 122T212 73T171 31T152 -19T169 -61T219 -78Q273 -78 309 -31L375 -115Q306 -195 196 -195Q114 -195 66 -153T17 -45Q17 -8 31 23T67 75T109 115T144
157T159 202Q159 228 141 246L243 280ZM196 494Q228 494 251 471T274 416Q274 385 251 362T196 339T142 362T119 416Q119 448 142 471T196 494Z" />
<glyph unicode="&#xc0;" glyph-name="Agrave" horiz-adv-x="557" d="M352 728H272L137 872H244L352 728ZM558 0H413L382 118H175L143 0H-2L198 667H359L558 0ZM356 236L278 526L201 236H356Z" />
<glyph unicode="&#xc1;" glyph-name="Aacute" horiz-adv-x="557" d="M422 872L287 728H207L315 872H422ZM558 0H413L382 118H175L143 0H-2L198 667H359L558 0ZM356 236L278 526L201 236H356Z" />
<glyph unicode="&#xc2;" glyph-name="Acircumflex" horiz-adv-x="557" d="M412 728H342L278 819L217 728H147L224 872H332L412 728ZM558 0H413L382 118H175L143 0H-2L198 667H359L558 0ZM356 236L278 526L201 236H356Z" />
<glyph unicode="&#xc3;" glyph-name="Atilde" horiz-adv-x="557" d="M330 726Q309 726 293 737T269 761T251 786T229 797Q196 797 196 732H133Q133 794 158 830T230 866Q256 866 273 848T304 813T330 795Q363 795 363 860H426Q426 798 401 762T330 726ZM558 0H413L382
118H175L143 0H-2L198 667H359L558 0ZM356 236L278 526L201 236H356Z" />
<glyph unicode="&#xc4;" glyph-name="Adieresis" horiz-adv-x="557" d="M438 810T438 783T419 737T373 718Q347 718 328 737T308 783T327 829T373 848Q400 848 419 829ZM249 810T249 783T231 737T185 718T139 737T120 783T139 829T185 848T230 829ZM558 0H413L382
118H175L143 0H-2L198 667H359L558 0ZM356 236L278 526L201 236H356Z" />
<glyph unicode="&#xc5;" glyph-name="Aring" horiz-adv-x="557" d="M319 693T279 693T211 721T182 790T210 858T279 887T347 859T375 790Q375 749 347 721ZM261 747T279 747T309 759T322 790T310 820T279 833T249 821T236 790T248 760ZM558 0H413L382 118H175L143
0H-2L198 667H359L558 0ZM356 236L278 526L201 236H356Z" />
<glyph unicode="&#xc6;" glyph-name="AE" horiz-adv-x="790" d="M754 0H371V118H195L143 0H-2L315 667H754V549H505V398H747V281H505V118H754V0ZM371 236V526L243 236H371Z" />
<glyph unicode="&#xc7;" glyph-name="Ccedilla" horiz-adv-x="560" d="M311 -191Q253 -191 213 -159L237 -111Q271 -139 308 -139Q328 -139 341 -130T354 -105Q354 -78 328 -78Q311 -78 299 -92L255 -67L276 -9Q164 7 99 99T33 333Q33 487 110 582T317 678Q469
678 540 518L429 469Q413 510 385 534T317 559Q249 559 210 497T170 333Q170 233 209 170T317 107Q357 107 386 133T430 204L541 156Q474 -3 334 -11L320 -48Q333 -38 352 -38Q379 -38 397 -57T415 -107Q415 -145 386 -168T311 -191Z" />
<glyph unicode="&#xc8;" glyph-name="Egrave" horiz-adv-x="482" d="M325 728H245L110 872H217L325 728ZM442 0H59V667H442V549H193V398H435V281H193V118H442V0Z" />
<glyph unicode="&#xc9;" glyph-name="Eacute" horiz-adv-x="482" d="M395 872L260 728H180L288 872H395ZM442 0H59V667H442V549H193V398H435V281H193V118H442V0Z" />
<glyph unicode="&#xca;" glyph-name="Ecircumflex" horiz-adv-x="482" d="M383 728H313L249 819L188 728H118L195 872H303L383 728ZM442 0H59V667H442V549H193V398H435V281H193V118H442V0Z" />
<glyph unicode="&#xcb;" glyph-name="Edieresis" horiz-adv-x="482" d="M442 0H59V667H442V549H193V398H435V281H193V118H442V0ZM411 810T411 783T392 737T346 718Q320 718 301 737T281 783T300 829T346 848Q373 848 392 829ZM222 810T222 783T204 737T158 718T112
737T93 783T112 829T158 848T203 829Z" />
<glyph unicode="&#xcc;" glyph-name="Igrave" horiz-adv-x="252" d="M193 0H59V667H193V0ZM198 728H118L-17 872H90L198 728Z" />
<glyph unicode="&#xcd;" glyph-name="Iacute" horiz-adv-x="252" d="M193 0H59V667H193V0ZM271 872L136 728H56L164 872H271Z" />
<glyph unicode="&#xce;" glyph-name="Icircumflex" horiz-adv-x="252" d="M193 0H59V667H193V0ZM258 728H188L124 819L63 728H-7L70 872H178L258 728Z" />
<glyph unicode="&#xcf;" glyph-name="Idieresis" horiz-adv-x="252" d="M193 0H59V667H193V0ZM286 809T286 782T267 736T221 717Q195 717 176 736T156 782T175 828T221 847Q248 847 267 828ZM97 809T97 782T79 736T33 717T-13 736T-32 782T-13 828T33 847T78 828Z" />
<glyph unicode="&#xd0;" glyph-name="Eth" horiz-adv-x="623" d="M299 0H83V279H12V378H83V667H298Q435 667 513 575T591 333T514 92T299 0ZM325 279H217V118H298Q372 118 412 176T453 333Q453 434 414 491T299 549H217V378H325V279Z" />
<glyph unicode="&#xd1;" glyph-name="Ntilde" horiz-adv-x="609" d="M550 0H422L193 407V0H59V667H195L416 275V667H550V0ZM354 726Q333 726 317 737T293 761T275 786T253 797Q220 797 220 732H157Q157 794 182 830T254 866Q280 866 297 848T328 813T354 795Q387
795 387 860H450Q450 798 425 762T354 726Z" />
<glyph unicode="&#xd2;" glyph-name="Ograve" horiz-adv-x="625" d="M387 728H307L172 872H279L387 728ZM442 -12T313 -12T109 84T33 333T108 582T313 678T517 582T593 333T518 85ZM313 107Q379 107 417 170T455 333Q455 433 418 496T313 559Q245 559 208 496T170
333T207 170T313 107Z" />
<glyph unicode="&#xd3;" glyph-name="Oacute" horiz-adv-x="625" d="M456 872L321 728H241L349 872H456ZM442 -12T313 -12T109 84T33 333T108 582T313 678T517 582T593 333T518 85ZM313 107Q379 107 417 170T455 333Q455 433 418 496T313 559Q245 559 208 496T170
333T207 170T313 107Z" />
<glyph unicode="&#xd4;" glyph-name="Ocircumflex" horiz-adv-x="625" d="M447 728H377L313 819L252 728H182L259 872H367L447 728ZM442 -12T313 -12T109 84T33 333T108 582T313 678T517 582T593 333T518 85ZM313 107Q379 107 417 170T455 333Q455 433 418 496T313
559Q245 559 208 496T170 333T207 170T313 107Z" />
<glyph unicode="&#xd5;" glyph-name="Otilde" horiz-adv-x="625" d="M364 726Q343 726 327 737T303 761T285 786T263 797Q230 797 230 732H167Q167 794 192 830T264 866Q290 866 307 848T338 813T364 795Q397 795 397 860H460Q460 798 435 762T364 726ZM442 -12T313
-12T109 84T33 333T108 582T313 678T517 582T593 333T518 85ZM313 107Q379 107 417 170T455 333Q455 433 418 496T313 559Q245 559 208 496T170 333T207 170T313 107Z" />
<glyph unicode="&#xd6;" glyph-name="Odieresis" horiz-adv-x="625" d="M472 810T472 783T453 737T407 718Q381 718 362 737T342 783T361 829T407 848Q434 848 453 829ZM283 810T283 783T265 737T219 718T173 737T154 783T173 829T219 848T264 829ZM442 -12T313
-12T109 84T33 333T108 582T313 678T517 582T593 333T518 85ZM313 107Q379 107 417 170T455 333Q455 433 418 496T313 559Q245 559 208 496T170 333T207 170T313 107Z" />
<glyph unicode="&#xd7;" glyph-name="multiply" horiz-adv-x="444" d="M343 160L222 281L101 160L48 213L169 334L48 455L101 508L222 387L343 508L396 455L275 334L396 213L343 160Z" />
<glyph unicode="&#xd8;" glyph-name="Oslash" horiz-adv-x="625" d="M313 -12Q228 -12 165 31L146 0H59L110 82Q33 177 33 333Q33 486 108 582T313 678Q391 678 455 638L473 667H560L511 588Q593 492 593 333Q593 181 518 85T313 -12ZM313 107Q379 107 417 170T455
333Q455 405 433 462L232 139Q266 107 313 107ZM170 333Q170 260 189 209L388 530Q357 559 313 559Q245 559 208 496T170 333Z" />
<glyph unicode="&#xd9;" glyph-name="Ugrave" horiz-adv-x="611" d="M380 728H300L165 872H272L380 728ZM419 -12T305 -12T125 52T59 231V667H194V230Q194 170 223 138T305 106T387 138T417 230V667H552V231Q552 116 486 52Z" />
<glyph unicode="&#xda;" glyph-name="Uacute" horiz-adv-x="611" d="M449 872L314 728H234L342 872H449ZM419 -12T305 -12T125 52T59 231V667H194V230Q194 170 223 138T305 106T387 138T417 230V667H552V231Q552 116 486 52Z" />
<glyph unicode="&#xdb;" glyph-name="Ucircumflex" horiz-adv-x="611" d="M442 728H372L308 819L247 728H177L254 872H362L442 728ZM419 -12T305 -12T125 52T59 231V667H194V230Q194 170 223 138T305 106T387 138T417 230V667H552V231Q552 116 486 52Z" />
<glyph unicode="&#xdc;" glyph-name="Udieresis" horiz-adv-x="611" d="M465 810T465 783T446 737T400 718Q374 718 355 737T335 783T354 829T400 848Q427 848 446 829ZM276 810T276 783T258 737T212 718T166 737T147 783T166 829T212 848T257 829ZM419 -12T305
-12T125 52T59 231V667H194V230Q194 170 223 138T305 106T387 138T417 230V667H552V231Q552 116 486 52Z" />
<glyph unicode="&#xdd;" glyph-name="Yacute" horiz-adv-x="541" d="M416 872L281 728H201L309 872H416ZM338 0H204V275L-4 667H144L271 399L397 667H545L338 275V0Z" />
<glyph unicode="&#xde;" glyph-name="Thorn" horiz-adv-x="535" d="M193 0H59V667H193V558H305Q404 558 458 497T513 344Q513 254 459 193T305 132H193V0ZM289 250Q328 250 352 275T376 344T352 413T289 440H193V250H289Z" />
<glyph unicode="&#xdf;" glyph-name="germandbls" horiz-adv-x="582" d="M567 139Q567 76 518 32T390 -12Q288 -12 217 59L264 142Q283 118 313 101T378 84Q410 84 428 98T446 136Q446 157 424 171T370 197T306 224T252 270T230 347Q230 380 247 407T284 449T322
481T339 517Q339 541 318 556T265 571Q226 571 202 548T177 482V0H57V482Q57 565 114 621T266 677Q345 677 403 636T461 532Q461 495 443 467T404 424T364 391T346 354Q346 335 369 322T424 299T489 273T544 223T567 139Z" />
<glyph unicode="&#xe0;" glyph-name="agrave" horiz-adv-x="507" d="M330 556H250L115 700H222L330 556ZM452 0H332V61Q286 -12 209 -12Q127 -12 78 56T29 242Q29 357 78 426T209 495Q290 495 332 421V483H452V0ZM248 94Q272 94 296 110T332 151V332Q320 356 296
372T248 388Q202 388 178 348T153 242Q153 176 177 135T248 94Z" />
<glyph unicode="&#xe1;" glyph-name="aacute" horiz-adv-x="507" d="M399 700L264 556H184L292 700H399ZM452 0H332V61Q286 -12 209 -12Q127 -12 78 56T29 242Q29 357 78 426T209 495Q290 495 332 421V483H452V0ZM248 94Q272 94 296 110T332 151V332Q320 356 296
372T248 388Q202 388 178 348T153 242Q153 176 177 135T248 94Z" />
<glyph unicode="&#xe2;" glyph-name="acircumflex" horiz-adv-x="507" d="M390 556H320L256 647L195 556H125L202 700H310L390 556ZM452 0H332V61Q286 -12 209 -12Q127 -12 78 56T29 242Q29 357 78 426T209 495Q290 495 332 421V483H452V0ZM248 94Q272 94 296
110T332 151V332Q320 356 296 372T248 388Q202 388 178 348T153 242Q153 176 177 135T248 94Z" />
<glyph unicode="&#xe3;" glyph-name="atilde" horiz-adv-x="507" d="M308 554Q287 554 271 565T247 589T229 614T207 625Q174 625 174 560H111Q111 622 136 658T208 694Q234 694 251 676T282 641T308 623Q341 623 341 688H404Q404 626 379 590T308 554ZM452 0H332V61Q286
-12 209 -12Q127 -12 78 56T29 242Q29 357 78 426T209 495Q290 495 332 421V483H452V0ZM248 94Q272 94 296 110T332 151V332Q320 356 296 372T248 388Q202 388 178 348T153 242Q153 176 177 135T248 94Z" />
<glyph unicode="&#xe4;" glyph-name="adieresis" horiz-adv-x="507" d="M416 637T416 610T397 564T351 545Q325 545 306 564T286 610T305 656T351 675Q378 675 397 656ZM227 637T227 610T209 564T163 545T117 564T98 610T117 656T163 675T208 656ZM452 0H332V61Q286
-12 209 -12Q127 -12 78 56T29 242Q29 357 78 426T209 495Q290 495 332 421V483H452V0ZM248 94Q272 94 296 110T332 151V332Q320 356 296 372T248 388Q202 388 178 348T153 242Q153 176 177 135T248 94Z" />
<glyph unicode="&#xe5;" glyph-name="aring" horiz-adv-x="507" d="M297 549T257 549T189 577T160 646T188 714T257 743T325 715T353 646Q353 605 325 577ZM239 603T257 603T287 615T300 646T288 676T257 689T227 677T214 646T226 616ZM452 0H332V61Q286 -12 209
-12Q127 -12 78 56T29 242Q29 357 78 426T209 495Q290 495 332 421V483H452V0ZM248 94Q272 94 296 110T332 151V332Q320 356 296 372T248 388Q202 388 178 348T153 242Q153 176 177 135T248 94Z" />
<glyph unicode="&#xe6;" glyph-name="ae" horiz-adv-x="784" d="M452 0H332V61Q286 -12 209 -12Q127 -12 78 56T29 242Q29 357 78 426T209 495Q290 495 332 421V483H452V416Q492 495 579 495Q664 495 711 424T758 237V202H452Q457 151 487 120T570 88Q633 88 676
136L731 57Q677 -12 592 -12Q494 -12 452 70V0ZM248 94Q272 94 296 110T332 151V332Q320 356 296 372T248 388Q202 388 178 348T153 242Q153 176 177 135T248 94ZM643 286Q641 331 618 364T547 397Q501 397 478 364T452 286H643Z" />
<glyph unicode="&#xe7;" glyph-name="ccedilla" horiz-adv-x="424" d="M252 -193Q194 -193 154 -161L178 -113Q212 -141 249 -141Q269 -141 282 -132T295 -107Q295 -80 269 -80Q252 -80 240 -94L196 -69L217 -9Q132 3 81 72T29 242Q29 353 90 424T251 495Q353
495 405 430L347 347Q314 389 265 389Q214 389 184 348T153 242T183 136T265 94Q313 94 347 137L405 53Q363 -2 276 -10L261 -50Q274 -40 293 -40Q320 -40 338 -59T356 -109Q356 -147 327 -170T252 -193Z" />
<glyph unicode="&#xe8;" glyph-name="egrave" horiz-adv-x="482" d="M320 556H240L105 700H212L320 556ZM256 -12Q153 -12 91 58T29 242Q29 350 88 422T247 495Q345 495 400 424T455 237V202H150Q155 151 185 119T268 86Q332 86 374 134L430 60Q364 -12 256 -12ZM340
286Q339 330 316 363T245 397Q198 397 175 364T150 286H340Z" />
<glyph unicode="&#xe9;" glyph-name="eacute" horiz-adv-x="482" d="M391 700L256 556H176L284 700H391ZM256 -12Q153 -12 91 58T29 242Q29 350 88 422T247 495Q345 495 400 424T455 237V202H150Q155 151 185 119T268 86Q332 86 374 134L430 60Q364 -12 256 -12ZM340
286Q339 330 316 363T245 397Q198 397 175 364T150 286H340Z" />
<glyph unicode="&#xea;" glyph-name="ecircumflex" horiz-adv-x="482" d="M379 556H309L245 647L184 556H114L191 700H299L379 556ZM256 -12Q153 -12 91 58T29 242Q29 350 88 422T247 495Q345 495 400 424T455 237V202H150Q155 151 185 119T268 86Q332 86 374
134L430 60Q364 -12 256 -12ZM340 286Q339 330 316 363T245 397Q198 397 175 364T150 286H340Z" />
<glyph unicode="&#xeb;" glyph-name="edieresis" horiz-adv-x="482" d="M405 637T405 610T386 564T340 545Q314 545 295 564T275 610T294 656T340 675Q367 675 386 656ZM216 637T216 610T198 564T152 545T106 564T87 610T106 656T152 675T197 656ZM256 -12Q153
-12 91 58T29 242Q29 350 88 422T247 495Q345 495 400 424T455 237V202H150Q155 151 185 119T268 86Q332 86 374 134L430 60Q364 -12 256 -12ZM340 286Q339 330 316 363T245 397Q198 397 175 364T150 286H340Z" />
<glyph unicode="&#xec;" glyph-name="igrave" horiz-adv-x="228" d="M174 0H54V483H174V0ZM187 556H107L-28 700H79L187 556Z" />
<glyph unicode="&#xed;" glyph-name="iacute" horiz-adv-x="228" d="M174 0H54V483H174V0ZM257 700L122 556H42L150 700H257Z" />
<glyph unicode="&#xee;" glyph-name="icircumflex" horiz-adv-x="228" d="M174 0H54V483H174V0ZM247 556H177L113 647L52 556H-18L59 700H167L247 556Z" />
<glyph unicode="&#xef;" glyph-name="idieresis" horiz-adv-x="228" d="M174 0H54V483H174V0ZM273 637T273 610T254 564T208 545Q182 545 163 564T143 610T162 656T208 675Q235 675 254 656ZM84 637T84 610T66 564T20 545T-26 564T-45 610T-26 656T20 675T65 656Z" />
<glyph unicode="&#xf0;" glyph-name="eth" horiz-adv-x="498" d="M122 484L98 541L202 587Q176 613 150 636L235 709Q273 675 311 634L397 672L421 617L351 586Q469 433 469 262Q469 137 412 63T249 -12Q147 -12 88 55T29 226Q29 327 79 395T212 463T340 382Q317
455 246 539L122 484ZM203 94T249 94T319 131T344 226Q344 282 320 319T249 357T179 320T154 226Q154 169 178 132Z" />
<glyph unicode="&#xf1;" glyph-name="ntilde" horiz-adv-x="501" d="M450 0H330V317Q330 389 266 389Q212 389 177 329V0H57V483H177V420Q198 451 237 473T320 495Q450 495 450 362V0ZM302 554Q281 554 265 565T241 589T223 614T201 625Q168 625 168 560H105Q105
622 130 658T202 694Q228 694 245 676T276 641T302 623Q335 623 335 688H398Q398 626 373 590T302 554Z" />
<glyph unicode="&#xf2;" glyph-name="ograve" horiz-adv-x="498" d="M322 556H242L107 700H214L322 556ZM249 -12Q146 -12 88 61T29 242T87 422T249 495Q353 495 411 423T469 242T411 61T249 -12ZM249 94Q296 94 320 136T344 242T320 347T249 389Q203 389 179
347T154 242Q154 178 178 136T249 94Z" />
<glyph unicode="&#xf3;" glyph-name="oacute" horiz-adv-x="498" d="M392 700L257 556H177L285 700H392ZM249 -12Q146 -12 88 61T29 242T87 422T249 495Q353 495 411 423T469 242T411 61T249 -12ZM249 94Q296 94 320 136T344 242T320 347T249 389Q203 389 179
347T154 242Q154 178 178 136T249 94Z" />
<glyph unicode="&#xf4;" glyph-name="ocircumflex" horiz-adv-x="498" d="M383 556H313L249 647L188 556H118L195 700H303L383 556ZM249 -12Q146 -12 88 61T29 242T87 422T249 495Q353 495 411 423T469 242T411 61T249 -12ZM249 94Q296 94 320 136T344 242T320
347T249 389Q203 389 179 347T154 242Q154 178 178 136T249 94Z" />
<glyph unicode="&#xf5;" glyph-name="otilde" horiz-adv-x="498" d="M249 -12Q146 -12 88 61T29 242T87 422T249 495Q353 495 411 423T469 242T411 61T249 -12ZM249 94Q296 94 320 136T344 242T320 347T249 389Q203 389 179 347T154 242Q154 178 178 136T249 94ZM300
554Q279 554 263 565T239 589T221 614T199 625Q166 625 166 560H103Q103 622 128 658T200 694Q226 694 243 676T274 641T300 623Q333 623 333 688H396Q396 626 371 590T300 554Z" />
<glyph unicode="&#xf6;" glyph-name="odieresis" horiz-adv-x="498" d="M408 637T408 610T389 564T343 545Q317 545 298 564T278 610T297 656T343 675Q370 675 389 656ZM219 637T219 610T201 564T155 545T109 564T90 610T109 656T155 675T200 656ZM249 -12Q146
-12 88 61T29 242T87 422T249 495Q353 495 411 423T469 242T411 61T249 -12ZM249 94Q296 94 320 136T344 242T320 347T249 389Q203 389 179 347T154 242Q154 178 178 136T249 94Z" />
<glyph unicode="&#xf7;" glyph-name="divide" horiz-adv-x="443" d="M280 500Q280 475 263 458T222 440Q197 440 180 457T163 500Q163 524 180 541T222 558Q246 558 263 541T280 500ZM414 300H29V375H414V300ZM280 173Q280 148 263 131T222 114Q197 114 180 131T163
173Q163 197 180 214T222 232Q246 232 263 215T280 173Z" />
<glyph unicode="&#xf8;" glyph-name="oslash" horiz-adv-x="498" d="M108 0H38L85 65Q29 135 29 242T87 422T249 495Q318 495 370 459L387 483H458L412 420Q469 349 469 242Q469 134 411 61T249 -12Q177 -12 126 25L108 0ZM249 94Q296 94 320 136T344 242Q344
277 334 312L193 117Q214 94 249 94ZM154 242Q154 200 162 172L303 368Q280 389 249 389Q203 389 179 347T154 242Z" />
<glyph unicode="&#xf9;" glyph-name="ugrave" horiz-adv-x="501" d="M324 556H244L109 700H216L324 556ZM447 0H326V61Q305 31 267 10T184 -12Q54 -12 54 119V483H174V164Q174 94 238 94Q266 94 289 111T326 152V483H447V0Z" />
<glyph unicode="&#xfa;" glyph-name="uacute" horiz-adv-x="501" d="M394 700L259 556H179L287 700H394ZM447 0H326V61Q305 31 267 10T184 -12Q54 -12 54 119V483H174V164Q174 94 238 94Q266 94 289 111T326 152V483H447V0Z" />
<glyph unicode="&#xfb;" glyph-name="ucircumflex" horiz-adv-x="501" d="M384 556H314L250 647L189 556H119L196 700H304L384 556ZM447 0H326V61Q305 31 267 10T184 -12Q54 -12 54 119V483H174V164Q174 94 238 94Q266 94 289 111T326 152V483H447V0Z" />
<glyph unicode="&#xfc;" glyph-name="udieresis" horiz-adv-x="501" d="M412 637T412 610T393 564T347 545Q321 545 302 564T282 610T301 656T347 675Q374 675 393 656ZM223 637T223 610T205 564T159 545T113 564T94 610T113 656T159 675T204 656ZM447 0H326V61Q305
31 267 10T184 -12Q54 -12 54 119V483H174V164Q174 94 238 94Q266 94 289 111T326 152V483H447V0Z" />
<glyph unicode="&#xfd;" glyph-name="yacute" horiz-adv-x="501" d="M393 700L258 556H178L286 700H393ZM229 -196Q119 -196 53 -133L100 -41Q146 -94 223 -94Q272 -94 299 -65T326 16V80Q305 49 267 28T184 7Q54 7 54 138V483H174V183Q174 113 238 113Q266 113
289 130T326 171V483H447V16Q447 -84 389 -140T229 -196Z" />
<glyph unicode="&#xfe;" glyph-name="thorn" horiz-adv-x="505" d="M298 -12Q217 -12 174 61V-184H54V667H174V423Q219 495 298 495Q380 495 428 428T477 242Q477 125 429 57T298 -12ZM259 94Q304 94 328 135T353 242T329 348T259 389Q234 389 211 373T174 333V151Q186
127 210 111T259 94Z" />
<glyph unicode="&#xff;" glyph-name="ydieresis" horiz-adv-x="501" d="M408 637T408 610T389 564T343 545Q317 545 298 564T278 610T297 656T343 675Q370 675 389 656ZM219 637T219 610T201 564T155 545T109 564T90 610T109 656T155 675T200 656ZM229 -196Q119
-196 53 -133L100 -41Q146 -94 223 -94Q272 -94 299 -65T326 16V80Q305 49 267 28T184 7Q54 7 54 138V483H174V183Q174 113 238 113Q266 113 289 130T326 171V483H447V16Q447 -84 389 -140T229 -196Z" />
<glyph unicode="&#x131;" glyph-name="dotlessi" horiz-adv-x="228" d="M174 0H54V483H174V0Z" />
<glyph unicode="&#x141;" glyph-name="Lslash" horiz-adv-x="456" d="M12 205V315L71 349V667H205V426L274 466V356L205 316V118H430V0H71V239L12 205Z" />
<glyph unicode="&#x142;" glyph-name="lslash" horiz-adv-x="293" d="M12 218V307L77 344V667H197V413L263 451V363L197 325V144Q197 94 233 94Q258 94 268 108L293 16Q262 -12 200 -12Q77 -12 77 116V255L12 218Z" />
<glyph unicode="&#x152;" glyph-name="OE" horiz-adv-x="863" d="M826 0H444V66Q419 28 378 8T292 -12Q172 -12 103 84T33 333Q33 485 102 581T292 677Q336 677 377 658T444 601V667H826V549H578V398H819V281H578V118H826V0ZM444 211V456Q407 558 315 558Q245
558 208 496T170 333Q170 232 207 170T315 107Q358 107 392 134T444 211Z" />
<glyph unicode="&#x153;" glyph-name="oe" horiz-adv-x="797" d="M770 202H465Q470 151 500 119T583 86Q646 86 689 134L745 60Q679 -12 571 -12Q466 -12 406 86Q350 -12 249 -12Q146 -12 88 61T29 242T87 422T249 495Q349 495 407 398Q460 495 562 495Q660 495
715 424T770 236V202ZM465 286H655Q654 330 631 363T560 397Q514 397 491 364T465 286ZM344 177T344 242T320 348T249 389T179 348T154 242T178 136T249 94T319 135Z" />
<glyph unicode="&#x160;" glyph-name="Scaron" horiz-adv-x="497" d="M312 728H204L124 872H194L258 781L319 872H389L312 728ZM245 -12Q102 -12 17 75L82 179Q145 107 244 107Q288 107 312 128T336 181T305 235T230 274T143 312T68 377T37 483Q37 565 97 621T257
678Q380 678 460 604L397 502Q339 559 254 559Q218 559 196 540T174 491Q174 463 204 442T279 404T367 365T441 298T472 192Q472 102 413 45T245 -12Z" />
<glyph unicode="&#x161;" glyph-name="scaron" horiz-adv-x="413" d="M264 556H156L76 700H146L210 609L271 700H341L264 556ZM204 -12Q84 -12 17 57L68 142Q92 117 129 100T201 83T254 96T273 134Q273 156 249 169T189 193T119 218T59 266T34 350Q34 411 81 453T210
495Q309 495 379 433L331 350Q285 400 212 400Q183 400 165 387T147 354Q147 335 172 322T232 299T303 273T364 223T389 138Q389 72 339 30T204 -12Z" />
<glyph unicode="&#x178;" glyph-name="Ydieresis" horiz-adv-x="541" d="M432 810T432 783T413 737T367 718Q341 718 322 737T302 783T321 829T367 848Q394 848 413 829ZM243 810T243 783T225 737T179 718T133 737T114 783T133 829T179 848T224 829ZM338 0H204V275L-4
667H144L271 399L397 667H545L338 275V0Z" />
<glyph unicode="&#x17d;" glyph-name="Zcaron" horiz-adv-x="486" d="M299 728H191L111 872H181L245 781L306 872H376L299 728ZM451 0H36V111L280 549H36V667H444V559L197 118H451V0Z" />
<glyph unicode="&#x17e;" glyph-name="zcaron" horiz-adv-x="409" d="M255 556H147L67 700H137L201 609L262 700H332L255 556ZM375 0H35V90L218 378H35V483H371V397L186 105H375V0Z" />
<glyph unicode="&#x192;" glyph-name="florin" horiz-adv-x="427" d="M148 -161H11L99 241H51V346H123L163 530Q178 596 228 636T342 677T441 645L397 543Q382 559 359 559Q308 559 294 499L260 346H357V241H237L148 -161Z" />
<glyph unicode="&#x2c6;" glyph-name="circumflex" horiz-adv-x="265" d="M265 556H195L131 647L70 556H0L77 700H185L265 556Z" />
<glyph unicode="&#x2c7;" glyph-name="caron" horiz-adv-x="265" d="M188 556H80L0 700H70L134 609L195 700H265L188 556Z" />
<glyph unicode="&#x2d8;" glyph-name="breve" horiz-adv-x="300" d="M300 632Q245 557 151 557T0 632L55 676Q90 626 151 626Q211 626 246 676L300 632Z" />
<glyph unicode="&#x2d9;" glyph-name="dotaccent" horiz-adv-x="166" d="M109 555T83 555T38 574T18 619Q18 646 37 665T83 684T128 665T148 619Q148 593 129 574Z" />
<glyph unicode="&#x2da;" glyph-name="ring" horiz-adv-x="193" d="M137 549T97 549T29 577T0 646T28 714T97 743T165 715T193 646Q193 605 165 577ZM79 603T97 603T127 615T140 646T128 676T97 689T67 677T54 646T66 616Z" />
<glyph unicode="&#x2db;" glyph-name="ogonek" horiz-adv-x="175" d="M126 -103L175 -131Q148 -186 90 -186Q50 -186 25 -165T0 -99Q0 -24 81 29L124 0Q60 -38 60 -95Q60 -134 91 -134Q116 -134 126 -103Z" />
<glyph unicode="&#x2dc;" glyph-name="tilde" horiz-adv-x="293" d="M197 554Q176 554 160 565T136 589T118 614T96 625Q63 625 63 560H0Q0 622 25 658T97 694Q123 694 140 676T171 641T197 623Q230 623 230 688H293Q293 626 268 590T197 554Z" />
<glyph unicode="&#x2dd;" glyph-name="hungarumlaut" horiz-adv-x="303" d="M164 700L66 556H0L71 700H164ZM303 700L205 556H139L210 700H303Z" />
<glyph unicode="&#x3c0;" glyph-name="pi" horiz-adv-x="527" d="M451 0H330V394H197V0H76V394H22V500H505V394H451V0Z" />
<glyph unicode="&#x2013;" glyph-name="endash" horiz-adv-x="527" d="M497 191H30V293H497V191Z" />
<glyph unicode="&#x2014;" glyph-name="emdash" horiz-adv-x="737" d="M707 191H30V293H707V191Z" />
<glyph unicode="&#x2018;" glyph-name="quoteleft" horiz-adv-x="253" d="M42 497Q42 606 142 678L194 635Q169 621 147 594T119 541Q125 543 137 543Q165 543 183 524T202 474Q202 443 180 421T127 398Q92 398 67 425T42 497Z" />
<glyph unicode="&#x2019;" glyph-name="quoteright" horiz-adv-x="253" d="M209 578Q209 524 182 477T109 398L57 440Q82 454 104 482T132 535Q123 532 114 532Q86 532 68 551T49 601Q49 632 71 654T124 677Q159 677 184 650T209 578Z" />
<glyph unicode="&#x201a;" glyph-name="quotesinglbase" horiz-adv-x="253" d="M209 45Q209 -8 182 -55T109 -135L57 -93Q82 -79 104 -51T132 2Q128 -1 114 -1Q86 -1 68 18T49 68Q49 99 71 121T124 144Q159 144 184 117T209 45Z" />
<glyph unicode="&#x201c;" glyph-name="quotedblleft" horiz-adv-x="451" d="M44 497Q44 606 144 678L196 635Q171 621 149 594T120 541Q126 543 139 543Q166 543 185 524T204 474Q204 443 182 421T129 398Q94 398 69 425T44 497ZM241 497Q241 606 341 678L394
635Q369 621 347 594T318 541Q324 543 336 543Q364 543 383 524T402 474Q402 443 380 421T326 398Q291 398 266 425T241 497Z" />
<glyph unicode="&#x201d;" glyph-name="quotedblright" horiz-adv-x="451" d="M407 578Q407 525 380 478T307 398L254 440Q279 454 301 481T330 535Q321 532 311 532Q284 532 265 551T246 601Q246 632 268 654T322 677Q357 677 382 650T407 578ZM209 578Q209 524
182 477T109 398L57 440Q82 454 104 482T132 535Q123 532 114 532Q86 532 68 551T49 601Q49 632 71 654T124 677Q159 677 184 650T209 578Z" />
<glyph unicode="&#x201e;" glyph-name="quotedblbase" horiz-adv-x="451" d="M209 45Q209 -8 182 -55T109 -135L57 -93Q82 -79 104 -51T132 2Q128 -1 114 -1Q86 -1 68 18T49 68Q49 99 71 121T124 144Q159 144 184 117T209 45ZM407 45Q407 -8 380 -55T307 -135L254
-93Q279 -79 301 -52T330 2Q326 -1 311 -1Q284 -1 265 18T246 68Q246 100 268 122T322 144Q357 144 382 117T407 45Z" />
<glyph unicode="&#x2020;" glyph-name="dagger" horiz-adv-x="275" d="M255 523L166 527L170 327H105L109 527L20 523V583L109 580L105 677H170L166 580L255 583V523Z" />
<glyph unicode="&#x2021;" glyph-name="daggerdbl" horiz-adv-x="275" d="M255 583V523L166 527V331L255 335V275L166 278L170 180H105L109 278L20 275V335L109 331V527L20 523V583L109 580L105 677H170L166 580L255 583Z" />
<glyph unicode="&#x2022;" glyph-name="bullet" horiz-adv-x="358" d="M297 242Q297 194 263 160T180 126T97 160T63 242Q63 291 97 325T180 359T263 325T297 242Z" />
<glyph unicode="&#x2026;" glyph-name="ellipsis" horiz-adv-x="757" d="M203 66Q203 35 180 12T126 -11T72 12T49 66Q49 98 72 121T126 144T180 121T203 66ZM456 66Q456 35 433 12T378 -11T324 12T301 66Q301 98 324 121T378 144Q410 144 433 121T456 66ZM708
66Q708 35 685 12T630 -11Q599 -11 576 12T553 66Q553 98 576 121T630 144Q662 144 685 121T708 66Z" />
<glyph unicode="&#x2030;" glyph-name="perthousand" horiz-adv-x="994" d="M322 510Q322 439 281 392T172 345Q106 345 65 392T23 510Q23 582 64 629T172 677Q240 677 281 630T322 510ZM545 667L192 0H129L482 667H545ZM649 153Q649 82 608 35T499 -12Q433 -12
392 35T350 153Q350 225 391 272T499 320Q566 320 607 273T649 153ZM240 510Q240 554 221 580T172 606T124 580T106 510Q106 468 124 442T172 416Q202 416 221 442T240 510ZM567 153Q567 197 548 223T499 249T451 223T432 153Q432 110 450 85T499 59T548 85T567
153ZM971 153Q971 82 930 35T821 -12T713 35T672 153Q672 225 713 272T821 320T929 273T971 153ZM888 153Q888 197 870 223T821 249T773 223T754 153Q754 110 772 85T821 59T869 84T888 153Z" />
<glyph unicode="&#x2039;" glyph-name="guilsinglleft" horiz-adv-x="287" d="M257 63H155L30 243L155 420H257L132 243L257 63Z" />
<glyph unicode="&#x203a;" glyph-name="guilsinglright" horiz-adv-x="287" d="M257 243L132 63H30L155 243L30 420H132L257 243Z" />
<glyph unicode="&#x2044;" glyph-name="fraction" horiz-adv-x="146" d="M281 667L-73 0H-135L218 667H281Z" />
<glyph unicode="&#x20ac;" glyph-name="Euro" horiz-adv-x="580" d="M337 -12Q232 -12 160 52T64 227H19V302H54Q53 312 53 333Q53 338 53 350T54 367H19V442H64Q89 551 160 614T337 678Q489 678 560 518L449 469Q433 510 405 534T337 559Q290 559 256 528T205
442H379V367H191Q190 356 190 333Q190 312 191 302H379V227H204Q221 171 255 139T337 107Q377 107 406 133T450 204L561 156Q491 -12 337 -12Z" />
<glyph unicode="&#x2122;" glyph-name="trademark" horiz-adv-x="414" d="M379 447H351V629L286 447H278L213 629V447H185V667H228L282 509L336 667H379V447ZM149 641H97V447H69V641H17V667H149V641Z" />
<glyph unicode="&#x2126;" glyph-name="Omega" horiz-adv-x="621" d="M45 0V118H150Q31 213 31 363Q31 506 106 592T311 678T515 592T591 363Q591 213 470 118H576V0H356V118Q397 132 425 194T453 334Q453 434 418 496T311 558Q239 558 204 496T168 334Q168 256
196 194T265 118V0H45Z" />
<glyph unicode="&#x2202;" glyph-name="partialdiff" horiz-adv-x="498" d="M249 -12Q146 -12 88 57T29 226Q29 325 79 394T212 463T337 389Q295 535 177 626L275 683Q361 604 415 493T469 249Q469 133 412 61T249 -12ZM203 94T249 94T319 131T344 226T320 320T249
357T179 320T154 226T178 132Z" />
<glyph unicode="&#x2206;" glyph-name="increment" horiz-adv-x="565" d="M566 0H-2L202 667H363L566 0ZM394 118L282 526L171 118H394Z" />
<glyph unicode="&#x220f;" glyph-name="product" horiz-adv-x="654" d="M554 -90H420V549H234V-90H100V549H22V667H632V549H554V-90Z" />
<glyph unicode="&#x2211;" glyph-name="summation" horiz-adv-x="476" d="M194 549L351 297L189 28H439V-90H40V30L199 297L41 550V667H439V549H194Z" />
<glyph unicode="&#x2212;" glyph-name="minus" horiz-adv-x="444" d="M415 297H29V372H415V297Z" />
<glyph unicode="&#x221a;" glyph-name="radical" horiz-adv-x="577" d="M348 0H267L177 303L65 269L47 342L231 394L309 120L471 667H555L348 0Z" />
<glyph unicode="&#x221e;" glyph-name="infinity" horiz-adv-x="591" d="M169 160Q100 160 65 212T29 336T64 459T169 511Q212 511 244 483T295 410Q314 454 347 482T422 511Q492 511 527 459T562 335T527 212T422 160Q381 160 348 188T295 261Q277 216 245 188T169
160ZM411 235Q445 235 465 262T485 335Q485 381 465 409T411 437Q383 437 362 408T329 335Q340 292 361 264T411 235ZM181 235Q235 235 263 336Q234 437 181 437Q147 437 126 409T105 336Q105 290 126 263T181 235Z" />
<glyph unicode="&#x222b;" glyph-name="integral'" horiz-adv-x="308" d="M61 -100H17V-20H61Q82 -20 96 -4T110 38V630Q110 690 151 729T247 768H291V688H247Q226 688 212 672T197 630V38Q197 -23 157 -61T61 -100Z" />
<glyph unicode="&#x2248;" glyph-name="approxequal" horiz-adv-x="444" d="M29 202V282Q72 257 125 257Q165 257 216 279T318 301Q373 301 415 281V201Q372 226 318 226Q279 226 227 204T125 182Q74 182 29 202ZM29 387V467Q72 442 125 442Q165 442 216 464T318
486Q370 486 415 466V386Q372 411 318 411Q279 411 227 389T125 367Q71 367 29 387Z" />
<glyph unicode="&#x2260;" glyph-name="notequal" horiz-adv-x="444" d="M126 93H63L120 202H29V277H160L220 391H29V466H260L317 574H380L323 466H415V391H283L223 277H415V202H183L126 93Z" />
<glyph unicode="&#x2264;" glyph-name="lessequal" horiz-adv-x="444" d="M415 12H29V87H415V12ZM415 131L29 301V387L415 557V467L116 343L415 221V131Z" />
<glyph unicode="&#x2265;" glyph-name="greaterequal" horiz-adv-x="444" d="M414 301L29 131V221L327 343L29 467V557L414 387V301ZM414 12H29V87H414V12Z" />
<glyph unicode="&#x25ca;" glyph-name="lozenge" horiz-adv-x="375" d="M198 0H177L19 334L177 667H198L356 334L198 0ZM188 41L320 334L187 626L55 334L188 41Z" />
<glyph unicode="&#xf8ff;" glyph-name="" horiz-adv-x="667" d="M220 154V221H153Q125 221 106 202T87 154Q87 125 106 106T153 86T200 106T220 154ZM220 446V514Q220 542 201 561T154 581T107 562T87 514T106 466T154 446H220ZM265 265H402V402H265V265ZM580
154Q580 182 561 201T514 221H447V154Q447 126 466 106T514 86T561 105T580 154ZM580 486T580 514T561 561T514 581T467 562T447 514V446H514Q542 446 561 466ZM625 200T625 154T593 75T514 42T435 75T402 154V221H265V154Q265 108 232 75T153 42T75 75T42 154T74
232T153 265H220V402H154Q108 402 75 435T42 514T75 592T154 625T232 593T265 514V446H402V514Q402 560 435 592T514 625T592 593T625 514T593 435T514 402H447V265H514Q560 265 592 233Z" />
<glyph unicode="&#xfb01;" glyph-name="fi" horiz-adv-x="516" d="M401 537Q372 537 351 558T329 609T350 660T401 682Q431 682 452 661T474 609T453 558T401 537ZM461 0H341V483H461V0ZM196 0H76V378H14V483H76V516Q76 593 114 635T217 677Q264 677 298 660L276
567Q263 575 245 575Q223 575 210 560T196 516V483H275V378H196V0Z" />
<glyph unicode="&#xfb02;" glyph-name="fl" horiz-adv-x="553" d="M196 0H76V378H14V483H76V516Q76 593 114 635T217 677Q264 677 298 660L276 567Q263 575 245 575Q223 575 210 560T196 516V483H275V378H196V0ZM464 -12Q341 -12 341 116V667H461V144Q461 94 497
94Q522 94 532 108L557 16Q526 -12 464 -12Z" />
</font>
</defs>
</svg>
